%!PS-Adobe-2.0 EPSF-2.0
%%Title: service-phone.eps
%%Creator: gnuplot 4.6 patchlevel 1
%%CreationDate: Sat Feb 28 14:57:52 2015
%%DocumentFonts: (atend)
%%BoundingBox: 50 50 410 302
%%EndComments
%%BeginProlog
/gnudict 256 dict def
gnudict begin
%
% The following true/false flags may be edited by hand if desired.
% The unit line width and grayscale image gamma correction may also be changed.
%
/Color true def
/Blacktext false def
/Solid false def
/Dashlength 1 def
/Landscape false def
/Level1 false def
/Rounded false def
/ClipToBoundingBox false def
/SuppressPDFMark false def
/TransparentPatterns false def
/gnulinewidth 5.000 def
/userlinewidth gnulinewidth def
/Gamma 1.0 def
/BackgroundColor {-1.000 -1.000 -1.000} def
%
/vshift -46 def
/dl1 {
  10.0 Dashlength mul mul
  Rounded { currentlinewidth 0.75 mul sub dup 0 le { pop 0.01 } if } if
} def
/dl2 {
  10.0 Dashlength mul mul
  Rounded { currentlinewidth 0.75 mul add } if
} def
/hpt_ 31.5 def
/vpt_ 31.5 def
/hpt hpt_ def
/vpt vpt_ def
/doclip {
  ClipToBoundingBox {
    newpath 50 50 moveto 410 50 lineto 410 302 lineto 50 302 lineto closepath
    clip
  } if
} def
%
% Gnuplot Prolog Version 4.6 (September 2012)
%
%/SuppressPDFMark true def
%
/M {moveto} bind def
/L {lineto} bind def
/R {rmoveto} bind def
/V {rlineto} bind def
/N {newpath moveto} bind def
/Z {closepath} bind def
/C {setrgbcolor} bind def
/f {rlineto fill} bind def
/g {setgray} bind def
/Gshow {show} def   % May be redefined later in the file to support UTF-8
/vpt2 vpt 2 mul def
/hpt2 hpt 2 mul def
/Lshow {currentpoint stroke M 0 vshift R 
	Blacktext {gsave 0 setgray show grestore} {show} ifelse} def
/Rshow {currentpoint stroke M dup stringwidth pop neg vshift R
	Blacktext {gsave 0 setgray show grestore} {show} ifelse} def
/Cshow {currentpoint stroke M dup stringwidth pop -2 div vshift R 
	Blacktext {gsave 0 setgray show grestore} {show} ifelse} def
/UP {dup vpt_ mul /vpt exch def hpt_ mul /hpt exch def
  /hpt2 hpt 2 mul def /vpt2 vpt 2 mul def} def
/DL {Color {setrgbcolor Solid {pop []} if 0 setdash}
 {pop pop pop 0 setgray Solid {pop []} if 0 setdash} ifelse} def
/BL {stroke userlinewidth 2 mul setlinewidth
	Rounded {1 setlinejoin 1 setlinecap} if} def
/AL {stroke userlinewidth 2 div setlinewidth
	Rounded {1 setlinejoin 1 setlinecap} if} def
/UL {dup gnulinewidth mul /userlinewidth exch def
	dup 1 lt {pop 1} if 10 mul /udl exch def} def
/PL {stroke userlinewidth setlinewidth
	Rounded {1 setlinejoin 1 setlinecap} if} def
3.8 setmiterlimit
% Default Line colors
/LCw {1 1 1} def
/LCb {0 0 0} def
/LCa {0 0 0} def
/LC0 {1 0 0} def
/LC1 {0 1 0} def
/LC2 {0 0 1} def
/LC3 {1 0 1} def
/LC4 {0 1 1} def
/LC5 {1 1 0} def
/LC6 {0 0 0} def
/LC7 {1 0.3 0} def
/LC8 {0.5 0.5 0.5} def
% Default Line Types
/LTw {PL [] 1 setgray} def
/LTb {BL [] LCb DL} def
/LTa {AL [1 udl mul 2 udl mul] 0 setdash LCa setrgbcolor} def
/LT0 {PL [] LC0 DL} def
/LT1 {PL [4 dl1 2 dl2] LC1 DL} def
/LT2 {PL [2 dl1 3 dl2] LC2 DL} def
/LT3 {PL [1 dl1 1.5 dl2] LC3 DL} def
/LT4 {PL [6 dl1 2 dl2 1 dl1 2 dl2] LC4 DL} def
/LT5 {PL [3 dl1 3 dl2 1 dl1 3 dl2] LC5 DL} def
/LT6 {PL [2 dl1 2 dl2 2 dl1 6 dl2] LC6 DL} def
/LT7 {PL [1 dl1 2 dl2 6 dl1 2 dl2 1 dl1 2 dl2] LC7 DL} def
/LT8 {PL [2 dl1 2 dl2 2 dl1 2 dl2 2 dl1 2 dl2 2 dl1 4 dl2] LC8 DL} def
/Pnt {stroke [] 0 setdash gsave 1 setlinecap M 0 0 V stroke grestore} def
/Dia {stroke [] 0 setdash 2 copy vpt add M
  hpt neg vpt neg V hpt vpt neg V
  hpt vpt V hpt neg vpt V closepath stroke
  Pnt} def
/Pls {stroke [] 0 setdash vpt sub M 0 vpt2 V
  currentpoint stroke M
  hpt neg vpt neg R hpt2 0 V stroke
 } def
/Box {stroke [] 0 setdash 2 copy exch hpt sub exch vpt add M
  0 vpt2 neg V hpt2 0 V 0 vpt2 V
  hpt2 neg 0 V closepath stroke
  Pnt} def
/Crs {stroke [] 0 setdash exch hpt sub exch vpt add M
  hpt2 vpt2 neg V currentpoint stroke M
  hpt2 neg 0 R hpt2 vpt2 V stroke} def
/TriU {stroke [] 0 setdash 2 copy vpt 1.12 mul add M
  hpt neg vpt -1.62 mul V
  hpt 2 mul 0 V
  hpt neg vpt 1.62 mul V closepath stroke
  Pnt} def
/Star {2 copy Pls Crs} def
/BoxF {stroke [] 0 setdash exch hpt sub exch vpt add M
  0 vpt2 neg V hpt2 0 V 0 vpt2 V
  hpt2 neg 0 V closepath fill} def
/TriUF {stroke [] 0 setdash vpt 1.12 mul add M
  hpt neg vpt -1.62 mul V
  hpt 2 mul 0 V
  hpt neg vpt 1.62 mul V closepath fill} def
/TriD {stroke [] 0 setdash 2 copy vpt 1.12 mul sub M
  hpt neg vpt 1.62 mul V
  hpt 2 mul 0 V
  hpt neg vpt -1.62 mul V closepath stroke
  Pnt} def
/TriDF {stroke [] 0 setdash vpt 1.12 mul sub M
  hpt neg vpt 1.62 mul V
  hpt 2 mul 0 V
  hpt neg vpt -1.62 mul V closepath fill} def
/DiaF {stroke [] 0 setdash vpt add M
  hpt neg vpt neg V hpt vpt neg V
  hpt vpt V hpt neg vpt V closepath fill} def
/Pent {stroke [] 0 setdash 2 copy gsave
  translate 0 hpt M 4 {72 rotate 0 hpt L} repeat
  closepath stroke grestore Pnt} def
/PentF {stroke [] 0 setdash gsave
  translate 0 hpt M 4 {72 rotate 0 hpt L} repeat
  closepath fill grestore} def
/Circle {stroke [] 0 setdash 2 copy
  hpt 0 360 arc stroke Pnt} def
/CircleF {stroke [] 0 setdash hpt 0 360 arc fill} def
/C0 {BL [] 0 setdash 2 copy moveto vpt 90 450 arc} bind def
/C1 {BL [] 0 setdash 2 copy moveto
	2 copy vpt 0 90 arc closepath fill
	vpt 0 360 arc closepath} bind def
/C2 {BL [] 0 setdash 2 copy moveto
	2 copy vpt 90 180 arc closepath fill
	vpt 0 360 arc closepath} bind def
/C3 {BL [] 0 setdash 2 copy moveto
	2 copy vpt 0 180 arc closepath fill
	vpt 0 360 arc closepath} bind def
/C4 {BL [] 0 setdash 2 copy moveto
	2 copy vpt 180 270 arc closepath fill
	vpt 0 360 arc closepath} bind def
/C5 {BL [] 0 setdash 2 copy moveto
	2 copy vpt 0 90 arc
	2 copy moveto
	2 copy vpt 180 270 arc closepath fill
	vpt 0 360 arc} bind def
/C6 {BL [] 0 setdash 2 copy moveto
	2 copy vpt 90 270 arc closepath fill
	vpt 0 360 arc closepath} bind def
/C7 {BL [] 0 setdash 2 copy moveto
	2 copy vpt 0 270 arc closepath fill
	vpt 0 360 arc closepath} bind def
/C8 {BL [] 0 setdash 2 copy moveto
	2 copy vpt 270 360 arc closepath fill
	vpt 0 360 arc closepath} bind def
/C9 {BL [] 0 setdash 2 copy moveto
	2 copy vpt 270 450 arc closepath fill
	vpt 0 360 arc closepath} bind def
/C10 {BL [] 0 setdash 2 copy 2 copy moveto vpt 270 360 arc closepath fill
	2 copy moveto
	2 copy vpt 90 180 arc closepath fill
	vpt 0 360 arc closepath} bind def
/C11 {BL [] 0 setdash 2 copy moveto
	2 copy vpt 0 180 arc closepath fill
	2 copy moveto
	2 copy vpt 270 360 arc closepath fill
	vpt 0 360 arc closepath} bind def
/C12 {BL [] 0 setdash 2 copy moveto
	2 copy vpt 180 360 arc closepath fill
	vpt 0 360 arc closepath} bind def
/C13 {BL [] 0 setdash 2 copy moveto
	2 copy vpt 0 90 arc closepath fill
	2 copy moveto
	2 copy vpt 180 360 arc closepath fill
	vpt 0 360 arc closepath} bind def
/C14 {BL [] 0 setdash 2 copy moveto
	2 copy vpt 90 360 arc closepath fill
	vpt 0 360 arc} bind def
/C15 {BL [] 0 setdash 2 copy vpt 0 360 arc closepath fill
	vpt 0 360 arc closepath} bind def
/Rec {newpath 4 2 roll moveto 1 index 0 rlineto 0 exch rlineto
	neg 0 rlineto closepath} bind def
/Square {dup Rec} bind def
/Bsquare {vpt sub exch vpt sub exch vpt2 Square} bind def
/S0 {BL [] 0 setdash 2 copy moveto 0 vpt rlineto BL Bsquare} bind def
/S1 {BL [] 0 setdash 2 copy vpt Square fill Bsquare} bind def
/S2 {BL [] 0 setdash 2 copy exch vpt sub exch vpt Square fill Bsquare} bind def
/S3 {BL [] 0 setdash 2 copy exch vpt sub exch vpt2 vpt Rec fill Bsquare} bind def
/S4 {BL [] 0 setdash 2 copy exch vpt sub exch vpt sub vpt Square fill Bsquare} bind def
/S5 {BL [] 0 setdash 2 copy 2 copy vpt Square fill
	exch vpt sub exch vpt sub vpt Square fill Bsquare} bind def
/S6 {BL [] 0 setdash 2 copy exch vpt sub exch vpt sub vpt vpt2 Rec fill Bsquare} bind def
/S7 {BL [] 0 setdash 2 copy exch vpt sub exch vpt sub vpt vpt2 Rec fill
	2 copy vpt Square fill Bsquare} bind def
/S8 {BL [] 0 setdash 2 copy vpt sub vpt Square fill Bsquare} bind def
/S9 {BL [] 0 setdash 2 copy vpt sub vpt vpt2 Rec fill Bsquare} bind def
/S10 {BL [] 0 setdash 2 copy vpt sub vpt Square fill 2 copy exch vpt sub exch vpt Square fill
	Bsquare} bind def
/S11 {BL [] 0 setdash 2 copy vpt sub vpt Square fill 2 copy exch vpt sub exch vpt2 vpt Rec fill
	Bsquare} bind def
/S12 {BL [] 0 setdash 2 copy exch vpt sub exch vpt sub vpt2 vpt Rec fill Bsquare} bind def
/S13 {BL [] 0 setdash 2 copy exch vpt sub exch vpt sub vpt2 vpt Rec fill
	2 copy vpt Square fill Bsquare} bind def
/S14 {BL [] 0 setdash 2 copy exch vpt sub exch vpt sub vpt2 vpt Rec fill
	2 copy exch vpt sub exch vpt Square fill Bsquare} bind def
/S15 {BL [] 0 setdash 2 copy Bsquare fill Bsquare} bind def
/D0 {gsave translate 45 rotate 0 0 S0 stroke grestore} bind def
/D1 {gsave translate 45 rotate 0 0 S1 stroke grestore} bind def
/D2 {gsave translate 45 rotate 0 0 S2 stroke grestore} bind def
/D3 {gsave translate 45 rotate 0 0 S3 stroke grestore} bind def
/D4 {gsave translate 45 rotate 0 0 S4 stroke grestore} bind def
/D5 {gsave translate 45 rotate 0 0 S5 stroke grestore} bind def
/D6 {gsave translate 45 rotate 0 0 S6 stroke grestore} bind def
/D7 {gsave translate 45 rotate 0 0 S7 stroke grestore} bind def
/D8 {gsave translate 45 rotate 0 0 S8 stroke grestore} bind def
/D9 {gsave translate 45 rotate 0 0 S9 stroke grestore} bind def
/D10 {gsave translate 45 rotate 0 0 S10 stroke grestore} bind def
/D11 {gsave translate 45 rotate 0 0 S11 stroke grestore} bind def
/D12 {gsave translate 45 rotate 0 0 S12 stroke grestore} bind def
/D13 {gsave translate 45 rotate 0 0 S13 stroke grestore} bind def
/D14 {gsave translate 45 rotate 0 0 S14 stroke grestore} bind def
/D15 {gsave translate 45 rotate 0 0 S15 stroke grestore} bind def
/DiaE {stroke [] 0 setdash vpt add M
  hpt neg vpt neg V hpt vpt neg V
  hpt vpt V hpt neg vpt V closepath stroke} def
/BoxE {stroke [] 0 setdash exch hpt sub exch vpt add M
  0 vpt2 neg V hpt2 0 V 0 vpt2 V
  hpt2 neg 0 V closepath stroke} def
/TriUE {stroke [] 0 setdash vpt 1.12 mul add M
  hpt neg vpt -1.62 mul V
  hpt 2 mul 0 V
  hpt neg vpt 1.62 mul V closepath stroke} def
/TriDE {stroke [] 0 setdash vpt 1.12 mul sub M
  hpt neg vpt 1.62 mul V
  hpt 2 mul 0 V
  hpt neg vpt -1.62 mul V closepath stroke} def
/PentE {stroke [] 0 setdash gsave
  translate 0 hpt M 4 {72 rotate 0 hpt L} repeat
  closepath stroke grestore} def
/CircE {stroke [] 0 setdash 
  hpt 0 360 arc stroke} def
/Opaque {gsave closepath 1 setgray fill grestore 0 setgray closepath} def
/DiaW {stroke [] 0 setdash vpt add M
  hpt neg vpt neg V hpt vpt neg V
  hpt vpt V hpt neg vpt V Opaque stroke} def
/BoxW {stroke [] 0 setdash exch hpt sub exch vpt add M
  0 vpt2 neg V hpt2 0 V 0 vpt2 V
  hpt2 neg 0 V Opaque stroke} def
/TriUW {stroke [] 0 setdash vpt 1.12 mul add M
  hpt neg vpt -1.62 mul V
  hpt 2 mul 0 V
  hpt neg vpt 1.62 mul V Opaque stroke} def
/TriDW {stroke [] 0 setdash vpt 1.12 mul sub M
  hpt neg vpt 1.62 mul V
  hpt 2 mul 0 V
  hpt neg vpt -1.62 mul V Opaque stroke} def
/PentW {stroke [] 0 setdash gsave
  translate 0 hpt M 4 {72 rotate 0 hpt L} repeat
  Opaque stroke grestore} def
/CircW {stroke [] 0 setdash 
  hpt 0 360 arc Opaque stroke} def
/BoxFill {gsave Rec 1 setgray fill grestore} def
/Density {
  /Fillden exch def
  currentrgbcolor
  /ColB exch def /ColG exch def /ColR exch def
  /ColR ColR Fillden mul Fillden sub 1 add def
  /ColG ColG Fillden mul Fillden sub 1 add def
  /ColB ColB Fillden mul Fillden sub 1 add def
  ColR ColG ColB setrgbcolor} def
/BoxColFill {gsave Rec PolyFill} def
/PolyFill {gsave Density fill grestore grestore} def
/h {rlineto rlineto rlineto gsave closepath fill grestore} bind def
%
% PostScript Level 1 Pattern Fill routine for rectangles
% Usage: x y w h s a XX PatternFill
%	x,y = lower left corner of box to be filled
%	w,h = width and height of box
%	  a = angle in degrees between lines and x-axis
%	 XX = 0/1 for no/yes cross-hatch
%
/PatternFill {gsave /PFa [ 9 2 roll ] def
  PFa 0 get PFa 2 get 2 div add PFa 1 get PFa 3 get 2 div add translate
  PFa 2 get -2 div PFa 3 get -2 div PFa 2 get PFa 3 get Rec
  TransparentPatterns {} {gsave 1 setgray fill grestore} ifelse
  clip
  currentlinewidth 0.5 mul setlinewidth
  /PFs PFa 2 get dup mul PFa 3 get dup mul add sqrt def
  0 0 M PFa 5 get rotate PFs -2 div dup translate
  0 1 PFs PFa 4 get div 1 add floor cvi
	{PFa 4 get mul 0 M 0 PFs V} for
  0 PFa 6 get ne {
	0 1 PFs PFa 4 get div 1 add floor cvi
	{PFa 4 get mul 0 2 1 roll M PFs 0 V} for
 } if
  stroke grestore} def
%
/languagelevel where
 {pop languagelevel} {1} ifelse
 2 lt
	{/InterpretLevel1 true def}
	{/InterpretLevel1 Level1 def}
 ifelse
%
% PostScript level 2 pattern fill definitions
%
/Level2PatternFill {
/Tile8x8 {/PaintType 2 /PatternType 1 /TilingType 1 /BBox [0 0 8 8] /XStep 8 /YStep 8}
	bind def
/KeepColor {currentrgbcolor [/Pattern /DeviceRGB] setcolorspace} bind def
<< Tile8x8
 /PaintProc {0.5 setlinewidth pop 0 0 M 8 8 L 0 8 M 8 0 L stroke} 
>> matrix makepattern
/Pat1 exch def
<< Tile8x8
 /PaintProc {0.5 setlinewidth pop 0 0 M 8 8 L 0 8 M 8 0 L stroke
	0 4 M 4 8 L 8 4 L 4 0 L 0 4 L stroke}
>> matrix makepattern
/Pat2 exch def
<< Tile8x8
 /PaintProc {0.5 setlinewidth pop 0 0 M 0 8 L
	8 8 L 8 0 L 0 0 L fill}
>> matrix makepattern
/Pat3 exch def
<< Tile8x8
 /PaintProc {0.5 setlinewidth pop -4 8 M 8 -4 L
	0 12 M 12 0 L stroke}
>> matrix makepattern
/Pat4 exch def
<< Tile8x8
 /PaintProc {0.5 setlinewidth pop -4 0 M 8 12 L
	0 -4 M 12 8 L stroke}
>> matrix makepattern
/Pat5 exch def
<< Tile8x8
 /PaintProc {0.5 setlinewidth pop -2 8 M 4 -4 L
	0 12 M 8 -4 L 4 12 M 10 0 L stroke}
>> matrix makepattern
/Pat6 exch def
<< Tile8x8
 /PaintProc {0.5 setlinewidth pop -2 0 M 4 12 L
	0 -4 M 8 12 L 4 -4 M 10 8 L stroke}
>> matrix makepattern
/Pat7 exch def
<< Tile8x8
 /PaintProc {0.5 setlinewidth pop 8 -2 M -4 4 L
	12 0 M -4 8 L 12 4 M 0 10 L stroke}
>> matrix makepattern
/Pat8 exch def
<< Tile8x8
 /PaintProc {0.5 setlinewidth pop 0 -2 M 12 4 L
	-4 0 M 12 8 L -4 4 M 8 10 L stroke}
>> matrix makepattern
/Pat9 exch def
/Pattern1 {PatternBgnd KeepColor Pat1 setpattern} bind def
/Pattern2 {PatternBgnd KeepColor Pat2 setpattern} bind def
/Pattern3 {PatternBgnd KeepColor Pat3 setpattern} bind def
/Pattern4 {PatternBgnd KeepColor Landscape {Pat5} {Pat4} ifelse setpattern} bind def
/Pattern5 {PatternBgnd KeepColor Landscape {Pat4} {Pat5} ifelse setpattern} bind def
/Pattern6 {PatternBgnd KeepColor Landscape {Pat9} {Pat6} ifelse setpattern} bind def
/Pattern7 {PatternBgnd KeepColor Landscape {Pat8} {Pat7} ifelse setpattern} bind def
} def
%
%
%End of PostScript Level 2 code
%
/PatternBgnd {
  TransparentPatterns {} {gsave 1 setgray fill grestore} ifelse
} def
%
% Substitute for Level 2 pattern fill codes with
% grayscale if Level 2 support is not selected.
%
/Level1PatternFill {
/Pattern1 {0.250 Density} bind def
/Pattern2 {0.500 Density} bind def
/Pattern3 {0.750 Density} bind def
/Pattern4 {0.125 Density} bind def
/Pattern5 {0.375 Density} bind def
/Pattern6 {0.625 Density} bind def
/Pattern7 {0.875 Density} bind def
} def
%
% Now test for support of Level 2 code
%
Level1 {Level1PatternFill} {Level2PatternFill} ifelse
%
/Symbol-Oblique /Symbol findfont [1 0 .167 1 0 0] makefont
dup length dict begin {1 index /FID eq {pop pop} {def} ifelse} forall
currentdict end definefont pop
/MFshow {
   { dup 5 get 3 ge
     { 5 get 3 eq {gsave} {grestore} ifelse }
     {dup dup 0 get findfont exch 1 get scalefont setfont
     [ currentpoint ] exch dup 2 get 0 exch R dup 5 get 2 ne {dup dup 6
     get exch 4 get {Gshow} {stringwidth pop 0 R} ifelse }if dup 5 get 0 eq
     {dup 3 get {2 get neg 0 exch R pop} {pop aload pop M} ifelse} {dup 5
     get 1 eq {dup 2 get exch dup 3 get exch 6 get stringwidth pop -2 div
     dup 0 R} {dup 6 get stringwidth pop -2 div 0 R 6 get
     show 2 index {aload pop M neg 3 -1 roll neg R pop pop} {pop pop pop
     pop aload pop M} ifelse }ifelse }ifelse }
     ifelse }
   forall} def
/Gswidth {dup type /stringtype eq {stringwidth} {pop (n) stringwidth} ifelse} def
/MFwidth {0 exch { dup 5 get 3 ge { 5 get 3 eq { 0 } { pop } ifelse }
 {dup 3 get{dup dup 0 get findfont exch 1 get scalefont setfont
     6 get Gswidth pop add} {pop} ifelse} ifelse} forall} def
/MLshow { currentpoint stroke M
  0 exch R
  Blacktext {gsave 0 setgray MFshow grestore} {MFshow} ifelse } bind def
/MRshow { currentpoint stroke M
  exch dup MFwidth neg 3 -1 roll R
  Blacktext {gsave 0 setgray MFshow grestore} {MFshow} ifelse } bind def
/MCshow { currentpoint stroke M
  exch dup MFwidth -2 div 3 -1 roll R
  Blacktext {gsave 0 setgray MFshow grestore} {MFshow} ifelse } bind def
/XYsave    { [( ) 1 2 true false 3 ()] } bind def
/XYrestore { [( ) 1 2 true false 4 ()] } bind def
Level1 SuppressPDFMark or 
{} {
/SDict 10 dict def
systemdict /pdfmark known not {
  userdict /pdfmark systemdict /cleartomark get put
} if
SDict begin [
  /Title (service-phone.eps)
  /Subject (gnuplot plot)
  /Creator (gnuplot 4.6 patchlevel 1)
  /Author (binh)
%  /Producer (gnuplot)
%  /Keywords ()
  /CreationDate (Sat Feb 28 14:57:52 2015)
  /DOCINFO pdfmark
end
} ifelse
end
%%EndProlog
%%Page: 1 1
gnudict begin
gsave
doclip
50 50 translate
0.050 0.050 scale
0 setgray
newpath
(Helvetica) findfont 140 scalefont setfont
BackgroundColor 0 lt 3 1 roll 0 lt exch 0 lt or or not {BackgroundColor C 1.000 0 0 7200.00 5040.00 BoxColFill} if
1.000 UL
LTb
1.000 UL
LTa
770 1400 M
6177 0 V
stroke
LTb
770 1400 M
63 0 V
6114 0 R
-63 0 V
stroke
686 1400 M
[ [(Helvetica) 140.0 0.0 true true 0 ( 2000)]
] -46.7 MRshow
1.000 UL
LTb
1.000 UL
LTa
770 1716 M
6177 0 V
stroke
LTb
770 1716 M
63 0 V
6114 0 R
-63 0 V
stroke
686 1716 M
[ [(Helvetica) 140.0 0.0 true true 0 ( 2500)]
] -46.7 MRshow
1.000 UL
LTb
1.000 UL
LTa
770 2031 M
6177 0 V
stroke
LTb
770 2031 M
63 0 V
6114 0 R
-63 0 V
stroke
686 2031 M
[ [(Helvetica) 140.0 0.0 true true 0 ( 3000)]
] -46.7 MRshow
1.000 UL
LTb
1.000 UL
LTa
770 2347 M
6177 0 V
stroke
LTb
770 2347 M
63 0 V
6114 0 R
-63 0 V
stroke
686 2347 M
[ [(Helvetica) 140.0 0.0 true true 0 ( 3500)]
] -46.7 MRshow
1.000 UL
LTb
1.000 UL
LTa
770 2662 M
6177 0 V
stroke
LTb
770 2662 M
63 0 V
6114 0 R
-63 0 V
stroke
686 2662 M
[ [(Helvetica) 140.0 0.0 true true 0 ( 4000)]
] -46.7 MRshow
1.000 UL
LTb
1.000 UL
LTa
770 2978 M
6177 0 V
stroke
LTb
770 2978 M
63 0 V
6114 0 R
-63 0 V
stroke
686 2978 M
[ [(Helvetica) 140.0 0.0 true true 0 ( 4500)]
] -46.7 MRshow
1.000 UL
LTb
1.000 UL
LTa
770 3293 M
6177 0 V
stroke
LTb
770 3293 M
63 0 V
6114 0 R
-63 0 V
stroke
686 3293 M
[ [(Helvetica) 140.0 0.0 true true 0 ( 5000)]
] -46.7 MRshow
1.000 UL
LTb
1.000 UL
LTa
770 3609 M
6177 0 V
stroke
LTb
770 3609 M
63 0 V
6114 0 R
-63 0 V
stroke
686 3609 M
[ [(Helvetica) 140.0 0.0 true true 0 ( 5500)]
] -46.7 MRshow
1.000 UL
LTb
1.000 UL
LTa
770 3924 M
6177 0 V
stroke
LTb
770 3924 M
63 0 V
6114 0 R
-63 0 V
stroke
686 3924 M
[ [(Helvetica) 140.0 0.0 true true 0 ( 6000)]
] -46.7 MRshow
1.000 UL
LTb
1.000 UL
LTa
770 4240 M
6177 0 V
stroke
LTb
770 4240 M
63 0 V
6114 0 R
-63 0 V
stroke
686 4240 M
[ [(Helvetica) 140.0 0.0 true true 0 ( 6500)]
] -46.7 MRshow
1.000 UL
LTb
1.000 UL
LTa
770 4555 M
5022 0 V
1071 0 R
84 0 V
stroke
LTb
770 4555 M
63 0 V
6114 0 R
-63 0 V
stroke
686 4555 M
[ [(Helvetica) 140.0 0.0 true true 0 ( 7000)]
] -46.7 MRshow
1.000 UL
LTb
1.000 UL
LTa
770 4871 M
6177 0 V
stroke
LTb
770 4871 M
63 0 V
6114 0 R
-63 0 V
stroke
686 4871 M
[ [(Helvetica) 140.0 0.0 true true 0 ( 7500)]
] -46.7 MRshow
1.000 UL
LTb
1.000 UL
LTa
770 1400 M
0 3471 V
stroke
LTb
770 1400 M
0 63 V
0 3408 R
0 -63 V
stroke
770 1260 M
[ [(Helvetica) 140.0 0.0 true true 0 ( 0)]
] -46.7 MCshow
1.000 UL
LTb
1.000 UL
LTa
1211 1400 M
0 3471 V
stroke
LTb
1211 1400 M
0 63 V
0 3408 R
0 -63 V
stroke
1211 1260 M
[ [(Helvetica) 140.0 0.0 true true 0 ( 12)]
] -46.7 MCshow
1.000 UL
LTb
1.000 UL
LTa
1652 1400 M
0 3471 V
stroke
LTb
1652 1400 M
0 63 V
0 3408 R
0 -63 V
stroke
1652 1260 M
[ [(Helvetica) 140.0 0.0 true true 0 ( 24)]
] -46.7 MCshow
1.000 UL
LTb
1.000 UL
LTa
2094 1400 M
0 3471 V
stroke
LTb
2094 1400 M
0 63 V
0 3408 R
0 -63 V
stroke
2094 1260 M
[ [(Helvetica) 140.0 0.0 true true 0 ( 36)]
] -46.7 MCshow
1.000 UL
LTb
1.000 UL
LTa
2535 1400 M
0 3471 V
stroke
LTb
2535 1400 M
0 63 V
0 3408 R
0 -63 V
stroke
2535 1260 M
[ [(Helvetica) 140.0 0.0 true true 0 ( 48)]
] -46.7 MCshow
1.000 UL
LTb
1.000 UL
LTa
2976 1400 M
0 3471 V
stroke
LTb
2976 1400 M
0 63 V
0 3408 R
0 -63 V
stroke
2976 1260 M
[ [(Helvetica) 140.0 0.0 true true 0 ( 60)]
] -46.7 MCshow
1.000 UL
LTb
1.000 UL
LTa
3417 1400 M
0 3471 V
stroke
LTb
3417 1400 M
0 63 V
0 3408 R
0 -63 V
stroke
3417 1260 M
[ [(Helvetica) 140.0 0.0 true true 0 ( 72)]
] -46.7 MCshow
1.000 UL
LTb
1.000 UL
LTa
3859 1400 M
0 3471 V
stroke
LTb
3859 1400 M
0 63 V
0 3408 R
0 -63 V
stroke
3859 1260 M
[ [(Helvetica) 140.0 0.0 true true 0 ( 84)]
] -46.7 MCshow
1.000 UL
LTb
1.000 UL
LTa
4300 1400 M
0 3471 V
stroke
LTb
4300 1400 M
0 63 V
0 3408 R
0 -63 V
stroke
4300 1260 M
[ [(Helvetica) 140.0 0.0 true true 0 ( 96)]
] -46.7 MCshow
1.000 UL
LTb
1.000 UL
LTa
4741 1400 M
0 3471 V
stroke
LTb
4741 1400 M
0 63 V
0 3408 R
0 -63 V
stroke
4741 1260 M
[ [(Helvetica) 140.0 0.0 true true 0 ( 108)]
] -46.7 MCshow
1.000 UL
LTb
1.000 UL
LTa
5182 1400 M
0 3471 V
stroke
LTb
5182 1400 M
0 63 V
0 3408 R
0 -63 V
stroke
5182 1260 M
[ [(Helvetica) 140.0 0.0 true true 0 ( 120)]
] -46.7 MCshow
1.000 UL
LTb
1.000 UL
LTa
5623 1400 M
0 3471 V
stroke
LTb
5623 1400 M
0 63 V
0 3408 R
0 -63 V
stroke
5623 1260 M
[ [(Helvetica) 140.0 0.0 true true 0 ( 132)]
] -46.7 MCshow
1.000 UL
LTb
1.000 UL
LTa
6065 1400 M
0 2988 V
0 420 R
0 63 V
stroke
LTb
6065 1400 M
0 63 V
0 3408 R
0 -63 V
stroke
6065 1260 M
[ [(Helvetica) 140.0 0.0 true true 0 ( 144)]
] -46.7 MCshow
1.000 UL
LTb
1.000 UL
LTa
6506 1400 M
0 2988 V
0 420 R
0 63 V
stroke
LTb
6506 1400 M
0 63 V
0 3408 R
0 -63 V
stroke
6506 1260 M
[ [(Helvetica) 140.0 0.0 true true 0 ( 156)]
] -46.7 MCshow
1.000 UL
LTb
1.000 UL
LTa
6947 1400 M
0 3471 V
stroke
LTb
6947 1400 M
0 63 V
0 3408 R
0 -63 V
stroke
6947 1260 M
[ [(Helvetica) 140.0 0.0 true true 0 ( 168)]
] -46.7 MCshow
1.000 UL
LTb
1.000 UL
LTb
770 4871 N
0 -3471 V
6177 0 V
0 3471 V
-6177 0 V
Z stroke
LCb setrgbcolor
112 3135 M
currentpoint gsave translate -270 rotate 0 0 moveto
[ [(Helvetica) 140.0 0.0 true true 0 (# of PDN connections)]
] -46.7 MCshow
grestore
LTb
1.000 UP
1.000 UL
LTb
1.000 UL
LTb
5792 4388 N
0 420 V
1071 0 V
0 -420 V
-1071 0 V
Z stroke
% Begin plot #1
3.000 UL
LT0
LCb setrgbcolor
6296 4738 M
[ [(Helvetica) 140.0 0.0 true true 0 (week-1)]
] -46.7 MRshow
LT0
6380 4738 M
399 0 V
807 3442 M
37 -76 V
36 -527 V
37 -349 V
37 -277 V
37 -231 V
36 -186 V
37 -121 V
37 -4 V
37 91 V
36 29 V
37 226 V
37 436 V
37 347 V
37 468 V
36 397 V
37 -82 V
37 161 V
37 -101 V
36 582 V
37 43 V
37 20 V
37 185 V
36 -290 V
37 -438 V
37 -160 V
37 -420 V
37 -347 V
36 -230 V
37 -407 V
37 -157 V
37 -94 V
36 -179 V
37 37 V
37 119 V
37 98 V
36 299 V
37 538 V
37 429 V
37 98 V
36 133 V
37 200 V
37 97 V
37 9 V
37 246 V
36 120 V
37 -188 V
37 -119 V
37 -64 V
36 -290 V
37 -415 V
37 -170 V
37 -205 V
36 -469 V
37 -253 V
37 -19 V
37 -188 V
37 138 V
36 61 V
37 116 V
37 512 V
37 303 V
36 215 V
37 481 V
37 130 V
37 131 V
36 -121 V
37 342 V
37 -133 V
37 245 V
37 -139 V
36 -43 V
37 -132 V
37 -422 V
37 -215 V
36 -85 V
37 -472 V
37 -396 V
37 -210 V
36 -160 V
37 -200 V
37 -30 V
37 45 V
37 234 V
36 551 V
37 459 V
37 575 V
37 149 V
36 19 V
37 365 V
37 -109 V
37 189 V
36 -138 V
37 231 V
37 222 V
37 22 V
36 -576 V
37 -128 V
37 -497 V
37 -367 V
37 -450 V
36 -171 V
37 -228 V
stroke 4557 2107 M
37 -177 V
37 -21 V
36 -156 V
37 208 V
37 29 V
37 572 V
36 497 V
37 205 V
37 450 V
37 -52 V
37 257 V
36 -41 V
37 215 V
37 281 V
37 13 V
36 91 V
37 -253 V
37 -254 V
37 -324 V
36 -284 V
37 -354 V
37 -265 V
37 3 V
37 -291 V
36 -158 V
37 36 V
37 -162 V
37 0 V
36 -42 V
37 318 V
37 96 V
37 312 V
36 222 V
37 490 V
37 69 V
37 109 V
37 151 V
36 0 V
37 165 V
37 37 V
37 -393 V
36 -114 V
37 7 V
37 -110 V
37 -212 V
36 -221 V
37 -167 V
37 -581 V
37 -119 V
36 -94 V
37 -187 V
37 10 V
37 39 V
37 11 V
36 87 V
37 484 V
37 463 V
37 330 V
36 350 V
37 -88 V
37 356 V
37 -38 V
36 163 V
37 -58 V
37 -115 V
% End plot #1
% Begin plot #2
stroke
LT1
LCb setrgbcolor
6296 4598 M
[ [(Helvetica) 140.0 0.0 true true 0 (week-2)]
] -46.7 MRshow
LT1
6380 4598 M
399 0 V
807 3529 M
37 -163 V
36 -201 V
37 -182 V
37 -242 V
37 -386 V
36 -265 V
37 -231 V
37 -151 V
37 -134 V
36 195 V
37 282 V
37 462 V
37 687 V
37 95 V
36 114 V
37 165 V
37 389 V
37 122 V
36 164 V
37 -311 V
37 184 V
37 -6 V
36 -3 V
37 -276 V
37 -228 V
37 -589 V
37 -178 V
36 -373 V
37 -161 V
37 -240 V
37 -146 V
36 -117 V
37 -4 V
37 221 V
37 176 V
36 541 V
37 475 V
37 165 V
37 457 V
36 25 V
37 53 V
37 20 V
37 301 V
37 34 V
36 146 V
37 120 V
37 -45 V
37 -456 V
36 -373 V
37 -38 V
37 -704 V
37 -459 V
36 -307 V
37 -170 V
37 -131 V
37 -23 V
37 -240 V
36 199 V
37 316 V
37 401 V
37 429 V
36 439 V
37 296 V
37 226 V
37 294 V
36 -311 V
37 87 V
37 383 V
37 -275 V
37 119 V
36 87 V
37 -603 V
37 -253 V
37 -277 V
36 -370 V
37 -308 V
37 -152 V
37 -48 V
36 -310 V
37 -25 V
37 -159 V
37 46 V
37 351 V
36 303 V
37 251 V
37 363 V
37 308 V
36 213 V
37 156 V
37 39 V
37 161 V
36 63 V
37 322 V
37 -250 V
37 -208 V
36 -657 V
37 -524 V
37 -175 V
37 -212 V
37 -230 V
36 66 V
37 -121 V
stroke 4557 2039 M
37 -39 V
37 -113 V
36 -166 V
37 513 V
37 -36 V
37 534 V
36 405 V
37 444 V
37 182 V
37 154 V
37 206 V
36 -97 V
37 10 V
37 275 V
37 114 V
36 245 V
37 -310 V
37 -451 V
37 -128 V
36 -191 V
37 -259 V
37 -460 V
37 -67 V
37 -389 V
36 -193 V
37 -120 V
37 -113 V
37 -147 V
36 65 V
37 224 V
37 609 V
37 215 V
36 609 V
37 30 V
37 281 V
37 307 V
37 -244 V
36 172 V
37 1 V
37 165 V
37 -296 V
36 -191 V
37 -216 V
37 -425 V
37 -67 V
36 -209 V
37 -127 V
37 -437 V
37 -190 V
36 -67 V
37 -112 V
37 -40 V
37 87 V
37 -19 V
36 446 V
37 199 V
37 415 V
37 465 V
36 -7 V
37 391 V
37 7 V
37 -91 V
36 64 V
37 -55 V
37 -82 V
% End plot #2
% Begin plot #3
stroke
LT2
LCb setrgbcolor
6296 4458 M
[ [(Helvetica) 140.0 0.0 true true 0 (week-3)]
] -46.7 MRshow
LT2
6380 4458 M
399 0 V
807 3502 M
37 -233 V
36 -359 V
37 134 V
37 -436 V
37 -242 V
36 -389 V
37 -102 V
37 -115 V
37 -46 V
36 -24 V
37 453 V
37 103 V
37 465 V
37 283 V
36 505 V
37 192 V
37 166 V
37 76 V
36 -38 V
37 258 V
37 -97 V
37 138 V
36 -222 V
37 -309 V
37 -259 V
37 -201 V
37 -355 V
36 -135 V
37 -571 V
37 -139 V
37 -145 V
36 -112 V
37 -5 V
37 23 V
37 344 V
36 334 V
37 663 V
37 207 V
37 372 V
36 79 V
37 310 V
37 -9 V
37 7 V
37 79 V
36 -211 V
37 119 V
37 -209 V
37 -235 V
36 -165 V
37 -452 V
37 -154 V
37 -242 V
36 -170 V
37 -158 V
37 -116 V
37 -161 V
37 -13 V
36 155 V
37 -110 V
37 505 V
37 557 V
36 282 V
37 435 V
37 30 V
37 73 V
36 314 V
37 87 V
37 -180 V
37 84 V
37 -63 V
36 -189 V
37 -467 V
37 -8 V
37 -7 V
36 -611 V
37 -428 V
37 -292 V
37 -270 V
36 -24 V
37 -53 V
37 -66 V
37 126 V
37 174 V
36 486 V
37 604 V
37 125 V
37 359 V
36 108 V
37 233 V
37 88 V
37 262 V
36 -162 V
37 39 V
37 -42 V
37 38 V
36 -461 V
37 -500 V
37 -39 V
37 -421 V
37 -236 V
36 -267 V
37 -87 V
stroke 4557 2164 M
37 -86 V
37 74 V
36 -285 V
37 205 V
37 343 V
37 45 V
36 583 V
37 325 V
37 139 V
37 292 V
37 -21 V
36 330 V
37 107 V
37 14 V
37 -44 V
36 229 V
37 80 V
37 -561 V
37 -322 V
36 -160 V
37 -440 V
37 -107 V
37 -374 V
37 -255 V
36 -154 V
37 -344 V
37 4 V
37 -65 V
36 312 V
37 293 V
37 272 V
37 423 V
36 226 V
37 69 V
37 414 V
37 302 V
37 -29 V
36 -165 V
37 79 V
37 63 V
37 187 V
36 -227 V
37 -459 V
37 -73 V
37 -293 V
36 -370 V
37 -90 V
37 -150 V
37 -414 V
36 -84 V
37 -175 V
37 -149 V
37 144 V
37 234 V
36 156 V
37 235 V
37 339 V
37 450 V
36 187 V
37 154 V
37 -2 V
37 46 V
36 36 V
37 258 V
37 -390 V
% End plot #3
stroke
1.000 UL
LTb
770 4871 N
0 -3471 V
6177 0 V
0 3471 V
-6177 0 V
Z stroke
1.000 UP
1.000 UL
LTb
stroke
grestore
end
showpage
%%Trailer
%%DocumentFonts: Helvetica
