%!PS-Adobe-2.0 EPSF-2.0
%%Title: all-noise-voice-20-to-150000-500-new.eps
%%Creator: gnuplot 4.2 patchlevel 6 
%%CreationDate: Thu Nov 13 01:41:25 2014
%%DocumentFonts: (atend)
%%BoundingBox: 50 50 410 302
%%EndComments
%%BeginProlog
/gnudict 256 dict def
gnudict begin
%
% The following 6 true/false flags may be edited by hand if required
% The unit line width may also be changed
%
/Color true def
/Blacktext false def
/Solid false def
/Dashlength 1 def
/Landscape false def
/Level1 false def
/Rounded false def
/TransparentPatterns false def
/gnulinewidth 5.000 def
/userlinewidth gnulinewidth def
%
/vshift -46 def
/dl1 {
  10.0 Dashlength mul mul
  Rounded { currentlinewidth 0.75 mul sub dup 0 le { pop 0.01 } if } if
} def
/dl2 {
  10.0 Dashlength mul mul
  Rounded { currentlinewidth 0.75 mul add } if
} def
/hpt_ 31.5 def
/vpt_ 31.5 def
/hpt hpt_ def
/vpt vpt_ def
Level1 {} {
/SDict 10 dict def
systemdict /pdfmark known not {
  userdict /pdfmark systemdict /cleartomark get put
} if
SDict begin [
  /Title (all-noise-voice-20-to-150000-500-new.eps)
  /Subject (gnuplot plot)
  /Creator (gnuplot 4.2 patchlevel 6 )
  /Author (Binh Nguyen,[chenxu])
%  /Producer (gnuplot)
%  /Keywords ()
  /CreationDate (Thu Nov 13 01:41:25 2014)
  /DOCINFO pdfmark
end
} ifelse
%
% Gnuplot Prolog Version 4.2 (August 2006)
%
/M {moveto} bind def
/L {lineto} bind def
/R {rmoveto} bind def
/V {rlineto} bind def
/N {newpath moveto} bind def
/Z {closepath} bind def
/C {setrgbcolor} bind def
/f {rlineto fill} bind def
/vpt2 vpt 2 mul def
/hpt2 hpt 2 mul def
/Lshow {currentpoint stroke M 0 vshift R 
	Blacktext {gsave 0 setgray show grestore} {show} ifelse} def
/Rshow {currentpoint stroke M dup stringwidth pop neg vshift R
	Blacktext {gsave 0 setgray show grestore} {show} ifelse} def
/Cshow {currentpoint stroke M dup stringwidth pop -2 div vshift R 
	Blacktext {gsave 0 setgray show grestore} {show} ifelse} def
/UP {dup vpt_ mul /vpt exch def hpt_ mul /hpt exch def
  /hpt2 hpt 2 mul def /vpt2 vpt 2 mul def} def
/DL {Color {setrgbcolor Solid {pop []} if 0 setdash}
 {pop pop pop 0 setgray Solid {pop []} if 0 setdash} ifelse} def
/BL {stroke userlinewidth 2 mul setlinewidth
	Rounded {1 setlinejoin 1 setlinecap} if} def
/AL {stroke userlinewidth 2 div setlinewidth
	Rounded {1 setlinejoin 1 setlinecap} if} def
/UL {dup gnulinewidth mul /userlinewidth exch def
	dup 1 lt {pop 1} if 10 mul /udl exch def} def
/PL {stroke userlinewidth setlinewidth
	Rounded {1 setlinejoin 1 setlinecap} if} def
% Default Line colors
/LCw {1 1 1} def
/LCb {0 0 0} def
/LCa {0 0 0} def
/LC0 {1 0 0} def
/LC1 {0 1 0} def
/LC2 {0 0 1} def
/LC3 {1 0 1} def
/LC4 {0 1 1} def
/LC5 {1 1 0} def
/LC6 {0 0 0} def
/LC7 {1 0.3 0} def
/LC8 {0.5 0.5 0.5} def
% Default Line Types
/LTw {PL [] 1 setgray} def
/LTb {BL [] LCb DL} def
/LTa {AL [1 udl mul 2 udl mul] 0 setdash LCa setrgbcolor} def
/LT0 {PL [] LC0 DL} def
/LT1 {PL [4 dl1 2 dl2] LC1 DL} def
/LT2 {PL [2 dl1 3 dl2] LC2 DL} def
/LT3 {PL [1 dl1 1.5 dl2] LC3 DL} def
/LT4 {PL [6 dl1 2 dl2 1 dl1 2 dl2] LC4 DL} def
/LT5 {PL [3 dl1 3 dl2 1 dl1 3 dl2] LC5 DL} def
/LT6 {PL [2 dl1 2 dl2 2 dl1 6 dl2] LC6 DL} def
/LT7 {PL [1 dl1 2 dl2 6 dl1 2 dl2 1 dl1 2 dl2] LC7 DL} def
/LT8 {PL [2 dl1 2 dl2 2 dl1 2 dl2 2 dl1 2 dl2 2 dl1 4 dl2] LC8 DL} def
/Pnt {stroke [] 0 setdash gsave 1 setlinecap M 0 0 V stroke grestore} def
/Dia {stroke [] 0 setdash 2 copy vpt add M
  hpt neg vpt neg V hpt vpt neg V
  hpt vpt V hpt neg vpt V closepath stroke
  Pnt} def
/Pls {stroke [] 0 setdash vpt sub M 0 vpt2 V
  currentpoint stroke M
  hpt neg vpt neg R hpt2 0 V stroke
 } def
/Box {stroke [] 0 setdash 2 copy exch hpt sub exch vpt add M
  0 vpt2 neg V hpt2 0 V 0 vpt2 V
  hpt2 neg 0 V closepath stroke
  Pnt} def
/Crs {stroke [] 0 setdash exch hpt sub exch vpt add M
  hpt2 vpt2 neg V currentpoint stroke M
  hpt2 neg 0 R hpt2 vpt2 V stroke} def
/TriU {stroke [] 0 setdash 2 copy vpt 1.12 mul add M
  hpt neg vpt -1.62 mul V
  hpt 2 mul 0 V
  hpt neg vpt 1.62 mul V closepath stroke
  Pnt} def
/Star {2 copy Pls Crs} def
/BoxF {stroke [] 0 setdash exch hpt sub exch vpt add M
  0 vpt2 neg V hpt2 0 V 0 vpt2 V
  hpt2 neg 0 V closepath fill} def
/TriUF {stroke [] 0 setdash vpt 1.12 mul add M
  hpt neg vpt -1.62 mul V
  hpt 2 mul 0 V
  hpt neg vpt 1.62 mul V closepath fill} def
/TriD {stroke [] 0 setdash 2 copy vpt 1.12 mul sub M
  hpt neg vpt 1.62 mul V
  hpt 2 mul 0 V
  hpt neg vpt -1.62 mul V closepath stroke
  Pnt} def
/TriDF {stroke [] 0 setdash vpt 1.12 mul sub M
  hpt neg vpt 1.62 mul V
  hpt 2 mul 0 V
  hpt neg vpt -1.62 mul V closepath fill} def
/DiaF {stroke [] 0 setdash vpt add M
  hpt neg vpt neg V hpt vpt neg V
  hpt vpt V hpt neg vpt V closepath fill} def
/Pent {stroke [] 0 setdash 2 copy gsave
  translate 0 hpt M 4 {72 rotate 0 hpt L} repeat
  closepath stroke grestore Pnt} def
/PentF {stroke [] 0 setdash gsave
  translate 0 hpt M 4 {72 rotate 0 hpt L} repeat
  closepath fill grestore} def
/Circle {stroke [] 0 setdash 2 copy
  hpt 0 360 arc stroke Pnt} def
/CircleF {stroke [] 0 setdash hpt 0 360 arc fill} def
/C0 {BL [] 0 setdash 2 copy moveto vpt 90 450 arc} bind def
/C1 {BL [] 0 setdash 2 copy moveto
	2 copy vpt 0 90 arc closepath fill
	vpt 0 360 arc closepath} bind def
/C2 {BL [] 0 setdash 2 copy moveto
	2 copy vpt 90 180 arc closepath fill
	vpt 0 360 arc closepath} bind def
/C3 {BL [] 0 setdash 2 copy moveto
	2 copy vpt 0 180 arc closepath fill
	vpt 0 360 arc closepath} bind def
/C4 {BL [] 0 setdash 2 copy moveto
	2 copy vpt 180 270 arc closepath fill
	vpt 0 360 arc closepath} bind def
/C5 {BL [] 0 setdash 2 copy moveto
	2 copy vpt 0 90 arc
	2 copy moveto
	2 copy vpt 180 270 arc closepath fill
	vpt 0 360 arc} bind def
/C6 {BL [] 0 setdash 2 copy moveto
	2 copy vpt 90 270 arc closepath fill
	vpt 0 360 arc closepath} bind def
/C7 {BL [] 0 setdash 2 copy moveto
	2 copy vpt 0 270 arc closepath fill
	vpt 0 360 arc closepath} bind def
/C8 {BL [] 0 setdash 2 copy moveto
	2 copy vpt 270 360 arc closepath fill
	vpt 0 360 arc closepath} bind def
/C9 {BL [] 0 setdash 2 copy moveto
	2 copy vpt 270 450 arc closepath fill
	vpt 0 360 arc closepath} bind def
/C10 {BL [] 0 setdash 2 copy 2 copy moveto vpt 270 360 arc closepath fill
	2 copy moveto
	2 copy vpt 90 180 arc closepath fill
	vpt 0 360 arc closepath} bind def
/C11 {BL [] 0 setdash 2 copy moveto
	2 copy vpt 0 180 arc closepath fill
	2 copy moveto
	2 copy vpt 270 360 arc closepath fill
	vpt 0 360 arc closepath} bind def
/C12 {BL [] 0 setdash 2 copy moveto
	2 copy vpt 180 360 arc closepath fill
	vpt 0 360 arc closepath} bind def
/C13 {BL [] 0 setdash 2 copy moveto
	2 copy vpt 0 90 arc closepath fill
	2 copy moveto
	2 copy vpt 180 360 arc closepath fill
	vpt 0 360 arc closepath} bind def
/C14 {BL [] 0 setdash 2 copy moveto
	2 copy vpt 90 360 arc closepath fill
	vpt 0 360 arc} bind def
/C15 {BL [] 0 setdash 2 copy vpt 0 360 arc closepath fill
	vpt 0 360 arc closepath} bind def
/Rec {newpath 4 2 roll moveto 1 index 0 rlineto 0 exch rlineto
	neg 0 rlineto closepath} bind def
/Square {dup Rec} bind def
/Bsquare {vpt sub exch vpt sub exch vpt2 Square} bind def
/S0 {BL [] 0 setdash 2 copy moveto 0 vpt rlineto BL Bsquare} bind def
/S1 {BL [] 0 setdash 2 copy vpt Square fill Bsquare} bind def
/S2 {BL [] 0 setdash 2 copy exch vpt sub exch vpt Square fill Bsquare} bind def
/S3 {BL [] 0 setdash 2 copy exch vpt sub exch vpt2 vpt Rec fill Bsquare} bind def
/S4 {BL [] 0 setdash 2 copy exch vpt sub exch vpt sub vpt Square fill Bsquare} bind def
/S5 {BL [] 0 setdash 2 copy 2 copy vpt Square fill
	exch vpt sub exch vpt sub vpt Square fill Bsquare} bind def
/S6 {BL [] 0 setdash 2 copy exch vpt sub exch vpt sub vpt vpt2 Rec fill Bsquare} bind def
/S7 {BL [] 0 setdash 2 copy exch vpt sub exch vpt sub vpt vpt2 Rec fill
	2 copy vpt Square fill Bsquare} bind def
/S8 {BL [] 0 setdash 2 copy vpt sub vpt Square fill Bsquare} bind def
/S9 {BL [] 0 setdash 2 copy vpt sub vpt vpt2 Rec fill Bsquare} bind def
/S10 {BL [] 0 setdash 2 copy vpt sub vpt Square fill 2 copy exch vpt sub exch vpt Square fill
	Bsquare} bind def
/S11 {BL [] 0 setdash 2 copy vpt sub vpt Square fill 2 copy exch vpt sub exch vpt2 vpt Rec fill
	Bsquare} bind def
/S12 {BL [] 0 setdash 2 copy exch vpt sub exch vpt sub vpt2 vpt Rec fill Bsquare} bind def
/S13 {BL [] 0 setdash 2 copy exch vpt sub exch vpt sub vpt2 vpt Rec fill
	2 copy vpt Square fill Bsquare} bind def
/S14 {BL [] 0 setdash 2 copy exch vpt sub exch vpt sub vpt2 vpt Rec fill
	2 copy exch vpt sub exch vpt Square fill Bsquare} bind def
/S15 {BL [] 0 setdash 2 copy Bsquare fill Bsquare} bind def
/D0 {gsave translate 45 rotate 0 0 S0 stroke grestore} bind def
/D1 {gsave translate 45 rotate 0 0 S1 stroke grestore} bind def
/D2 {gsave translate 45 rotate 0 0 S2 stroke grestore} bind def
/D3 {gsave translate 45 rotate 0 0 S3 stroke grestore} bind def
/D4 {gsave translate 45 rotate 0 0 S4 stroke grestore} bind def
/D5 {gsave translate 45 rotate 0 0 S5 stroke grestore} bind def
/D6 {gsave translate 45 rotate 0 0 S6 stroke grestore} bind def
/D7 {gsave translate 45 rotate 0 0 S7 stroke grestore} bind def
/D8 {gsave translate 45 rotate 0 0 S8 stroke grestore} bind def
/D9 {gsave translate 45 rotate 0 0 S9 stroke grestore} bind def
/D10 {gsave translate 45 rotate 0 0 S10 stroke grestore} bind def
/D11 {gsave translate 45 rotate 0 0 S11 stroke grestore} bind def
/D12 {gsave translate 45 rotate 0 0 S12 stroke grestore} bind def
/D13 {gsave translate 45 rotate 0 0 S13 stroke grestore} bind def
/D14 {gsave translate 45 rotate 0 0 S14 stroke grestore} bind def
/D15 {gsave translate 45 rotate 0 0 S15 stroke grestore} bind def
/DiaE {stroke [] 0 setdash vpt add M
  hpt neg vpt neg V hpt vpt neg V
  hpt vpt V hpt neg vpt V closepath stroke} def
/BoxE {stroke [] 0 setdash exch hpt sub exch vpt add M
  0 vpt2 neg V hpt2 0 V 0 vpt2 V
  hpt2 neg 0 V closepath stroke} def
/TriUE {stroke [] 0 setdash vpt 1.12 mul add M
  hpt neg vpt -1.62 mul V
  hpt 2 mul 0 V
  hpt neg vpt 1.62 mul V closepath stroke} def
/TriDE {stroke [] 0 setdash vpt 1.12 mul sub M
  hpt neg vpt 1.62 mul V
  hpt 2 mul 0 V
  hpt neg vpt -1.62 mul V closepath stroke} def
/PentE {stroke [] 0 setdash gsave
  translate 0 hpt M 4 {72 rotate 0 hpt L} repeat
  closepath stroke grestore} def
/CircE {stroke [] 0 setdash 
  hpt 0 360 arc stroke} def
/Opaque {gsave closepath 1 setgray fill grestore 0 setgray closepath} def
/DiaW {stroke [] 0 setdash vpt add M
  hpt neg vpt neg V hpt vpt neg V
  hpt vpt V hpt neg vpt V Opaque stroke} def
/BoxW {stroke [] 0 setdash exch hpt sub exch vpt add M
  0 vpt2 neg V hpt2 0 V 0 vpt2 V
  hpt2 neg 0 V Opaque stroke} def
/TriUW {stroke [] 0 setdash vpt 1.12 mul add M
  hpt neg vpt -1.62 mul V
  hpt 2 mul 0 V
  hpt neg vpt 1.62 mul V Opaque stroke} def
/TriDW {stroke [] 0 setdash vpt 1.12 mul sub M
  hpt neg vpt 1.62 mul V
  hpt 2 mul 0 V
  hpt neg vpt -1.62 mul V Opaque stroke} def
/PentW {stroke [] 0 setdash gsave
  translate 0 hpt M 4 {72 rotate 0 hpt L} repeat
  Opaque stroke grestore} def
/CircW {stroke [] 0 setdash 
  hpt 0 360 arc Opaque stroke} def
/BoxFill {gsave Rec 1 setgray fill grestore} def
/Density {
  /Fillden exch def
  currentrgbcolor
  /ColB exch def /ColG exch def /ColR exch def
  /ColR ColR Fillden mul Fillden sub 1 add def
  /ColG ColG Fillden mul Fillden sub 1 add def
  /ColB ColB Fillden mul Fillden sub 1 add def
  ColR ColG ColB setrgbcolor} def
/BoxColFill {gsave Rec PolyFill} def
/PolyFill {gsave Density fill grestore grestore} def
/h {rlineto rlineto rlineto gsave closepath fill grestore} bind def
%
% PostScript Level 1 Pattern Fill routine for rectangles
% Usage: x y w h s a XX PatternFill
%	x,y = lower left corner of box to be filled
%	w,h = width and height of box
%	  a = angle in degrees between lines and x-axis
%	 XX = 0/1 for no/yes cross-hatch
%
/PatternFill {gsave /PFa [ 9 2 roll ] def
  PFa 0 get PFa 2 get 2 div add PFa 1 get PFa 3 get 2 div add translate
  PFa 2 get -2 div PFa 3 get -2 div PFa 2 get PFa 3 get Rec
  gsave 1 setgray fill grestore clip
  currentlinewidth 0.5 mul setlinewidth
  /PFs PFa 2 get dup mul PFa 3 get dup mul add sqrt def
  0 0 M PFa 5 get rotate PFs -2 div dup translate
  0 1 PFs PFa 4 get div 1 add floor cvi
	{PFa 4 get mul 0 M 0 PFs V} for
  0 PFa 6 get ne {
	0 1 PFs PFa 4 get div 1 add floor cvi
	{PFa 4 get mul 0 2 1 roll M PFs 0 V} for
 } if
  stroke grestore} def
%
/languagelevel where
 {pop languagelevel} {1} ifelse
 2 lt
	{/InterpretLevel1 true def}
	{/InterpretLevel1 Level1 def}
 ifelse
%
% PostScript level 2 pattern fill definitions
%
/Level2PatternFill {
/Tile8x8 {/PaintType 2 /PatternType 1 /TilingType 1 /BBox [0 0 8 8] /XStep 8 /YStep 8}
	bind def
/KeepColor {currentrgbcolor [/Pattern /DeviceRGB] setcolorspace} bind def
<< Tile8x8
 /PaintProc {0.5 setlinewidth pop 0 0 M 8 8 L 0 8 M 8 0 L stroke} 
>> matrix makepattern
/Pat1 exch def
<< Tile8x8
 /PaintProc {0.5 setlinewidth pop 0 0 M 8 8 L 0 8 M 8 0 L stroke
	0 4 M 4 8 L 8 4 L 4 0 L 0 4 L stroke}
>> matrix makepattern
/Pat2 exch def
<< Tile8x8
 /PaintProc {0.5 setlinewidth pop 0 0 M 0 8 L
	8 8 L 8 0 L 0 0 L fill}
>> matrix makepattern
/Pat3 exch def
<< Tile8x8
 /PaintProc {0.5 setlinewidth pop -4 8 M 8 -4 L
	0 12 M 12 0 L stroke}
>> matrix makepattern
/Pat4 exch def
<< Tile8x8
 /PaintProc {0.5 setlinewidth pop -4 0 M 8 12 L
	0 -4 M 12 8 L stroke}
>> matrix makepattern
/Pat5 exch def
<< Tile8x8
 /PaintProc {0.5 setlinewidth pop -2 8 M 4 -4 L
	0 12 M 8 -4 L 4 12 M 10 0 L stroke}
>> matrix makepattern
/Pat6 exch def
<< Tile8x8
 /PaintProc {0.5 setlinewidth pop -2 0 M 4 12 L
	0 -4 M 8 12 L 4 -4 M 10 8 L stroke}
>> matrix makepattern
/Pat7 exch def
<< Tile8x8
 /PaintProc {0.5 setlinewidth pop 8 -2 M -4 4 L
	12 0 M -4 8 L 12 4 M 0 10 L stroke}
>> matrix makepattern
/Pat8 exch def
<< Tile8x8
 /PaintProc {0.5 setlinewidth pop 0 -2 M 12 4 L
	-4 0 M 12 8 L -4 4 M 8 10 L stroke}
>> matrix makepattern
/Pat9 exch def
/Pattern1 {PatternBgnd KeepColor Pat1 setpattern} bind def
/Pattern2 {PatternBgnd KeepColor Pat2 setpattern} bind def
/Pattern3 {PatternBgnd KeepColor Pat3 setpattern} bind def
/Pattern4 {PatternBgnd KeepColor Landscape {Pat5} {Pat4} ifelse setpattern} bind def
/Pattern5 {PatternBgnd KeepColor Landscape {Pat4} {Pat5} ifelse setpattern} bind def
/Pattern6 {PatternBgnd KeepColor Landscape {Pat9} {Pat6} ifelse setpattern} bind def
/Pattern7 {PatternBgnd KeepColor Landscape {Pat8} {Pat7} ifelse setpattern} bind def
} def
%
%
%End of PostScript Level 2 code
%
/PatternBgnd {
  TransparentPatterns {} {gsave 1 setgray fill grestore} ifelse
} def
%
% Substitute for Level 2 pattern fill codes with
% grayscale if Level 2 support is not selected.
%
/Level1PatternFill {
/Pattern1 {0.250 Density} bind def
/Pattern2 {0.500 Density} bind def
/Pattern3 {0.750 Density} bind def
/Pattern4 {0.125 Density} bind def
/Pattern5 {0.375 Density} bind def
/Pattern6 {0.625 Density} bind def
/Pattern7 {0.875 Density} bind def
} def
%
% Now test for support of Level 2 code
%
Level1 {Level1PatternFill} {Level2PatternFill} ifelse
%
/Symbol-Oblique /Symbol findfont [1 0 .167 1 0 0] makefont
dup length dict begin {1 index /FID eq {pop pop} {def} ifelse} forall
currentdict end definefont pop
/MFshow {
   { dup 5 get 3 ge
     { 5 get 3 eq {gsave} {grestore} ifelse }
     {dup dup 0 get findfont exch 1 get scalefont setfont
     [ currentpoint ] exch dup 2 get 0 exch R dup 5 get 2 ne {dup dup 6
     get exch 4 get {show} {stringwidth pop 0 R} ifelse }if dup 5 get 0 eq
     {dup 3 get {2 get neg 0 exch R pop} {pop aload pop M} ifelse} {dup 5
     get 1 eq {dup 2 get exch dup 3 get exch 6 get stringwidth pop -2 div
     dup 0 R} {dup 6 get stringwidth pop -2 div 0 R 6 get
     show 2 index {aload pop M neg 3 -1 roll neg R pop pop} {pop pop pop
     pop aload pop M} ifelse }ifelse }ifelse }
     ifelse }
   forall} bind def
/MFwidth {0 exch { dup 5 get 3 ge { 5 get 3 eq { 0 } { pop } ifelse }
 {dup 3 get{dup dup 0 get findfont exch 1 get scalefont setfont
     6 get stringwidth pop add} {pop} ifelse} ifelse} forall} bind def
/MLshow { currentpoint stroke M
  0 exch R
  Blacktext {gsave 0 setgray MFshow grestore} {MFshow} ifelse } bind def
/MRshow { currentpoint stroke M
  exch dup MFwidth neg 3 -1 roll R
  Blacktext {gsave 0 setgray MFshow grestore} {MFshow} ifelse } bind def
/MCshow { currentpoint stroke M
  exch dup MFwidth -2 div 3 -1 roll R
  Blacktext {gsave 0 setgray MFshow grestore} {MFshow} ifelse } bind def
/XYsave    { [( ) 1 2 true false 3 ()] } bind def
/XYrestore { [( ) 1 2 true false 4 ()] } bind def
end
%%EndProlog
gnudict begin
gsave
50 50 translate
0.050 0.050 scale
0 setgray
newpath
(Helvetica) findfont 140 scalefont setfont
1.000 UL
LTb
1.000 UL
LTa
854 448 M
6136 0 V
stroke
LTb
854 448 M
63 0 V
6073 0 R
-63 0 V
stroke
770 448 M
[ [(Helvetica) 140.0 0.0 true true 0 ( 0)]
] -46.7 MRshow
1.000 UL
LTb
1.000 UL
LTa
854 1185 M
6136 0 V
stroke
LTb
854 1185 M
63 0 V
6073 0 R
-63 0 V
stroke
770 1185 M
[ [(Helvetica) 140.0 0.0 true true 0 ( 0.1)]
] -46.7 MRshow
1.000 UL
LTb
1.000 UL
LTa
854 1923 M
6136 0 V
stroke
LTb
854 1923 M
63 0 V
6073 0 R
-63 0 V
stroke
770 1923 M
[ [(Helvetica) 140.0 0.0 true true 0 ( 0.2)]
] -46.7 MRshow
1.000 UL
LTb
1.000 UL
LTa
854 2660 M
6136 0 V
stroke
LTb
854 2660 M
63 0 V
6073 0 R
-63 0 V
stroke
770 2660 M
[ [(Helvetica) 140.0 0.0 true true 0 ( 0.3)]
] -46.7 MRshow
1.000 UL
LTb
1.000 UL
LTa
854 3397 M
6136 0 V
stroke
LTb
854 3397 M
63 0 V
6073 0 R
-63 0 V
stroke
770 3397 M
[ [(Helvetica) 140.0 0.0 true true 0 ( 0.4)]
] -46.7 MRshow
1.000 UL
LTb
1.000 UL
LTa
854 4135 M
6136 0 V
stroke
LTb
854 4135 M
63 0 V
6073 0 R
-63 0 V
stroke
770 4135 M
[ [(Helvetica) 140.0 0.0 true true 0 ( 0.5)]
] -46.7 MRshow
1.000 UL
LTb
1.000 UL
LTa
854 4872 M
6136 0 V
stroke
LTb
854 4872 M
63 0 V
6073 0 R
-63 0 V
stroke
770 4872 M
[ [(Helvetica) 140.0 0.0 true true 0 ( 0.6)]
] -46.7 MRshow
1.000 UL
LTb
1.000 UL
LTa
854 448 M
0 4424 V
stroke
LTb
854 448 M
0 63 V
0 4361 R
0 -63 V
stroke
854 308 M
[ [(Helvetica) 140.0 0.0 true true 0 ( 0)]
] -46.7 MCshow
1.000 UL
LTb
1.000 UL
LTa
2081 448 M
0 4424 V
stroke
LTb
2081 448 M
0 63 V
0 4361 R
0 -63 V
stroke
2081 308 M
[ [(Helvetica) 140.0 0.0 true true 0 ( 2000)]
] -46.7 MCshow
1.000 UL
LTb
1.000 UL
LTa
3308 448 M
0 4424 V
stroke
LTb
3308 448 M
0 63 V
0 4361 R
0 -63 V
stroke
3308 308 M
[ [(Helvetica) 140.0 0.0 true true 0 ( 4000)]
] -46.7 MCshow
1.000 UL
LTb
1.000 UL
LTa
4536 448 M
0 4424 V
stroke
LTb
4536 448 M
0 63 V
0 4361 R
0 -63 V
stroke
4536 308 M
[ [(Helvetica) 140.0 0.0 true true 0 ( 6000)]
] -46.7 MCshow
1.000 UL
LTb
1.000 UL
LTa
5763 448 M
0 3801 V
0 560 R
0 63 V
stroke
LTb
5763 448 M
0 63 V
0 4361 R
0 -63 V
stroke
5763 308 M
[ [(Helvetica) 140.0 0.0 true true 0 ( 8000)]
] -46.7 MCshow
1.000 UL
LTb
1.000 UL
LTa
6990 448 M
0 4424 V
stroke
LTb
6990 448 M
0 63 V
0 4361 R
0 -63 V
stroke
6990 308 M
[ [(Helvetica) 140.0 0.0 true true 0 ( 10000)]
] -46.7 MCshow
1.000 UL
LTb
1.000 UL
LTb
854 4872 N
854 448 L
6136 0 V
0 4424 V
-6136 0 V
Z stroke
LCb setrgbcolor
280 2660 M
currentpoint gsave translate 90 rotate 0 0 moveto
[ [(Helvetica) 140.0 0.0 true true 0 (Noise \(normalized\))]
] -46.7 MCshow
grestore
LTb
LCb setrgbcolor
3922 98 M
[ [(Helvetica) 140.0 0.0 true true 0 (Usage)]
] -46.7 MCshow
LTb
1.000 UP
1.000 UL
LTb
1.000 UL
LTb
5499 4249 N
0 560 V
1407 0 V
0 -560 V
-1407 0 V
Z stroke
5499 4809 M
1407 0 V
1.000 UP
stroke
LT0
LTb
6339 4739 M
[ [(Helvetica) 140.0 0.0 true true 0 (busy-1hour)]
] -46.7 MRshow
LT0
1998 522 Crs
2022 930 Crs
1515 683 Crs
4923 559 Crs
6435 529 Crs
6619 736 Crs
4850 522 Crs
3082 522 Crs
3102 522 Crs
963 572 Crs
929 2271 Crs
932 1352 Crs
967 1176 Crs
5083 618 Crs
6692 812 Crs
4940 579 Crs
1800 522 Crs
2112 825 Crs
1893 1286 Crs
2107 460 Crs
2114 522 Crs
2134 522 Crs
2176 532 Crs
2174 617 Crs
2205 458 Crs
2278 626 Crs
2204 675 Crs
2281 824 Crs
2296 522 Crs
2306 964 Crs
2396 522 Crs
2422 726 Crs
2373 465 Crs
2433 868 Crs
2524 555 Crs
2600 585 Crs
2544 688 Crs
1013 825 Crs
1013 516 Crs
2619 596 Crs
2472 913 Crs
2673 458 Crs
2598 648 Crs
2770 560 Crs
2651 730 Crs
2833 522 Crs
2741 669 Crs
2811 531 Crs
2755 505 Crs
2851 773 Crs
2989 600 Crs
2919 515 Crs
2876 463 Crs
2941 480 Crs
2978 863 Crs
3007 778 Crs
3023 522 Crs
3077 656 Crs
3034 744 Crs
855 3949 Crs
855 522 Crs
1084 966 Crs
1053 1061 Crs
3161 555 Crs
3159 617 Crs
3237 475 Crs
3212 448 Crs
3240 629 Crs
3227 612 Crs
3326 481 Crs
3224 467 Crs
3311 861 Crs
3423 528 Crs
3377 592 Crs
3314 518 Crs
3439 509 Crs
3559 521 Crs
3529 568 Crs
3586 515 Crs
3631 522 Crs
3626 469 Crs
3493 1057 Crs
3785 538 Crs
1106 794 Crs
1141 1202 Crs
3688 477 Crs
3784 522 Crs
3693 733 Crs
3843 522 Crs
3885 636 Crs
3865 511 Crs
3875 585 Crs
3798 452 Crs
3993 522 Crs
3870 593 Crs
4020 511 Crs
3975 635 Crs
3993 697 Crs
3999 558 Crs
4063 575 Crs
4221 522 Crs
4161 522 Crs
4091 629 Crs
4266 586 Crs
4199 680 Crs
1182 841 Crs
1163 780 Crs
4248 594 Crs
4180 522 Crs
4450 522 Crs
4304 657 Crs
4273 660 Crs
4483 451 Crs
4453 522 Crs
4386 750 Crs
4522 467 Crs
4489 544 Crs
4444 701 Crs
4413 713 Crs
4590 651 Crs
4430 481 Crs
4577 677 Crs
4672 498 Crs
4583 780 Crs
4859 522 Crs
4861 522 Crs
4813 533 Crs
1219 1212 Crs
1271 522 Crs
4876 648 Crs
4881 697 Crs
4755 718 Crs
4884 728 Crs
4909 522 Crs
4895 473 Crs
4994 522 Crs
4901 935 Crs
5123 483 Crs
5047 664 Crs
5010 770 Crs
5174 522 Crs
5073 619 Crs
5130 489 Crs
5173 612 Crs
5161 522 Crs
5111 817 Crs
5233 522 Crs
5315 448 Crs
5368 522 Crs
1269 1038 Crs
1291 669 Crs
5390 590 Crs
5276 761 Crs
5297 808 Crs
5404 756 Crs
5600 466 Crs
5314 641 Crs
5516 760 Crs
5482 522 Crs
5480 517 Crs
5669 522 Crs
5620 661 Crs
5641 751 Crs
5736 477 Crs
5659 640 Crs
5778 523 Crs
5719 649 Crs
5793 609 Crs
5730 569 Crs
5828 697 Crs
5797 743 Crs
1376 522 Crs
1383 746 Crs
5949 538 Crs
5778 522 Crs
5949 631 Crs
5955 598 Crs
6043 622 Crs
6090 621 Crs
6132 639 Crs
6172 605 Crs
6202 574 Crs
6106 698 Crs
6256 633 Crs
6266 504 Crs
6351 522 Crs
6352 548 Crs
6354 725 Crs
6213 648 Crs
6183 732 Crs
6449 582 Crs
6340 696 Crs
6466 463 Crs
1402 522 Crs
1411 522 Crs
6465 698 Crs
6623 551 Crs
6545 567 Crs
6654 458 Crs
6592 668 Crs
6483 612 Crs
6600 492 Crs
6725 549 Crs
6702 742 Crs
6585 814 Crs
6837 549 Crs
6727 588 Crs
6837 494 Crs
6883 542 Crs
6896 649 Crs
6779 472 Crs
6816 566 Crs
6911 590 Crs
1472 555 Crs
1488 475 Crs
6865 667 Crs
1564 930 Crs
1583 840 Crs
1569 473 Crs
1611 635 Crs
1667 522 Crs
1657 620 Crs
1687 664 Crs
1668 522 Crs
1832 930 Crs
1725 960 Crs
1846 577 Crs
1772 846 Crs
1841 522 Crs
1831 582 Crs
1906 824 Crs
1893 839 Crs
6622 4739 Crs
1.000 UP
1.000 UL
LT1
LTb
6339 4599 M
[ [(Helvetica) 140.0 0.0 true true 0 (busy-2hour)]
] -46.7 MRshow
LT1
3155 501 Star
3173 518 Star
1089 546 Star
1123 1708 Star
3312 455 Star
2992 1059 Star
3361 560 Star
3373 522 Star
3421 801 Star
3506 621 Star
3539 522 Star
3594 539 Star
3690 522 Star
3609 762 Star
3736 1166 Star
3790 732 Star
3792 846 Star
3948 522 Star
3955 811 Star
3959 625 Star
4094 704 Star
4184 461 Star
4236 522 Star
4270 484 Star
1210 658 Star
1178 661 Star
4383 709 Star
4219 995 Star
4467 768 Star
4452 645 Star
4690 556 Star
4576 646 Star
4730 487 Star
4750 512 Star
4887 501 Star
4690 789 Star
4915 782 Star
5126 507 Star
5050 629 Star
4955 605 Star
5058 723 Star
5157 905 Star
5252 772 Star
5230 490 Star
5373 637 Star
5355 760 Star
856 709 Star
862 3777 Star
1311 826 Star
1272 796 Star
5391 681 Star
5585 544 Star
5790 523 Star
5568 522 Star
5674 743 Star
5784 452 Star
5852 571 Star
5760 480 Star
5909 688 Star
5901 771 Star
6042 460 Star
5909 883 Star
6101 735 Star
6285 562 Star
6230 574 Star
6502 522 Star
6445 707 Star
6540 531 Star
6356 852 Star
6734 502 Star
1384 718 Star
1395 552 Star
6650 515 Star
6642 533 Star
6567 809 Star
6956 522 Star
6941 484 Star
6821 803 Star
6970 759 Star
6786 719 Star
1560 522 Star
1492 894 Star
1623 1112 Star
1658 829 Star
1669 1326 Star
1769 893 Star
1889 571 Star
1889 449 Star
1967 522 Star
1963 845 Star
899 4825 Star
2103 692 Star
2074 619 Star
2273 650 Star
2263 512 Star
2303 470 Star
2403 616 Star
2479 522 Star
2434 613 Star
2505 713 Star
2565 692 Star
2778 547 Star
2686 658 Star
2827 474 Star
2735 477 Star
2819 655 Star
2840 650 Star
3087 489 Star
2951 916 Star
6622 4599 Star
1.000 UP
1.000 UL
LT2
LTb
6339 4459 M
[ [(Helvetica) 140.0 0.0 true true 0 (busy-3hour)]
] -46.7 MRshow
LT2
3958 522 Box
3988 642 Box
1166 735 Box
1183 502 Box
4190 522 Box
4121 522 Box
4338 522 Box
4465 511 Box
4391 885 Box
4513 504 Box
4572 754 Box
4606 587 Box
4733 527 Box
4698 828 Box
4984 934 Box
4920 522 Box
5042 868 Box
5060 522 Box
5344 657 Box
5147 920 Box
5344 896 Box
5533 559 Box
5441 951 Box
5550 454 Box
1374 507 Box
1290 1097 Box
5732 796 Box
5793 672 Box
5855 627 Box
5864 754 Box
6221 727 Box
6161 548 Box
6201 553 Box
6244 552 Box
6548 573 Box
6279 774 Box
6538 834 Box
6623 601 Box
6862 651 Box
6643 611 Box
6797 858 Box
6976 792 Box
1446 685 Box
1427 592 Box
1588 1071 Box
1588 459 Box
1881 711 Box
1816 485 Box
2016 554 Box
1979 629 Box
2078 594 Box
2170 540 Box
2322 522 Box
2265 546 Box
2389 675 Box
2465 731 Box
1012 1051 Box
960 694 Box
2528 866 Box
2571 542 Box
2804 522 Box
2669 538 Box
2891 677 Box
3039 686 Box
3129 522 Box
3021 691 Box
3193 573 Box
3304 480 Box
3438 507 Box
3478 487 Box
3627 797 Box
3532 487 Box
3665 827 Box
3730 483 Box
3996 572 Box
3899 852 Box
6622 4459 Box
1.000 UP
1.000 UL
LT3
LTb
6339 4319 M
[ [(Helvetica) 140.0 0.0 true true 0 (busy-6hour)]
] -46.7 MRshow
LT3
1467 522 BoxF
1553 771 BoxF
1836 518 BoxF
1746 750 BoxF
861 3282 BoxF
862 522 BoxF
2035 522 BoxF
2013 712 BoxF
2335 654 BoxF
2336 522 BoxF
2813 804 BoxF
2731 473 BoxF
3091 812 BoxF
3068 825 BoxF
3222 813 BoxF
3423 522 BoxF
3804 456 BoxF
3733 493 BoxF
3894 522 BoxF
4036 713 BoxF
1175 786 BoxF
1152 522 BoxF
4277 584 BoxF
4274 731 BoxF
4777 534 BoxF
4802 648 BoxF
4911 522 BoxF
5096 488 BoxF
5420 638 BoxF
5204 522 BoxF
5522 689 BoxF
5672 491 BoxF
6098 737 BoxF
6001 596 BoxF
6331 525 BoxF
6114 1033 BoxF
6534 652 BoxF
6478 669 BoxF
6913 617 BoxF
6880 696 BoxF
6622 4319 BoxF
1.000 UL
LTb
854 4872 N
854 448 L
6136 0 V
0 4424 V
-6136 0 V
Z stroke
1.000 UP
1.000 UL
LTb
stroke
grestore
end
showpage
%%Trailer
%%DocumentFonts: Helvetica
