%!PS-Adobe-2.0 EPSF-2.0
%%Title: zip-20-noiseratio-scatter-lte.eps
%%Creator: gnuplot 4.2 patchlevel 6 
%%CreationDate: Sat Feb 28 19:48:59 2015
%%DocumentFonts: (atend)
%%BoundingBox: 50 50 410 302
%%EndComments
%%BeginProlog
/gnudict 256 dict def
gnudict begin
%
% The following 6 true/false flags may be edited by hand if required
% The unit line width may also be changed
%
/Color true def
/Blacktext false def
/Solid false def
/Dashlength 1 def
/Landscape false def
/Level1 false def
/Rounded false def
/TransparentPatterns false def
/gnulinewidth 5.000 def
/userlinewidth gnulinewidth def
%
/vshift -46 def
/dl1 {
  10.0 Dashlength mul mul
  Rounded { currentlinewidth 0.75 mul sub dup 0 le { pop 0.01 } if } if
} def
/dl2 {
  10.0 Dashlength mul mul
  Rounded { currentlinewidth 0.75 mul add } if
} def
/hpt_ 31.5 def
/vpt_ 31.5 def
/hpt hpt_ def
/vpt vpt_ def
Level1 {} {
/SDict 10 dict def
systemdict /pdfmark known not {
  userdict /pdfmark systemdict /cleartomark get put
} if
SDict begin [
  /Title (zip-20-noiseratio-scatter-lte.eps)
  /Subject (gnuplot plot)
  /Creator (gnuplot 4.2 patchlevel 6 )
  /Author (Binh Nguyen,[chenxu])
%  /Producer (gnuplot)
%  /Keywords ()
  /CreationDate (Sat Feb 28 19:48:59 2015)
  /DOCINFO pdfmark
end
} ifelse
%
% Gnuplot Prolog Version 4.2 (August 2006)
%
/M {moveto} bind def
/L {lineto} bind def
/R {rmoveto} bind def
/V {rlineto} bind def
/N {newpath moveto} bind def
/Z {closepath} bind def
/C {setrgbcolor} bind def
/f {rlineto fill} bind def
/vpt2 vpt 2 mul def
/hpt2 hpt 2 mul def
/Lshow {currentpoint stroke M 0 vshift R 
	Blacktext {gsave 0 setgray show grestore} {show} ifelse} def
/Rshow {currentpoint stroke M dup stringwidth pop neg vshift R
	Blacktext {gsave 0 setgray show grestore} {show} ifelse} def
/Cshow {currentpoint stroke M dup stringwidth pop -2 div vshift R 
	Blacktext {gsave 0 setgray show grestore} {show} ifelse} def
/UP {dup vpt_ mul /vpt exch def hpt_ mul /hpt exch def
  /hpt2 hpt 2 mul def /vpt2 vpt 2 mul def} def
/DL {Color {setrgbcolor Solid {pop []} if 0 setdash}
 {pop pop pop 0 setgray Solid {pop []} if 0 setdash} ifelse} def
/BL {stroke userlinewidth 2 mul setlinewidth
	Rounded {1 setlinejoin 1 setlinecap} if} def
/AL {stroke userlinewidth 2 div setlinewidth
	Rounded {1 setlinejoin 1 setlinecap} if} def
/UL {dup gnulinewidth mul /userlinewidth exch def
	dup 1 lt {pop 1} if 10 mul /udl exch def} def
/PL {stroke userlinewidth setlinewidth
	Rounded {1 setlinejoin 1 setlinecap} if} def
% Default Line colors
/LCw {1 1 1} def
/LCb {0 0 0} def
/LCa {0 0 0} def
/LC0 {1 0 0} def
/LC1 {0 1 0} def
/LC2 {0 0 1} def
/LC3 {1 0 1} def
/LC4 {0 1 1} def
/LC5 {1 1 0} def
/LC6 {0 0 0} def
/LC7 {1 0.3 0} def
/LC8 {0.5 0.5 0.5} def
% Default Line Types
/LTw {PL [] 1 setgray} def
/LTb {BL [] LCb DL} def
/LTa {AL [1 udl mul 2 udl mul] 0 setdash LCa setrgbcolor} def
/LT0 {PL [] LC0 DL} def
/LT1 {PL [4 dl1 2 dl2] LC1 DL} def
/LT2 {PL [2 dl1 3 dl2] LC2 DL} def
/LT3 {PL [1 dl1 1.5 dl2] LC3 DL} def
/LT4 {PL [6 dl1 2 dl2 1 dl1 2 dl2] LC4 DL} def
/LT5 {PL [3 dl1 3 dl2 1 dl1 3 dl2] LC5 DL} def
/LT6 {PL [2 dl1 2 dl2 2 dl1 6 dl2] LC6 DL} def
/LT7 {PL [1 dl1 2 dl2 6 dl1 2 dl2 1 dl1 2 dl2] LC7 DL} def
/LT8 {PL [2 dl1 2 dl2 2 dl1 2 dl2 2 dl1 2 dl2 2 dl1 4 dl2] LC8 DL} def
/Pnt {stroke [] 0 setdash gsave 1 setlinecap M 0 0 V stroke grestore} def
/Dia {stroke [] 0 setdash 2 copy vpt add M
  hpt neg vpt neg V hpt vpt neg V
  hpt vpt V hpt neg vpt V closepath stroke
  Pnt} def
/Pls {stroke [] 0 setdash vpt sub M 0 vpt2 V
  currentpoint stroke M
  hpt neg vpt neg R hpt2 0 V stroke
 } def
/Box {stroke [] 0 setdash 2 copy exch hpt sub exch vpt add M
  0 vpt2 neg V hpt2 0 V 0 vpt2 V
  hpt2 neg 0 V closepath stroke
  Pnt} def
/Crs {stroke [] 0 setdash exch hpt sub exch vpt add M
  hpt2 vpt2 neg V currentpoint stroke M
  hpt2 neg 0 R hpt2 vpt2 V stroke} def
/TriU {stroke [] 0 setdash 2 copy vpt 1.12 mul add M
  hpt neg vpt -1.62 mul V
  hpt 2 mul 0 V
  hpt neg vpt 1.62 mul V closepath stroke
  Pnt} def
/Star {2 copy Pls Crs} def
/BoxF {stroke [] 0 setdash exch hpt sub exch vpt add M
  0 vpt2 neg V hpt2 0 V 0 vpt2 V
  hpt2 neg 0 V closepath fill} def
/TriUF {stroke [] 0 setdash vpt 1.12 mul add M
  hpt neg vpt -1.62 mul V
  hpt 2 mul 0 V
  hpt neg vpt 1.62 mul V closepath fill} def
/TriD {stroke [] 0 setdash 2 copy vpt 1.12 mul sub M
  hpt neg vpt 1.62 mul V
  hpt 2 mul 0 V
  hpt neg vpt -1.62 mul V closepath stroke
  Pnt} def
/TriDF {stroke [] 0 setdash vpt 1.12 mul sub M
  hpt neg vpt 1.62 mul V
  hpt 2 mul 0 V
  hpt neg vpt -1.62 mul V closepath fill} def
/DiaF {stroke [] 0 setdash vpt add M
  hpt neg vpt neg V hpt vpt neg V
  hpt vpt V hpt neg vpt V closepath fill} def
/Pent {stroke [] 0 setdash 2 copy gsave
  translate 0 hpt M 4 {72 rotate 0 hpt L} repeat
  closepath stroke grestore Pnt} def
/PentF {stroke [] 0 setdash gsave
  translate 0 hpt M 4 {72 rotate 0 hpt L} repeat
  closepath fill grestore} def
/Circle {stroke [] 0 setdash 2 copy
  hpt 0 360 arc stroke Pnt} def
/CircleF {stroke [] 0 setdash hpt 0 360 arc fill} def
/C0 {BL [] 0 setdash 2 copy moveto vpt 90 450 arc} bind def
/C1 {BL [] 0 setdash 2 copy moveto
	2 copy vpt 0 90 arc closepath fill
	vpt 0 360 arc closepath} bind def
/C2 {BL [] 0 setdash 2 copy moveto
	2 copy vpt 90 180 arc closepath fill
	vpt 0 360 arc closepath} bind def
/C3 {BL [] 0 setdash 2 copy moveto
	2 copy vpt 0 180 arc closepath fill
	vpt 0 360 arc closepath} bind def
/C4 {BL [] 0 setdash 2 copy moveto
	2 copy vpt 180 270 arc closepath fill
	vpt 0 360 arc closepath} bind def
/C5 {BL [] 0 setdash 2 copy moveto
	2 copy vpt 0 90 arc
	2 copy moveto
	2 copy vpt 180 270 arc closepath fill
	vpt 0 360 arc} bind def
/C6 {BL [] 0 setdash 2 copy moveto
	2 copy vpt 90 270 arc closepath fill
	vpt 0 360 arc closepath} bind def
/C7 {BL [] 0 setdash 2 copy moveto
	2 copy vpt 0 270 arc closepath fill
	vpt 0 360 arc closepath} bind def
/C8 {BL [] 0 setdash 2 copy moveto
	2 copy vpt 270 360 arc closepath fill
	vpt 0 360 arc closepath} bind def
/C9 {BL [] 0 setdash 2 copy moveto
	2 copy vpt 270 450 arc closepath fill
	vpt 0 360 arc closepath} bind def
/C10 {BL [] 0 setdash 2 copy 2 copy moveto vpt 270 360 arc closepath fill
	2 copy moveto
	2 copy vpt 90 180 arc closepath fill
	vpt 0 360 arc closepath} bind def
/C11 {BL [] 0 setdash 2 copy moveto
	2 copy vpt 0 180 arc closepath fill
	2 copy moveto
	2 copy vpt 270 360 arc closepath fill
	vpt 0 360 arc closepath} bind def
/C12 {BL [] 0 setdash 2 copy moveto
	2 copy vpt 180 360 arc closepath fill
	vpt 0 360 arc closepath} bind def
/C13 {BL [] 0 setdash 2 copy moveto
	2 copy vpt 0 90 arc closepath fill
	2 copy moveto
	2 copy vpt 180 360 arc closepath fill
	vpt 0 360 arc closepath} bind def
/C14 {BL [] 0 setdash 2 copy moveto
	2 copy vpt 90 360 arc closepath fill
	vpt 0 360 arc} bind def
/C15 {BL [] 0 setdash 2 copy vpt 0 360 arc closepath fill
	vpt 0 360 arc closepath} bind def
/Rec {newpath 4 2 roll moveto 1 index 0 rlineto 0 exch rlineto
	neg 0 rlineto closepath} bind def
/Square {dup Rec} bind def
/Bsquare {vpt sub exch vpt sub exch vpt2 Square} bind def
/S0 {BL [] 0 setdash 2 copy moveto 0 vpt rlineto BL Bsquare} bind def
/S1 {BL [] 0 setdash 2 copy vpt Square fill Bsquare} bind def
/S2 {BL [] 0 setdash 2 copy exch vpt sub exch vpt Square fill Bsquare} bind def
/S3 {BL [] 0 setdash 2 copy exch vpt sub exch vpt2 vpt Rec fill Bsquare} bind def
/S4 {BL [] 0 setdash 2 copy exch vpt sub exch vpt sub vpt Square fill Bsquare} bind def
/S5 {BL [] 0 setdash 2 copy 2 copy vpt Square fill
	exch vpt sub exch vpt sub vpt Square fill Bsquare} bind def
/S6 {BL [] 0 setdash 2 copy exch vpt sub exch vpt sub vpt vpt2 Rec fill Bsquare} bind def
/S7 {BL [] 0 setdash 2 copy exch vpt sub exch vpt sub vpt vpt2 Rec fill
	2 copy vpt Square fill Bsquare} bind def
/S8 {BL [] 0 setdash 2 copy vpt sub vpt Square fill Bsquare} bind def
/S9 {BL [] 0 setdash 2 copy vpt sub vpt vpt2 Rec fill Bsquare} bind def
/S10 {BL [] 0 setdash 2 copy vpt sub vpt Square fill 2 copy exch vpt sub exch vpt Square fill
	Bsquare} bind def
/S11 {BL [] 0 setdash 2 copy vpt sub vpt Square fill 2 copy exch vpt sub exch vpt2 vpt Rec fill
	Bsquare} bind def
/S12 {BL [] 0 setdash 2 copy exch vpt sub exch vpt sub vpt2 vpt Rec fill Bsquare} bind def
/S13 {BL [] 0 setdash 2 copy exch vpt sub exch vpt sub vpt2 vpt Rec fill
	2 copy vpt Square fill Bsquare} bind def
/S14 {BL [] 0 setdash 2 copy exch vpt sub exch vpt sub vpt2 vpt Rec fill
	2 copy exch vpt sub exch vpt Square fill Bsquare} bind def
/S15 {BL [] 0 setdash 2 copy Bsquare fill Bsquare} bind def
/D0 {gsave translate 45 rotate 0 0 S0 stroke grestore} bind def
/D1 {gsave translate 45 rotate 0 0 S1 stroke grestore} bind def
/D2 {gsave translate 45 rotate 0 0 S2 stroke grestore} bind def
/D3 {gsave translate 45 rotate 0 0 S3 stroke grestore} bind def
/D4 {gsave translate 45 rotate 0 0 S4 stroke grestore} bind def
/D5 {gsave translate 45 rotate 0 0 S5 stroke grestore} bind def
/D6 {gsave translate 45 rotate 0 0 S6 stroke grestore} bind def
/D7 {gsave translate 45 rotate 0 0 S7 stroke grestore} bind def
/D8 {gsave translate 45 rotate 0 0 S8 stroke grestore} bind def
/D9 {gsave translate 45 rotate 0 0 S9 stroke grestore} bind def
/D10 {gsave translate 45 rotate 0 0 S10 stroke grestore} bind def
/D11 {gsave translate 45 rotate 0 0 S11 stroke grestore} bind def
/D12 {gsave translate 45 rotate 0 0 S12 stroke grestore} bind def
/D13 {gsave translate 45 rotate 0 0 S13 stroke grestore} bind def
/D14 {gsave translate 45 rotate 0 0 S14 stroke grestore} bind def
/D15 {gsave translate 45 rotate 0 0 S15 stroke grestore} bind def
/DiaE {stroke [] 0 setdash vpt add M
  hpt neg vpt neg V hpt vpt neg V
  hpt vpt V hpt neg vpt V closepath stroke} def
/BoxE {stroke [] 0 setdash exch hpt sub exch vpt add M
  0 vpt2 neg V hpt2 0 V 0 vpt2 V
  hpt2 neg 0 V closepath stroke} def
/TriUE {stroke [] 0 setdash vpt 1.12 mul add M
  hpt neg vpt -1.62 mul V
  hpt 2 mul 0 V
  hpt neg vpt 1.62 mul V closepath stroke} def
/TriDE {stroke [] 0 setdash vpt 1.12 mul sub M
  hpt neg vpt 1.62 mul V
  hpt 2 mul 0 V
  hpt neg vpt -1.62 mul V closepath stroke} def
/PentE {stroke [] 0 setdash gsave
  translate 0 hpt M 4 {72 rotate 0 hpt L} repeat
  closepath stroke grestore} def
/CircE {stroke [] 0 setdash 
  hpt 0 360 arc stroke} def
/Opaque {gsave closepath 1 setgray fill grestore 0 setgray closepath} def
/DiaW {stroke [] 0 setdash vpt add M
  hpt neg vpt neg V hpt vpt neg V
  hpt vpt V hpt neg vpt V Opaque stroke} def
/BoxW {stroke [] 0 setdash exch hpt sub exch vpt add M
  0 vpt2 neg V hpt2 0 V 0 vpt2 V
  hpt2 neg 0 V Opaque stroke} def
/TriUW {stroke [] 0 setdash vpt 1.12 mul add M
  hpt neg vpt -1.62 mul V
  hpt 2 mul 0 V
  hpt neg vpt 1.62 mul V Opaque stroke} def
/TriDW {stroke [] 0 setdash vpt 1.12 mul sub M
  hpt neg vpt 1.62 mul V
  hpt 2 mul 0 V
  hpt neg vpt -1.62 mul V Opaque stroke} def
/PentW {stroke [] 0 setdash gsave
  translate 0 hpt M 4 {72 rotate 0 hpt L} repeat
  Opaque stroke grestore} def
/CircW {stroke [] 0 setdash 
  hpt 0 360 arc Opaque stroke} def
/BoxFill {gsave Rec 1 setgray fill grestore} def
/Density {
  /Fillden exch def
  currentrgbcolor
  /ColB exch def /ColG exch def /ColR exch def
  /ColR ColR Fillden mul Fillden sub 1 add def
  /ColG ColG Fillden mul Fillden sub 1 add def
  /ColB ColB Fillden mul Fillden sub 1 add def
  ColR ColG ColB setrgbcolor} def
/BoxColFill {gsave Rec PolyFill} def
/PolyFill {gsave Density fill grestore grestore} def
/h {rlineto rlineto rlineto gsave closepath fill grestore} bind def
%
% PostScript Level 1 Pattern Fill routine for rectangles
% Usage: x y w h s a XX PatternFill
%	x,y = lower left corner of box to be filled
%	w,h = width and height of box
%	  a = angle in degrees between lines and x-axis
%	 XX = 0/1 for no/yes cross-hatch
%
/PatternFill {gsave /PFa [ 9 2 roll ] def
  PFa 0 get PFa 2 get 2 div add PFa 1 get PFa 3 get 2 div add translate
  PFa 2 get -2 div PFa 3 get -2 div PFa 2 get PFa 3 get Rec
  gsave 1 setgray fill grestore clip
  currentlinewidth 0.5 mul setlinewidth
  /PFs PFa 2 get dup mul PFa 3 get dup mul add sqrt def
  0 0 M PFa 5 get rotate PFs -2 div dup translate
  0 1 PFs PFa 4 get div 1 add floor cvi
	{PFa 4 get mul 0 M 0 PFs V} for
  0 PFa 6 get ne {
	0 1 PFs PFa 4 get div 1 add floor cvi
	{PFa 4 get mul 0 2 1 roll M PFs 0 V} for
 } if
  stroke grestore} def
%
/languagelevel where
 {pop languagelevel} {1} ifelse
 2 lt
	{/InterpretLevel1 true def}
	{/InterpretLevel1 Level1 def}
 ifelse
%
% PostScript level 2 pattern fill definitions
%
/Level2PatternFill {
/Tile8x8 {/PaintType 2 /PatternType 1 /TilingType 1 /BBox [0 0 8 8] /XStep 8 /YStep 8}
	bind def
/KeepColor {currentrgbcolor [/Pattern /DeviceRGB] setcolorspace} bind def
<< Tile8x8
 /PaintProc {0.5 setlinewidth pop 0 0 M 8 8 L 0 8 M 8 0 L stroke} 
>> matrix makepattern
/Pat1 exch def
<< Tile8x8
 /PaintProc {0.5 setlinewidth pop 0 0 M 8 8 L 0 8 M 8 0 L stroke
	0 4 M 4 8 L 8 4 L 4 0 L 0 4 L stroke}
>> matrix makepattern
/Pat2 exch def
<< Tile8x8
 /PaintProc {0.5 setlinewidth pop 0 0 M 0 8 L
	8 8 L 8 0 L 0 0 L fill}
>> matrix makepattern
/Pat3 exch def
<< Tile8x8
 /PaintProc {0.5 setlinewidth pop -4 8 M 8 -4 L
	0 12 M 12 0 L stroke}
>> matrix makepattern
/Pat4 exch def
<< Tile8x8
 /PaintProc {0.5 setlinewidth pop -4 0 M 8 12 L
	0 -4 M 12 8 L stroke}
>> matrix makepattern
/Pat5 exch def
<< Tile8x8
 /PaintProc {0.5 setlinewidth pop -2 8 M 4 -4 L
	0 12 M 8 -4 L 4 12 M 10 0 L stroke}
>> matrix makepattern
/Pat6 exch def
<< Tile8x8
 /PaintProc {0.5 setlinewidth pop -2 0 M 4 12 L
	0 -4 M 8 12 L 4 -4 M 10 8 L stroke}
>> matrix makepattern
/Pat7 exch def
<< Tile8x8
 /PaintProc {0.5 setlinewidth pop 8 -2 M -4 4 L
	12 0 M -4 8 L 12 4 M 0 10 L stroke}
>> matrix makepattern
/Pat8 exch def
<< Tile8x8
 /PaintProc {0.5 setlinewidth pop 0 -2 M 12 4 L
	-4 0 M 12 8 L -4 4 M 8 10 L stroke}
>> matrix makepattern
/Pat9 exch def
/Pattern1 {PatternBgnd KeepColor Pat1 setpattern} bind def
/Pattern2 {PatternBgnd KeepColor Pat2 setpattern} bind def
/Pattern3 {PatternBgnd KeepColor Pat3 setpattern} bind def
/Pattern4 {PatternBgnd KeepColor Landscape {Pat5} {Pat4} ifelse setpattern} bind def
/Pattern5 {PatternBgnd KeepColor Landscape {Pat4} {Pat5} ifelse setpattern} bind def
/Pattern6 {PatternBgnd KeepColor Landscape {Pat9} {Pat6} ifelse setpattern} bind def
/Pattern7 {PatternBgnd KeepColor Landscape {Pat8} {Pat7} ifelse setpattern} bind def
} def
%
%
%End of PostScript Level 2 code
%
/PatternBgnd {
  TransparentPatterns {} {gsave 1 setgray fill grestore} ifelse
} def
%
% Substitute for Level 2 pattern fill codes with
% grayscale if Level 2 support is not selected.
%
/Level1PatternFill {
/Pattern1 {0.250 Density} bind def
/Pattern2 {0.500 Density} bind def
/Pattern3 {0.750 Density} bind def
/Pattern4 {0.125 Density} bind def
/Pattern5 {0.375 Density} bind def
/Pattern6 {0.625 Density} bind def
/Pattern7 {0.875 Density} bind def
} def
%
% Now test for support of Level 2 code
%
Level1 {Level1PatternFill} {Level2PatternFill} ifelse
%
/Symbol-Oblique /Symbol findfont [1 0 .167 1 0 0] makefont
dup length dict begin {1 index /FID eq {pop pop} {def} ifelse} forall
currentdict end definefont pop
/MFshow {
   { dup 5 get 3 ge
     { 5 get 3 eq {gsave} {grestore} ifelse }
     {dup dup 0 get findfont exch 1 get scalefont setfont
     [ currentpoint ] exch dup 2 get 0 exch R dup 5 get 2 ne {dup dup 6
     get exch 4 get {show} {stringwidth pop 0 R} ifelse }if dup 5 get 0 eq
     {dup 3 get {2 get neg 0 exch R pop} {pop aload pop M} ifelse} {dup 5
     get 1 eq {dup 2 get exch dup 3 get exch 6 get stringwidth pop -2 div
     dup 0 R} {dup 6 get stringwidth pop -2 div 0 R 6 get
     show 2 index {aload pop M neg 3 -1 roll neg R pop pop} {pop pop pop
     pop aload pop M} ifelse }ifelse }ifelse }
     ifelse }
   forall} bind def
/MFwidth {0 exch { dup 5 get 3 ge { 5 get 3 eq { 0 } { pop } ifelse }
 {dup 3 get{dup dup 0 get findfont exch 1 get scalefont setfont
     6 get stringwidth pop add} {pop} ifelse} ifelse} forall} bind def
/MLshow { currentpoint stroke M
  0 exch R
  Blacktext {gsave 0 setgray MFshow grestore} {MFshow} ifelse } bind def
/MRshow { currentpoint stroke M
  exch dup MFwidth neg 3 -1 roll R
  Blacktext {gsave 0 setgray MFshow grestore} {MFshow} ifelse } bind def
/MCshow { currentpoint stroke M
  exch dup MFwidth -2 div 3 -1 roll R
  Blacktext {gsave 0 setgray MFshow grestore} {MFshow} ifelse } bind def
/XYsave    { [( ) 1 2 true false 3 ()] } bind def
/XYrestore { [( ) 1 2 true false 4 ()] } bind def
end
%%EndProlog
gnudict begin
gsave
50 50 translate
0.050 0.050 scale
0 setgray
newpath
(Helvetica) findfont 140 scalefont setfont
1.000 UL
LTb
1.000 UL
LTa
854 448 M
6136 0 V
stroke
LTb
854 448 M
63 0 V
6073 0 R
-63 0 V
stroke
770 448 M
[ [(Helvetica) 140.0 0.0 true true 0 ( 0)]
] -46.7 MRshow
1.000 UL
LTb
1.000 UL
LTa
854 1333 M
6136 0 V
stroke
LTb
854 1333 M
63 0 V
6073 0 R
-63 0 V
stroke
770 1333 M
[ [(Helvetica) 140.0 0.0 true true 0 ( 0.2)]
] -46.7 MRshow
1.000 UL
LTb
1.000 UL
LTa
854 2218 M
6136 0 V
stroke
LTb
854 2218 M
63 0 V
6073 0 R
-63 0 V
stroke
770 2218 M
[ [(Helvetica) 140.0 0.0 true true 0 ( 0.4)]
] -46.7 MRshow
1.000 UL
LTb
1.000 UL
LTa
854 3102 M
6136 0 V
stroke
LTb
854 3102 M
63 0 V
6073 0 R
-63 0 V
stroke
770 3102 M
[ [(Helvetica) 140.0 0.0 true true 0 ( 0.6)]
] -46.7 MRshow
1.000 UL
LTb
1.000 UL
LTa
854 3987 M
6136 0 V
stroke
LTb
854 3987 M
63 0 V
6073 0 R
-63 0 V
stroke
770 3987 M
[ [(Helvetica) 140.0 0.0 true true 0 ( 0.8)]
] -46.7 MRshow
1.000 UL
LTb
1.000 UL
LTa
854 4872 M
6136 0 V
stroke
LTb
854 4872 M
63 0 V
6073 0 R
-63 0 V
stroke
770 4872 M
[ [(Helvetica) 140.0 0.0 true true 0 ( 1)]
] -46.7 MRshow
1.000 UL
LTb
1.000 UL
LTa
854 448 M
0 4424 V
stroke
LTb
854 448 M
0 63 V
0 4361 R
0 -63 V
stroke
854 308 M
[ [(Helvetica) 140.0 0.0 true true 0 ( 0)]
] -46.7 MCshow
1.000 UL
LTb
1.000 UL
LTa
1877 448 M
0 4424 V
stroke
LTb
1877 448 M
0 63 V
0 4361 R
0 -63 V
stroke
1877 308 M
[ [(Helvetica) 140.0 0.0 true true 0 ( 500)]
] -46.7 MCshow
1.000 UL
LTb
1.000 UL
LTa
2899 448 M
0 4424 V
stroke
LTb
2899 448 M
0 63 V
0 4361 R
0 -63 V
stroke
2899 308 M
[ [(Helvetica) 140.0 0.0 true true 0 ( 1000)]
] -46.7 MCshow
1.000 UL
LTb
1.000 UL
LTa
3922 448 M
0 4424 V
stroke
LTb
3922 448 M
0 63 V
0 4361 R
0 -63 V
stroke
3922 308 M
[ [(Helvetica) 140.0 0.0 true true 0 ( 1500)]
] -46.7 MCshow
1.000 UL
LTb
1.000 UL
LTa
4945 448 M
0 4424 V
stroke
LTb
4945 448 M
0 63 V
0 4361 R
0 -63 V
stroke
4945 308 M
[ [(Helvetica) 140.0 0.0 true true 0 ( 2000)]
] -46.7 MCshow
1.000 UL
LTb
1.000 UL
LTa
5967 448 M
0 4424 V
stroke
LTb
5967 448 M
0 63 V
0 4361 R
0 -63 V
stroke
5967 308 M
[ [(Helvetica) 140.0 0.0 true true 0 ( 2500)]
] -46.7 MCshow
1.000 UL
LTb
1.000 UL
LTa
6990 448 M
0 4424 V
stroke
LTb
6990 448 M
0 63 V
0 4361 R
0 -63 V
stroke
6990 308 M
[ [(Helvetica) 140.0 0.0 true true 0 ( 3000)]
] -46.7 MCshow
1.000 UL
LTb
1.000 UL
LTb
854 4872 N
854 448 L
6136 0 V
0 4424 V
-6136 0 V
Z stroke
LCb setrgbcolor
280 2660 M
currentpoint gsave translate 90 rotate 0 0 moveto
[ [(Helvetica) 140.0 0.0 true true 0 (Noise ratio)]
] -46.7 MCshow
grestore
LTb
LCb setrgbcolor
3922 98 M
[ [(Helvetica) 140.0 0.0 true true 0 (Usage)]
] -46.7 MCshow
LTb
1.000 UP
1.000 UL
LTb
1.000 UL
LTb
6339 4809 N
567 0 V
-567 0 V
Z stroke
6339 4809 M
567 0 V
1.000 UP
stroke
LT0
936 3537 Star
926 1866 Star
919 3874 Star
866 1818 Star
936 1597 Star
917 978 Star
928 482 Star
897 2577 Star
932 938 Star
872 2602 Star
889 1228 Star
930 1630 Star
934 1248 Star
876 1379 Star
905 2358 Star
879 4010 Star
885 3187 Star
899 1305 Star
870 3811 Star
866 1524 Star
997 869 Star
1007 740 Star
964 1649 Star
975 1403 Star
981 737 Star
985 1207 Star
1026 1083 Star
1038 2744 Star
1050 878 Star
1009 1127 Star
975 2006 Star
1044 1951 Star
985 1989 Star
1050 1656 Star
1040 1802 Star
1042 1891 Star
1001 1257 Star
1034 1486 Star
973 879 Star
995 1015 Star
1089 831 Star
1112 1498 Star
1101 460 Star
1085 1153 Star
1151 667 Star
1059 1519 Star
1071 1182 Star
1083 2018 Star
1083 1749 Star
1095 1450 Star
1132 786 Star
1112 1357 Star
1126 1755 Star
1097 701 Star
1130 495 Star
1149 453 Star
1095 689 Star
1069 1386 Star
1144 1761 Star
1120 716 Star
1251 815 Star
1189 745 Star
1218 999 Star
1232 562 Star
1241 676 Star
1208 1247 Star
1194 772 Star
1194 3002 Star
1214 2083 Star
1206 1342 Star
1191 518 Star
1234 1710 Star
1222 983 Star
1183 639 Star
1165 2882 Star
1185 648 Star
1194 950 Star
1196 1290 Star
1198 1534 Star
1191 1144 Star
1326 1068 Star
1355 967 Star
1284 1383 Star
1341 1158 Star
1329 626 Star
1361 811 Star
1275 1158 Star
1335 1293 Star
1320 671 Star
1345 1162 Star
1281 2304 Star
1353 1476 Star
1335 743 Star
1286 1310 Star
1355 636 Star
1326 1162 Star
1331 896 Star
1271 622 Star
1326 2365 Star
1322 740 Star
1374 1539 Star
1416 1101 Star
1429 984 Star
1421 1254 Star
1392 845 Star
1441 453 Star
1394 966 Star
1374 1315 Star
1445 1096 Star
1367 2052 Star
1400 2449 Star
1392 847 Star
1378 876 Star
1421 1254 Star
1371 846 Star
1408 1645 Star
1445 521 Star
1386 951 Star
1457 1891 Star
1410 678 Star
1502 652 Star
1506 635 Star
1566 516 Star
1560 574 Star
1498 1491 Star
1502 868 Star
1490 935 Star
1511 548 Star
1519 642 Star
1517 1084 Star
1568 1857 Star
1500 773 Star
1511 600 Star
1558 1844 Star
1504 820 Star
1556 1283 Star
1554 625 Star
1525 1014 Star
1543 691 Star
1547 482 Star
1603 2499 Star
1668 630 Star
1603 987 Star
1658 599 Star
1629 2241 Star
1662 450 Star
1637 1240 Star
1658 513 Star
1664 667 Star
1599 625 Star
1594 1056 Star
1631 1380 Star
1660 805 Star
1574 957 Star
1623 1116 Star
1637 643 Star
1611 966 Star
1670 809 Star
1574 535 Star
1670 1282 Star
1695 606 Star
1688 1232 Star
1713 2276 Star
1752 576 Star
1682 474 Star
1766 542 Star
1709 454 Star
1727 1471 Star
1684 1058 Star
1697 1224 Star
1760 1381 Star
1672 658 Star
1691 1223 Star
1676 1512 Star
1750 1252 Star
1695 581 Star
1772 841 Star
1768 518 Star
1684 1977 Star
1750 809 Star
1858 582 Star
1852 1363 Star
1834 1624 Star
1813 890 Star
1842 1213 Star
1848 686 Star
1848 1898 Star
1776 645 Star
1815 649 Star
1774 1483 Star
1834 491 Star
1873 555 Star
1807 467 Star
1858 812 Star
1842 691 Star
1828 1086 Star
1776 768 Star
1821 1096 Star
1830 972 Star
1830 1302 Star
1893 1117 Star
1887 759 Star
1950 493 Star
1973 919 Star
1965 1047 Star
1891 675 Star
1913 743 Star
1907 1343 Star
1924 782 Star
1961 751 Star
1879 984 Star
1895 504 Star
1950 493 Star
1924 1224 Star
1926 561 Star
1924 868 Star
1889 506 Star
1973 819 Star
1926 470 Star
1936 530 Star
1993 1064 Star
2018 767 Star
2073 465 Star
1999 1042 Star
2006 1082 Star
2036 936 Star
1983 462 Star
2006 1757 Star
2016 1554 Star
2024 845 Star
2069 527 Star
2020 1070 Star
2071 702 Star
1989 463 Star
2034 1395 Star
2012 851 Star
2067 975 Star
2040 824 Star
2046 921 Star
1981 837 Star
2104 1096 Star
2108 1238 Star
2155 1231 Star
2114 2281 Star
2120 729 Star
2159 652 Star
2083 1050 Star
2134 1188 Star
2087 831 Star
2122 814 Star
2083 1050 Star
2138 547 Star
2136 1551 Star
2143 796 Star
2141 3126 Star
2143 1754 Star
2093 1919 Star
2153 1359 Star
2106 871 Star
2102 1417 Star
2210 503 Star
2259 557 Star
2235 756 Star
2226 572 Star
2249 1140 Star
2194 485 Star
2224 982 Star
2284 782 Star
2214 614 Star
2212 729 Star
2271 767 Star
2253 652 Star
2237 902 Star
2212 729 Star
2276 1425 Star
2224 465 Star
2210 503 Star
2243 620 Star
2231 914 Star
2196 920 Star
2343 693 Star
2318 574 Star
2304 519 Star
2363 657 Star
2333 515 Star
2368 471 Star
2314 715 Star
2318 839 Star
2351 450 Star
2314 628 Star
2359 667 Star
2314 800 Star
2306 1261 Star
2386 1006 Star
2296 995 Star
2363 472 Star
2355 567 Star
2310 591 Star
2343 1057 Star
2355 720 Star
2480 712 Star
2447 1299 Star
2470 513 Star
2470 1595 Star
2392 1542 Star
2447 952 Star
2486 1244 Star
2410 764 Star
2439 1225 Star
2447 534 Star
2468 595 Star
2486 1244 Star
2400 769 Star
2423 577 Star
2460 1271 Star
2488 506 Star
2419 584 Star
2455 747 Star
2423 754 Star
2410 474 Star
2511 511 Star
2531 1435 Star
2552 1040 Star
2531 788 Star
2527 609 Star
2494 660 Star
2558 612 Star
2511 542 Star
2537 462 Star
2566 637 Star
2539 1062 Star
2552 1091 Star
2545 1049 Star
2492 987 Star
2586 593 Star
2498 756 Star
2529 527 Star
2503 500 Star
2548 699 Star
2576 857 Star
2607 803 Star
2644 481 Star
2603 663 Star
2601 551 Star
2646 583 Star
2672 491 Star
2680 856 Star
2689 737 Star
2625 731 Star
2666 730 Star
2646 887 Star
2619 1235 Star
2648 604 Star
2631 532 Star
2689 542 Star
2668 1277 Star
2607 819 Star
2668 654 Star
2605 1009 Star
2654 712 Star
2709 744 Star
2744 463 Star
2791 633 Star
2758 530 Star
2717 480 Star
2723 671 Star
2707 494 Star
2740 771 Star
2785 1123 Star
2746 515 Star
2738 882 Star
2715 458 Star
2707 672 Star
2768 785 Star
2795 996 Star
2744 1236 Star
2738 784 Star
2738 1362 Star
2734 1342 Star
2768 985 Star
2887 507 Star
2856 771 Star
2830 482 Star
2834 695 Star
2893 624 Star
2846 742 Star
2895 790 Star
2879 1070 Star
2871 1796 Star
2815 1509 Star
2897 602 Star
2897 531 Star
2865 1147 Star
2879 1075 Star
2826 750 Star
2830 482 Star
2869 708 Star
2848 1072 Star
2889 1096 Star
2869 708 Star
2981 890 Star
2944 1205 Star
2942 485 Star
2924 472 Star
3000 642 Star
2965 713 Star
2987 1062 Star
2989 1471 Star
2981 788 Star
2940 780 Star
2950 615 Star
2981 767 Star
2973 2231 Star
2979 701 Star
2985 704 Star
2905 664 Star
2957 470 Star
2967 475 Star
2922 544 Star
2944 973 Star
3040 986 Star
3004 524 Star
3043 1359 Star
3057 528 Star
3018 1480 Star
3008 629 Star
3085 829 Star
3030 1113 Star
3077 493 Star
3020 574 Star
3018 936 Star
3090 2111 Star
3085 829 Star
3036 926 Star
3012 1098 Star
3010 523 Star
3024 1218 Star
3073 682 Star
3100 1097 Star
3004 692 Star
3139 584 Star
3196 1346 Star
3167 1423 Star
3116 460 Star
3124 1214 Star
3169 649 Star
3143 489 Star
3165 1114 Star
3147 634 Star
3139 479 Star
3149 621 Star
3122 733 Star
3133 908 Star
3196 921 Star
3153 760 Star
3196 893 Star
3204 732 Star
3120 1185 Star
3108 768 Star
3173 887 Star
3218 648 Star
3267 538 Star
3231 808 Star
3302 650 Star
3302 570 Star
3300 598 Star
3255 1020 Star
3270 751 Star
3261 490 Star
3288 468 Star
3220 908 Star
3278 941 Star
3237 940 Star
3292 1540 Star
3206 1498 Star
3286 878 Star
3276 554 Star
3227 492 Star
3278 849 Star
3300 598 Star
3331 761 Star
3353 1019 Star
3351 1234 Star
3317 547 Star
3388 765 Star
3349 684 Star
3321 943 Star
3353 1141 Star
3337 449 Star
3400 603 Star
3370 1203 Star
3368 477 Star
3325 655 Star
3366 1078 Star
3347 1110 Star
3370 503 Star
3407 879 Star
3407 2315 Star
3339 457 Star
3370 921 Star
3507 1396 Star
3478 1007 Star
3456 876 Star
3423 572 Star
3425 682 Star
3482 484 Star
3511 1148 Star
3484 893 Star
3490 871 Star
3472 672 Star
3411 573 Star
3482 995 Star
3437 660 Star
3417 719 Star
3427 498 Star
3411 904 Star
3486 592 Star
3495 894 Star
3437 856 Star
3427 918 Star
3558 1278 Star
3556 459 Star
3578 1322 Star
3593 493 Star
3613 630 Star
3558 653 Star
3562 517 Star
3531 629 Star
3535 1540 Star
3533 479 Star
3607 812 Star
3519 521 Star
3523 1147 Star
3609 807 Star
3562 701 Star
3523 548 Star
3580 701 Star
3542 1231 Star
3550 476 Star
3544 487 Star
3662 1199 Star
3640 1117 Star
3689 688 Star
3699 658 Star
3683 1005 Star
3619 697 Star
3668 1275 Star
3685 626 Star
3662 659 Star
3650 487 Star
3615 571 Star
3658 927 Star
3672 1048 Star
3621 896 Star
3681 1627 Star
3617 603 Star
3709 506 Star
3670 925 Star
3664 680 Star
3642 1609 Star
3810 729 Star
3765 907 Star
3789 609 Star
3769 683 Star
3742 526 Star
3775 786 Star
3789 645 Star
3754 474 Star
3779 791 Star
3777 619 Star
3765 907 Star
3773 1583 Star
3777 1214 Star
3767 540 Star
3728 1158 Star
3793 1033 Star
3789 821 Star
3746 862 Star
3812 1147 Star
3793 1033 Star
3885 1165 Star
3852 493 Star
3826 625 Star
3834 788 Star
3863 1098 Star
3828 1343 Star
3893 878 Star
3842 604 Star
3891 731 Star
3834 1861 Star
3875 767 Star
3900 1464 Star
3908 508 Star
3891 731 Star
3865 786 Star
3871 978 Star
3904 940 Star
3871 778 Star
3848 671 Star
3871 614 Star
4006 1118 Star
3947 958 Star
3967 1085 Star
3944 1563 Star
4002 723 Star
3979 487 Star
3975 1004 Star
3928 627 Star
3942 1006 Star
3947 958 Star
3961 693 Star
3932 866 Star
3942 1006 Star
3928 929 Star
3938 500 Star
3994 531 Star
4008 586 Star
3981 726 Star
3969 1261 Star
4002 641 Star
4082 536 Star
4051 899 Star
4045 992 Star
4049 764 Star
4082 504 Star
4055 495 Star
4026 1167 Star
4055 833 Star
4030 473 Star
4049 764 Star
4094 691 Star
4120 859 Star
4049 469 Star
4077 1510 Star
4110 580 Star
4118 576 Star
4063 1208 Star
4096 1176 Star
4108 1185 Star
4041 1046 Star
4204 986 Star
4178 671 Star
4147 577 Star
4161 694 Star
4155 755 Star
4149 798 Star
4188 1224 Star
4147 763 Star
4225 749 Star
4200 669 Star
4196 1016 Star
4137 1170 Star
4155 755 Star
4190 525 Star
4135 1571 Star
4204 922 Star
4180 1387 Star
4127 526 Star
4165 1141 Star
4198 755 Star
4243 743 Star
4292 1095 Star
4255 541 Star
4278 828 Star
4319 1032 Star
4294 561 Star
4298 634 Star
4325 681 Star
4280 760 Star
4237 699 Star
4292 482 Star
4288 1015 Star
4319 767 Star
4247 1209 Star
4298 1410 Star
4300 451 Star
4268 545 Star
4292 492 Star
4229 850 Star
4264 1066 Star
4366 570 Star
4368 570 Star
4368 570 Star
4362 465 Star
4347 1186 Star
4401 724 Star
4405 798 Star
4399 714 Star
4394 577 Star
4405 798 Star
4354 1898 Star
4399 785 Star
4345 980 Star
4362 1224 Star
4366 872 Star
4362 465 Star
4345 744 Star
4382 573 Star
4407 635 Star
4419 937 Star
4435 859 Star
4507 812 Star
4460 565 Star
4462 890 Star
4493 897 Star
4444 1000 Star
4495 753 Star
4509 957 Star
4446 838 Star
4466 605 Star
4497 928 Star
4466 605 Star
4513 1479 Star
4532 670 Star
4442 499 Star
4462 890 Star
4448 470 Star
4456 1631 Star
4513 1479 Star
4476 448 Star
4544 651 Star
4546 569 Star
4540 560 Star
4615 762 Star
4619 546 Star
4611 1580 Star
4574 665 Star
4611 471 Star
4536 899 Star
4636 552 Star
4577 1073 Star
4599 600 Star
4624 518 Star
4589 1166 Star
4607 834 Star
4634 738 Star
4615 942 Star
4589 1166 Star
4583 578 Star
4556 712 Star
4724 587 Star
4693 1280 Star
4662 538 Star
4695 695 Star
4705 658 Star
4677 562 Star
4705 603 Star
4662 738 Star
4650 943 Star
4726 1791 Star
4716 783 Star
4656 481 Star
4646 508 Star
4671 807 Star
4652 708 Star
4683 915 Star
4716 694 Star
4734 1144 Star
4697 983 Star
4671 807 Star
4773 855 Star
4799 469 Star
4785 825 Star
4789 1577 Star
4838 711 Star
4787 1506 Star
4797 1085 Star
4769 625 Star
4822 551 Star
4756 455 Star
4785 1146 Star
4810 773 Star
4752 929 Star
4787 1506 Star
4777 557 Star
4748 514 Star
4836 1120 Star
4822 551 Star
4840 908 Star
4832 831 Star
4924 455 Star
4910 632 Star
4879 583 Star
4916 836 Star
4916 839 Star
4844 554 Star
4891 578 Star
4859 755 Star
4859 1187 Star
4855 472 Star
4857 1093 Star
4842 674 Star
4894 692 Star
4883 1115 Star
4916 934 Star
4916 839 Star
4920 449 Star
4871 567 Star
4912 727 Star
4902 654 Star
4965 1078 Star
4975 635 Star
5020 796 Star
4975 592 Star
5006 509 Star
4973 889 Star
5002 917 Star
4969 605 Star
5004 734 Star
5002 986 Star
4988 1441 Star
5031 691 Star
5041 474 Star
5016 783 Star
4957 721 Star
4969 819 Star
4973 889 Star
4986 619 Star
5022 542 Star
5020 517 Star
5080 1636 Star
5080 1636 Star
5147 814 Star
5065 756 Star
5133 650 Star
5074 461 Star
5116 600 Star
5086 745 Star
5139 978 Star
5106 563 Star
5106 563 Star
5102 718 Star
5078 769 Star
5084 668 Star
5053 769 Star
5078 769 Star
5129 727 Star
5061 526 Star
5127 598 Star
5106 714 Star
5237 767 Star
5237 1354 Star
5174 497 Star
5221 1260 Star
5227 507 Star
5155 742 Star
5227 778 Star
5206 811 Star
5239 986 Star
5243 465 Star
5196 565 Star
5186 548 Star
5166 626 Star
5176 470 Star
5198 472 Star
5155 742 Star
5157 603 Star
5188 1093 Star
5217 643 Star
5188 591 Star
5292 579 Star
5290 494 Star
5305 497 Star
5335 852 Star
5270 665 Star
5288 508 Star
5258 1274 Star
5305 676 Star
5331 824 Star
5251 1288 Star
5280 503 Star
5264 617 Star
5280 675 Star
5337 1288 Star
5321 964 Star
5286 723 Star
5319 585 Star
5274 525 Star
5341 544 Star
5270 799 Star
5376 543 Star
5399 954 Star
5378 1425 Star
5399 1040 Star
5411 1030 Star
5356 907 Star
5450 721 Star
5434 696 Star
5405 644 Star
5423 586 Star
5356 715 Star
5427 606 Star
5425 910 Star
5417 578 Star
5403 484 Star
5442 782 Star
5386 897 Star
5358 492 Star
5393 620 Star
5450 1262 Star
5526 1024 Star
5499 1030 Star
5472 919 Star
5472 656 Star
5540 1409 Star
5501 1213 Star
5544 1018 Star
5544 596 Star
5485 993 Star
5505 736 Star
5462 532 Star
5460 604 Star
5460 663 Star
5540 1409 Star
5544 618 Star
5521 1519 Star
5548 670 Star
5481 462 Star
5540 901 Star
5491 486 Star
5558 598 Star
5656 675 Star
5622 453 Star
5648 540 Star
5558 598 Star
5601 1029 Star
5564 725 Star
5566 580 Star
5628 449 Star
5642 797 Star
5638 1095 Star
5628 449 Star
5585 568 Star
5638 1110 Star
5609 682 Star
5609 861 Star
5595 780 Star
5644 680 Star
5585 568 Star
5597 750 Star
5673 1521 Star
5677 1675 Star
5714 846 Star
5716 1589 Star
5673 1521 Star
5742 1134 Star
5675 1518 Star
5734 1169 Star
5732 935 Star
5710 917 Star
5661 835 Star
5753 451 Star
5661 729 Star
5742 698 Star
5742 698 Star
5734 1169 Star
5712 524 Star
5748 590 Star
5689 893 Star
5730 666 Star
5775 1060 Star
5769 1259 Star
5826 1092 Star
5849 1022 Star
5769 602 Star
5800 877 Star
5822 563 Star
5855 452 Star
5847 2247 Star
5765 755 Star
5775 1060 Star
5828 738 Star
5783 875 Star
5863 867 Star
5810 898 Star
5781 1172 Star
5802 640 Star
5816 690 Star
5847 622 Star
5777 817 Star
5888 743 Star
5873 685 Star
5957 715 Star
5947 998 Star
5894 845 Star
5883 676 Star
5926 531 Star
5959 485 Star
5896 668 Star
5935 668 Star
5926 948 Star
5935 668 Star
5871 1206 Star
5902 650 Star
5890 907 Star
5963 924 Star
5947 888 Star
5888 743 Star
5894 1200 Star
5963 960 Star
6041 539 Star
5978 521 Star
5969 756 Star
5996 484 Star
6008 485 Star
6037 863 Star
6041 539 Star
5976 1225 Star
5986 462 Star
6039 1073 Star
5976 978 Star
5984 671 Star
5992 787 Star
6043 727 Star
6008 485 Star
6041 528 Star
6023 484 Star
5992 787 Star
5971 806 Star
5984 671 Star
6125 526 Star
6076 1376 Star
6072 864 Star
6135 1106 Star
6137 761 Star
6164 606 Star
6119 453 Star
6070 1268 Star
6164 917 Star
6084 873 Star
6149 1332 Star
6137 490 Star
6147 590 Star
6125 981 Star
6096 748 Star
6086 665 Star
6139 974 Star
6090 955 Star
6096 953 Star
6100 594 Star
6217 971 Star
6180 962 Star
6241 778 Star
6215 596 Star
6262 478 Star
6241 549 Star
6188 458 Star
6262 472 Star
6258 1036 Star
6262 472 Star
6243 888 Star
6262 472 Star
6184 848 Star
6207 904 Star
6184 848 Star
6209 571 Star
6184 848 Star
6262 503 Star
6241 778 Star
6174 553 Star
6274 698 Star
6278 630 Star
6348 1086 Star
6317 601 Star
6303 1053 Star
6370 1261 Star
6319 1351 Star
6278 564 Star
6297 917 Star
6274 1220 Star
6278 1224 Star
6278 564 Star
6372 572 Star
6321 499 Star
6354 491 Star
6340 1071 Star
6303 1053 Star
6354 741 Star
6344 811 Star
6278 771 Star
6417 703 Star
6387 838 Star
6401 1219 Star
6417 650 Star
6470 699 Star
6430 745 Star
6397 612 Star
6401 777 Star
6440 1139 Star
6452 1239 Star
6417 703 Star
6464 630 Star
6470 699 Star
6450 506 Star
6407 709 Star
6385 633 Star
6397 612 Star
6423 806 Star
6450 596 Star
6415 699 Star
6528 1024 Star
6542 540 Star
6534 1054 Star
6520 1082 Star
6542 477 Star
6558 891 Star
6495 842 Star
6552 1298 Star
6542 597 Star
6536 492 Star
6481 1036 Star
6532 637 Star
6534 1054 Star
6485 589 Star
6495 914 Star
6558 891 Star
6505 916 Star
6481 510 Star
6481 1036 Star
6552 1298 Star
6644 496 Star
6581 962 Star
6673 1054 Star
6622 567 Star
6597 868 Star
6661 639 Star
6659 674 Star
6663 692 Star
6624 1219 Star
6663 692 Star
6663 935 Star
6599 544 Star
6661 639 Star
6669 557 Star
6616 773 Star
6634 808 Star
6624 1219 Star
6638 487 Star
6659 588 Star
6659 657 Star
6749 611 Star
6767 474 Star
6734 732 Star
6730 481 Star
6718 1150 Star
6730 529 Star
6724 739 Star
6736 480 Star
6685 926 Star
6761 830 Star
6781 672 Star
6783 813 Star
6702 623 Star
6685 472 Star
6783 1036 Star
6769 560 Star
6718 574 Star
6728 604 Star
6708 519 Star
6773 797 Star
6875 741 Star
6812 449 Star
6790 1138 Star
6788 700 Star
6808 513 Star
6869 1114 Star
6867 836 Star
6835 855 Star
6837 459 Star
6798 959 Star
6818 1420 Star
6824 793 Star
6835 777 Star
6830 555 Star
6837 459 Star
6886 593 Star
6859 650 Star
6869 1114 Star
6875 823 Star
6835 1444 Star
6988 772 Star
6972 723 Star
6916 617 Star
6965 942 Star
6984 837 Star
6980 501 Star
6900 724 Star
6925 572 Star
6931 672 Star
6904 843 Star
6972 785 Star
6931 456 Star
6906 1470 Star
6970 791 Star
6910 542 Star
6972 785 Star
6906 977 Star
6898 499 Star
6918 846 Star
6908 1236 Star
1.000 UL
LTb
854 4872 N
854 448 L
6136 0 V
0 4424 V
-6136 0 V
Z stroke
1.000 UP
1.000 UL
LTb
stroke
grestore
end
showpage
%%Trailer
%%DocumentFonts: Helvetica
