%!PS-Adobe-2.0 EPSF-2.0
%%Title: zip-20-noiseratio-lte.eps
%%Creator: gnuplot 4.2 patchlevel 6 
%%CreationDate: Sat Mar  7 20:26:43 2015
%%DocumentFonts: (atend)
%%BoundingBox: 50 50 410 302
%%EndComments
%%BeginProlog
/gnudict 256 dict def
gnudict begin
%
% The following 6 true/false flags may be edited by hand if required
% The unit line width may also be changed
%
/Color true def
/Blacktext false def
/Solid false def
/Dashlength 1 def
/Landscape false def
/Level1 false def
/Rounded false def
/TransparentPatterns false def
/gnulinewidth 5.000 def
/userlinewidth gnulinewidth def
%
/vshift -60 def
/dl1 {
  10.0 Dashlength mul mul
  Rounded { currentlinewidth 0.75 mul sub dup 0 le { pop 0.01 } if } if
} def
/dl2 {
  10.0 Dashlength mul mul
  Rounded { currentlinewidth 0.75 mul add } if
} def
/hpt_ 31.5 def
/vpt_ 31.5 def
/hpt hpt_ def
/vpt vpt_ def
Level1 {} {
/SDict 10 dict def
systemdict /pdfmark known not {
  userdict /pdfmark systemdict /cleartomark get put
} if
SDict begin [
  /Title (zip-20-noiseratio-lte.eps)
  /Subject (gnuplot plot)
  /Creator (gnuplot 4.2 patchlevel 6 )
  /Author (Binh Nguyen,[chenxu])
%  /Producer (gnuplot)
%  /Keywords ()
  /CreationDate (Sat Mar  7 20:26:43 2015)
  /DOCINFO pdfmark
end
} ifelse
%
% Gnuplot Prolog Version 4.2 (August 2006)
%
/M {moveto} bind def
/L {lineto} bind def
/R {rmoveto} bind def
/V {rlineto} bind def
/N {newpath moveto} bind def
/Z {closepath} bind def
/C {setrgbcolor} bind def
/f {rlineto fill} bind def
/vpt2 vpt 2 mul def
/hpt2 hpt 2 mul def
/Lshow {currentpoint stroke M 0 vshift R 
	Blacktext {gsave 0 setgray show grestore} {show} ifelse} def
/Rshow {currentpoint stroke M dup stringwidth pop neg vshift R
	Blacktext {gsave 0 setgray show grestore} {show} ifelse} def
/Cshow {currentpoint stroke M dup stringwidth pop -2 div vshift R 
	Blacktext {gsave 0 setgray show grestore} {show} ifelse} def
/UP {dup vpt_ mul /vpt exch def hpt_ mul /hpt exch def
  /hpt2 hpt 2 mul def /vpt2 vpt 2 mul def} def
/DL {Color {setrgbcolor Solid {pop []} if 0 setdash}
 {pop pop pop 0 setgray Solid {pop []} if 0 setdash} ifelse} def
/BL {stroke userlinewidth 2 mul setlinewidth
	Rounded {1 setlinejoin 1 setlinecap} if} def
/AL {stroke userlinewidth 2 div setlinewidth
	Rounded {1 setlinejoin 1 setlinecap} if} def
/UL {dup gnulinewidth mul /userlinewidth exch def
	dup 1 lt {pop 1} if 10 mul /udl exch def} def
/PL {stroke userlinewidth setlinewidth
	Rounded {1 setlinejoin 1 setlinecap} if} def
% Default Line colors
/LCw {1 1 1} def
/LCb {0 0 0} def
/LCa {0 0 0} def
/LC0 {1 0 0} def
/LC1 {0 1 0} def
/LC2 {0 0 1} def
/LC3 {1 0 1} def
/LC4 {0 1 1} def
/LC5 {1 1 0} def
/LC6 {0 0 0} def
/LC7 {1 0.3 0} def
/LC8 {0.5 0.5 0.5} def
% Default Line Types
/LTw {PL [] 1 setgray} def
/LTb {BL [] LCb DL} def
/LTa {AL [1 udl mul 2 udl mul] 0 setdash LCa setrgbcolor} def
/LT0 {PL [] LC0 DL} def
/LT1 {PL [4 dl1 2 dl2] LC1 DL} def
/LT2 {PL [2 dl1 3 dl2] LC2 DL} def
/LT3 {PL [1 dl1 1.5 dl2] LC3 DL} def
/LT4 {PL [6 dl1 2 dl2 1 dl1 2 dl2] LC4 DL} def
/LT5 {PL [3 dl1 3 dl2 1 dl1 3 dl2] LC5 DL} def
/LT6 {PL [2 dl1 2 dl2 2 dl1 6 dl2] LC6 DL} def
/LT7 {PL [1 dl1 2 dl2 6 dl1 2 dl2 1 dl1 2 dl2] LC7 DL} def
/LT8 {PL [2 dl1 2 dl2 2 dl1 2 dl2 2 dl1 2 dl2 2 dl1 4 dl2] LC8 DL} def
/Pnt {stroke [] 0 setdash gsave 1 setlinecap M 0 0 V stroke grestore} def
/Dia {stroke [] 0 setdash 2 copy vpt add M
  hpt neg vpt neg V hpt vpt neg V
  hpt vpt V hpt neg vpt V closepath stroke
  Pnt} def
/Pls {stroke [] 0 setdash vpt sub M 0 vpt2 V
  currentpoint stroke M
  hpt neg vpt neg R hpt2 0 V stroke
 } def
/Box {stroke [] 0 setdash 2 copy exch hpt sub exch vpt add M
  0 vpt2 neg V hpt2 0 V 0 vpt2 V
  hpt2 neg 0 V closepath stroke
  Pnt} def
/Crs {stroke [] 0 setdash exch hpt sub exch vpt add M
  hpt2 vpt2 neg V currentpoint stroke M
  hpt2 neg 0 R hpt2 vpt2 V stroke} def
/TriU {stroke [] 0 setdash 2 copy vpt 1.12 mul add M
  hpt neg vpt -1.62 mul V
  hpt 2 mul 0 V
  hpt neg vpt 1.62 mul V closepath stroke
  Pnt} def
/Star {2 copy Pls Crs} def
/BoxF {stroke [] 0 setdash exch hpt sub exch vpt add M
  0 vpt2 neg V hpt2 0 V 0 vpt2 V
  hpt2 neg 0 V closepath fill} def
/TriUF {stroke [] 0 setdash vpt 1.12 mul add M
  hpt neg vpt -1.62 mul V
  hpt 2 mul 0 V
  hpt neg vpt 1.62 mul V closepath fill} def
/TriD {stroke [] 0 setdash 2 copy vpt 1.12 mul sub M
  hpt neg vpt 1.62 mul V
  hpt 2 mul 0 V
  hpt neg vpt -1.62 mul V closepath stroke
  Pnt} def
/TriDF {stroke [] 0 setdash vpt 1.12 mul sub M
  hpt neg vpt 1.62 mul V
  hpt 2 mul 0 V
  hpt neg vpt -1.62 mul V closepath fill} def
/DiaF {stroke [] 0 setdash vpt add M
  hpt neg vpt neg V hpt vpt neg V
  hpt vpt V hpt neg vpt V closepath fill} def
/Pent {stroke [] 0 setdash 2 copy gsave
  translate 0 hpt M 4 {72 rotate 0 hpt L} repeat
  closepath stroke grestore Pnt} def
/PentF {stroke [] 0 setdash gsave
  translate 0 hpt M 4 {72 rotate 0 hpt L} repeat
  closepath fill grestore} def
/Circle {stroke [] 0 setdash 2 copy
  hpt 0 360 arc stroke Pnt} def
/CircleF {stroke [] 0 setdash hpt 0 360 arc fill} def
/C0 {BL [] 0 setdash 2 copy moveto vpt 90 450 arc} bind def
/C1 {BL [] 0 setdash 2 copy moveto
	2 copy vpt 0 90 arc closepath fill
	vpt 0 360 arc closepath} bind def
/C2 {BL [] 0 setdash 2 copy moveto
	2 copy vpt 90 180 arc closepath fill
	vpt 0 360 arc closepath} bind def
/C3 {BL [] 0 setdash 2 copy moveto
	2 copy vpt 0 180 arc closepath fill
	vpt 0 360 arc closepath} bind def
/C4 {BL [] 0 setdash 2 copy moveto
	2 copy vpt 180 270 arc closepath fill
	vpt 0 360 arc closepath} bind def
/C5 {BL [] 0 setdash 2 copy moveto
	2 copy vpt 0 90 arc
	2 copy moveto
	2 copy vpt 180 270 arc closepath fill
	vpt 0 360 arc} bind def
/C6 {BL [] 0 setdash 2 copy moveto
	2 copy vpt 90 270 arc closepath fill
	vpt 0 360 arc closepath} bind def
/C7 {BL [] 0 setdash 2 copy moveto
	2 copy vpt 0 270 arc closepath fill
	vpt 0 360 arc closepath} bind def
/C8 {BL [] 0 setdash 2 copy moveto
	2 copy vpt 270 360 arc closepath fill
	vpt 0 360 arc closepath} bind def
/C9 {BL [] 0 setdash 2 copy moveto
	2 copy vpt 270 450 arc closepath fill
	vpt 0 360 arc closepath} bind def
/C10 {BL [] 0 setdash 2 copy 2 copy moveto vpt 270 360 arc closepath fill
	2 copy moveto
	2 copy vpt 90 180 arc closepath fill
	vpt 0 360 arc closepath} bind def
/C11 {BL [] 0 setdash 2 copy moveto
	2 copy vpt 0 180 arc closepath fill
	2 copy moveto
	2 copy vpt 270 360 arc closepath fill
	vpt 0 360 arc closepath} bind def
/C12 {BL [] 0 setdash 2 copy moveto
	2 copy vpt 180 360 arc closepath fill
	vpt 0 360 arc closepath} bind def
/C13 {BL [] 0 setdash 2 copy moveto
	2 copy vpt 0 90 arc closepath fill
	2 copy moveto
	2 copy vpt 180 360 arc closepath fill
	vpt 0 360 arc closepath} bind def
/C14 {BL [] 0 setdash 2 copy moveto
	2 copy vpt 90 360 arc closepath fill
	vpt 0 360 arc} bind def
/C15 {BL [] 0 setdash 2 copy vpt 0 360 arc closepath fill
	vpt 0 360 arc closepath} bind def
/Rec {newpath 4 2 roll moveto 1 index 0 rlineto 0 exch rlineto
	neg 0 rlineto closepath} bind def
/Square {dup Rec} bind def
/Bsquare {vpt sub exch vpt sub exch vpt2 Square} bind def
/S0 {BL [] 0 setdash 2 copy moveto 0 vpt rlineto BL Bsquare} bind def
/S1 {BL [] 0 setdash 2 copy vpt Square fill Bsquare} bind def
/S2 {BL [] 0 setdash 2 copy exch vpt sub exch vpt Square fill Bsquare} bind def
/S3 {BL [] 0 setdash 2 copy exch vpt sub exch vpt2 vpt Rec fill Bsquare} bind def
/S4 {BL [] 0 setdash 2 copy exch vpt sub exch vpt sub vpt Square fill Bsquare} bind def
/S5 {BL [] 0 setdash 2 copy 2 copy vpt Square fill
	exch vpt sub exch vpt sub vpt Square fill Bsquare} bind def
/S6 {BL [] 0 setdash 2 copy exch vpt sub exch vpt sub vpt vpt2 Rec fill Bsquare} bind def
/S7 {BL [] 0 setdash 2 copy exch vpt sub exch vpt sub vpt vpt2 Rec fill
	2 copy vpt Square fill Bsquare} bind def
/S8 {BL [] 0 setdash 2 copy vpt sub vpt Square fill Bsquare} bind def
/S9 {BL [] 0 setdash 2 copy vpt sub vpt vpt2 Rec fill Bsquare} bind def
/S10 {BL [] 0 setdash 2 copy vpt sub vpt Square fill 2 copy exch vpt sub exch vpt Square fill
	Bsquare} bind def
/S11 {BL [] 0 setdash 2 copy vpt sub vpt Square fill 2 copy exch vpt sub exch vpt2 vpt Rec fill
	Bsquare} bind def
/S12 {BL [] 0 setdash 2 copy exch vpt sub exch vpt sub vpt2 vpt Rec fill Bsquare} bind def
/S13 {BL [] 0 setdash 2 copy exch vpt sub exch vpt sub vpt2 vpt Rec fill
	2 copy vpt Square fill Bsquare} bind def
/S14 {BL [] 0 setdash 2 copy exch vpt sub exch vpt sub vpt2 vpt Rec fill
	2 copy exch vpt sub exch vpt Square fill Bsquare} bind def
/S15 {BL [] 0 setdash 2 copy Bsquare fill Bsquare} bind def
/D0 {gsave translate 45 rotate 0 0 S0 stroke grestore} bind def
/D1 {gsave translate 45 rotate 0 0 S1 stroke grestore} bind def
/D2 {gsave translate 45 rotate 0 0 S2 stroke grestore} bind def
/D3 {gsave translate 45 rotate 0 0 S3 stroke grestore} bind def
/D4 {gsave translate 45 rotate 0 0 S4 stroke grestore} bind def
/D5 {gsave translate 45 rotate 0 0 S5 stroke grestore} bind def
/D6 {gsave translate 45 rotate 0 0 S6 stroke grestore} bind def
/D7 {gsave translate 45 rotate 0 0 S7 stroke grestore} bind def
/D8 {gsave translate 45 rotate 0 0 S8 stroke grestore} bind def
/D9 {gsave translate 45 rotate 0 0 S9 stroke grestore} bind def
/D10 {gsave translate 45 rotate 0 0 S10 stroke grestore} bind def
/D11 {gsave translate 45 rotate 0 0 S11 stroke grestore} bind def
/D12 {gsave translate 45 rotate 0 0 S12 stroke grestore} bind def
/D13 {gsave translate 45 rotate 0 0 S13 stroke grestore} bind def
/D14 {gsave translate 45 rotate 0 0 S14 stroke grestore} bind def
/D15 {gsave translate 45 rotate 0 0 S15 stroke grestore} bind def
/DiaE {stroke [] 0 setdash vpt add M
  hpt neg vpt neg V hpt vpt neg V
  hpt vpt V hpt neg vpt V closepath stroke} def
/BoxE {stroke [] 0 setdash exch hpt sub exch vpt add M
  0 vpt2 neg V hpt2 0 V 0 vpt2 V
  hpt2 neg 0 V closepath stroke} def
/TriUE {stroke [] 0 setdash vpt 1.12 mul add M
  hpt neg vpt -1.62 mul V
  hpt 2 mul 0 V
  hpt neg vpt 1.62 mul V closepath stroke} def
/TriDE {stroke [] 0 setdash vpt 1.12 mul sub M
  hpt neg vpt 1.62 mul V
  hpt 2 mul 0 V
  hpt neg vpt -1.62 mul V closepath stroke} def
/PentE {stroke [] 0 setdash gsave
  translate 0 hpt M 4 {72 rotate 0 hpt L} repeat
  closepath stroke grestore} def
/CircE {stroke [] 0 setdash 
  hpt 0 360 arc stroke} def
/Opaque {gsave closepath 1 setgray fill grestore 0 setgray closepath} def
/DiaW {stroke [] 0 setdash vpt add M
  hpt neg vpt neg V hpt vpt neg V
  hpt vpt V hpt neg vpt V Opaque stroke} def
/BoxW {stroke [] 0 setdash exch hpt sub exch vpt add M
  0 vpt2 neg V hpt2 0 V 0 vpt2 V
  hpt2 neg 0 V Opaque stroke} def
/TriUW {stroke [] 0 setdash vpt 1.12 mul add M
  hpt neg vpt -1.62 mul V
  hpt 2 mul 0 V
  hpt neg vpt 1.62 mul V Opaque stroke} def
/TriDW {stroke [] 0 setdash vpt 1.12 mul sub M
  hpt neg vpt 1.62 mul V
  hpt 2 mul 0 V
  hpt neg vpt -1.62 mul V Opaque stroke} def
/PentW {stroke [] 0 setdash gsave
  translate 0 hpt M 4 {72 rotate 0 hpt L} repeat
  Opaque stroke grestore} def
/CircW {stroke [] 0 setdash 
  hpt 0 360 arc Opaque stroke} def
/BoxFill {gsave Rec 1 setgray fill grestore} def
/Density {
  /Fillden exch def
  currentrgbcolor
  /ColB exch def /ColG exch def /ColR exch def
  /ColR ColR Fillden mul Fillden sub 1 add def
  /ColG ColG Fillden mul Fillden sub 1 add def
  /ColB ColB Fillden mul Fillden sub 1 add def
  ColR ColG ColB setrgbcolor} def
/BoxColFill {gsave Rec PolyFill} def
/PolyFill {gsave Density fill grestore grestore} def
/h {rlineto rlineto rlineto gsave closepath fill grestore} bind def
%
% PostScript Level 1 Pattern Fill routine for rectangles
% Usage: x y w h s a XX PatternFill
%	x,y = lower left corner of box to be filled
%	w,h = width and height of box
%	  a = angle in degrees between lines and x-axis
%	 XX = 0/1 for no/yes cross-hatch
%
/PatternFill {gsave /PFa [ 9 2 roll ] def
  PFa 0 get PFa 2 get 2 div add PFa 1 get PFa 3 get 2 div add translate
  PFa 2 get -2 div PFa 3 get -2 div PFa 2 get PFa 3 get Rec
  gsave 1 setgray fill grestore clip
  currentlinewidth 0.5 mul setlinewidth
  /PFs PFa 2 get dup mul PFa 3 get dup mul add sqrt def
  0 0 M PFa 5 get rotate PFs -2 div dup translate
  0 1 PFs PFa 4 get div 1 add floor cvi
	{PFa 4 get mul 0 M 0 PFs V} for
  0 PFa 6 get ne {
	0 1 PFs PFa 4 get div 1 add floor cvi
	{PFa 4 get mul 0 2 1 roll M PFs 0 V} for
 } if
  stroke grestore} def
%
/languagelevel where
 {pop languagelevel} {1} ifelse
 2 lt
	{/InterpretLevel1 true def}
	{/InterpretLevel1 Level1 def}
 ifelse
%
% PostScript level 2 pattern fill definitions
%
/Level2PatternFill {
/Tile8x8 {/PaintType 2 /PatternType 1 /TilingType 1 /BBox [0 0 8 8] /XStep 8 /YStep 8}
	bind def
/KeepColor {currentrgbcolor [/Pattern /DeviceRGB] setcolorspace} bind def
<< Tile8x8
 /PaintProc {0.5 setlinewidth pop 0 0 M 8 8 L 0 8 M 8 0 L stroke} 
>> matrix makepattern
/Pat1 exch def
<< Tile8x8
 /PaintProc {0.5 setlinewidth pop 0 0 M 8 8 L 0 8 M 8 0 L stroke
	0 4 M 4 8 L 8 4 L 4 0 L 0 4 L stroke}
>> matrix makepattern
/Pat2 exch def
<< Tile8x8
 /PaintProc {0.5 setlinewidth pop 0 0 M 0 8 L
	8 8 L 8 0 L 0 0 L fill}
>> matrix makepattern
/Pat3 exch def
<< Tile8x8
 /PaintProc {0.5 setlinewidth pop -4 8 M 8 -4 L
	0 12 M 12 0 L stroke}
>> matrix makepattern
/Pat4 exch def
<< Tile8x8
 /PaintProc {0.5 setlinewidth pop -4 0 M 8 12 L
	0 -4 M 12 8 L stroke}
>> matrix makepattern
/Pat5 exch def
<< Tile8x8
 /PaintProc {0.5 setlinewidth pop -2 8 M 4 -4 L
	0 12 M 8 -4 L 4 12 M 10 0 L stroke}
>> matrix makepattern
/Pat6 exch def
<< Tile8x8
 /PaintProc {0.5 setlinewidth pop -2 0 M 4 12 L
	0 -4 M 8 12 L 4 -4 M 10 8 L stroke}
>> matrix makepattern
/Pat7 exch def
<< Tile8x8
 /PaintProc {0.5 setlinewidth pop 8 -2 M -4 4 L
	12 0 M -4 8 L 12 4 M 0 10 L stroke}
>> matrix makepattern
/Pat8 exch def
<< Tile8x8
 /PaintProc {0.5 setlinewidth pop 0 -2 M 12 4 L
	-4 0 M 12 8 L -4 4 M 8 10 L stroke}
>> matrix makepattern
/Pat9 exch def
/Pattern1 {PatternBgnd KeepColor Pat1 setpattern} bind def
/Pattern2 {PatternBgnd KeepColor Pat2 setpattern} bind def
/Pattern3 {PatternBgnd KeepColor Pat3 setpattern} bind def
/Pattern4 {PatternBgnd KeepColor Landscape {Pat5} {Pat4} ifelse setpattern} bind def
/Pattern5 {PatternBgnd KeepColor Landscape {Pat4} {Pat5} ifelse setpattern} bind def
/Pattern6 {PatternBgnd KeepColor Landscape {Pat9} {Pat6} ifelse setpattern} bind def
/Pattern7 {PatternBgnd KeepColor Landscape {Pat8} {Pat7} ifelse setpattern} bind def
} def
%
%
%End of PostScript Level 2 code
%
/PatternBgnd {
  TransparentPatterns {} {gsave 1 setgray fill grestore} ifelse
} def
%
% Substitute for Level 2 pattern fill codes with
% grayscale if Level 2 support is not selected.
%
/Level1PatternFill {
/Pattern1 {0.250 Density} bind def
/Pattern2 {0.500 Density} bind def
/Pattern3 {0.750 Density} bind def
/Pattern4 {0.125 Density} bind def
/Pattern5 {0.375 Density} bind def
/Pattern6 {0.625 Density} bind def
/Pattern7 {0.875 Density} bind def
} def
%
% Now test for support of Level 2 code
%
Level1 {Level1PatternFill} {Level2PatternFill} ifelse
%
/Symbol-Oblique /Symbol findfont [1 0 .167 1 0 0] makefont
dup length dict begin {1 index /FID eq {pop pop} {def} ifelse} forall
currentdict end definefont pop
/MFshow {
   { dup 5 get 3 ge
     { 5 get 3 eq {gsave} {grestore} ifelse }
     {dup dup 0 get findfont exch 1 get scalefont setfont
     [ currentpoint ] exch dup 2 get 0 exch R dup 5 get 2 ne {dup dup 6
     get exch 4 get {show} {stringwidth pop 0 R} ifelse }if dup 5 get 0 eq
     {dup 3 get {2 get neg 0 exch R pop} {pop aload pop M} ifelse} {dup 5
     get 1 eq {dup 2 get exch dup 3 get exch 6 get stringwidth pop -2 div
     dup 0 R} {dup 6 get stringwidth pop -2 div 0 R 6 get
     show 2 index {aload pop M neg 3 -1 roll neg R pop pop} {pop pop pop
     pop aload pop M} ifelse }ifelse }ifelse }
     ifelse }
   forall} bind def
/MFwidth {0 exch { dup 5 get 3 ge { 5 get 3 eq { 0 } { pop } ifelse }
 {dup 3 get{dup dup 0 get findfont exch 1 get scalefont setfont
     6 get stringwidth pop add} {pop} ifelse} ifelse} forall} bind def
/MLshow { currentpoint stroke M
  0 exch R
  Blacktext {gsave 0 setgray MFshow grestore} {MFshow} ifelse } bind def
/MRshow { currentpoint stroke M
  exch dup MFwidth neg 3 -1 roll R
  Blacktext {gsave 0 setgray MFshow grestore} {MFshow} ifelse } bind def
/MCshow { currentpoint stroke M
  exch dup MFwidth -2 div 3 -1 roll R
  Blacktext {gsave 0 setgray MFshow grestore} {MFshow} ifelse } bind def
/XYsave    { [( ) 1 2 true false 3 ()] } bind def
/XYrestore { [( ) 1 2 true false 4 ()] } bind def
end
%%EndProlog
gnudict begin
gsave
50 50 translate
0.050 0.050 scale
0 setgray
newpath
(Helvetica) findfont 180 scalefont setfont
1.000 UL
LTb
1.000 UL
LTa
1098 576 M
5832 0 V
stroke
LTb
1098 576 M
63 0 V
5769 0 R
-63 0 V
stroke
990 576 M
[ [(Helvetica) 180.0 0.0 true true 0 ( 0)]
] -60.0 MRshow
1.000 UL
LTb
1.000 UL
LTa
1098 1426 M
5832 0 V
stroke
LTb
1098 1426 M
63 0 V
5769 0 R
-63 0 V
stroke
990 1426 M
[ [(Helvetica) 180.0 0.0 true true 0 ( 0.2)]
] -60.0 MRshow
1.000 UL
LTb
1.000 UL
LTa
1098 2275 M
5832 0 V
stroke
LTb
1098 2275 M
63 0 V
5769 0 R
-63 0 V
stroke
990 2275 M
[ [(Helvetica) 180.0 0.0 true true 0 ( 0.4)]
] -60.0 MRshow
1.000 UL
LTb
1.000 UL
LTa
1098 3125 M
5832 0 V
stroke
LTb
1098 3125 M
63 0 V
5769 0 R
-63 0 V
stroke
990 3125 M
[ [(Helvetica) 180.0 0.0 true true 0 ( 0.6)]
] -60.0 MRshow
1.000 UL
LTb
1.000 UL
LTa
1098 3974 M
5832 0 V
stroke
LTb
1098 3974 M
63 0 V
5769 0 R
-63 0 V
stroke
990 3974 M
[ [(Helvetica) 180.0 0.0 true true 0 ( 0.8)]
] -60.0 MRshow
1.000 UL
LTb
1.000 UL
LTa
1098 4824 M
5832 0 V
stroke
LTb
1098 4824 M
63 0 V
5769 0 R
-63 0 V
stroke
990 4824 M
[ [(Helvetica) 180.0 0.0 true true 0 ( 1)]
] -60.0 MRshow
1.000 UL
LTb
1.000 UL
LTa
1286 576 M
0 4248 V
stroke
LTb
1286 576 M
0 63 V
0 4185 R
0 -63 V
stroke
1286 396 M
[ [(Helvetica) 180.0 0.0 true true 0 ( 0)]
] -60.0 MCshow
1.000 UL
LTb
1.000 UL
LTa
2227 576 M
0 4248 V
stroke
LTb
2227 576 M
0 63 V
0 4185 R
0 -63 V
stroke
2227 396 M
[ [(Helvetica) 180.0 0.0 true true 0 ( 500)]
] -60.0 MCshow
1.000 UL
LTb
1.000 UL
LTa
3167 576 M
0 4248 V
stroke
LTb
3167 576 M
0 63 V
0 4185 R
0 -63 V
stroke
3167 396 M
[ [(Helvetica) 180.0 0.0 true true 0 ( 1000)]
] -60.0 MCshow
1.000 UL
LTb
1.000 UL
LTa
4108 576 M
0 4248 V
stroke
LTb
4108 576 M
0 63 V
0 4185 R
0 -63 V
stroke
4108 396 M
[ [(Helvetica) 180.0 0.0 true true 0 ( 1500)]
] -60.0 MCshow
1.000 UL
LTb
1.000 UL
LTa
5049 576 M
0 4248 V
stroke
LTb
5049 576 M
0 63 V
0 4185 R
0 -63 V
stroke
5049 396 M
[ [(Helvetica) 180.0 0.0 true true 0 ( 2000)]
] -60.0 MCshow
1.000 UL
LTb
1.000 UL
LTa
5989 576 M
0 4248 V
stroke
LTb
5989 576 M
0 63 V
0 4185 R
0 -63 V
stroke
5989 396 M
[ [(Helvetica) 180.0 0.0 true true 0 ( 2500)]
] -60.0 MCshow
1.000 UL
LTb
1.000 UL
LTa
6930 576 M
0 4248 V
stroke
LTb
6930 576 M
0 63 V
0 4185 R
0 -63 V
stroke
6930 396 M
[ [(Helvetica) 180.0 0.0 true true 0 ( 3000)]
] -60.0 MCshow
1.000 UL
LTb
1.000 UL
LTb
1098 4824 N
0 -4248 V
5832 0 V
0 4248 V
-5832 0 V
Z stroke
LCb setrgbcolor
360 2700 M
currentpoint gsave translate 90 rotate 0 0 moveto
[ [(Helvetica) 180.0 0.0 true true 0 (Noise ratio)]
] -60.0 MCshow
grestore
LTb
LCb setrgbcolor
4014 126 M
[ [(Helvetica) 180.0 0.0 true true 0 (Usage)]
] -60.0 MCshow
LTb
1.000 UP
1.000 UL
LTb
1.000 UL
LTb
6111 4761 N
711 0 V
-711 0 V
Z stroke
6111 4761 M
711 0 V
1.000 UP
stroke
2.000 UL
LT0
1286 1859 M
94 -366 V
94 -123 V
94 -98 V
94 -7 V
94 -42 V
95 -50 V
94 -9 V
94 -57 V
94 -23 V
94 0 V
94 -4 V
94 -15 V
94 24 V
94 -41 V
94 -31 V
94 -26 V
94 -21 V
94 26 V
94 0 V
94 26 V
94 -33 V
95 6 V
94 23 V
94 -36 V
94 -12 V
94 -9 V
94 21 V
94 -33 V
94 -19 V
94 46 V
94 8 V
94 -25 V
94 -28 V
94 66 V
94 -31 V
94 -105 V
95 37 V
94 94 V
94 -55 V
94 -26 V
94 28 V
94 -26 V
94 20 V
94 0 V
94 -12 V
94 -6 V
94 17 V
94 -47 V
94 -10 V
94 -4 V
94 55 V
94 -40 V
95 29 V
94 -73 V
94 -17 V
94 59 V
94 -34 V
94 66 V
94 -14 V
94 28 V
1286 2848 M
0 -1978 V
-31 1978 R
62 0 V
1255 870 M
62 0 V
63 1367 R
0 -1488 V
-31 1488 R
62 0 V
1349 749 M
62 0 V
63 1270 R
0 -1298 V
-31 1298 R
62 0 V
1443 721 M
62 0 V
63 1125 R
0 -1148 V
-31 1148 R
62 0 V
1537 698 M
62 0 V
63 1179 R
0 -1224 V
-31 1224 R
62 0 V
1631 653 M
62 0 V
63 1132 R
0 -1124 V
-31 1124 R
62 0 V
1725 661 M
62 0 V
64 994 R
0 -963 V
-31 963 R
62 0 V
1820 692 M
62 0 V
63 951 R
0 -959 V
stroke 1945 684 M
-31 959 R
62 0 V
1914 684 M
62 0 V
63 854 R
0 -863 V
-31 863 R
62 0 V
2008 675 M
62 0 V
63 806 R
0 -795 V
-31 795 R
62 0 V
2102 686 M
62 0 V
63 829 R
0 -863 V
-31 863 R
62 0 V
2196 652 M
62 0 V
63 808 R
0 -761 V
-31 761 R
62 0 V
2290 699 M
62 0 V
63 784 R
0 -835 V
-31 835 R
62 0 V
2384 648 M
62 0 V
63 853 R
0 -825 V
-31 825 R
62 0 V
2478 676 M
62 0 V
63 818 R
0 -893 V
-31 893 R
62 0 V
2572 601 M
62 0 V
63 812 R
0 -792 V
-31 792 R
62 0 V
2666 621 M
62 0 V
63 713 R
0 -686 V
-31 686 R
62 0 V
2760 648 M
62 0 V
63 669 R
0 -694 V
-31 694 R
62 0 V
2854 623 M
62 0 V
63 717 R
0 -689 V
-31 689 R
62 0 V
2948 651 M
62 0 V
63 691 R
0 -691 V
-31 691 R
62 0 V
3042 651 M
62 0 V
63 791 R
0 -841 V
-31 841 R
62 0 V
3136 601 M
62 0 V
63 766 R
0 -755 V
-31 755 R
62 0 V
3230 612 M
62 0 V
64 683 R
0 -600 V
-31 600 R
62 0 V
3325 695 M
62 0 V
63 757 R
0 -867 V
-31 867 R
62 0 V
3419 585 M
62 0 V
63 760 R
0 -726 V
-31 726 R
62 0 V
stroke 3575 1345 M
3513 619 M
62 0 V
63 654 R
0 -607 V
-31 607 R
62 0 V
3607 666 M
62 0 V
63 623 R
0 -655 V
-31 655 R
62 0 V
3701 634 M
62 0 V
63 667 R
0 -638 V
-31 638 R
62 0 V
3795 663 M
62 0 V
63 622 R
0 -671 V
-31 671 R
62 0 V
3889 614 M
62 0 V
63 612 R
0 -592 V
-31 592 R
62 0 V
3983 634 M
62 0 V
63 655 R
0 -627 V
-31 627 R
62 0 V
4077 662 M
62 0 V
63 675 R
0 -705 V
-31 705 R
62 0 V
4171 632 M
62 0 V
63 692 R
0 -730 V
-31 730 R
62 0 V
4265 594 M
62 0 V
63 606 R
0 -539 V
-31 539 R
62 0 V
4359 661 M
62 0 V
63 794 R
0 -879 V
-31 879 R
62 0 V
4453 576 M
62 0 V
63 732 R
0 -684 V
-31 684 R
62 0 V
4547 624 M
62 0 V
63 480 R
0 -485 V
-31 485 R
62 0 V
4641 619 M
62 0 V
64 564 R
0 -570 V
-31 570 R
62 0 V
4736 613 M
62 0 V
63 689 R
0 -619 V
-31 619 R
62 0 V
4830 683 M
62 0 V
63 544 R
0 -580 V
-31 580 R
62 0 V
4924 647 M
62 0 V
63 567 R
0 -606 V
-31 606 R
62 0 V
5018 608 M
62 0 V
63 637 R
0 -612 V
-31 612 R
62 0 V
5112 633 M
62 0 V
stroke 5174 633 M
63 576 R
0 -592 V
-31 592 R
62 0 V
5206 617 M
62 0 V
63 593 R
0 -554 V
-31 554 R
62 0 V
5300 656 M
62 0 V
63 561 R
0 -568 V
-31 568 R
62 0 V
5394 649 M
62 0 V
63 523 R
0 -502 V
-31 502 R
62 0 V
5488 670 M
62 0 V
63 530 R
0 -571 V
-31 571 R
62 0 V
5582 629 M
62 0 V
63 602 R
0 -599 V
-31 599 R
62 0 V
5676 632 M
62 0 V
63 506 R
0 -506 V
-31 506 R
62 0 V
5770 632 M
62 0 V
63 468 R
0 -449 V
-31 449 R
62 0 V
5864 651 M
62 0 V
63 595 R
0 -670 V
-31 670 R
62 0 V
5958 576 M
62 0 V
63 641 R
0 -582 V
-31 582 R
62 0 V
6052 635 M
62 0 V
63 503 R
0 -504 V
-31 504 R
62 0 V
6146 634 M
62 0 V
64 531 R
0 -500 V
-31 500 R
62 0 V
6241 665 M
62 0 V
63 390 R
0 -427 V
-31 427 R
62 0 V
6335 628 M
62 0 V
63 414 R
0 -434 V
-31 434 R
62 0 V
6429 608 M
62 0 V
63 586 R
0 -618 V
-31 618 R
62 0 V
6523 576 M
62 0 V
63 490 R
0 -432 V
-31 432 R
62 0 V
6617 634 M
62 0 V
63 592 R
0 -620 V
-31 620 R
62 0 V
6711 606 M
62 0 V
63 572 R
0 -552 V
stroke 6836 626 M
-31 552 R
62 0 V
6805 626 M
62 0 V
63 594 R
0 -580 V
-31 580 R
62 0 V
6899 640 M
62 0 V
1286 1859 Pls
1380 1493 Pls
1474 1370 Pls
1568 1272 Pls
1662 1265 Pls
1756 1223 Pls
1851 1173 Pls
1945 1164 Pls
2039 1107 Pls
2133 1084 Pls
2227 1084 Pls
2321 1080 Pls
2415 1065 Pls
2509 1089 Pls
2603 1048 Pls
2697 1017 Pls
2791 991 Pls
2885 970 Pls
2979 996 Pls
3073 996 Pls
3167 1022 Pls
3261 989 Pls
3356 995 Pls
3450 1018 Pls
3544 982 Pls
3638 970 Pls
3732 961 Pls
3826 982 Pls
3920 949 Pls
4014 930 Pls
4108 976 Pls
4202 984 Pls
4296 959 Pls
4390 931 Pls
4484 997 Pls
4578 966 Pls
4672 861 Pls
4767 898 Pls
4861 992 Pls
4955 937 Pls
5049 911 Pls
5143 939 Pls
5237 913 Pls
5331 933 Pls
5425 933 Pls
5519 921 Pls
5613 915 Pls
5707 932 Pls
5801 885 Pls
5895 875 Pls
5989 871 Pls
6083 926 Pls
6177 886 Pls
6272 915 Pls
6366 842 Pls
6460 825 Pls
6554 884 Pls
6648 850 Pls
6742 916 Pls
6836 902 Pls
6930 930 Pls
1.000 UL
LTb
1098 4824 N
0 -4248 V
5832 0 V
0 4248 V
-5832 0 V
Z stroke
1.000 UP
1.000 UL
LTb
stroke
grestore
end
showpage
%%Trailer
%%DocumentFonts: Helvetica
