%!PS-Adobe-2.0 EPSF-2.0
%%Title: all-noise-voice-20-to-150000-500-new.eps
%%Creator: gnuplot 4.2 patchlevel 6 
%%CreationDate: Thu Dec  4 13:01:39 2014
%%DocumentFonts: (atend)
%%BoundingBox: 50 50 410 302
%%EndComments
%%BeginProlog
/gnudict 256 dict def
gnudict begin
%
% The following 6 true/false flags may be edited by hand if required
% The unit line width may also be changed
%
/Color true def
/Blacktext false def
/Solid false def
/Dashlength 1 def
/Landscape false def
/Level1 false def
/Rounded false def
/TransparentPatterns false def
/gnulinewidth 5.000 def
/userlinewidth gnulinewidth def
%
/vshift -46 def
/dl1 {
  10.0 Dashlength mul mul
  Rounded { currentlinewidth 0.75 mul sub dup 0 le { pop 0.01 } if } if
} def
/dl2 {
  10.0 Dashlength mul mul
  Rounded { currentlinewidth 0.75 mul add } if
} def
/hpt_ 31.5 def
/vpt_ 31.5 def
/hpt hpt_ def
/vpt vpt_ def
Level1 {} {
/SDict 10 dict def
systemdict /pdfmark known not {
  userdict /pdfmark systemdict /cleartomark get put
} if
SDict begin [
  /Title (all-noise-voice-20-to-150000-500-new.eps)
  /Subject (gnuplot plot)
  /Creator (gnuplot 4.2 patchlevel 6 )
  /Author (Binh Nguyen,[chenxu])
%  /Producer (gnuplot)
%  /Keywords ()
  /CreationDate (Thu Dec  4 13:01:39 2014)
  /DOCINFO pdfmark
end
} ifelse
%
% Gnuplot Prolog Version 4.2 (August 2006)
%
/M {moveto} bind def
/L {lineto} bind def
/R {rmoveto} bind def
/V {rlineto} bind def
/N {newpath moveto} bind def
/Z {closepath} bind def
/C {setrgbcolor} bind def
/f {rlineto fill} bind def
/vpt2 vpt 2 mul def
/hpt2 hpt 2 mul def
/Lshow {currentpoint stroke M 0 vshift R 
	Blacktext {gsave 0 setgray show grestore} {show} ifelse} def
/Rshow {currentpoint stroke M dup stringwidth pop neg vshift R
	Blacktext {gsave 0 setgray show grestore} {show} ifelse} def
/Cshow {currentpoint stroke M dup stringwidth pop -2 div vshift R 
	Blacktext {gsave 0 setgray show grestore} {show} ifelse} def
/UP {dup vpt_ mul /vpt exch def hpt_ mul /hpt exch def
  /hpt2 hpt 2 mul def /vpt2 vpt 2 mul def} def
/DL {Color {setrgbcolor Solid {pop []} if 0 setdash}
 {pop pop pop 0 setgray Solid {pop []} if 0 setdash} ifelse} def
/BL {stroke userlinewidth 2 mul setlinewidth
	Rounded {1 setlinejoin 1 setlinecap} if} def
/AL {stroke userlinewidth 2 div setlinewidth
	Rounded {1 setlinejoin 1 setlinecap} if} def
/UL {dup gnulinewidth mul /userlinewidth exch def
	dup 1 lt {pop 1} if 10 mul /udl exch def} def
/PL {stroke userlinewidth setlinewidth
	Rounded {1 setlinejoin 1 setlinecap} if} def
% Default Line colors
/LCw {1 1 1} def
/LCb {0 0 0} def
/LCa {0 0 0} def
/LC0 {1 0 0} def
/LC1 {0 1 0} def
/LC2 {0 0 1} def
/LC3 {1 0 1} def
/LC4 {0 1 1} def
/LC5 {1 1 0} def
/LC6 {0 0 0} def
/LC7 {1 0.3 0} def
/LC8 {0.5 0.5 0.5} def
% Default Line Types
/LTw {PL [] 1 setgray} def
/LTb {BL [] LCb DL} def
/LTa {AL [1 udl mul 2 udl mul] 0 setdash LCa setrgbcolor} def
/LT0 {PL [] LC0 DL} def
/LT1 {PL [4 dl1 2 dl2] LC1 DL} def
/LT2 {PL [2 dl1 3 dl2] LC2 DL} def
/LT3 {PL [1 dl1 1.5 dl2] LC3 DL} def
/LT4 {PL [6 dl1 2 dl2 1 dl1 2 dl2] LC4 DL} def
/LT5 {PL [3 dl1 3 dl2 1 dl1 3 dl2] LC5 DL} def
/LT6 {PL [2 dl1 2 dl2 2 dl1 6 dl2] LC6 DL} def
/LT7 {PL [1 dl1 2 dl2 6 dl1 2 dl2 1 dl1 2 dl2] LC7 DL} def
/LT8 {PL [2 dl1 2 dl2 2 dl1 2 dl2 2 dl1 2 dl2 2 dl1 4 dl2] LC8 DL} def
/Pnt {stroke [] 0 setdash gsave 1 setlinecap M 0 0 V stroke grestore} def
/Dia {stroke [] 0 setdash 2 copy vpt add M
  hpt neg vpt neg V hpt vpt neg V
  hpt vpt V hpt neg vpt V closepath stroke
  Pnt} def
/Pls {stroke [] 0 setdash vpt sub M 0 vpt2 V
  currentpoint stroke M
  hpt neg vpt neg R hpt2 0 V stroke
 } def
/Box {stroke [] 0 setdash 2 copy exch hpt sub exch vpt add M
  0 vpt2 neg V hpt2 0 V 0 vpt2 V
  hpt2 neg 0 V closepath stroke
  Pnt} def
/Crs {stroke [] 0 setdash exch hpt sub exch vpt add M
  hpt2 vpt2 neg V currentpoint stroke M
  hpt2 neg 0 R hpt2 vpt2 V stroke} def
/TriU {stroke [] 0 setdash 2 copy vpt 1.12 mul add M
  hpt neg vpt -1.62 mul V
  hpt 2 mul 0 V
  hpt neg vpt 1.62 mul V closepath stroke
  Pnt} def
/Star {2 copy Pls Crs} def
/BoxF {stroke [] 0 setdash exch hpt sub exch vpt add M
  0 vpt2 neg V hpt2 0 V 0 vpt2 V
  hpt2 neg 0 V closepath fill} def
/TriUF {stroke [] 0 setdash vpt 1.12 mul add M
  hpt neg vpt -1.62 mul V
  hpt 2 mul 0 V
  hpt neg vpt 1.62 mul V closepath fill} def
/TriD {stroke [] 0 setdash 2 copy vpt 1.12 mul sub M
  hpt neg vpt 1.62 mul V
  hpt 2 mul 0 V
  hpt neg vpt -1.62 mul V closepath stroke
  Pnt} def
/TriDF {stroke [] 0 setdash vpt 1.12 mul sub M
  hpt neg vpt 1.62 mul V
  hpt 2 mul 0 V
  hpt neg vpt -1.62 mul V closepath fill} def
/DiaF {stroke [] 0 setdash vpt add M
  hpt neg vpt neg V hpt vpt neg V
  hpt vpt V hpt neg vpt V closepath fill} def
/Pent {stroke [] 0 setdash 2 copy gsave
  translate 0 hpt M 4 {72 rotate 0 hpt L} repeat
  closepath stroke grestore Pnt} def
/PentF {stroke [] 0 setdash gsave
  translate 0 hpt M 4 {72 rotate 0 hpt L} repeat
  closepath fill grestore} def
/Circle {stroke [] 0 setdash 2 copy
  hpt 0 360 arc stroke Pnt} def
/CircleF {stroke [] 0 setdash hpt 0 360 arc fill} def
/C0 {BL [] 0 setdash 2 copy moveto vpt 90 450 arc} bind def
/C1 {BL [] 0 setdash 2 copy moveto
	2 copy vpt 0 90 arc closepath fill
	vpt 0 360 arc closepath} bind def
/C2 {BL [] 0 setdash 2 copy moveto
	2 copy vpt 90 180 arc closepath fill
	vpt 0 360 arc closepath} bind def
/C3 {BL [] 0 setdash 2 copy moveto
	2 copy vpt 0 180 arc closepath fill
	vpt 0 360 arc closepath} bind def
/C4 {BL [] 0 setdash 2 copy moveto
	2 copy vpt 180 270 arc closepath fill
	vpt 0 360 arc closepath} bind def
/C5 {BL [] 0 setdash 2 copy moveto
	2 copy vpt 0 90 arc
	2 copy moveto
	2 copy vpt 180 270 arc closepath fill
	vpt 0 360 arc} bind def
/C6 {BL [] 0 setdash 2 copy moveto
	2 copy vpt 90 270 arc closepath fill
	vpt 0 360 arc closepath} bind def
/C7 {BL [] 0 setdash 2 copy moveto
	2 copy vpt 0 270 arc closepath fill
	vpt 0 360 arc closepath} bind def
/C8 {BL [] 0 setdash 2 copy moveto
	2 copy vpt 270 360 arc closepath fill
	vpt 0 360 arc closepath} bind def
/C9 {BL [] 0 setdash 2 copy moveto
	2 copy vpt 270 450 arc closepath fill
	vpt 0 360 arc closepath} bind def
/C10 {BL [] 0 setdash 2 copy 2 copy moveto vpt 270 360 arc closepath fill
	2 copy moveto
	2 copy vpt 90 180 arc closepath fill
	vpt 0 360 arc closepath} bind def
/C11 {BL [] 0 setdash 2 copy moveto
	2 copy vpt 0 180 arc closepath fill
	2 copy moveto
	2 copy vpt 270 360 arc closepath fill
	vpt 0 360 arc closepath} bind def
/C12 {BL [] 0 setdash 2 copy moveto
	2 copy vpt 180 360 arc closepath fill
	vpt 0 360 arc closepath} bind def
/C13 {BL [] 0 setdash 2 copy moveto
	2 copy vpt 0 90 arc closepath fill
	2 copy moveto
	2 copy vpt 180 360 arc closepath fill
	vpt 0 360 arc closepath} bind def
/C14 {BL [] 0 setdash 2 copy moveto
	2 copy vpt 90 360 arc closepath fill
	vpt 0 360 arc} bind def
/C15 {BL [] 0 setdash 2 copy vpt 0 360 arc closepath fill
	vpt 0 360 arc closepath} bind def
/Rec {newpath 4 2 roll moveto 1 index 0 rlineto 0 exch rlineto
	neg 0 rlineto closepath} bind def
/Square {dup Rec} bind def
/Bsquare {vpt sub exch vpt sub exch vpt2 Square} bind def
/S0 {BL [] 0 setdash 2 copy moveto 0 vpt rlineto BL Bsquare} bind def
/S1 {BL [] 0 setdash 2 copy vpt Square fill Bsquare} bind def
/S2 {BL [] 0 setdash 2 copy exch vpt sub exch vpt Square fill Bsquare} bind def
/S3 {BL [] 0 setdash 2 copy exch vpt sub exch vpt2 vpt Rec fill Bsquare} bind def
/S4 {BL [] 0 setdash 2 copy exch vpt sub exch vpt sub vpt Square fill Bsquare} bind def
/S5 {BL [] 0 setdash 2 copy 2 copy vpt Square fill
	exch vpt sub exch vpt sub vpt Square fill Bsquare} bind def
/S6 {BL [] 0 setdash 2 copy exch vpt sub exch vpt sub vpt vpt2 Rec fill Bsquare} bind def
/S7 {BL [] 0 setdash 2 copy exch vpt sub exch vpt sub vpt vpt2 Rec fill
	2 copy vpt Square fill Bsquare} bind def
/S8 {BL [] 0 setdash 2 copy vpt sub vpt Square fill Bsquare} bind def
/S9 {BL [] 0 setdash 2 copy vpt sub vpt vpt2 Rec fill Bsquare} bind def
/S10 {BL [] 0 setdash 2 copy vpt sub vpt Square fill 2 copy exch vpt sub exch vpt Square fill
	Bsquare} bind def
/S11 {BL [] 0 setdash 2 copy vpt sub vpt Square fill 2 copy exch vpt sub exch vpt2 vpt Rec fill
	Bsquare} bind def
/S12 {BL [] 0 setdash 2 copy exch vpt sub exch vpt sub vpt2 vpt Rec fill Bsquare} bind def
/S13 {BL [] 0 setdash 2 copy exch vpt sub exch vpt sub vpt2 vpt Rec fill
	2 copy vpt Square fill Bsquare} bind def
/S14 {BL [] 0 setdash 2 copy exch vpt sub exch vpt sub vpt2 vpt Rec fill
	2 copy exch vpt sub exch vpt Square fill Bsquare} bind def
/S15 {BL [] 0 setdash 2 copy Bsquare fill Bsquare} bind def
/D0 {gsave translate 45 rotate 0 0 S0 stroke grestore} bind def
/D1 {gsave translate 45 rotate 0 0 S1 stroke grestore} bind def
/D2 {gsave translate 45 rotate 0 0 S2 stroke grestore} bind def
/D3 {gsave translate 45 rotate 0 0 S3 stroke grestore} bind def
/D4 {gsave translate 45 rotate 0 0 S4 stroke grestore} bind def
/D5 {gsave translate 45 rotate 0 0 S5 stroke grestore} bind def
/D6 {gsave translate 45 rotate 0 0 S6 stroke grestore} bind def
/D7 {gsave translate 45 rotate 0 0 S7 stroke grestore} bind def
/D8 {gsave translate 45 rotate 0 0 S8 stroke grestore} bind def
/D9 {gsave translate 45 rotate 0 0 S9 stroke grestore} bind def
/D10 {gsave translate 45 rotate 0 0 S10 stroke grestore} bind def
/D11 {gsave translate 45 rotate 0 0 S11 stroke grestore} bind def
/D12 {gsave translate 45 rotate 0 0 S12 stroke grestore} bind def
/D13 {gsave translate 45 rotate 0 0 S13 stroke grestore} bind def
/D14 {gsave translate 45 rotate 0 0 S14 stroke grestore} bind def
/D15 {gsave translate 45 rotate 0 0 S15 stroke grestore} bind def
/DiaE {stroke [] 0 setdash vpt add M
  hpt neg vpt neg V hpt vpt neg V
  hpt vpt V hpt neg vpt V closepath stroke} def
/BoxE {stroke [] 0 setdash exch hpt sub exch vpt add M
  0 vpt2 neg V hpt2 0 V 0 vpt2 V
  hpt2 neg 0 V closepath stroke} def
/TriUE {stroke [] 0 setdash vpt 1.12 mul add M
  hpt neg vpt -1.62 mul V
  hpt 2 mul 0 V
  hpt neg vpt 1.62 mul V closepath stroke} def
/TriDE {stroke [] 0 setdash vpt 1.12 mul sub M
  hpt neg vpt 1.62 mul V
  hpt 2 mul 0 V
  hpt neg vpt -1.62 mul V closepath stroke} def
/PentE {stroke [] 0 setdash gsave
  translate 0 hpt M 4 {72 rotate 0 hpt L} repeat
  closepath stroke grestore} def
/CircE {stroke [] 0 setdash 
  hpt 0 360 arc stroke} def
/Opaque {gsave closepath 1 setgray fill grestore 0 setgray closepath} def
/DiaW {stroke [] 0 setdash vpt add M
  hpt neg vpt neg V hpt vpt neg V
  hpt vpt V hpt neg vpt V Opaque stroke} def
/BoxW {stroke [] 0 setdash exch hpt sub exch vpt add M
  0 vpt2 neg V hpt2 0 V 0 vpt2 V
  hpt2 neg 0 V Opaque stroke} def
/TriUW {stroke [] 0 setdash vpt 1.12 mul add M
  hpt neg vpt -1.62 mul V
  hpt 2 mul 0 V
  hpt neg vpt 1.62 mul V Opaque stroke} def
/TriDW {stroke [] 0 setdash vpt 1.12 mul sub M
  hpt neg vpt 1.62 mul V
  hpt 2 mul 0 V
  hpt neg vpt -1.62 mul V Opaque stroke} def
/PentW {stroke [] 0 setdash gsave
  translate 0 hpt M 4 {72 rotate 0 hpt L} repeat
  Opaque stroke grestore} def
/CircW {stroke [] 0 setdash 
  hpt 0 360 arc Opaque stroke} def
/BoxFill {gsave Rec 1 setgray fill grestore} def
/Density {
  /Fillden exch def
  currentrgbcolor
  /ColB exch def /ColG exch def /ColR exch def
  /ColR ColR Fillden mul Fillden sub 1 add def
  /ColG ColG Fillden mul Fillden sub 1 add def
  /ColB ColB Fillden mul Fillden sub 1 add def
  ColR ColG ColB setrgbcolor} def
/BoxColFill {gsave Rec PolyFill} def
/PolyFill {gsave Density fill grestore grestore} def
/h {rlineto rlineto rlineto gsave closepath fill grestore} bind def
%
% PostScript Level 1 Pattern Fill routine for rectangles
% Usage: x y w h s a XX PatternFill
%	x,y = lower left corner of box to be filled
%	w,h = width and height of box
%	  a = angle in degrees between lines and x-axis
%	 XX = 0/1 for no/yes cross-hatch
%
/PatternFill {gsave /PFa [ 9 2 roll ] def
  PFa 0 get PFa 2 get 2 div add PFa 1 get PFa 3 get 2 div add translate
  PFa 2 get -2 div PFa 3 get -2 div PFa 2 get PFa 3 get Rec
  gsave 1 setgray fill grestore clip
  currentlinewidth 0.5 mul setlinewidth
  /PFs PFa 2 get dup mul PFa 3 get dup mul add sqrt def
  0 0 M PFa 5 get rotate PFs -2 div dup translate
  0 1 PFs PFa 4 get div 1 add floor cvi
	{PFa 4 get mul 0 M 0 PFs V} for
  0 PFa 6 get ne {
	0 1 PFs PFa 4 get div 1 add floor cvi
	{PFa 4 get mul 0 2 1 roll M PFs 0 V} for
 } if
  stroke grestore} def
%
/languagelevel where
 {pop languagelevel} {1} ifelse
 2 lt
	{/InterpretLevel1 true def}
	{/InterpretLevel1 Level1 def}
 ifelse
%
% PostScript level 2 pattern fill definitions
%
/Level2PatternFill {
/Tile8x8 {/PaintType 2 /PatternType 1 /TilingType 1 /BBox [0 0 8 8] /XStep 8 /YStep 8}
	bind def
/KeepColor {currentrgbcolor [/Pattern /DeviceRGB] setcolorspace} bind def
<< Tile8x8
 /PaintProc {0.5 setlinewidth pop 0 0 M 8 8 L 0 8 M 8 0 L stroke} 
>> matrix makepattern
/Pat1 exch def
<< Tile8x8
 /PaintProc {0.5 setlinewidth pop 0 0 M 8 8 L 0 8 M 8 0 L stroke
	0 4 M 4 8 L 8 4 L 4 0 L 0 4 L stroke}
>> matrix makepattern
/Pat2 exch def
<< Tile8x8
 /PaintProc {0.5 setlinewidth pop 0 0 M 0 8 L
	8 8 L 8 0 L 0 0 L fill}
>> matrix makepattern
/Pat3 exch def
<< Tile8x8
 /PaintProc {0.5 setlinewidth pop -4 8 M 8 -4 L
	0 12 M 12 0 L stroke}
>> matrix makepattern
/Pat4 exch def
<< Tile8x8
 /PaintProc {0.5 setlinewidth pop -4 0 M 8 12 L
	0 -4 M 12 8 L stroke}
>> matrix makepattern
/Pat5 exch def
<< Tile8x8
 /PaintProc {0.5 setlinewidth pop -2 8 M 4 -4 L
	0 12 M 8 -4 L 4 12 M 10 0 L stroke}
>> matrix makepattern
/Pat6 exch def
<< Tile8x8
 /PaintProc {0.5 setlinewidth pop -2 0 M 4 12 L
	0 -4 M 8 12 L 4 -4 M 10 8 L stroke}
>> matrix makepattern
/Pat7 exch def
<< Tile8x8
 /PaintProc {0.5 setlinewidth pop 8 -2 M -4 4 L
	12 0 M -4 8 L 12 4 M 0 10 L stroke}
>> matrix makepattern
/Pat8 exch def
<< Tile8x8
 /PaintProc {0.5 setlinewidth pop 0 -2 M 12 4 L
	-4 0 M 12 8 L -4 4 M 8 10 L stroke}
>> matrix makepattern
/Pat9 exch def
/Pattern1 {PatternBgnd KeepColor Pat1 setpattern} bind def
/Pattern2 {PatternBgnd KeepColor Pat2 setpattern} bind def
/Pattern3 {PatternBgnd KeepColor Pat3 setpattern} bind def
/Pattern4 {PatternBgnd KeepColor Landscape {Pat5} {Pat4} ifelse setpattern} bind def
/Pattern5 {PatternBgnd KeepColor Landscape {Pat4} {Pat5} ifelse setpattern} bind def
/Pattern6 {PatternBgnd KeepColor Landscape {Pat9} {Pat6} ifelse setpattern} bind def
/Pattern7 {PatternBgnd KeepColor Landscape {Pat8} {Pat7} ifelse setpattern} bind def
} def
%
%
%End of PostScript Level 2 code
%
/PatternBgnd {
  TransparentPatterns {} {gsave 1 setgray fill grestore} ifelse
} def
%
% Substitute for Level 2 pattern fill codes with
% grayscale if Level 2 support is not selected.
%
/Level1PatternFill {
/Pattern1 {0.250 Density} bind def
/Pattern2 {0.500 Density} bind def
/Pattern3 {0.750 Density} bind def
/Pattern4 {0.125 Density} bind def
/Pattern5 {0.375 Density} bind def
/Pattern6 {0.625 Density} bind def
/Pattern7 {0.875 Density} bind def
} def
%
% Now test for support of Level 2 code
%
Level1 {Level1PatternFill} {Level2PatternFill} ifelse
%
/Symbol-Oblique /Symbol findfont [1 0 .167 1 0 0] makefont
dup length dict begin {1 index /FID eq {pop pop} {def} ifelse} forall
currentdict end definefont pop
/MFshow {
   { dup 5 get 3 ge
     { 5 get 3 eq {gsave} {grestore} ifelse }
     {dup dup 0 get findfont exch 1 get scalefont setfont
     [ currentpoint ] exch dup 2 get 0 exch R dup 5 get 2 ne {dup dup 6
     get exch 4 get {show} {stringwidth pop 0 R} ifelse }if dup 5 get 0 eq
     {dup 3 get {2 get neg 0 exch R pop} {pop aload pop M} ifelse} {dup 5
     get 1 eq {dup 2 get exch dup 3 get exch 6 get stringwidth pop -2 div
     dup 0 R} {dup 6 get stringwidth pop -2 div 0 R 6 get
     show 2 index {aload pop M neg 3 -1 roll neg R pop pop} {pop pop pop
     pop aload pop M} ifelse }ifelse }ifelse }
     ifelse }
   forall} bind def
/MFwidth {0 exch { dup 5 get 3 ge { 5 get 3 eq { 0 } { pop } ifelse }
 {dup 3 get{dup dup 0 get findfont exch 1 get scalefont setfont
     6 get stringwidth pop add} {pop} ifelse} ifelse} forall} bind def
/MLshow { currentpoint stroke M
  0 exch R
  Blacktext {gsave 0 setgray MFshow grestore} {MFshow} ifelse } bind def
/MRshow { currentpoint stroke M
  exch dup MFwidth neg 3 -1 roll R
  Blacktext {gsave 0 setgray MFshow grestore} {MFshow} ifelse } bind def
/MCshow { currentpoint stroke M
  exch dup MFwidth -2 div 3 -1 roll R
  Blacktext {gsave 0 setgray MFshow grestore} {MFshow} ifelse } bind def
/XYsave    { [( ) 1 2 true false 3 ()] } bind def
/XYrestore { [( ) 1 2 true false 4 ()] } bind def
end
%%EndProlog
gnudict begin
gsave
50 50 translate
0.050 0.050 scale
0 setgray
newpath
(Helvetica) findfont 140 scalefont setfont
1.000 UL
LTb
1.000 UL
LTa
854 448 M
6136 0 V
stroke
LTb
854 448 M
63 0 V
6073 0 R
-63 0 V
stroke
770 448 M
[ [(Helvetica) 140.0 0.0 true true 0 ( 0)]
] -46.7 MRshow
1.000 UL
LTb
1.000 UL
LTa
854 1333 M
6136 0 V
stroke
LTb
854 1333 M
63 0 V
6073 0 R
-63 0 V
stroke
770 1333 M
[ [(Helvetica) 140.0 0.0 true true 0 ( 0.2)]
] -46.7 MRshow
1.000 UL
LTb
1.000 UL
LTa
854 2218 M
6136 0 V
stroke
LTb
854 2218 M
63 0 V
6073 0 R
-63 0 V
stroke
770 2218 M
[ [(Helvetica) 140.0 0.0 true true 0 ( 0.4)]
] -46.7 MRshow
1.000 UL
LTb
1.000 UL
LTa
854 3102 M
6136 0 V
stroke
LTb
854 3102 M
63 0 V
6073 0 R
-63 0 V
stroke
770 3102 M
[ [(Helvetica) 140.0 0.0 true true 0 ( 0.6)]
] -46.7 MRshow
1.000 UL
LTb
1.000 UL
LTa
854 3987 M
6136 0 V
stroke
LTb
854 3987 M
63 0 V
6073 0 R
-63 0 V
stroke
770 3987 M
[ [(Helvetica) 140.0 0.0 true true 0 ( 0.8)]
] -46.7 MRshow
1.000 UL
LTb
1.000 UL
LTa
854 4872 M
6136 0 V
stroke
LTb
854 4872 M
63 0 V
6073 0 R
-63 0 V
stroke
770 4872 M
[ [(Helvetica) 140.0 0.0 true true 0 ( 1)]
] -46.7 MRshow
1.000 UL
LTb
1.000 UL
LTa
854 448 M
0 4424 V
stroke
LTb
854 448 M
0 63 V
0 4361 R
0 -63 V
stroke
854 308 M
[ [(Helvetica) 140.0 0.0 true true 0 ( 0)]
] -46.7 MCshow
1.000 UL
LTb
1.000 UL
LTa
1877 448 M
0 4424 V
stroke
LTb
1877 448 M
0 63 V
0 4361 R
0 -63 V
stroke
1877 308 M
[ [(Helvetica) 140.0 0.0 true true 0 ( 500)]
] -46.7 MCshow
1.000 UL
LTb
1.000 UL
LTa
2899 448 M
0 4424 V
stroke
LTb
2899 448 M
0 63 V
0 4361 R
0 -63 V
stroke
2899 308 M
[ [(Helvetica) 140.0 0.0 true true 0 ( 1000)]
] -46.7 MCshow
1.000 UL
LTb
1.000 UL
LTa
3922 448 M
0 4424 V
stroke
LTb
3922 448 M
0 63 V
0 4361 R
0 -63 V
stroke
3922 308 M
[ [(Helvetica) 140.0 0.0 true true 0 ( 1500)]
] -46.7 MCshow
1.000 UL
LTb
1.000 UL
LTa
4945 448 M
0 4424 V
stroke
LTb
4945 448 M
0 63 V
0 4361 R
0 -63 V
stroke
4945 308 M
[ [(Helvetica) 140.0 0.0 true true 0 ( 2000)]
] -46.7 MCshow
1.000 UL
LTb
1.000 UL
LTa
5967 448 M
0 3661 V
0 700 R
0 63 V
stroke
LTb
5967 448 M
0 63 V
0 4361 R
0 -63 V
stroke
5967 308 M
[ [(Helvetica) 140.0 0.0 true true 0 ( 2500)]
] -46.7 MCshow
1.000 UL
LTb
1.000 UL
LTa
6990 448 M
0 4424 V
stroke
LTb
6990 448 M
0 63 V
0 4361 R
0 -63 V
stroke
6990 308 M
[ [(Helvetica) 140.0 0.0 true true 0 ( 3000)]
] -46.7 MCshow
1.000 UL
LTb
1.000 UL
LTb
854 4872 N
854 448 L
6136 0 V
0 4424 V
-6136 0 V
Z stroke
LCb setrgbcolor
280 2660 M
currentpoint gsave translate 90 rotate 0 0 moveto
[ [(Helvetica) 140.0 0.0 true true 0 (Noise \(normalized\))]
] -46.7 MCshow
grestore
LTb
LCb setrgbcolor
3922 98 M
[ [(Helvetica) 140.0 0.0 true true 0 (Usage)]
] -46.7 MCshow
LTb
1.000 UP
1.000 UL
LTb
1.000 UL
LTb
5415 4109 N
0 700 V
1491 0 V
0 -700 V
-1491 0 V
Z stroke
5415 4809 M
1491 0 V
1.000 UP
stroke
LT0
LTb
6339 4739 M
[ [(Helvetica) 140.0 0.0 true true 0 (busy-hour)]
] -46.7 MRshow
LT0
4709 512 Pls
4693 461 Pls
3447 535 Pls
1173 626 Pls
1140 2740 Pls
1216 473 Pls
4855 506 Pls
4517 723 Pls
5033 548 Pls
5053 590 Pls
5145 560 Pls
5286 488 Pls
5562 496 Pls
5538 593 Pls
5703 829 Pls
5808 655 Pls
6027 494 Pls
5961 740 Pls
6309 487 Pls
1404 896 Pls
6732 704 Pls
6677 581 Pls
6835 633 Pls
856 679 Pls
1611 676 Pls
1582 970 Pls
1778 628 Pls
1699 693 Pls
1952 668 Pls
2200 754 Pls
2145 655 Pls
2188 860 Pls
2445 580 Pls
2539 603 Pls
2693 656 Pls
901 2750 Pls
897 2054 Pls
2957 592 Pls
2809 736 Pls
3216 515 Pls
3122 496 Pls
3302 515 Pls
3497 589 Pls
3560 495 Pls
3443 580 Pls
3580 550 Pls
3844 513 Pls
4006 545 Pls
4127 718 Pls
4065 470 Pls
4116 742 Pls
4217 578 Pls
4789 595 Pls
4378 729 Pls
6622 4739 Pls
1.000 UP
1.000 UL
LT1
LTb
6339 4599 M
[ [(Helvetica) 140.0 0.0 true true 0 (quite-1hour)]
] -46.7 MRshow
LT1
1132 631 Crs
1484 1145 Crs
3452 706 Crs
3278 675 Crs
3396 471 Crs
3660 580 Crs
5996 485 Crs
3558 626 Crs
3705 662 Crs
5873 561 Crs
3519 556 Crs
883 953 Crs
881 2738 Crs
997 4645 Crs
3746 1078 Crs
3488 481 Crs
3374 790 Crs
3603 499 Crs
3550 498 Crs
3859 850 Crs
3435 586 Crs
3458 472 Crs
3523 464 Crs
1128 1029 Crs
3585 542 Crs
3932 718 Crs
3734 531 Crs
3630 505 Crs
3423 627 Crs
4020 827 Crs
3701 454 Crs
3736 530 Crs
3613 571 Crs
3656 709 Crs
3705 569 Crs
3900 681 Crs
3830 514 Crs
3912 656 Crs
1097 1009 Crs
3650 615 Crs
3983 747 Crs
4028 797 Crs
3666 552 Crs
3891 637 Crs
3615 611 Crs
3736 535 Crs
3654 665 Crs
3826 548 Crs
4084 526 Crs
3728 561 Crs
3654 657 Crs
3793 540 Crs
3897 583 Crs
3746 554 Crs
3687 810 Crs
3652 522 Crs
1210 754 Crs
1185 1073 Crs
3918 518 Crs
3828 535 Crs
3965 525 Crs
4063 514 Crs
3957 686 Crs
3724 732 Crs
4100 644 Crs
3695 656 Crs
3955 549 Crs
3814 592 Crs
4088 633 Crs
3971 455 Crs
3848 545 Crs
4004 516 Crs
4165 730 Crs
3844 588 Crs
1181 544 Crs
1128 756 Crs
3977 454 Crs
4137 492 Crs
3967 456 Crs
4167 448 Crs
3846 568 Crs
3900 506 Crs
4006 518 Crs
4200 718 Crs
4349 822 Crs
4008 641 Crs
3944 499 Crs
3953 495 Crs
3957 520 Crs
4096 488 Crs
4065 788 Crs
1136 495 Crs
1181 816 Crs
4165 587 Crs
3889 656 Crs
4112 1699 Crs
4053 708 Crs
4335 572 Crs
4182 486 Crs
4482 660 Crs
4517 487 Crs
4124 509 Crs
4098 632 Crs
4221 606 Crs
4298 569 Crs
4255 480 Crs
4149 596 Crs
4384 670 Crs
1249 1003 Crs
1171 630 Crs
4188 543 Crs
4259 484 Crs
4163 451 Crs
4037 785 Crs
4444 591 Crs
4286 614 Crs
4437 570 Crs
4145 743 Crs
4523 613 Crs
4603 681 Crs
4603 748 Crs
4482 666 Crs
4378 450 Crs
4425 627 Crs
1236 594 Crs
1161 1121 Crs
4139 849 Crs
4527 467 Crs
4478 625 Crs
4208 462 Crs
4296 875 Crs
4554 523 Crs
4711 600 Crs
4484 718 Crs
4433 752 Crs
4401 696 Crs
1232 589 Crs
1200 698 Crs
4333 478 Crs
4577 568 Crs
4186 607 Crs
4487 748 Crs
4644 551 Crs
4497 593 Crs
4538 713 Crs
4902 475 Crs
4538 611 Crs
4564 518 Crs
4671 626 Crs
4536 743 Crs
4462 600 Crs
4544 633 Crs
4574 628 Crs
4669 601 Crs
1261 705 Crs
5012 573 Crs
4689 689 Crs
4681 588 Crs
4560 514 Crs
4669 467 Crs
5037 759 Crs
4818 469 Crs
4910 568 Crs
4716 570 Crs
4740 487 Crs
4979 567 Crs
4468 781 Crs
4603 525 Crs
4883 660 Crs
4912 464 Crs
4799 590 Crs
4916 543 Crs
5004 727 Crs
1196 933 Crs
1204 1747 Crs
895 619 Crs
897 879 Crs
1345 929 Crs
1318 1078 Crs
1249 504 Crs
1279 594 Crs
1251 469 Crs
1347 779 Crs
1421 1085 Crs
1277 672 Crs
1320 507 Crs
1288 1161 Crs
1455 958 Crs
1269 824 Crs
1318 712 Crs
1294 1004 Crs
1431 797 Crs
1406 765 Crs
1398 643 Crs
1468 1027 Crs
866 4104 Crs
860 3459 Crs
1429 684 Crs
1388 487 Crs
1339 1203 Crs
1402 497 Crs
1633 1056 Crs
1468 668 Crs
1453 463 Crs
1343 838 Crs
1521 1028 Crs
1433 450 Crs
1627 1054 Crs
1404 1075 Crs
1470 891 Crs
1670 1106 Crs
1543 1025 Crs
1511 999 Crs
903 1147 Crs
938 1119 Crs
1511 875 Crs
1562 651 Crs
1506 1354 Crs
1746 1366 Crs
1519 637 Crs
1474 1481 Crs
1580 523 Crs
1617 454 Crs
1584 590 Crs
1521 819 Crs
1672 478 Crs
1590 629 Crs
1543 624 Crs
1609 674 Crs
1609 618 Crs
944 715 Crs
907 1073 Crs
1672 870 Crs
1760 957 Crs
1688 772 Crs
1756 1092 Crs
1731 721 Crs
1646 561 Crs
1658 906 Crs
1709 558 Crs
1852 1056 Crs
1758 477 Crs
1715 539 Crs
1693 587 Crs
1725 716 Crs
1944 989 Crs
1656 482 Crs
1750 652 Crs
1850 1000 Crs
1686 1188 Crs
1778 477 Crs
1725 668 Crs
913 1952 Crs
969 575 Crs
1832 895 Crs
1887 586 Crs
1748 548 Crs
1832 472 Crs
1656 769 Crs
1866 580 Crs
1795 1121 Crs
1862 662 Crs
1766 502 Crs
1909 537 Crs
1768 808 Crs
2053 1323 Crs
1920 651 Crs
1803 710 Crs
1899 507 Crs
2057 530 Crs
950 507 Crs
962 902 Crs
1864 593 Crs
1821 1065 Crs
1889 996 Crs
1852 748 Crs
2024 738 Crs
1932 824 Crs
1907 837 Crs
1881 569 Crs
1967 579 Crs
2026 543 Crs
2048 648 Crs
1987 628 Crs
1856 935 Crs
2100 514 Crs
1969 574 Crs
2026 497 Crs
2079 578 Crs
2065 604 Crs
1936 550 Crs
975 811 Crs
2051 468 Crs
1985 533 Crs
2040 690 Crs
2014 465 Crs
2008 671 Crs
2276 682 Crs
2128 731 Crs
2051 668 Crs
2183 551 Crs
2059 553 Crs
2149 621 Crs
2181 467 Crs
2130 599 Crs
2147 498 Crs
2173 846 Crs
954 2010 Crs
1032 784 Crs
2200 682 Crs
2126 610 Crs
2292 754 Crs
2149 839 Crs
2241 656 Crs
993 2920 Crs
962 1081 Crs
2194 770 Crs
2204 779 Crs
2087 974 Crs
2374 471 Crs
2224 476 Crs
2130 843 Crs
2278 619 Crs
2210 466 Crs
2179 744 Crs
2282 1176 Crs
2603 1456 Crs
2235 597 Crs
987 1462 Crs
2363 507 Crs
2214 531 Crs
2259 623 Crs
2263 582 Crs
2333 475 Crs
2194 708 Crs
2515 742 Crs
2384 483 Crs
2646 866 Crs
2316 465 Crs
2447 595 Crs
2372 814 Crs
2462 490 Crs
2500 949 Crs
2339 771 Crs
2496 805 Crs
991 1744 Crs
2507 690 Crs
2396 532 Crs
2668 699 Crs
2390 641 Crs
2406 724 Crs
2335 644 Crs
2574 591 Crs
2355 832 Crs
2433 464 Crs
2458 639 Crs
2458 494 Crs
2333 898 Crs
2388 760 Crs
2685 578 Crs
2472 528 Crs
2728 618 Crs
2384 559 Crs
2693 592 Crs
991 1129 Crs
1003 889 Crs
2554 561 Crs
2406 687 Crs
2703 467 Crs
2683 491 Crs
2646 503 Crs
2451 917 Crs
2828 948 Crs
2703 554 Crs
2762 647 Crs
2545 468 Crs
2703 760 Crs
2478 602 Crs
2701 598 Crs
2527 943 Crs
2595 559 Crs
2689 457 Crs
2867 679 Crs
1073 1120 Crs
1007 732 Crs
2697 463 Crs
2691 651 Crs
2642 469 Crs
2791 890 Crs
2924 533 Crs
2850 655 Crs
2815 582 Crs
2773 508 Crs
2867 483 Crs
2652 543 Crs
2760 471 Crs
2668 552 Crs
2672 798 Crs
2828 851 Crs
2754 778 Crs
2779 497 Crs
1054 515 Crs
1093 1069 Crs
2822 828 Crs
2820 475 Crs
2680 474 Crs
2856 448 Crs
2897 507 Crs
2820 549 Crs
2807 559 Crs
2830 580 Crs
2950 545 Crs
3065 690 Crs
2848 620 Crs
3049 523 Crs
2998 513 Crs
2903 547 Crs
2793 982 Crs
3149 762 Crs
3053 479 Crs
1050 513 Crs
1042 1353 Crs
2922 733 Crs
2813 642 Crs
3088 517 Crs
2979 469 Crs
3055 730 Crs
2922 491 Crs
3145 583 Crs
2856 648 Crs
2920 751 Crs
3118 456 Crs
3108 642 Crs
3222 725 Crs
3085 488 Crs
3398 563 Crs
1059 646 Crs
1036 1255 Crs
3120 480 Crs
3274 565 Crs
3061 499 Crs
3186 468 Crs
3235 650 Crs
3323 536 Crs
3206 489 Crs
3034 605 Crs
3251 703 Crs
3276 794 Crs
3167 462 Crs
3267 712 Crs
3116 686 Crs
3120 624 Crs
1065 956 Crs
3362 512 Crs
3108 479 Crs
3317 525 Crs
3294 563 Crs
3235 528 Crs
3161 675 Crs
3251 492 Crs
3010 709 Crs
3169 745 Crs
3220 590 Crs
3402 451 Crs
3145 581 Crs
3298 514 Crs
3427 479 Crs
3345 545 Crs
3302 662 Crs
3272 573 Crs
3386 463 Crs
1099 513 Crs
1101 1014 Crs
3276 572 Crs
3415 463 Crs
3370 534 Crs
3265 549 Crs
3294 551 Crs
3615 972 Crs
3339 563 Crs
3347 520 Crs
3552 475 Crs
3456 451 Crs
3317 1045 Crs
6622 4599 Crs
1.000 UP
1.000 UL
LT2
LTb
6339 4459 M
[ [(Helvetica) 140.0 0.0 true true 0 (quite-2hour)]
] -46.7 MRshow
LT2
1783 695 Star
1793 533 Star
926 963 Star
1930 760 Star
1762 567 Star
1938 504 Star
1811 1043 Star
2079 516 Star
2091 680 Star
2171 495 Star
2151 522 Star
2214 690 Star
2261 693 Star
2138 745 Star
993 526 Star
981 1136 Star
2503 1011 Star
2318 587 Star
2351 629 Star
2554 716 Star
2730 1057 Star
2458 666 Star
2533 876 Star
2842 925 Star
2498 545 Star
2715 466 Star
2693 623 Star
2830 533 Star
860 3547 Star
1034 790 Star
2670 620 Star
2746 543 Star
2797 461 Star
2752 593 Star
2842 448 Star
2856 1138 Star
3204 872 Star
2789 510 Star
3010 709 Star
2955 766 Star
3077 463 Star
3521 742 Star
3216 643 Star
3229 546 Star
1085 515 Star
1114 942 Star
3208 466 Star
3452 800 Star
3398 703 Star
3509 903 Star
3257 497 Star
3685 755 Star
3317 533 Star
3585 555 Star
3247 838 Star
3427 462 Star
3601 668 Star
3362 492 Star
3836 593 Star
3689 874 Star
3429 800 Star
3662 558 Star
3599 501 Star
3781 820 Star
3738 839 Star
3859 660 Star
3672 920 Star
3789 551 Star
3859 683 Star
4276 943 Star
4043 532 Star
4028 607 Star
3865 480 Star
4000 474 Star
4102 584 Star
3920 455 Star
4145 461 Star
4200 612 Star
4034 581 Star
1161 496 Star
4237 674 Star
4026 608 Star
4286 477 Star
4041 504 Star
4464 756 Star
4437 491 Star
4294 582 Star
4521 714 Star
4450 561 Star
4169 541 Star
4583 507 Star
4370 868 Star
4540 503 Star
4699 565 Star
1200 462 Star
1226 675 Star
4660 582 Star
4675 540 Star
4574 476 Star
4814 533 Star
4781 577 Star
4695 531 Star
4820 480 Star
5100 527 Star
4879 546 Star
4652 867 Star
4936 551 Star
5057 584 Star
4955 653 Star
5088 449 Star
4910 632 Star
1236 1075 Star
1230 467 Star
4959 466 Star
5033 477 Star
5225 558 Star
4986 485 Star
5213 462 Star
5425 678 Star
5601 561 Star
5434 476 Star
5098 546 Star
5380 455 Star
5225 575 Star
5391 542 Star
5401 478 Star
5249 625 Star
5444 940 Star
5632 689 Star
5753 652 Star
1239 965 Star
1378 685 Star
5658 493 Star
5781 523 Star
5468 599 Star
1130 1079 Star
1165 813 Star
5953 466 Star
5616 553 Star
5611 511 Star
6002 615 Star
5789 466 Star
5816 591 Star
6121 761 Star
5933 629 Star
6229 767 Star
5861 689 Star
1404 490 Star
1347 742 Star
5982 450 Star
6178 577 Star
6000 564 Star
6513 611 Star
6616 646 Star
6327 455 Star
6391 593 Star
6227 491 Star
6569 543 Star
6262 500 Star
6740 699 Star
1410 684 Star
1367 726 Star
6409 580 Star
6925 613 Star
6546 469 Star
6428 466 Star
6223 683 Star
6929 806 Star
6687 520 Star
6693 579 Star
6689 502 Star
6411 552 Star
6884 706 Star
6841 541 Star
6726 468 Star
6806 470 Star
1365 819 Star
6736 473 Star
6884 477 Star
1551 971 Star
1353 1250 Star
1619 722 Star
1582 677 Star
1601 542 Star
1609 873 Star
1601 714 Star
1875 995 Star
1707 763 Star
6622 4459 Star
1.000 UP
1.000 UL
LT3
LTb
6339 4319 M
[ [(Helvetica) 140.0 0.0 true true 0 (quite-3hour)]
] -46.7 MRshow
LT3
1887 966 Box
1901 501 Box
987 822 Box
940 1074 Box
1971 585 Box
2038 922 Box
1858 671 Box
2038 762 Box
1956 1177 Box
2214 518 Box
2257 492 Box
2253 792 Box
2243 536 Box
2312 552 Box
2478 482 Box
2460 784 Box
2304 878 Box
997 751 Box
995 893 Box
2619 750 Box
2458 545 Box
2498 888 Box
2578 468 Box
2691 665 Box
2924 870 Box
2621 897 Box
3032 1033 Box
2844 643 Box
2953 645 Box
2889 542 Box
3065 702 Box
862 1459 Box
1034 855 Box
1054 887 Box
2877 773 Box
2940 557 Box
3053 664 Box
2983 642 Box
3073 590 Box
3163 1133 Box
3018 464 Box
3646 456 Box
3247 618 Box
3351 739 Box
3877 611 Box
3533 731 Box
3521 472 Box
1104 570 Box
3445 765 Box
3748 604 Box
3949 1118 Box
4059 780 Box
3630 573 Box
3562 1150 Box
3773 481 Box
3906 638 Box
3742 821 Box
3734 521 Box
4249 654 Box
4006 665 Box
3760 449 Box
3985 795 Box
3934 454 Box
1122 655 Box
4090 460 Box
4006 630 Box
4098 605 Box
4012 1054 Box
4118 779 Box
4159 456 Box
4157 673 Box
4581 599 Box
4427 637 Box
4378 630 Box
4278 635 Box
4397 483 Box
4797 500 Box
4319 542 Box
4534 483 Box
4542 473 Box
1173 499 Box
1206 505 Box
4644 584 Box
4630 603 Box
4448 1362 Box
4838 864 Box
4844 495 Box
4615 811 Box
4961 662 Box
4910 603 Box
5051 524 Box
4634 968 Box
4806 775 Box
4926 911 Box
5270 514 Box
1228 614 Box
5057 488 Box
5386 484 Box
5065 492 Box
5356 451 Box
5098 560 Box
5395 731 Box
5219 516 Box
5673 719 Box
5397 655 Box
5071 1169 Box
5503 681 Box
5505 587 Box
5319 573 Box
1312 522 Box
1267 706 Box
5748 485 Box
5485 609 Box
5528 729 Box
5980 717 Box
6272 579 Box
5996 795 Box
5591 531 Box
5806 756 Box
5812 698 Box
5949 722 Box
5982 520 Box
5843 750 Box
6008 806 Box
6049 602 Box
6385 591 Box
1277 833 Box
1478 744 Box
6016 760 Box
6203 533 Box
6299 1149 Box
6407 512 Box
6088 753 Box
909 655 Box
1061 1127 Box
6912 732 Box
6552 553 Box
6217 536 Box
6612 546 Box
6419 549 Box
6771 645 Box
6460 510 Box
6581 1015 Box
6747 731 Box
6460 709 Box
1472 568 Box
1419 630 Box
6587 613 Box
6671 460 Box
6779 557 Box
6665 546 Box
6978 736 Box
6949 594 Box
6908 754 Box
1445 537 Box
1416 1048 Box
6927 860 Box
1435 936 Box
1541 490 Box
1652 454 Box
1423 1030 Box
1688 713 Box
1776 693 Box
1746 692 Box
1729 684 Box
1736 852 Box
1721 586 Box
2001 971 Box
1821 672 Box
6622 4319 Box
1.000 UP
1.000 UL
LT4
LTb
6339 4179 M
[ [(Helvetica) 140.0 0.0 true true 0 (quite-6hour)]
] -46.7 MRshow
LT4
2400 1186 BoxF
2284 494 BoxF
1026 498 BoxF
2603 874 BoxF
2460 653 BoxF
2492 595 BoxF
2376 696 BoxF
2439 837 BoxF
2611 1026 BoxF
2670 1382 BoxF
2503 820 BoxF
2781 699 BoxF
2854 518 BoxF
2832 469 BoxF
3059 541 BoxF
3085 817 BoxF
2924 608 BoxF
3216 865 BoxF
3090 803 BoxF
3024 489 BoxF
3004 513 BoxF
1075 1334 BoxF
1048 621 BoxF
3222 542 BoxF
3145 488 BoxF
3124 508 BoxF
3304 455 BoxF
3447 671 BoxF
3865 1142 BoxF
3533 1071 BoxF
3570 738 BoxF
3366 494 BoxF
3912 538 BoxF
4157 738 BoxF
3515 907 BoxF
3773 478 BoxF
3814 613 BoxF
3981 816 BoxF
3944 578 BoxF
864 614 BoxF
1159 824 BoxF
1159 620 BoxF
3816 534 BoxF
3910 528 BoxF
4131 641 BoxF
4196 916 BoxF
4000 518 BoxF
4517 768 BoxF
4024 635 BoxF
4525 645 BoxF
4409 683 BoxF
4705 713 BoxF
4354 732 BoxF
4401 1078 BoxF
5292 1078 BoxF
4756 710 BoxF
4662 909 BoxF
1241 542 BoxF
1208 488 BoxF
4975 1149 BoxF
4828 620 BoxF
5270 1212 BoxF
5192 727 BoxF
4705 756 BoxF
5221 578 BoxF
4820 529 BoxF
4934 460 BoxF
5106 558 BoxF
4920 577 BoxF
5155 787 BoxF
4842 653 BoxF
5573 1092 BoxF
5325 806 BoxF
5102 1069 BoxF
5474 597 BoxF
5292 822 BoxF
1310 1103 BoxF
1286 1012 BoxF
5450 951 BoxF
5460 514 BoxF
5816 500 BoxF
5626 623 BoxF
5759 572 BoxF
5820 596 BoxF
5599 841 BoxF
5888 649 BoxF
6111 1048 BoxF
5851 729 BoxF
5769 763 BoxF
5826 484 BoxF
6583 919 BoxF
5976 510 BoxF
5961 453 BoxF
6055 493 BoxF
6072 504 BoxF
6033 737 BoxF
1353 1323 BoxF
6325 852 BoxF
6374 880 BoxF
6268 612 BoxF
6350 538 BoxF
6473 687 BoxF
6669 488 BoxF
6323 547 BoxF
6597 965 BoxF
6794 613 BoxF
6366 583 BoxF
6976 878 BoxF
6487 675 BoxF
6583 473 BoxF
6730 520 BoxF
1402 726 BoxF
6961 590 BoxF
6929 558 BoxF
1504 1333 BoxF
1502 2005 BoxF
1754 632 BoxF
915 1071 BoxF
1766 772 BoxF
1650 1000 BoxF
1731 1232 BoxF
1615 956 BoxF
1803 900 BoxF
2001 623 BoxF
1748 1834 BoxF
2022 784 BoxF
1983 802 BoxF
1930 973 BoxF
2198 532 BoxF
2096 488 BoxF
2294 699 BoxF
2085 515 BoxF
2386 576 BoxF
6622 4179 BoxF
1.000 UL
LTb
854 4872 N
854 448 L
6136 0 V
0 4424 V
-6136 0 V
Z stroke
1.000 UP
1.000 UL
LTb
stroke
grestore
end
showpage
%%Trailer
%%DocumentFonts: Helvetica
