%!PS-Adobe-2.0 EPSF-2.0
%%Title: zip-20-noiseratio-voice.eps
%%Creator: gnuplot 4.2 patchlevel 6 
%%CreationDate: Sat Mar  7 20:26:43 2015
%%DocumentFonts: (atend)
%%BoundingBox: 50 50 410 302
%%EndComments
%%BeginProlog
/gnudict 256 dict def
gnudict begin
%
% The following 6 true/false flags may be edited by hand if required
% The unit line width may also be changed
%
/Color true def
/Blacktext false def
/Solid false def
/Dashlength 1 def
/Landscape false def
/Level1 false def
/Rounded false def
/TransparentPatterns false def
/gnulinewidth 5.000 def
/userlinewidth gnulinewidth def
%
/vshift -60 def
/dl1 {
  10.0 Dashlength mul mul
  Rounded { currentlinewidth 0.75 mul sub dup 0 le { pop 0.01 } if } if
} def
/dl2 {
  10.0 Dashlength mul mul
  Rounded { currentlinewidth 0.75 mul add } if
} def
/hpt_ 31.5 def
/vpt_ 31.5 def
/hpt hpt_ def
/vpt vpt_ def
Level1 {} {
/SDict 10 dict def
systemdict /pdfmark known not {
  userdict /pdfmark systemdict /cleartomark get put
} if
SDict begin [
  /Title (zip-20-noiseratio-voice.eps)
  /Subject (gnuplot plot)
  /Creator (gnuplot 4.2 patchlevel 6 )
  /Author (Binh Nguyen,[chenxu])
%  /Producer (gnuplot)
%  /Keywords ()
  /CreationDate (Sat Mar  7 20:26:43 2015)
  /DOCINFO pdfmark
end
} ifelse
%
% Gnuplot Prolog Version 4.2 (August 2006)
%
/M {moveto} bind def
/L {lineto} bind def
/R {rmoveto} bind def
/V {rlineto} bind def
/N {newpath moveto} bind def
/Z {closepath} bind def
/C {setrgbcolor} bind def
/f {rlineto fill} bind def
/vpt2 vpt 2 mul def
/hpt2 hpt 2 mul def
/Lshow {currentpoint stroke M 0 vshift R 
	Blacktext {gsave 0 setgray show grestore} {show} ifelse} def
/Rshow {currentpoint stroke M dup stringwidth pop neg vshift R
	Blacktext {gsave 0 setgray show grestore} {show} ifelse} def
/Cshow {currentpoint stroke M dup stringwidth pop -2 div vshift R 
	Blacktext {gsave 0 setgray show grestore} {show} ifelse} def
/UP {dup vpt_ mul /vpt exch def hpt_ mul /hpt exch def
  /hpt2 hpt 2 mul def /vpt2 vpt 2 mul def} def
/DL {Color {setrgbcolor Solid {pop []} if 0 setdash}
 {pop pop pop 0 setgray Solid {pop []} if 0 setdash} ifelse} def
/BL {stroke userlinewidth 2 mul setlinewidth
	Rounded {1 setlinejoin 1 setlinecap} if} def
/AL {stroke userlinewidth 2 div setlinewidth
	Rounded {1 setlinejoin 1 setlinecap} if} def
/UL {dup gnulinewidth mul /userlinewidth exch def
	dup 1 lt {pop 1} if 10 mul /udl exch def} def
/PL {stroke userlinewidth setlinewidth
	Rounded {1 setlinejoin 1 setlinecap} if} def
% Default Line colors
/LCw {1 1 1} def
/LCb {0 0 0} def
/LCa {0 0 0} def
/LC0 {1 0 0} def
/LC1 {0 1 0} def
/LC2 {0 0 1} def
/LC3 {1 0 1} def
/LC4 {0 1 1} def
/LC5 {1 1 0} def
/LC6 {0 0 0} def
/LC7 {1 0.3 0} def
/LC8 {0.5 0.5 0.5} def
% Default Line Types
/LTw {PL [] 1 setgray} def
/LTb {BL [] LCb DL} def
/LTa {AL [1 udl mul 2 udl mul] 0 setdash LCa setrgbcolor} def
/LT0 {PL [] LC0 DL} def
/LT1 {PL [4 dl1 2 dl2] LC1 DL} def
/LT2 {PL [2 dl1 3 dl2] LC2 DL} def
/LT3 {PL [1 dl1 1.5 dl2] LC3 DL} def
/LT4 {PL [6 dl1 2 dl2 1 dl1 2 dl2] LC4 DL} def
/LT5 {PL [3 dl1 3 dl2 1 dl1 3 dl2] LC5 DL} def
/LT6 {PL [2 dl1 2 dl2 2 dl1 6 dl2] LC6 DL} def
/LT7 {PL [1 dl1 2 dl2 6 dl1 2 dl2 1 dl1 2 dl2] LC7 DL} def
/LT8 {PL [2 dl1 2 dl2 2 dl1 2 dl2 2 dl1 2 dl2 2 dl1 4 dl2] LC8 DL} def
/Pnt {stroke [] 0 setdash gsave 1 setlinecap M 0 0 V stroke grestore} def
/Dia {stroke [] 0 setdash 2 copy vpt add M
  hpt neg vpt neg V hpt vpt neg V
  hpt vpt V hpt neg vpt V closepath stroke
  Pnt} def
/Pls {stroke [] 0 setdash vpt sub M 0 vpt2 V
  currentpoint stroke M
  hpt neg vpt neg R hpt2 0 V stroke
 } def
/Box {stroke [] 0 setdash 2 copy exch hpt sub exch vpt add M
  0 vpt2 neg V hpt2 0 V 0 vpt2 V
  hpt2 neg 0 V closepath stroke
  Pnt} def
/Crs {stroke [] 0 setdash exch hpt sub exch vpt add M
  hpt2 vpt2 neg V currentpoint stroke M
  hpt2 neg 0 R hpt2 vpt2 V stroke} def
/TriU {stroke [] 0 setdash 2 copy vpt 1.12 mul add M
  hpt neg vpt -1.62 mul V
  hpt 2 mul 0 V
  hpt neg vpt 1.62 mul V closepath stroke
  Pnt} def
/Star {2 copy Pls Crs} def
/BoxF {stroke [] 0 setdash exch hpt sub exch vpt add M
  0 vpt2 neg V hpt2 0 V 0 vpt2 V
  hpt2 neg 0 V closepath fill} def
/TriUF {stroke [] 0 setdash vpt 1.12 mul add M
  hpt neg vpt -1.62 mul V
  hpt 2 mul 0 V
  hpt neg vpt 1.62 mul V closepath fill} def
/TriD {stroke [] 0 setdash 2 copy vpt 1.12 mul sub M
  hpt neg vpt 1.62 mul V
  hpt 2 mul 0 V
  hpt neg vpt -1.62 mul V closepath stroke
  Pnt} def
/TriDF {stroke [] 0 setdash vpt 1.12 mul sub M
  hpt neg vpt 1.62 mul V
  hpt 2 mul 0 V
  hpt neg vpt -1.62 mul V closepath fill} def
/DiaF {stroke [] 0 setdash vpt add M
  hpt neg vpt neg V hpt vpt neg V
  hpt vpt V hpt neg vpt V closepath fill} def
/Pent {stroke [] 0 setdash 2 copy gsave
  translate 0 hpt M 4 {72 rotate 0 hpt L} repeat
  closepath stroke grestore Pnt} def
/PentF {stroke [] 0 setdash gsave
  translate 0 hpt M 4 {72 rotate 0 hpt L} repeat
  closepath fill grestore} def
/Circle {stroke [] 0 setdash 2 copy
  hpt 0 360 arc stroke Pnt} def
/CircleF {stroke [] 0 setdash hpt 0 360 arc fill} def
/C0 {BL [] 0 setdash 2 copy moveto vpt 90 450 arc} bind def
/C1 {BL [] 0 setdash 2 copy moveto
	2 copy vpt 0 90 arc closepath fill
	vpt 0 360 arc closepath} bind def
/C2 {BL [] 0 setdash 2 copy moveto
	2 copy vpt 90 180 arc closepath fill
	vpt 0 360 arc closepath} bind def
/C3 {BL [] 0 setdash 2 copy moveto
	2 copy vpt 0 180 arc closepath fill
	vpt 0 360 arc closepath} bind def
/C4 {BL [] 0 setdash 2 copy moveto
	2 copy vpt 180 270 arc closepath fill
	vpt 0 360 arc closepath} bind def
/C5 {BL [] 0 setdash 2 copy moveto
	2 copy vpt 0 90 arc
	2 copy moveto
	2 copy vpt 180 270 arc closepath fill
	vpt 0 360 arc} bind def
/C6 {BL [] 0 setdash 2 copy moveto
	2 copy vpt 90 270 arc closepath fill
	vpt 0 360 arc closepath} bind def
/C7 {BL [] 0 setdash 2 copy moveto
	2 copy vpt 0 270 arc closepath fill
	vpt 0 360 arc closepath} bind def
/C8 {BL [] 0 setdash 2 copy moveto
	2 copy vpt 270 360 arc closepath fill
	vpt 0 360 arc closepath} bind def
/C9 {BL [] 0 setdash 2 copy moveto
	2 copy vpt 270 450 arc closepath fill
	vpt 0 360 arc closepath} bind def
/C10 {BL [] 0 setdash 2 copy 2 copy moveto vpt 270 360 arc closepath fill
	2 copy moveto
	2 copy vpt 90 180 arc closepath fill
	vpt 0 360 arc closepath} bind def
/C11 {BL [] 0 setdash 2 copy moveto
	2 copy vpt 0 180 arc closepath fill
	2 copy moveto
	2 copy vpt 270 360 arc closepath fill
	vpt 0 360 arc closepath} bind def
/C12 {BL [] 0 setdash 2 copy moveto
	2 copy vpt 180 360 arc closepath fill
	vpt 0 360 arc closepath} bind def
/C13 {BL [] 0 setdash 2 copy moveto
	2 copy vpt 0 90 arc closepath fill
	2 copy moveto
	2 copy vpt 180 360 arc closepath fill
	vpt 0 360 arc closepath} bind def
/C14 {BL [] 0 setdash 2 copy moveto
	2 copy vpt 90 360 arc closepath fill
	vpt 0 360 arc} bind def
/C15 {BL [] 0 setdash 2 copy vpt 0 360 arc closepath fill
	vpt 0 360 arc closepath} bind def
/Rec {newpath 4 2 roll moveto 1 index 0 rlineto 0 exch rlineto
	neg 0 rlineto closepath} bind def
/Square {dup Rec} bind def
/Bsquare {vpt sub exch vpt sub exch vpt2 Square} bind def
/S0 {BL [] 0 setdash 2 copy moveto 0 vpt rlineto BL Bsquare} bind def
/S1 {BL [] 0 setdash 2 copy vpt Square fill Bsquare} bind def
/S2 {BL [] 0 setdash 2 copy exch vpt sub exch vpt Square fill Bsquare} bind def
/S3 {BL [] 0 setdash 2 copy exch vpt sub exch vpt2 vpt Rec fill Bsquare} bind def
/S4 {BL [] 0 setdash 2 copy exch vpt sub exch vpt sub vpt Square fill Bsquare} bind def
/S5 {BL [] 0 setdash 2 copy 2 copy vpt Square fill
	exch vpt sub exch vpt sub vpt Square fill Bsquare} bind def
/S6 {BL [] 0 setdash 2 copy exch vpt sub exch vpt sub vpt vpt2 Rec fill Bsquare} bind def
/S7 {BL [] 0 setdash 2 copy exch vpt sub exch vpt sub vpt vpt2 Rec fill
	2 copy vpt Square fill Bsquare} bind def
/S8 {BL [] 0 setdash 2 copy vpt sub vpt Square fill Bsquare} bind def
/S9 {BL [] 0 setdash 2 copy vpt sub vpt vpt2 Rec fill Bsquare} bind def
/S10 {BL [] 0 setdash 2 copy vpt sub vpt Square fill 2 copy exch vpt sub exch vpt Square fill
	Bsquare} bind def
/S11 {BL [] 0 setdash 2 copy vpt sub vpt Square fill 2 copy exch vpt sub exch vpt2 vpt Rec fill
	Bsquare} bind def
/S12 {BL [] 0 setdash 2 copy exch vpt sub exch vpt sub vpt2 vpt Rec fill Bsquare} bind def
/S13 {BL [] 0 setdash 2 copy exch vpt sub exch vpt sub vpt2 vpt Rec fill
	2 copy vpt Square fill Bsquare} bind def
/S14 {BL [] 0 setdash 2 copy exch vpt sub exch vpt sub vpt2 vpt Rec fill
	2 copy exch vpt sub exch vpt Square fill Bsquare} bind def
/S15 {BL [] 0 setdash 2 copy Bsquare fill Bsquare} bind def
/D0 {gsave translate 45 rotate 0 0 S0 stroke grestore} bind def
/D1 {gsave translate 45 rotate 0 0 S1 stroke grestore} bind def
/D2 {gsave translate 45 rotate 0 0 S2 stroke grestore} bind def
/D3 {gsave translate 45 rotate 0 0 S3 stroke grestore} bind def
/D4 {gsave translate 45 rotate 0 0 S4 stroke grestore} bind def
/D5 {gsave translate 45 rotate 0 0 S5 stroke grestore} bind def
/D6 {gsave translate 45 rotate 0 0 S6 stroke grestore} bind def
/D7 {gsave translate 45 rotate 0 0 S7 stroke grestore} bind def
/D8 {gsave translate 45 rotate 0 0 S8 stroke grestore} bind def
/D9 {gsave translate 45 rotate 0 0 S9 stroke grestore} bind def
/D10 {gsave translate 45 rotate 0 0 S10 stroke grestore} bind def
/D11 {gsave translate 45 rotate 0 0 S11 stroke grestore} bind def
/D12 {gsave translate 45 rotate 0 0 S12 stroke grestore} bind def
/D13 {gsave translate 45 rotate 0 0 S13 stroke grestore} bind def
/D14 {gsave translate 45 rotate 0 0 S14 stroke grestore} bind def
/D15 {gsave translate 45 rotate 0 0 S15 stroke grestore} bind def
/DiaE {stroke [] 0 setdash vpt add M
  hpt neg vpt neg V hpt vpt neg V
  hpt vpt V hpt neg vpt V closepath stroke} def
/BoxE {stroke [] 0 setdash exch hpt sub exch vpt add M
  0 vpt2 neg V hpt2 0 V 0 vpt2 V
  hpt2 neg 0 V closepath stroke} def
/TriUE {stroke [] 0 setdash vpt 1.12 mul add M
  hpt neg vpt -1.62 mul V
  hpt 2 mul 0 V
  hpt neg vpt 1.62 mul V closepath stroke} def
/TriDE {stroke [] 0 setdash vpt 1.12 mul sub M
  hpt neg vpt 1.62 mul V
  hpt 2 mul 0 V
  hpt neg vpt -1.62 mul V closepath stroke} def
/PentE {stroke [] 0 setdash gsave
  translate 0 hpt M 4 {72 rotate 0 hpt L} repeat
  closepath stroke grestore} def
/CircE {stroke [] 0 setdash 
  hpt 0 360 arc stroke} def
/Opaque {gsave closepath 1 setgray fill grestore 0 setgray closepath} def
/DiaW {stroke [] 0 setdash vpt add M
  hpt neg vpt neg V hpt vpt neg V
  hpt vpt V hpt neg vpt V Opaque stroke} def
/BoxW {stroke [] 0 setdash exch hpt sub exch vpt add M
  0 vpt2 neg V hpt2 0 V 0 vpt2 V
  hpt2 neg 0 V Opaque stroke} def
/TriUW {stroke [] 0 setdash vpt 1.12 mul add M
  hpt neg vpt -1.62 mul V
  hpt 2 mul 0 V
  hpt neg vpt 1.62 mul V Opaque stroke} def
/TriDW {stroke [] 0 setdash vpt 1.12 mul sub M
  hpt neg vpt 1.62 mul V
  hpt 2 mul 0 V
  hpt neg vpt -1.62 mul V Opaque stroke} def
/PentW {stroke [] 0 setdash gsave
  translate 0 hpt M 4 {72 rotate 0 hpt L} repeat
  Opaque stroke grestore} def
/CircW {stroke [] 0 setdash 
  hpt 0 360 arc Opaque stroke} def
/BoxFill {gsave Rec 1 setgray fill grestore} def
/Density {
  /Fillden exch def
  currentrgbcolor
  /ColB exch def /ColG exch def /ColR exch def
  /ColR ColR Fillden mul Fillden sub 1 add def
  /ColG ColG Fillden mul Fillden sub 1 add def
  /ColB ColB Fillden mul Fillden sub 1 add def
  ColR ColG ColB setrgbcolor} def
/BoxColFill {gsave Rec PolyFill} def
/PolyFill {gsave Density fill grestore grestore} def
/h {rlineto rlineto rlineto gsave closepath fill grestore} bind def
%
% PostScript Level 1 Pattern Fill routine for rectangles
% Usage: x y w h s a XX PatternFill
%	x,y = lower left corner of box to be filled
%	w,h = width and height of box
%	  a = angle in degrees between lines and x-axis
%	 XX = 0/1 for no/yes cross-hatch
%
/PatternFill {gsave /PFa [ 9 2 roll ] def
  PFa 0 get PFa 2 get 2 div add PFa 1 get PFa 3 get 2 div add translate
  PFa 2 get -2 div PFa 3 get -2 div PFa 2 get PFa 3 get Rec
  gsave 1 setgray fill grestore clip
  currentlinewidth 0.5 mul setlinewidth
  /PFs PFa 2 get dup mul PFa 3 get dup mul add sqrt def
  0 0 M PFa 5 get rotate PFs -2 div dup translate
  0 1 PFs PFa 4 get div 1 add floor cvi
	{PFa 4 get mul 0 M 0 PFs V} for
  0 PFa 6 get ne {
	0 1 PFs PFa 4 get div 1 add floor cvi
	{PFa 4 get mul 0 2 1 roll M PFs 0 V} for
 } if
  stroke grestore} def
%
/languagelevel where
 {pop languagelevel} {1} ifelse
 2 lt
	{/InterpretLevel1 true def}
	{/InterpretLevel1 Level1 def}
 ifelse
%
% PostScript level 2 pattern fill definitions
%
/Level2PatternFill {
/Tile8x8 {/PaintType 2 /PatternType 1 /TilingType 1 /BBox [0 0 8 8] /XStep 8 /YStep 8}
	bind def
/KeepColor {currentrgbcolor [/Pattern /DeviceRGB] setcolorspace} bind def
<< Tile8x8
 /PaintProc {0.5 setlinewidth pop 0 0 M 8 8 L 0 8 M 8 0 L stroke} 
>> matrix makepattern
/Pat1 exch def
<< Tile8x8
 /PaintProc {0.5 setlinewidth pop 0 0 M 8 8 L 0 8 M 8 0 L stroke
	0 4 M 4 8 L 8 4 L 4 0 L 0 4 L stroke}
>> matrix makepattern
/Pat2 exch def
<< Tile8x8
 /PaintProc {0.5 setlinewidth pop 0 0 M 0 8 L
	8 8 L 8 0 L 0 0 L fill}
>> matrix makepattern
/Pat3 exch def
<< Tile8x8
 /PaintProc {0.5 setlinewidth pop -4 8 M 8 -4 L
	0 12 M 12 0 L stroke}
>> matrix makepattern
/Pat4 exch def
<< Tile8x8
 /PaintProc {0.5 setlinewidth pop -4 0 M 8 12 L
	0 -4 M 12 8 L stroke}
>> matrix makepattern
/Pat5 exch def
<< Tile8x8
 /PaintProc {0.5 setlinewidth pop -2 8 M 4 -4 L
	0 12 M 8 -4 L 4 12 M 10 0 L stroke}
>> matrix makepattern
/Pat6 exch def
<< Tile8x8
 /PaintProc {0.5 setlinewidth pop -2 0 M 4 12 L
	0 -4 M 8 12 L 4 -4 M 10 8 L stroke}
>> matrix makepattern
/Pat7 exch def
<< Tile8x8
 /PaintProc {0.5 setlinewidth pop 8 -2 M -4 4 L
	12 0 M -4 8 L 12 4 M 0 10 L stroke}
>> matrix makepattern
/Pat8 exch def
<< Tile8x8
 /PaintProc {0.5 setlinewidth pop 0 -2 M 12 4 L
	-4 0 M 12 8 L -4 4 M 8 10 L stroke}
>> matrix makepattern
/Pat9 exch def
/Pattern1 {PatternBgnd KeepColor Pat1 setpattern} bind def
/Pattern2 {PatternBgnd KeepColor Pat2 setpattern} bind def
/Pattern3 {PatternBgnd KeepColor Pat3 setpattern} bind def
/Pattern4 {PatternBgnd KeepColor Landscape {Pat5} {Pat4} ifelse setpattern} bind def
/Pattern5 {PatternBgnd KeepColor Landscape {Pat4} {Pat5} ifelse setpattern} bind def
/Pattern6 {PatternBgnd KeepColor Landscape {Pat9} {Pat6} ifelse setpattern} bind def
/Pattern7 {PatternBgnd KeepColor Landscape {Pat8} {Pat7} ifelse setpattern} bind def
} def
%
%
%End of PostScript Level 2 code
%
/PatternBgnd {
  TransparentPatterns {} {gsave 1 setgray fill grestore} ifelse
} def
%
% Substitute for Level 2 pattern fill codes with
% grayscale if Level 2 support is not selected.
%
/Level1PatternFill {
/Pattern1 {0.250 Density} bind def
/Pattern2 {0.500 Density} bind def
/Pattern3 {0.750 Density} bind def
/Pattern4 {0.125 Density} bind def
/Pattern5 {0.375 Density} bind def
/Pattern6 {0.625 Density} bind def
/Pattern7 {0.875 Density} bind def
} def
%
% Now test for support of Level 2 code
%
Level1 {Level1PatternFill} {Level2PatternFill} ifelse
%
/Symbol-Oblique /Symbol findfont [1 0 .167 1 0 0] makefont
dup length dict begin {1 index /FID eq {pop pop} {def} ifelse} forall
currentdict end definefont pop
/MFshow {
   { dup 5 get 3 ge
     { 5 get 3 eq {gsave} {grestore} ifelse }
     {dup dup 0 get findfont exch 1 get scalefont setfont
     [ currentpoint ] exch dup 2 get 0 exch R dup 5 get 2 ne {dup dup 6
     get exch 4 get {show} {stringwidth pop 0 R} ifelse }if dup 5 get 0 eq
     {dup 3 get {2 get neg 0 exch R pop} {pop aload pop M} ifelse} {dup 5
     get 1 eq {dup 2 get exch dup 3 get exch 6 get stringwidth pop -2 div
     dup 0 R} {dup 6 get stringwidth pop -2 div 0 R 6 get
     show 2 index {aload pop M neg 3 -1 roll neg R pop pop} {pop pop pop
     pop aload pop M} ifelse }ifelse }ifelse }
     ifelse }
   forall} bind def
/MFwidth {0 exch { dup 5 get 3 ge { 5 get 3 eq { 0 } { pop } ifelse }
 {dup 3 get{dup dup 0 get findfont exch 1 get scalefont setfont
     6 get stringwidth pop add} {pop} ifelse} ifelse} forall} bind def
/MLshow { currentpoint stroke M
  0 exch R
  Blacktext {gsave 0 setgray MFshow grestore} {MFshow} ifelse } bind def
/MRshow { currentpoint stroke M
  exch dup MFwidth neg 3 -1 roll R
  Blacktext {gsave 0 setgray MFshow grestore} {MFshow} ifelse } bind def
/MCshow { currentpoint stroke M
  exch dup MFwidth -2 div 3 -1 roll R
  Blacktext {gsave 0 setgray MFshow grestore} {MFshow} ifelse } bind def
/XYsave    { [( ) 1 2 true false 3 ()] } bind def
/XYrestore { [( ) 1 2 true false 4 ()] } bind def
end
%%EndProlog
gnudict begin
gsave
50 50 translate
0.050 0.050 scale
0 setgray
newpath
(Helvetica) findfont 180 scalefont setfont
1.000 UL
LTb
1.000 UL
LTa
1098 576 M
5832 0 V
stroke
LTb
1098 576 M
63 0 V
5769 0 R
-63 0 V
stroke
990 576 M
[ [(Helvetica) 180.0 0.0 true true 0 ( 0)]
] -60.0 MRshow
1.000 UL
LTb
1.000 UL
LTa
1098 1426 M
5832 0 V
stroke
LTb
1098 1426 M
63 0 V
5769 0 R
-63 0 V
stroke
990 1426 M
[ [(Helvetica) 180.0 0.0 true true 0 ( 0.2)]
] -60.0 MRshow
1.000 UL
LTb
1.000 UL
LTa
1098 2275 M
5832 0 V
stroke
LTb
1098 2275 M
63 0 V
5769 0 R
-63 0 V
stroke
990 2275 M
[ [(Helvetica) 180.0 0.0 true true 0 ( 0.4)]
] -60.0 MRshow
1.000 UL
LTb
1.000 UL
LTa
1098 3125 M
5832 0 V
stroke
LTb
1098 3125 M
63 0 V
5769 0 R
-63 0 V
stroke
990 3125 M
[ [(Helvetica) 180.0 0.0 true true 0 ( 0.6)]
] -60.0 MRshow
1.000 UL
LTb
1.000 UL
LTa
1098 3974 M
5832 0 V
stroke
LTb
1098 3974 M
63 0 V
5769 0 R
-63 0 V
stroke
990 3974 M
[ [(Helvetica) 180.0 0.0 true true 0 ( 0.8)]
] -60.0 MRshow
1.000 UL
LTb
1.000 UL
LTa
1098 4824 M
5832 0 V
stroke
LTb
1098 4824 M
63 0 V
5769 0 R
-63 0 V
stroke
990 4824 M
[ [(Helvetica) 180.0 0.0 true true 0 ( 1)]
] -60.0 MRshow
1.000 UL
LTb
1.000 UL
LTa
1286 576 M
0 4248 V
stroke
LTb
1286 576 M
0 63 V
0 4185 R
0 -63 V
stroke
1286 396 M
[ [(Helvetica) 180.0 0.0 true true 0 ( 0)]
] -60.0 MCshow
1.000 UL
LTb
1.000 UL
LTa
2227 576 M
0 4248 V
stroke
LTb
2227 576 M
0 63 V
0 4185 R
0 -63 V
stroke
2227 396 M
[ [(Helvetica) 180.0 0.0 true true 0 ( 500)]
] -60.0 MCshow
1.000 UL
LTb
1.000 UL
LTa
3167 576 M
0 4248 V
stroke
LTb
3167 576 M
0 63 V
0 4185 R
0 -63 V
stroke
3167 396 M
[ [(Helvetica) 180.0 0.0 true true 0 ( 1000)]
] -60.0 MCshow
1.000 UL
LTb
1.000 UL
LTa
4108 576 M
0 4248 V
stroke
LTb
4108 576 M
0 63 V
0 4185 R
0 -63 V
stroke
4108 396 M
[ [(Helvetica) 180.0 0.0 true true 0 ( 1500)]
] -60.0 MCshow
1.000 UL
LTb
1.000 UL
LTa
5049 576 M
0 4248 V
stroke
LTb
5049 576 M
0 63 V
0 4185 R
0 -63 V
stroke
5049 396 M
[ [(Helvetica) 180.0 0.0 true true 0 ( 2000)]
] -60.0 MCshow
1.000 UL
LTb
1.000 UL
LTa
5989 576 M
0 4248 V
stroke
LTb
5989 576 M
0 63 V
0 4185 R
0 -63 V
stroke
5989 396 M
[ [(Helvetica) 180.0 0.0 true true 0 ( 2500)]
] -60.0 MCshow
1.000 UL
LTb
1.000 UL
LTa
6930 576 M
0 4248 V
stroke
LTb
6930 576 M
0 63 V
0 4185 R
0 -63 V
stroke
6930 396 M
[ [(Helvetica) 180.0 0.0 true true 0 ( 3000)]
] -60.0 MCshow
1.000 UL
LTb
1.000 UL
LTb
1098 4824 N
0 -4248 V
5832 0 V
0 4248 V
-5832 0 V
Z stroke
LCb setrgbcolor
360 2700 M
currentpoint gsave translate 90 rotate 0 0 moveto
[ [(Helvetica) 180.0 0.0 true true 0 (Noise ratio)]
] -60.0 MCshow
grestore
LTb
LCb setrgbcolor
4014 126 M
[ [(Helvetica) 180.0 0.0 true true 0 (Usage)]
] -60.0 MCshow
LTb
1.000 UP
1.000 UL
LTb
1.000 UL
LTb
6111 4761 N
711 0 V
-711 0 V
Z stroke
6111 4761 M
711 0 V
1.000 UP
stroke
2.000 UL
LT0
1286 1582 M
94 -409 V
94 -112 V
94 -80 V
94 -20 V
94 -33 V
95 -45 V
94 -11 V
94 -2 V
94 -13 V
94 -4 V
94 0 V
94 -43 V
94 13 V
94 -9 V
94 -17 V
94 0 V
94 -14 V
94 16 V
94 -24 V
94 12 V
94 -10 V
95 -11 V
94 15 V
94 8 V
94 -15 V
94 -3 V
94 8 V
94 -25 V
94 15 V
94 -12 V
94 24 V
94 -41 V
94 17 V
94 -6 V
94 -7 V
94 10 V
95 -8 V
94 7 V
94 6 V
94 -26 V
94 3 V
94 2 V
94 17 V
94 1 V
94 -26 V
94 22 V
94 -1 V
94 33 V
94 -23 V
94 -26 V
94 8 V
94 18 V
95 -26 V
94 -7 V
94 12 V
94 -24 V
94 14 V
94 -23 V
94 2 V
94 33 V
1286 2403 M
0 -1642 V
-31 1642 R
62 0 V
1255 761 M
62 0 V
63 873 R
0 -921 V
-31 921 R
62 0 V
1349 713 M
62 0 V
63 729 R
0 -762 V
-31 762 R
62 0 V
1443 680 M
62 0 V
63 640 R
0 -679 V
-31 679 R
62 0 V
1537 641 M
62 0 V
63 648 R
0 -657 V
-31 657 R
62 0 V
1631 632 M
62 0 V
63 609 R
0 -626 V
-31 626 R
62 0 V
1725 615 M
62 0 V
64 512 R
0 -488 V
-31 488 R
62 0 V
1820 639 M
62 0 V
63 458 R
0 -451 V
stroke 1945 646 M
-31 451 R
62 0 V
1914 646 M
62 0 V
63 474 R
0 -501 V
-31 501 R
62 0 V
2008 619 M
62 0 V
63 475 R
0 -475 V
-31 475 R
62 0 V
2102 619 M
62 0 V
63 462 R
0 -456 V
-31 456 R
62 0 V
2196 625 M
62 0 V
63 448 R
0 -440 V
-31 440 R
62 0 V
2290 633 M
62 0 V
63 380 R
0 -406 V
-31 406 R
62 0 V
2384 607 M
62 0 V
63 398 R
0 -365 V
-31 365 R
62 0 V
2478 640 M
62 0 V
63 387 R
0 -426 V
-31 426 R
62 0 V
2572 601 M
62 0 V
63 363 R
0 -333 V
-31 333 R
62 0 V
2666 631 M
62 0 V
63 352 R
0 -372 V
-31 372 R
62 0 V
2760 611 M
62 0 V
63 347 R
0 -351 V
-31 351 R
62 0 V
2854 607 M
62 0 V
63 348 R
0 -313 V
-31 313 R
62 0 V
2948 642 M
62 0 V
63 288 R
0 -309 V
-31 309 R
62 0 V
3042 621 M
62 0 V
63 396 R
0 -441 V
-31 441 R
62 0 V
3136 576 M
62 0 V
63 360 R
0 -318 V
-31 318 R
62 0 V
3230 618 M
62 0 V
64 291 R
0 -285 V
-31 285 R
62 0 V
3325 624 M
62 0 V
63 325 R
0 -336 V
-31 336 R
62 0 V
3419 613 M
62 0 V
63 335 R
0 -317 V
-31 317 R
62 0 V
stroke 3575 948 M
3513 631 M
62 0 V
63 280 R
0 -274 V
-31 274 R
62 0 V
3607 637 M
62 0 V
63 280 R
0 -292 V
-31 292 R
62 0 V
3701 625 M
62 0 V
63 323 R
0 -337 V
-31 337 R
62 0 V
3795 611 M
62 0 V
63 319 R
0 -352 V
-31 352 R
62 0 V
3889 578 M
62 0 V
63 363 R
0 -343 V
-31 343 R
62 0 V
3983 598 M
62 0 V
63 344 R
0 -366 V
-31 366 R
62 0 V
4077 576 M
62 0 V
63 373 R
0 -337 V
-31 337 R
62 0 V
4171 612 M
62 0 V
63 248 R
0 -240 V
-31 240 R
62 0 V
4265 620 M
62 0 V
63 265 R
0 -255 V
-31 255 R
62 0 V
4359 630 M
62 0 V
63 253 R
0 -263 V
-31 263 R
62 0 V
4453 620 M
62 0 V
63 270 R
0 -292 V
-31 292 R
62 0 V
4547 598 M
62 0 V
63 285 R
0 -258 V
-31 258 R
62 0 V
4641 625 M
62 0 V
64 246 R
0 -249 V
-31 249 R
62 0 V
4736 622 M
62 0 V
63 274 R
0 -285 V
-31 285 R
62 0 V
4830 611 M
62 0 V
63 295 R
0 -293 V
-31 293 R
62 0 V
4924 613 M
62 0 V
63 260 R
0 -281 V
-31 281 R
62 0 V
5018 592 M
62 0 V
63 257 R
0 -225 V
-31 225 R
62 0 V
5112 624 M
62 0 V
stroke 5174 624 M
63 227 R
0 -226 V
-31 226 R
62 0 V
5206 625 M
62 0 V
63 323 R
0 -372 V
-31 372 R
62 0 V
5300 576 M
62 0 V
63 312 R
0 -264 V
-31 264 R
62 0 V
5394 624 M
62 0 V
63 229 R
0 -246 V
-31 246 R
62 0 V
5488 607 M
62 0 V
63 262 R
0 -233 V
-31 233 R
62 0 V
5582 636 M
62 0 V
63 239 R
0 -249 V
-31 249 R
62 0 V
5676 626 M
62 0 V
63 490 R
0 -540 V
-31 540 R
62 0 V
5770 576 M
62 0 V
63 348 R
0 -327 V
-31 327 R
62 0 V
5864 597 M
62 0 V
63 261 R
0 -245 V
-31 245 R
62 0 V
5958 613 M
62 0 V
63 253 R
0 -246 V
-31 246 R
62 0 V
6052 620 M
62 0 V
63 280 R
0 -278 V
-31 278 R
62 0 V
6146 622 M
62 0 V
64 235 R
0 -245 V
-31 245 R
62 0 V
6241 612 M
62 0 V
63 231 R
0 -229 V
-31 229 R
62 0 V
6335 614 M
62 0 V
63 246 R
0 -241 V
-31 241 R
62 0 V
6429 619 M
62 0 V
63 211 R
0 -228 V
-31 228 R
62 0 V
6523 602 M
62 0 V
63 236 R
0 -216 V
-31 216 R
62 0 V
6617 622 M
62 0 V
63 187 R
0 -204 V
-31 204 R
62 0 V
6711 605 M
62 0 V
63 213 R
0 -218 V
stroke 6836 600 M
-31 218 R
62 0 V
6805 600 M
62 0 V
63 255 R
0 -225 V
-31 225 R
62 0 V
6899 630 M
62 0 V
1286 1582 Pls
1380 1173 Pls
1474 1061 Pls
1568 981 Pls
1662 961 Pls
1756 928 Pls
1851 883 Pls
1945 872 Pls
2039 870 Pls
2133 857 Pls
2227 853 Pls
2321 853 Pls
2415 810 Pls
2509 823 Pls
2603 814 Pls
2697 797 Pls
2791 797 Pls
2885 783 Pls
2979 799 Pls
3073 775 Pls
3167 787 Pls
3261 777 Pls
3356 766 Pls
3450 781 Pls
3544 789 Pls
3638 774 Pls
3732 771 Pls
3826 779 Pls
3920 754 Pls
4014 769 Pls
4108 757 Pls
4202 781 Pls
4296 740 Pls
4390 757 Pls
4484 751 Pls
4578 744 Pls
4672 754 Pls
4767 746 Pls
4861 753 Pls
4955 759 Pls
5049 733 Pls
5143 736 Pls
5237 738 Pls
5331 755 Pls
5425 756 Pls
5519 730 Pls
5613 752 Pls
5707 751 Pls
5801 784 Pls
5895 761 Pls
5989 735 Pls
6083 743 Pls
6177 761 Pls
6272 735 Pls
6366 728 Pls
6460 740 Pls
6554 716 Pls
6648 730 Pls
6742 707 Pls
6836 709 Pls
6930 742 Pls
1.000 UL
LTb
1098 4824 N
0 -4248 V
5832 0 V
0 4248 V
-5832 0 V
Z stroke
1.000 UP
1.000 UL
LTb
stroke
grestore
end
showpage
%%Trailer
%%DocumentFonts: Helvetica
