%!PS-Adobe-2.0 EPSF-2.0
%%Title: zip-20-noiseratio-scatter.eps
%%Creator: gnuplot 4.2 patchlevel 6 
%%CreationDate: Sat Feb 28 19:10:30 2015
%%DocumentFonts: (atend)
%%BoundingBox: 50 50 410 302
%%EndComments
%%BeginProlog
/gnudict 256 dict def
gnudict begin
%
% The following 6 true/false flags may be edited by hand if required
% The unit line width may also be changed
%
/Color true def
/Blacktext false def
/Solid false def
/Dashlength 1 def
/Landscape false def
/Level1 false def
/Rounded false def
/TransparentPatterns false def
/gnulinewidth 5.000 def
/userlinewidth gnulinewidth def
%
/vshift -46 def
/dl1 {
  10.0 Dashlength mul mul
  Rounded { currentlinewidth 0.75 mul sub dup 0 le { pop 0.01 } if } if
} def
/dl2 {
  10.0 Dashlength mul mul
  Rounded { currentlinewidth 0.75 mul add } if
} def
/hpt_ 31.5 def
/vpt_ 31.5 def
/hpt hpt_ def
/vpt vpt_ def
Level1 {} {
/SDict 10 dict def
systemdict /pdfmark known not {
  userdict /pdfmark systemdict /cleartomark get put
} if
SDict begin [
  /Title (zip-20-noiseratio-scatter.eps)
  /Subject (gnuplot plot)
  /Creator (gnuplot 4.2 patchlevel 6 )
  /Author (Binh Nguyen,[chenxu])
%  /Producer (gnuplot)
%  /Keywords ()
  /CreationDate (Sat Feb 28 19:10:30 2015)
  /DOCINFO pdfmark
end
} ifelse
%
% Gnuplot Prolog Version 4.2 (August 2006)
%
/M {moveto} bind def
/L {lineto} bind def
/R {rmoveto} bind def
/V {rlineto} bind def
/N {newpath moveto} bind def
/Z {closepath} bind def
/C {setrgbcolor} bind def
/f {rlineto fill} bind def
/vpt2 vpt 2 mul def
/hpt2 hpt 2 mul def
/Lshow {currentpoint stroke M 0 vshift R 
	Blacktext {gsave 0 setgray show grestore} {show} ifelse} def
/Rshow {currentpoint stroke M dup stringwidth pop neg vshift R
	Blacktext {gsave 0 setgray show grestore} {show} ifelse} def
/Cshow {currentpoint stroke M dup stringwidth pop -2 div vshift R 
	Blacktext {gsave 0 setgray show grestore} {show} ifelse} def
/UP {dup vpt_ mul /vpt exch def hpt_ mul /hpt exch def
  /hpt2 hpt 2 mul def /vpt2 vpt 2 mul def} def
/DL {Color {setrgbcolor Solid {pop []} if 0 setdash}
 {pop pop pop 0 setgray Solid {pop []} if 0 setdash} ifelse} def
/BL {stroke userlinewidth 2 mul setlinewidth
	Rounded {1 setlinejoin 1 setlinecap} if} def
/AL {stroke userlinewidth 2 div setlinewidth
	Rounded {1 setlinejoin 1 setlinecap} if} def
/UL {dup gnulinewidth mul /userlinewidth exch def
	dup 1 lt {pop 1} if 10 mul /udl exch def} def
/PL {stroke userlinewidth setlinewidth
	Rounded {1 setlinejoin 1 setlinecap} if} def
% Default Line colors
/LCw {1 1 1} def
/LCb {0 0 0} def
/LCa {0 0 0} def
/LC0 {1 0 0} def
/LC1 {0 1 0} def
/LC2 {0 0 1} def
/LC3 {1 0 1} def
/LC4 {0 1 1} def
/LC5 {1 1 0} def
/LC6 {0 0 0} def
/LC7 {1 0.3 0} def
/LC8 {0.5 0.5 0.5} def
% Default Line Types
/LTw {PL [] 1 setgray} def
/LTb {BL [] LCb DL} def
/LTa {AL [1 udl mul 2 udl mul] 0 setdash LCa setrgbcolor} def
/LT0 {PL [] LC0 DL} def
/LT1 {PL [4 dl1 2 dl2] LC1 DL} def
/LT2 {PL [2 dl1 3 dl2] LC2 DL} def
/LT3 {PL [1 dl1 1.5 dl2] LC3 DL} def
/LT4 {PL [6 dl1 2 dl2 1 dl1 2 dl2] LC4 DL} def
/LT5 {PL [3 dl1 3 dl2 1 dl1 3 dl2] LC5 DL} def
/LT6 {PL [2 dl1 2 dl2 2 dl1 6 dl2] LC6 DL} def
/LT7 {PL [1 dl1 2 dl2 6 dl1 2 dl2 1 dl1 2 dl2] LC7 DL} def
/LT8 {PL [2 dl1 2 dl2 2 dl1 2 dl2 2 dl1 2 dl2 2 dl1 4 dl2] LC8 DL} def
/Pnt {stroke [] 0 setdash gsave 1 setlinecap M 0 0 V stroke grestore} def
/Dia {stroke [] 0 setdash 2 copy vpt add M
  hpt neg vpt neg V hpt vpt neg V
  hpt vpt V hpt neg vpt V closepath stroke
  Pnt} def
/Pls {stroke [] 0 setdash vpt sub M 0 vpt2 V
  currentpoint stroke M
  hpt neg vpt neg R hpt2 0 V stroke
 } def
/Box {stroke [] 0 setdash 2 copy exch hpt sub exch vpt add M
  0 vpt2 neg V hpt2 0 V 0 vpt2 V
  hpt2 neg 0 V closepath stroke
  Pnt} def
/Crs {stroke [] 0 setdash exch hpt sub exch vpt add M
  hpt2 vpt2 neg V currentpoint stroke M
  hpt2 neg 0 R hpt2 vpt2 V stroke} def
/TriU {stroke [] 0 setdash 2 copy vpt 1.12 mul add M
  hpt neg vpt -1.62 mul V
  hpt 2 mul 0 V
  hpt neg vpt 1.62 mul V closepath stroke
  Pnt} def
/Star {2 copy Pls Crs} def
/BoxF {stroke [] 0 setdash exch hpt sub exch vpt add M
  0 vpt2 neg V hpt2 0 V 0 vpt2 V
  hpt2 neg 0 V closepath fill} def
/TriUF {stroke [] 0 setdash vpt 1.12 mul add M
  hpt neg vpt -1.62 mul V
  hpt 2 mul 0 V
  hpt neg vpt 1.62 mul V closepath fill} def
/TriD {stroke [] 0 setdash 2 copy vpt 1.12 mul sub M
  hpt neg vpt 1.62 mul V
  hpt 2 mul 0 V
  hpt neg vpt -1.62 mul V closepath stroke
  Pnt} def
/TriDF {stroke [] 0 setdash vpt 1.12 mul sub M
  hpt neg vpt 1.62 mul V
  hpt 2 mul 0 V
  hpt neg vpt -1.62 mul V closepath fill} def
/DiaF {stroke [] 0 setdash vpt add M
  hpt neg vpt neg V hpt vpt neg V
  hpt vpt V hpt neg vpt V closepath fill} def
/Pent {stroke [] 0 setdash 2 copy gsave
  translate 0 hpt M 4 {72 rotate 0 hpt L} repeat
  closepath stroke grestore Pnt} def
/PentF {stroke [] 0 setdash gsave
  translate 0 hpt M 4 {72 rotate 0 hpt L} repeat
  closepath fill grestore} def
/Circle {stroke [] 0 setdash 2 copy
  hpt 0 360 arc stroke Pnt} def
/CircleF {stroke [] 0 setdash hpt 0 360 arc fill} def
/C0 {BL [] 0 setdash 2 copy moveto vpt 90 450 arc} bind def
/C1 {BL [] 0 setdash 2 copy moveto
	2 copy vpt 0 90 arc closepath fill
	vpt 0 360 arc closepath} bind def
/C2 {BL [] 0 setdash 2 copy moveto
	2 copy vpt 90 180 arc closepath fill
	vpt 0 360 arc closepath} bind def
/C3 {BL [] 0 setdash 2 copy moveto
	2 copy vpt 0 180 arc closepath fill
	vpt 0 360 arc closepath} bind def
/C4 {BL [] 0 setdash 2 copy moveto
	2 copy vpt 180 270 arc closepath fill
	vpt 0 360 arc closepath} bind def
/C5 {BL [] 0 setdash 2 copy moveto
	2 copy vpt 0 90 arc
	2 copy moveto
	2 copy vpt 180 270 arc closepath fill
	vpt 0 360 arc} bind def
/C6 {BL [] 0 setdash 2 copy moveto
	2 copy vpt 90 270 arc closepath fill
	vpt 0 360 arc closepath} bind def
/C7 {BL [] 0 setdash 2 copy moveto
	2 copy vpt 0 270 arc closepath fill
	vpt 0 360 arc closepath} bind def
/C8 {BL [] 0 setdash 2 copy moveto
	2 copy vpt 270 360 arc closepath fill
	vpt 0 360 arc closepath} bind def
/C9 {BL [] 0 setdash 2 copy moveto
	2 copy vpt 270 450 arc closepath fill
	vpt 0 360 arc closepath} bind def
/C10 {BL [] 0 setdash 2 copy 2 copy moveto vpt 270 360 arc closepath fill
	2 copy moveto
	2 copy vpt 90 180 arc closepath fill
	vpt 0 360 arc closepath} bind def
/C11 {BL [] 0 setdash 2 copy moveto
	2 copy vpt 0 180 arc closepath fill
	2 copy moveto
	2 copy vpt 270 360 arc closepath fill
	vpt 0 360 arc closepath} bind def
/C12 {BL [] 0 setdash 2 copy moveto
	2 copy vpt 180 360 arc closepath fill
	vpt 0 360 arc closepath} bind def
/C13 {BL [] 0 setdash 2 copy moveto
	2 copy vpt 0 90 arc closepath fill
	2 copy moveto
	2 copy vpt 180 360 arc closepath fill
	vpt 0 360 arc closepath} bind def
/C14 {BL [] 0 setdash 2 copy moveto
	2 copy vpt 90 360 arc closepath fill
	vpt 0 360 arc} bind def
/C15 {BL [] 0 setdash 2 copy vpt 0 360 arc closepath fill
	vpt 0 360 arc closepath} bind def
/Rec {newpath 4 2 roll moveto 1 index 0 rlineto 0 exch rlineto
	neg 0 rlineto closepath} bind def
/Square {dup Rec} bind def
/Bsquare {vpt sub exch vpt sub exch vpt2 Square} bind def
/S0 {BL [] 0 setdash 2 copy moveto 0 vpt rlineto BL Bsquare} bind def
/S1 {BL [] 0 setdash 2 copy vpt Square fill Bsquare} bind def
/S2 {BL [] 0 setdash 2 copy exch vpt sub exch vpt Square fill Bsquare} bind def
/S3 {BL [] 0 setdash 2 copy exch vpt sub exch vpt2 vpt Rec fill Bsquare} bind def
/S4 {BL [] 0 setdash 2 copy exch vpt sub exch vpt sub vpt Square fill Bsquare} bind def
/S5 {BL [] 0 setdash 2 copy 2 copy vpt Square fill
	exch vpt sub exch vpt sub vpt Square fill Bsquare} bind def
/S6 {BL [] 0 setdash 2 copy exch vpt sub exch vpt sub vpt vpt2 Rec fill Bsquare} bind def
/S7 {BL [] 0 setdash 2 copy exch vpt sub exch vpt sub vpt vpt2 Rec fill
	2 copy vpt Square fill Bsquare} bind def
/S8 {BL [] 0 setdash 2 copy vpt sub vpt Square fill Bsquare} bind def
/S9 {BL [] 0 setdash 2 copy vpt sub vpt vpt2 Rec fill Bsquare} bind def
/S10 {BL [] 0 setdash 2 copy vpt sub vpt Square fill 2 copy exch vpt sub exch vpt Square fill
	Bsquare} bind def
/S11 {BL [] 0 setdash 2 copy vpt sub vpt Square fill 2 copy exch vpt sub exch vpt2 vpt Rec fill
	Bsquare} bind def
/S12 {BL [] 0 setdash 2 copy exch vpt sub exch vpt sub vpt2 vpt Rec fill Bsquare} bind def
/S13 {BL [] 0 setdash 2 copy exch vpt sub exch vpt sub vpt2 vpt Rec fill
	2 copy vpt Square fill Bsquare} bind def
/S14 {BL [] 0 setdash 2 copy exch vpt sub exch vpt sub vpt2 vpt Rec fill
	2 copy exch vpt sub exch vpt Square fill Bsquare} bind def
/S15 {BL [] 0 setdash 2 copy Bsquare fill Bsquare} bind def
/D0 {gsave translate 45 rotate 0 0 S0 stroke grestore} bind def
/D1 {gsave translate 45 rotate 0 0 S1 stroke grestore} bind def
/D2 {gsave translate 45 rotate 0 0 S2 stroke grestore} bind def
/D3 {gsave translate 45 rotate 0 0 S3 stroke grestore} bind def
/D4 {gsave translate 45 rotate 0 0 S4 stroke grestore} bind def
/D5 {gsave translate 45 rotate 0 0 S5 stroke grestore} bind def
/D6 {gsave translate 45 rotate 0 0 S6 stroke grestore} bind def
/D7 {gsave translate 45 rotate 0 0 S7 stroke grestore} bind def
/D8 {gsave translate 45 rotate 0 0 S8 stroke grestore} bind def
/D9 {gsave translate 45 rotate 0 0 S9 stroke grestore} bind def
/D10 {gsave translate 45 rotate 0 0 S10 stroke grestore} bind def
/D11 {gsave translate 45 rotate 0 0 S11 stroke grestore} bind def
/D12 {gsave translate 45 rotate 0 0 S12 stroke grestore} bind def
/D13 {gsave translate 45 rotate 0 0 S13 stroke grestore} bind def
/D14 {gsave translate 45 rotate 0 0 S14 stroke grestore} bind def
/D15 {gsave translate 45 rotate 0 0 S15 stroke grestore} bind def
/DiaE {stroke [] 0 setdash vpt add M
  hpt neg vpt neg V hpt vpt neg V
  hpt vpt V hpt neg vpt V closepath stroke} def
/BoxE {stroke [] 0 setdash exch hpt sub exch vpt add M
  0 vpt2 neg V hpt2 0 V 0 vpt2 V
  hpt2 neg 0 V closepath stroke} def
/TriUE {stroke [] 0 setdash vpt 1.12 mul add M
  hpt neg vpt -1.62 mul V
  hpt 2 mul 0 V
  hpt neg vpt 1.62 mul V closepath stroke} def
/TriDE {stroke [] 0 setdash vpt 1.12 mul sub M
  hpt neg vpt 1.62 mul V
  hpt 2 mul 0 V
  hpt neg vpt -1.62 mul V closepath stroke} def
/PentE {stroke [] 0 setdash gsave
  translate 0 hpt M 4 {72 rotate 0 hpt L} repeat
  closepath stroke grestore} def
/CircE {stroke [] 0 setdash 
  hpt 0 360 arc stroke} def
/Opaque {gsave closepath 1 setgray fill grestore 0 setgray closepath} def
/DiaW {stroke [] 0 setdash vpt add M
  hpt neg vpt neg V hpt vpt neg V
  hpt vpt V hpt neg vpt V Opaque stroke} def
/BoxW {stroke [] 0 setdash exch hpt sub exch vpt add M
  0 vpt2 neg V hpt2 0 V 0 vpt2 V
  hpt2 neg 0 V Opaque stroke} def
/TriUW {stroke [] 0 setdash vpt 1.12 mul add M
  hpt neg vpt -1.62 mul V
  hpt 2 mul 0 V
  hpt neg vpt 1.62 mul V Opaque stroke} def
/TriDW {stroke [] 0 setdash vpt 1.12 mul sub M
  hpt neg vpt 1.62 mul V
  hpt 2 mul 0 V
  hpt neg vpt -1.62 mul V Opaque stroke} def
/PentW {stroke [] 0 setdash gsave
  translate 0 hpt M 4 {72 rotate 0 hpt L} repeat
  Opaque stroke grestore} def
/CircW {stroke [] 0 setdash 
  hpt 0 360 arc Opaque stroke} def
/BoxFill {gsave Rec 1 setgray fill grestore} def
/Density {
  /Fillden exch def
  currentrgbcolor
  /ColB exch def /ColG exch def /ColR exch def
  /ColR ColR Fillden mul Fillden sub 1 add def
  /ColG ColG Fillden mul Fillden sub 1 add def
  /ColB ColB Fillden mul Fillden sub 1 add def
  ColR ColG ColB setrgbcolor} def
/BoxColFill {gsave Rec PolyFill} def
/PolyFill {gsave Density fill grestore grestore} def
/h {rlineto rlineto rlineto gsave closepath fill grestore} bind def
%
% PostScript Level 1 Pattern Fill routine for rectangles
% Usage: x y w h s a XX PatternFill
%	x,y = lower left corner of box to be filled
%	w,h = width and height of box
%	  a = angle in degrees between lines and x-axis
%	 XX = 0/1 for no/yes cross-hatch
%
/PatternFill {gsave /PFa [ 9 2 roll ] def
  PFa 0 get PFa 2 get 2 div add PFa 1 get PFa 3 get 2 div add translate
  PFa 2 get -2 div PFa 3 get -2 div PFa 2 get PFa 3 get Rec
  gsave 1 setgray fill grestore clip
  currentlinewidth 0.5 mul setlinewidth
  /PFs PFa 2 get dup mul PFa 3 get dup mul add sqrt def
  0 0 M PFa 5 get rotate PFs -2 div dup translate
  0 1 PFs PFa 4 get div 1 add floor cvi
	{PFa 4 get mul 0 M 0 PFs V} for
  0 PFa 6 get ne {
	0 1 PFs PFa 4 get div 1 add floor cvi
	{PFa 4 get mul 0 2 1 roll M PFs 0 V} for
 } if
  stroke grestore} def
%
/languagelevel where
 {pop languagelevel} {1} ifelse
 2 lt
	{/InterpretLevel1 true def}
	{/InterpretLevel1 Level1 def}
 ifelse
%
% PostScript level 2 pattern fill definitions
%
/Level2PatternFill {
/Tile8x8 {/PaintType 2 /PatternType 1 /TilingType 1 /BBox [0 0 8 8] /XStep 8 /YStep 8}
	bind def
/KeepColor {currentrgbcolor [/Pattern /DeviceRGB] setcolorspace} bind def
<< Tile8x8
 /PaintProc {0.5 setlinewidth pop 0 0 M 8 8 L 0 8 M 8 0 L stroke} 
>> matrix makepattern
/Pat1 exch def
<< Tile8x8
 /PaintProc {0.5 setlinewidth pop 0 0 M 8 8 L 0 8 M 8 0 L stroke
	0 4 M 4 8 L 8 4 L 4 0 L 0 4 L stroke}
>> matrix makepattern
/Pat2 exch def
<< Tile8x8
 /PaintProc {0.5 setlinewidth pop 0 0 M 0 8 L
	8 8 L 8 0 L 0 0 L fill}
>> matrix makepattern
/Pat3 exch def
<< Tile8x8
 /PaintProc {0.5 setlinewidth pop -4 8 M 8 -4 L
	0 12 M 12 0 L stroke}
>> matrix makepattern
/Pat4 exch def
<< Tile8x8
 /PaintProc {0.5 setlinewidth pop -4 0 M 8 12 L
	0 -4 M 12 8 L stroke}
>> matrix makepattern
/Pat5 exch def
<< Tile8x8
 /PaintProc {0.5 setlinewidth pop -2 8 M 4 -4 L
	0 12 M 8 -4 L 4 12 M 10 0 L stroke}
>> matrix makepattern
/Pat6 exch def
<< Tile8x8
 /PaintProc {0.5 setlinewidth pop -2 0 M 4 12 L
	0 -4 M 8 12 L 4 -4 M 10 8 L stroke}
>> matrix makepattern
/Pat7 exch def
<< Tile8x8
 /PaintProc {0.5 setlinewidth pop 8 -2 M -4 4 L
	12 0 M -4 8 L 12 4 M 0 10 L stroke}
>> matrix makepattern
/Pat8 exch def
<< Tile8x8
 /PaintProc {0.5 setlinewidth pop 0 -2 M 12 4 L
	-4 0 M 12 8 L -4 4 M 8 10 L stroke}
>> matrix makepattern
/Pat9 exch def
/Pattern1 {PatternBgnd KeepColor Pat1 setpattern} bind def
/Pattern2 {PatternBgnd KeepColor Pat2 setpattern} bind def
/Pattern3 {PatternBgnd KeepColor Pat3 setpattern} bind def
/Pattern4 {PatternBgnd KeepColor Landscape {Pat5} {Pat4} ifelse setpattern} bind def
/Pattern5 {PatternBgnd KeepColor Landscape {Pat4} {Pat5} ifelse setpattern} bind def
/Pattern6 {PatternBgnd KeepColor Landscape {Pat9} {Pat6} ifelse setpattern} bind def
/Pattern7 {PatternBgnd KeepColor Landscape {Pat8} {Pat7} ifelse setpattern} bind def
} def
%
%
%End of PostScript Level 2 code
%
/PatternBgnd {
  TransparentPatterns {} {gsave 1 setgray fill grestore} ifelse
} def
%
% Substitute for Level 2 pattern fill codes with
% grayscale if Level 2 support is not selected.
%
/Level1PatternFill {
/Pattern1 {0.250 Density} bind def
/Pattern2 {0.500 Density} bind def
/Pattern3 {0.750 Density} bind def
/Pattern4 {0.125 Density} bind def
/Pattern5 {0.375 Density} bind def
/Pattern6 {0.625 Density} bind def
/Pattern7 {0.875 Density} bind def
} def
%
% Now test for support of Level 2 code
%
Level1 {Level1PatternFill} {Level2PatternFill} ifelse
%
/Symbol-Oblique /Symbol findfont [1 0 .167 1 0 0] makefont
dup length dict begin {1 index /FID eq {pop pop} {def} ifelse} forall
currentdict end definefont pop
/MFshow {
   { dup 5 get 3 ge
     { 5 get 3 eq {gsave} {grestore} ifelse }
     {dup dup 0 get findfont exch 1 get scalefont setfont
     [ currentpoint ] exch dup 2 get 0 exch R dup 5 get 2 ne {dup dup 6
     get exch 4 get {show} {stringwidth pop 0 R} ifelse }if dup 5 get 0 eq
     {dup 3 get {2 get neg 0 exch R pop} {pop aload pop M} ifelse} {dup 5
     get 1 eq {dup 2 get exch dup 3 get exch 6 get stringwidth pop -2 div
     dup 0 R} {dup 6 get stringwidth pop -2 div 0 R 6 get
     show 2 index {aload pop M neg 3 -1 roll neg R pop pop} {pop pop pop
     pop aload pop M} ifelse }ifelse }ifelse }
     ifelse }
   forall} bind def
/MFwidth {0 exch { dup 5 get 3 ge { 5 get 3 eq { 0 } { pop } ifelse }
 {dup 3 get{dup dup 0 get findfont exch 1 get scalefont setfont
     6 get stringwidth pop add} {pop} ifelse} ifelse} forall} bind def
/MLshow { currentpoint stroke M
  0 exch R
  Blacktext {gsave 0 setgray MFshow grestore} {MFshow} ifelse } bind def
/MRshow { currentpoint stroke M
  exch dup MFwidth neg 3 -1 roll R
  Blacktext {gsave 0 setgray MFshow grestore} {MFshow} ifelse } bind def
/MCshow { currentpoint stroke M
  exch dup MFwidth -2 div 3 -1 roll R
  Blacktext {gsave 0 setgray MFshow grestore} {MFshow} ifelse } bind def
/XYsave    { [( ) 1 2 true false 3 ()] } bind def
/XYrestore { [( ) 1 2 true false 4 ()] } bind def
end
%%EndProlog
gnudict begin
gsave
50 50 translate
0.050 0.050 scale
0 setgray
newpath
(Helvetica) findfont 140 scalefont setfont
1.000 UL
LTb
1.000 UL
LTa
854 448 M
6136 0 V
stroke
LTb
854 448 M
63 0 V
6073 0 R
-63 0 V
stroke
770 448 M
[ [(Helvetica) 140.0 0.0 true true 0 ( 0)]
] -46.7 MRshow
1.000 UL
LTb
1.000 UL
LTa
854 1333 M
6136 0 V
stroke
LTb
854 1333 M
63 0 V
6073 0 R
-63 0 V
stroke
770 1333 M
[ [(Helvetica) 140.0 0.0 true true 0 ( 0.2)]
] -46.7 MRshow
1.000 UL
LTb
1.000 UL
LTa
854 2218 M
6136 0 V
stroke
LTb
854 2218 M
63 0 V
6073 0 R
-63 0 V
stroke
770 2218 M
[ [(Helvetica) 140.0 0.0 true true 0 ( 0.4)]
] -46.7 MRshow
1.000 UL
LTb
1.000 UL
LTa
854 3102 M
6136 0 V
stroke
LTb
854 3102 M
63 0 V
6073 0 R
-63 0 V
stroke
770 3102 M
[ [(Helvetica) 140.0 0.0 true true 0 ( 0.6)]
] -46.7 MRshow
1.000 UL
LTb
1.000 UL
LTa
854 3987 M
6136 0 V
stroke
LTb
854 3987 M
63 0 V
6073 0 R
-63 0 V
stroke
770 3987 M
[ [(Helvetica) 140.0 0.0 true true 0 ( 0.8)]
] -46.7 MRshow
1.000 UL
LTb
1.000 UL
LTa
854 4872 M
6136 0 V
stroke
LTb
854 4872 M
63 0 V
6073 0 R
-63 0 V
stroke
770 4872 M
[ [(Helvetica) 140.0 0.0 true true 0 ( 1)]
] -46.7 MRshow
1.000 UL
LTb
1.000 UL
LTa
854 448 M
0 4424 V
stroke
LTb
854 448 M
0 63 V
0 4361 R
0 -63 V
stroke
854 308 M
[ [(Helvetica) 140.0 0.0 true true 0 ( 0)]
] -46.7 MCshow
1.000 UL
LTb
1.000 UL
LTa
1877 448 M
0 4424 V
stroke
LTb
1877 448 M
0 63 V
0 4361 R
0 -63 V
stroke
1877 308 M
[ [(Helvetica) 140.0 0.0 true true 0 ( 500)]
] -46.7 MCshow
1.000 UL
LTb
1.000 UL
LTa
2899 448 M
0 4424 V
stroke
LTb
2899 448 M
0 63 V
0 4361 R
0 -63 V
stroke
2899 308 M
[ [(Helvetica) 140.0 0.0 true true 0 ( 1000)]
] -46.7 MCshow
1.000 UL
LTb
1.000 UL
LTa
3922 448 M
0 4424 V
stroke
LTb
3922 448 M
0 63 V
0 4361 R
0 -63 V
stroke
3922 308 M
[ [(Helvetica) 140.0 0.0 true true 0 ( 1500)]
] -46.7 MCshow
1.000 UL
LTb
1.000 UL
LTa
4945 448 M
0 4424 V
stroke
LTb
4945 448 M
0 63 V
0 4361 R
0 -63 V
stroke
4945 308 M
[ [(Helvetica) 140.0 0.0 true true 0 ( 2000)]
] -46.7 MCshow
1.000 UL
LTb
1.000 UL
LTa
5967 448 M
0 4424 V
stroke
LTb
5967 448 M
0 63 V
0 4361 R
0 -63 V
stroke
5967 308 M
[ [(Helvetica) 140.0 0.0 true true 0 ( 2500)]
] -46.7 MCshow
1.000 UL
LTb
1.000 UL
LTa
6990 448 M
0 4424 V
stroke
LTb
6990 448 M
0 63 V
0 4361 R
0 -63 V
stroke
6990 308 M
[ [(Helvetica) 140.0 0.0 true true 0 ( 3000)]
] -46.7 MCshow
1.000 UL
LTb
1.000 UL
LTb
854 4872 N
854 448 L
6136 0 V
0 4424 V
-6136 0 V
Z stroke
LCb setrgbcolor
280 2660 M
currentpoint gsave translate 90 rotate 0 0 moveto
[ [(Helvetica) 140.0 0.0 true true 0 (Noise ratio)]
] -46.7 MCshow
grestore
LTb
LCb setrgbcolor
3922 98 M
[ [(Helvetica) 140.0 0.0 true true 0 (Usage)]
] -46.7 MCshow
LTb
1.000 UP
1.000 UL
LTb
1.000 UL
LTb
6339 4809 N
567 0 V
-567 0 V
Z stroke
6339 4809 M
567 0 V
1.000 UP
stroke
LT0
897 618 Star
860 2046 Star
889 763 Star
919 975 Star
901 1529 Star
905 838 Star
883 510 Star
889 584 Star
919 1257 Star
881 2457 Star
885 1789 Star
952 1937 Star
907 2581 Star
926 3388 Star
940 881 Star
885 4497 Star
952 496 Star
930 926 Star
876 543 Star
919 1643 Star
1022 1606 Star
1022 753 Star
958 1196 Star
1016 1614 Star
958 1173 Star
1038 490 Star
1003 721 Star
1005 723 Star
979 551 Star
1048 538 Star
1050 598 Star
977 1380 Star
991 1376 Star
1046 1387 Star
989 1132 Star
969 1480 Star
1054 571 Star
1003 1901 Star
1011 1726 Star
1046 1614 Star
1101 1003 Star
1065 772 Star
1077 1075 Star
1061 474 Star
1112 474 Star
1063 597 Star
1104 1848 Star
1157 837 Star
1128 945 Star
1142 928 Star
1132 467 Star
1126 838 Star
1087 517 Star
1104 744 Star
1157 837 Star
1099 714 Star
1101 539 Star
1061 492 Star
1081 1141 Star
1108 821 Star
1243 1348 Star
1206 661 Star
1175 2034 Star
1171 1074 Star
1210 719 Star
1161 1303 Star
1253 573 Star
1261 891 Star
1232 453 Star
1185 839 Star
1259 525 Star
1200 1112 Star
1194 1030 Star
1181 701 Star
1194 931 Star
1169 838 Star
1163 548 Star
1212 609 Star
1169 685 Star
1245 859 Star
1304 1094 Star
1267 457 Star
1318 1184 Star
1337 764 Star
1339 1087 Star
1302 1409 Star
1308 929 Star
1324 704 Star
1265 994 Star
1296 536 Star
1335 920 Star
1347 926 Star
1316 690 Star
1269 845 Star
1322 674 Star
1339 848 Star
1273 1598 Star
1273 602 Star
1265 979 Star
1296 1420 Star
1414 542 Star
1410 829 Star
1402 867 Star
1386 603 Star
1374 760 Star
1367 1073 Star
1447 1215 Star
1425 754 Star
1376 452 Star
1365 1287 Star
1443 453 Star
1412 1034 Star
1412 537 Star
1457 1063 Star
1459 507 Star
1378 697 Star
1466 1921 Star
1455 1150 Star
1410 606 Star
1416 916 Star
1502 498 Star
1504 991 Star
1502 645 Star
1474 584 Star
1533 627 Star
1492 674 Star
1529 1199 Star
1547 1088 Star
1496 512 Star
1558 527 Star
1547 465 Star
1564 892 Star
1474 543 Star
1486 781 Star
1476 756 Star
1502 644 Star
1504 655 Star
1531 479 Star
1486 781 Star
1470 647 Star
1611 636 Star
1670 564 Star
1586 673 Star
1650 950 Star
1666 889 Star
1643 596 Star
1617 662 Star
1586 940 Star
1629 458 Star
1572 1107 Star
1635 637 Star
1578 602 Star
1607 468 Star
1594 649 Star
1639 719 Star
1607 1157 Star
1576 584 Star
1570 488 Star
1670 495 Star
1646 492 Star
1697 533 Star
1713 556 Star
1762 1249 Star
1758 1135 Star
1697 747 Star
1699 849 Star
1688 1124 Star
1736 649 Star
1750 520 Star
1727 956 Star
1733 994 Star
1727 671 Star
1723 493 Star
1752 626 Star
1672 564 Star
1752 1655 Star
1691 766 Star
1766 1507 Star
1672 653 Star
1733 994 Star
1815 817 Star
1875 700 Star
1785 770 Star
1840 508 Star
1840 996 Star
1836 1480 Star
1793 609 Star
1848 572 Star
1873 499 Star
1871 875 Star
1842 1323 Star
1828 504 Star
1778 781 Star
1830 633 Star
1871 943 Star
1783 782 Star
1811 814 Star
1823 679 Star
1871 670 Star
1819 481 Star
1954 512 Star
1911 617 Star
1913 816 Star
1936 506 Star
1936 784 Star
1942 460 Star
1920 682 Star
1973 1439 Star
1877 643 Star
1889 474 Star
1971 552 Star
1877 824 Star
1948 518 Star
1920 1142 Star
1887 1160 Star
1887 1366 Star
1889 954 Star
1956 1065 Star
1973 450 Star
1922 732 Star
1995 570 Star
2038 576 Star
2020 971 Star
2001 449 Star
2067 657 Star
2018 707 Star
2061 602 Star
2003 692 Star
2051 601 Star
2044 694 Star
1995 761 Star
2055 538 Star
2065 783 Star
2073 796 Star
2024 513 Star
2022 554 Star
2018 877 Star
2014 459 Star
2008 800 Star
1983 689 Star
2114 613 Star
2145 1004 Star
2136 671 Star
2143 566 Star
2093 552 Star
2167 605 Star
2114 760 Star
2165 970 Star
2149 589 Star
2145 1004 Star
2147 699 Star
2116 752 Star
2179 491 Star
2120 775 Star
2169 586 Star
2110 581 Star
2116 1013 Star
2130 587 Star
2083 455 Star
2096 473 Star
2284 608 Star
2255 796 Star
2255 658 Star
2237 637 Star
2276 583 Star
2235 484 Star
2222 714 Star
2220 531 Star
2198 500 Star
2233 568 Star
2200 783 Star
2231 602 Star
2222 498 Star
2190 505 Star
2186 930 Star
2222 524 Star
2214 539 Star
2224 510 Star
2267 474 Star
2196 1467 Star
2323 981 Star
2308 673 Star
2359 796 Star
2288 894 Star
2353 758 Star
2294 556 Star
2298 626 Star
2345 527 Star
2288 869 Star
2359 1199 Star
2304 551 Star
2333 773 Star
2298 626 Star
2306 1222 Star
2376 682 Star
2378 621 Star
2380 535 Star
2298 626 Star
2343 626 Star
2368 504 Star
2447 557 Star
2480 524 Star
2417 807 Star
2425 629 Star
2451 451 Star
2472 699 Star
2396 785 Star
2445 799 Star
2413 689 Star
2458 614 Star
2423 858 Star
2417 699 Star
2476 726 Star
2400 868 Star
2433 532 Star
2458 612 Star
2433 1064 Star
2431 699 Star
2466 487 Star
2443 738 Star
2576 679 Star
2533 752 Star
2496 524 Star
2590 571 Star
2574 780 Star
2582 631 Star
2498 528 Star
2496 884 Star
2500 554 Star
2552 968 Star
2584 553 Star
2545 935 Star
2572 619 Star
2515 572 Star
2566 747 Star
2494 595 Star
2580 989 Star
2523 518 Star
2529 719 Star
2492 813 Star
2638 812 Star
2676 920 Star
2615 519 Star
2605 765 Star
2605 470 Star
2646 654 Star
2631 560 Star
2664 542 Star
2656 855 Star
2687 793 Star
2658 634 Star
2638 677 Star
2656 653 Star
2666 744 Star
2644 652 Star
2611 955 Star
2644 984 Star
2615 528 Star
2638 614 Star
2646 556 Star
2730 517 Star
2695 820 Star
2746 586 Star
2695 553 Star
2711 1020 Star
2773 762 Star
2697 935 Star
2723 467 Star
2746 805 Star
2748 1149 Star
2709 505 Star
2766 461 Star
2770 662 Star
2715 726 Star
2781 511 Star
2709 560 Star
2713 755 Star
2779 755 Star
2734 599 Star
2777 609 Star
2799 694 Star
2830 951 Star
2836 1024 Star
2836 633 Star
2828 622 Star
2844 627 Star
2883 987 Star
2852 505 Star
2856 570 Star
2848 507 Star
2889 699 Star
2832 498 Star
2820 497 Star
2805 475 Star
2852 492 Star
2840 849 Star
2858 688 Star
2830 684 Star
2824 643 Star
2852 778 Star
2981 589 Star
2940 668 Star
2934 530 Star
2934 530 Star
2991 529 Star
2971 499 Star
2914 791 Star
2912 559 Star
2920 590 Star
3000 909 Star
2934 530 Star
2928 732 Star
2918 574 Star
2993 587 Star
2969 550 Star
2991 621 Star
2995 754 Star
2948 603 Star
2922 558 Star
2936 460 Star
3012 543 Star
3057 557 Star
3055 566 Star
3040 803 Star
3098 460 Star
3010 456 Star
3045 709 Star
3049 550 Star
3049 550 Star
3055 681 Star
3069 621 Star
3004 563 Star
3032 635 Star
3030 538 Star
3012 1172 Star
3002 875 Star
3061 543 Star
3092 548 Star
3081 646 Star
3006 651 Star
3124 513 Star
3137 641 Star
3184 678 Star
3190 535 Star
3175 589 Star
3173 527 Star
3108 612 Star
3155 758 Star
3133 956 Star
3130 849 Star
3130 709 Star
3147 804 Star
3145 997 Star
3120 502 Star
3114 470 Star
3204 510 Star
3165 861 Star
3133 756 Star
3106 675 Star
3112 795 Star
3222 757 Star
3241 631 Star
3276 825 Star
3210 509 Star
3249 548 Star
3302 539 Star
3220 663 Star
3274 605 Star
3210 462 Star
3280 745 Star
3235 937 Star
3253 741 Star
3280 1141 Star
3274 855 Star
3229 612 Star
3239 455 Star
3245 555 Star
3245 748 Star
3304 497 Star
3247 894 Star
3341 636 Star
3380 689 Star
3360 459 Star
3321 495 Star
3364 666 Star
3343 624 Star
3384 733 Star
3380 689 Star
3360 459 Star
3380 766 Star
3368 537 Star
3349 635 Star
3333 450 Star
3351 989 Star
3400 954 Star
3355 635 Star
3370 467 Star
3331 506 Star
3368 537 Star
3308 826 Star
3413 519 Star
3495 466 Star
3456 933 Star
3482 507 Star
3435 980 Star
3437 965 Star
3445 796 Star
3421 479 Star
3486 648 Star
3450 649 Star
3488 718 Star
3452 656 Star
3450 454 Star
3466 557 Star
3433 588 Star
3505 665 Star
3472 888 Star
3421 788 Star
3507 926 Star
3447 684 Star
3587 657 Star
3609 931 Star
3533 470 Star
3521 474 Star
3515 713 Star
3523 728 Star
3513 671 Star
3525 781 Star
3550 1203 Star
3595 516 Star
3531 576 Star
3574 580 Star
3515 597 Star
3589 542 Star
3556 644 Star
3533 470 Star
3535 634 Star
3564 546 Star
3550 643 Star
3548 665 Star
3703 601 Star
3654 521 Star
3660 632 Star
3630 660 Star
3662 1117 Star
3654 454 Star
3623 490 Star
3630 498 Star
3625 458 Star
3615 525 Star
3693 769 Star
3679 514 Star
3619 496 Star
3617 495 Star
3697 477 Star
3703 764 Star
3691 648 Star
3664 806 Star
3701 503 Star
3666 643 Star
3807 531 Star
3773 518 Star
3762 625 Star
3803 463 Star
3728 672 Star
3717 535 Star
3720 663 Star
3773 518 Star
3781 567 Star
3756 1115 Star
3787 917 Star
3789 789 Star
3744 541 Star
3812 716 Star
3732 489 Star
3793 588 Star
3765 542 Star
3760 471 Star
3740 689 Star
3789 462 Star
3865 700 Star
3824 578 Star
3881 719 Star
3830 463 Star
3885 689 Star
3920 1734 Star
3826 521 Star
3850 720 Star
3912 709 Star
3881 582 Star
3867 783 Star
3871 464 Star
3897 470 Star
3846 470 Star
3822 450 Star
3902 464 Star
3881 844 Star
3828 559 Star
3875 780 Star
3865 680 Star
3969 510 Star
4012 716 Star
3936 516 Star
3961 712 Star
3973 479 Star
3949 478 Star
3936 516 Star
3934 599 Star
3922 1000 Star
3981 482 Star
3949 569 Star
3967 685 Star
3983 518 Star
3998 543 Star
3985 509 Star
3967 685 Star
3955 543 Star
3973 524 Star
3936 516 Star
4010 723 Star
4094 788 Star
4045 471 Star
4094 548 Star
4090 706 Star
4110 466 Star
4053 479 Star
4073 669 Star
4028 564 Star
4067 724 Star
4075 556 Star
4082 650 Star
4049 854 Star
4094 788 Star
4041 793 Star
4106 486 Star
4034 690 Star
4096 812 Star
4084 468 Star
4065 799 Star
4102 758 Star
4204 757 Star
4149 651 Star
4210 644 Star
4137 751 Star
4133 729 Star
4151 951 Star
4210 548 Star
4204 511 Star
4198 492 Star
4159 708 Star
4172 703 Star
4204 757 Star
4221 708 Star
4204 511 Star
4178 559 Star
4223 463 Star
4172 449 Star
4129 763 Star
4212 604 Star
4139 693 Star
4243 777 Star
4262 778 Star
4321 1051 Star
4315 593 Star
4319 583 Star
4270 836 Star
4286 647 Star
4321 676 Star
4290 498 Star
4251 691 Star
4282 457 Star
4315 476 Star
4309 760 Star
4272 702 Star
4319 686 Star
4259 706 Star
4245 739 Star
4239 483 Star
4315 476 Star
4255 907 Star
4425 582 Star
4343 590 Star
4425 582 Star
4392 642 Star
4370 451 Star
4415 472 Star
4415 467 Star
4358 503 Star
4386 558 Star
4333 597 Star
4364 463 Star
4407 653 Star
4333 592 Star
4370 451 Star
4331 558 Star
4345 592 Star
4415 648 Star
4380 491 Star
4425 650 Star
4341 900 Star
4515 451 Star
4511 712 Star
4472 923 Star
4444 479 Star
4456 468 Star
4507 784 Star
4448 463 Star
4523 550 Star
4517 709 Star
4497 487 Star
4505 793 Star
4491 485 Star
4513 585 Star
4532 524 Star
4517 683 Star
4525 463 Star
4523 550 Star
4460 508 Star
4478 859 Star
4505 793 Star
4552 942 Star
4560 656 Star
4589 716 Star
4626 475 Star
4574 499 Star
4556 709 Star
4624 470 Star
4536 483 Star
4540 494 Star
4581 834 Star
4542 718 Star
4636 477 Star
4589 716 Star
4564 586 Star
4601 572 Star
4556 1092 Star
4552 829 Star
4556 817 Star
4568 724 Star
4574 499 Star
4673 588 Star
4675 678 Star
4648 505 Star
4703 513 Star
4691 668 Star
4681 866 Star
4724 460 Star
4650 579 Star
4644 573 Star
4646 531 Star
4660 524 Star
4675 678 Star
4718 683 Star
4691 668 Star
4660 740 Star
4671 873 Star
4722 493 Star
4681 866 Star
4738 513 Star
4667 504 Star
4787 638 Star
4783 450 Star
4787 534 Star
4838 467 Star
4814 594 Star
4759 658 Star
4771 823 Star
4804 530 Star
4793 1280 Star
4787 534 Star
4771 496 Star
4822 878 Star
4759 691 Star
4744 614 Star
4756 460 Star
4740 585 Star
4791 633 Star
4775 641 Star
4783 450 Star
4791 633 Star
4875 644 Star
4887 563 Star
4855 490 Star
4916 462 Star
4855 490 Star
4844 499 Star
4918 690 Star
4844 547 Star
4844 547 Star
4906 687 Star
4867 449 Star
4912 1364 Star
4928 500 Star
4912 940 Star
4918 799 Star
4867 449 Star
4879 986 Star
4869 509 Star
4914 904 Star
4906 514 Star
4981 935 Star
5012 575 Star
5010 488 Star
4951 714 Star
4981 935 Star
5012 677 Star
5002 691 Star
5041 681 Star
4945 657 Star
5035 516 Star
4967 496 Star
5012 575 Star
4998 633 Star
5012 460 Star
4998 633 Star
4981 462 Star
5043 692 Star
4959 888 Star
4975 576 Star
4988 1002 Star
5125 691 Star
5090 778 Star
5086 519 Star
5096 646 Star
5055 484 Star
5104 498 Star
5088 726 Star
5131 592 Star
5053 491 Star
5076 471 Star
5090 551 Star
5069 462 Star
5139 838 Star
5145 659 Star
5135 538 Star
5116 649 Star
5055 454 Star
5145 617 Star
5086 476 Star
5096 646 Star
5159 477 Star
5180 818 Star
5180 981 Star
5225 465 Star
5200 599 Star
5164 478 Star
5170 589 Star
5174 542 Star
5237 588 Star
5221 502 Star
5233 742 Star
5164 565 Star
5174 615 Star
5194 626 Star
5235 468 Star
5159 477 Star
5200 599 Star
5235 577 Star
5209 749 Star
5198 575 Star
5266 652 Star
5292 602 Star
5311 591 Star
5251 797 Star
5260 537 Star
5272 490 Star
5331 651 Star
5333 722 Star
5294 527 Star
5262 811 Star
5348 566 Star
5301 658 Star
5272 490 Star
5272 490 Star
5315 501 Star
5296 746 Star
5292 504 Star
5299 529 Star
5260 537 Star
5292 623 Star
5417 897 Star
5407 866 Star
5391 600 Star
5438 477 Star
5450 659 Star
5382 801 Star
5354 759 Star
5440 637 Star
5386 785 Star
5415 529 Star
5407 785 Star
5434 502 Star
5423 669 Star
5407 866 Star
5407 866 Star
5417 724 Star
5395 1003 Star
5380 824 Star
5378 1000 Star
5409 480 Star
5511 648 Star
5503 642 Star
5513 746 Star
5468 706 Star
5499 676 Star
5476 660 Star
5523 582 Star
5505 685 Star
5474 646 Star
5472 478 Star
5546 593 Star
5458 582 Star
5483 910 Star
5491 454 Star
5499 700 Star
5540 587 Star
5458 582 Star
5491 628 Star
5491 628 Star
5491 714 Star
5613 536 Star
5607 493 Star
5568 657 Star
5601 544 Star
5607 493 Star
5583 568 Star
5591 770 Star
5644 959 Star
5624 497 Star
5571 523 Star
5568 692 Star
5601 503 Star
5562 618 Star
5575 654 Star
5656 582 Star
5611 615 Star
5658 514 Star
5591 501 Star
5618 634 Star
5618 634 Star
5706 511 Star
5712 823 Star
5742 481 Star
5726 528 Star
5699 522 Star
5679 618 Star
5663 576 Star
5720 749 Star
5665 607 Star
5677 467 Star
5720 591 Star
5734 593 Star
5738 698 Star
5734 593 Star
5742 481 Star
5689 712 Star
5742 689 Star
5740 595 Star
5689 712 Star
5667 448 Star
5828 553 Star
5800 599 Star
5851 515 Star
5806 665 Star
5855 738 Star
5777 546 Star
5777 597 Star
5845 455 Star
5763 704 Star
5767 578 Star
5814 672 Star
5798 481 Star
5849 627 Star
5847 611 Star
5845 455 Star
5789 915 Star
5841 672 Star
5808 603 Star
5830 464 Star
5781 595 Star
5937 749 Star
5957 729 Star
5953 480 Star
5945 735 Star
5883 479 Star
5924 868 Star
5922 888 Star
5957 999 Star
5910 506 Star
5875 461 Star
5881 549 Star
5943 554 Star
5957 729 Star
5908 885 Star
5918 837 Star
5900 509 Star
5953 480 Star
5908 885 Star
5871 697 Star
5961 666 Star
6045 554 Star
5986 724 Star
6055 604 Star
6057 884 Star
6043 595 Star
5986 471 Star
6068 572 Star
6012 493 Star
5976 703 Star
6068 628 Star
6008 686 Star
6021 650 Star
6010 494 Star
5986 471 Star
6045 673 Star
6057 919 Star
6018 509 Star
6018 482 Star
6016 585 Star
5971 557 Star
6106 667 Star
6090 479 Star
6164 941 Star
6088 811 Star
6104 566 Star
6070 652 Star
6074 541 Star
6082 495 Star
6168 489 Star
6164 941 Star
6133 832 Star
6102 458 Star
6127 636 Star
6108 558 Star
6076 551 Star
6090 671 Star
6084 699 Star
6131 619 Star
6094 458 Star
6086 476 Star
6192 967 Star
6227 937 Star
6227 967 Star
6172 725 Star
6248 644 Star
6270 793 Star
6250 674 Star
6245 713 Star
6227 599 Star
6268 607 Star
6188 528 Star
6248 644 Star
6227 967 Star
6174 596 Star
6182 676 Star
6174 596 Star
6194 668 Star
6256 908 Star
6176 541 Star
6196 617 Star
6317 460 Star
6331 938 Star
6372 700 Star
6274 567 Star
6362 570 Star
6358 637 Star
6315 514 Star
6319 578 Star
6323 688 Star
6372 569 Star
6366 556 Star
6370 857 Star
6358 637 Star
6293 753 Star
6327 485 Star
6356 526 Star
6276 495 Star
6280 525 Star
6293 482 Star
6331 661 Star
6380 592 Star
6436 525 Star
6450 488 Star
6421 619 Star
6425 539 Star
6403 643 Star
6442 701 Star
6454 513 Star
6421 476 Star
6462 470 Star
6456 767 Star
6413 875 Star
6417 471 Star
6407 650 Star
6387 468 Star
6383 905 Star
6385 706 Star
6378 522 Star
6423 575 Star
6438 509 Star
6573 785 Star
6538 576 Star
6577 558 Star
6565 614 Star
6558 743 Star
6554 716 Star
6497 535 Star
6518 589 Star
6499 489 Star
6497 512 Star
6530 719 Star
6528 706 Star
6548 613 Star
6540 555 Star
6503 609 Star
6491 640 Star
6501 451 Star
6520 716 Star
6560 474 Star
6522 1050 Star
6646 452 Star
6624 583 Star
6636 683 Star
6583 918 Star
6624 542 Star
6632 480 Star
6667 669 Star
6589 685 Star
6583 658 Star
6612 609 Star
6593 548 Star
6626 728 Star
6642 472 Star
6632 452 Star
6597 486 Star
6659 479 Star
6663 454 Star
6612 589 Star
6605 505 Star
6593 949 Star
6745 503 Star
6749 587 Star
6749 587 Star
6777 619 Star
6720 770 Star
6720 596 Star
6749 587 Star
6773 666 Star
6745 503 Star
6738 608 Star
6773 529 Star
6724 622 Star
6714 707 Star
6759 773 Star
6720 596 Star
6745 624 Star
6706 996 Star
6698 683 Star
6691 622 Star
6714 841 Star
6878 500 Star
6871 514 Star
6835 523 Star
6841 498 Star
6865 452 Star
6841 498 Star
6849 567 Star
6841 498 Star
6878 500 Star
6816 647 Star
6818 475 Star
6818 529 Star
6818 861 Star
6835 533 Star
6804 555 Star
6886 544 Star
6816 766 Star
6835 533 Star
6845 631 Star
6802 614 Star
6957 770 Star
6920 475 Star
6972 591 Star
6923 567 Star
6955 465 Star
6963 563 Star
6916 812 Star
6920 674 Star
6955 813 Star
6963 563 Star
6976 538 Star
6951 461 Star
6955 813 Star
6955 465 Star
6906 488 Star
6906 787 Star
6982 513 Star
6955 515 Star
6972 591 Star
6900 545 Star
1.000 UL
LTb
854 4872 N
854 448 L
6136 0 V
0 4424 V
-6136 0 V
Z stroke
1.000 UP
1.000 UL
LTb
stroke
grestore
end
showpage
%%Trailer
%%DocumentFonts: Helvetica
