%!PS-Adobe-2.0 EPSF-2.0
%%Title: failure-cluster-all.eps
%%Creator: gnuplot 4.2 patchlevel 6 
%%CreationDate: Tue Sep 23 15:43:26 2014
%%DocumentFonts: (atend)
%%BoundingBox: 50 50 410 302
%%EndComments
%%BeginProlog
/gnudict 256 dict def
gnudict begin
%
% The following 6 true/false flags may be edited by hand if required
% The unit line width may also be changed
%
/Color true def
/Blacktext false def
/Solid false def
/Dashlength 1 def
/Landscape false def
/Level1 false def
/Rounded false def
/TransparentPatterns false def
/gnulinewidth 5.000 def
/userlinewidth gnulinewidth def
%
/vshift -46 def
/dl1 {
  10.0 Dashlength mul mul
  Rounded { currentlinewidth 0.75 mul sub dup 0 le { pop 0.01 } if } if
} def
/dl2 {
  10.0 Dashlength mul mul
  Rounded { currentlinewidth 0.75 mul add } if
} def
/hpt_ 31.5 def
/vpt_ 31.5 def
/hpt hpt_ def
/vpt vpt_ def
Level1 {} {
/SDict 10 dict def
systemdict /pdfmark known not {
  userdict /pdfmark systemdict /cleartomark get put
} if
SDict begin [
  /Title (failure-cluster-all.eps)
  /Subject (gnuplot plot)
  /Creator (gnuplot 4.2 patchlevel 6 )
  /Author (Binh Nguyen,[chenxu])
%  /Producer (gnuplot)
%  /Keywords ()
  /CreationDate (Tue Sep 23 15:43:26 2014)
  /DOCINFO pdfmark
end
} ifelse
%
% Gnuplot Prolog Version 4.2 (August 2006)
%
/M {moveto} bind def
/L {lineto} bind def
/R {rmoveto} bind def
/V {rlineto} bind def
/N {newpath moveto} bind def
/Z {closepath} bind def
/C {setrgbcolor} bind def
/f {rlineto fill} bind def
/vpt2 vpt 2 mul def
/hpt2 hpt 2 mul def
/Lshow {currentpoint stroke M 0 vshift R 
	Blacktext {gsave 0 setgray show grestore} {show} ifelse} def
/Rshow {currentpoint stroke M dup stringwidth pop neg vshift R
	Blacktext {gsave 0 setgray show grestore} {show} ifelse} def
/Cshow {currentpoint stroke M dup stringwidth pop -2 div vshift R 
	Blacktext {gsave 0 setgray show grestore} {show} ifelse} def
/UP {dup vpt_ mul /vpt exch def hpt_ mul /hpt exch def
  /hpt2 hpt 2 mul def /vpt2 vpt 2 mul def} def
/DL {Color {setrgbcolor Solid {pop []} if 0 setdash}
 {pop pop pop 0 setgray Solid {pop []} if 0 setdash} ifelse} def
/BL {stroke userlinewidth 2 mul setlinewidth
	Rounded {1 setlinejoin 1 setlinecap} if} def
/AL {stroke userlinewidth 2 div setlinewidth
	Rounded {1 setlinejoin 1 setlinecap} if} def
/UL {dup gnulinewidth mul /userlinewidth exch def
	dup 1 lt {pop 1} if 10 mul /udl exch def} def
/PL {stroke userlinewidth setlinewidth
	Rounded {1 setlinejoin 1 setlinecap} if} def
% Default Line colors
/LCw {1 1 1} def
/LCb {0 0 0} def
/LCa {0 0 0} def
/LC0 {1 0 0} def
/LC1 {0 1 0} def
/LC2 {0 0 1} def
/LC3 {1 0 1} def
/LC4 {0 1 1} def
/LC5 {1 1 0} def
/LC6 {0 0 0} def
/LC7 {1 0.3 0} def
/LC8 {0.5 0.5 0.5} def
% Default Line Types
/LTw {PL [] 1 setgray} def
/LTb {BL [] LCb DL} def
/LTa {AL [1 udl mul 2 udl mul] 0 setdash LCa setrgbcolor} def
/LT0 {PL [] LC0 DL} def
/LT1 {PL [4 dl1 2 dl2] LC1 DL} def
/LT2 {PL [2 dl1 3 dl2] LC2 DL} def
/LT3 {PL [1 dl1 1.5 dl2] LC3 DL} def
/LT4 {PL [6 dl1 2 dl2 1 dl1 2 dl2] LC4 DL} def
/LT5 {PL [3 dl1 3 dl2 1 dl1 3 dl2] LC5 DL} def
/LT6 {PL [2 dl1 2 dl2 2 dl1 6 dl2] LC6 DL} def
/LT7 {PL [1 dl1 2 dl2 6 dl1 2 dl2 1 dl1 2 dl2] LC7 DL} def
/LT8 {PL [2 dl1 2 dl2 2 dl1 2 dl2 2 dl1 2 dl2 2 dl1 4 dl2] LC8 DL} def
/Pnt {stroke [] 0 setdash gsave 1 setlinecap M 0 0 V stroke grestore} def
/Dia {stroke [] 0 setdash 2 copy vpt add M
  hpt neg vpt neg V hpt vpt neg V
  hpt vpt V hpt neg vpt V closepath stroke
  Pnt} def
/Pls {stroke [] 0 setdash vpt sub M 0 vpt2 V
  currentpoint stroke M
  hpt neg vpt neg R hpt2 0 V stroke
 } def
/Box {stroke [] 0 setdash 2 copy exch hpt sub exch vpt add M
  0 vpt2 neg V hpt2 0 V 0 vpt2 V
  hpt2 neg 0 V closepath stroke
  Pnt} def
/Crs {stroke [] 0 setdash exch hpt sub exch vpt add M
  hpt2 vpt2 neg V currentpoint stroke M
  hpt2 neg 0 R hpt2 vpt2 V stroke} def
/TriU {stroke [] 0 setdash 2 copy vpt 1.12 mul add M
  hpt neg vpt -1.62 mul V
  hpt 2 mul 0 V
  hpt neg vpt 1.62 mul V closepath stroke
  Pnt} def
/Star {2 copy Pls Crs} def
/BoxF {stroke [] 0 setdash exch hpt sub exch vpt add M
  0 vpt2 neg V hpt2 0 V 0 vpt2 V
  hpt2 neg 0 V closepath fill} def
/TriUF {stroke [] 0 setdash vpt 1.12 mul add M
  hpt neg vpt -1.62 mul V
  hpt 2 mul 0 V
  hpt neg vpt 1.62 mul V closepath fill} def
/TriD {stroke [] 0 setdash 2 copy vpt 1.12 mul sub M
  hpt neg vpt 1.62 mul V
  hpt 2 mul 0 V
  hpt neg vpt -1.62 mul V closepath stroke
  Pnt} def
/TriDF {stroke [] 0 setdash vpt 1.12 mul sub M
  hpt neg vpt 1.62 mul V
  hpt 2 mul 0 V
  hpt neg vpt -1.62 mul V closepath fill} def
/DiaF {stroke [] 0 setdash vpt add M
  hpt neg vpt neg V hpt vpt neg V
  hpt vpt V hpt neg vpt V closepath fill} def
/Pent {stroke [] 0 setdash 2 copy gsave
  translate 0 hpt M 4 {72 rotate 0 hpt L} repeat
  closepath stroke grestore Pnt} def
/PentF {stroke [] 0 setdash gsave
  translate 0 hpt M 4 {72 rotate 0 hpt L} repeat
  closepath fill grestore} def
/Circle {stroke [] 0 setdash 2 copy
  hpt 0 360 arc stroke Pnt} def
/CircleF {stroke [] 0 setdash hpt 0 360 arc fill} def
/C0 {BL [] 0 setdash 2 copy moveto vpt 90 450 arc} bind def
/C1 {BL [] 0 setdash 2 copy moveto
	2 copy vpt 0 90 arc closepath fill
	vpt 0 360 arc closepath} bind def
/C2 {BL [] 0 setdash 2 copy moveto
	2 copy vpt 90 180 arc closepath fill
	vpt 0 360 arc closepath} bind def
/C3 {BL [] 0 setdash 2 copy moveto
	2 copy vpt 0 180 arc closepath fill
	vpt 0 360 arc closepath} bind def
/C4 {BL [] 0 setdash 2 copy moveto
	2 copy vpt 180 270 arc closepath fill
	vpt 0 360 arc closepath} bind def
/C5 {BL [] 0 setdash 2 copy moveto
	2 copy vpt 0 90 arc
	2 copy moveto
	2 copy vpt 180 270 arc closepath fill
	vpt 0 360 arc} bind def
/C6 {BL [] 0 setdash 2 copy moveto
	2 copy vpt 90 270 arc closepath fill
	vpt 0 360 arc closepath} bind def
/C7 {BL [] 0 setdash 2 copy moveto
	2 copy vpt 0 270 arc closepath fill
	vpt 0 360 arc closepath} bind def
/C8 {BL [] 0 setdash 2 copy moveto
	2 copy vpt 270 360 arc closepath fill
	vpt 0 360 arc closepath} bind def
/C9 {BL [] 0 setdash 2 copy moveto
	2 copy vpt 270 450 arc closepath fill
	vpt 0 360 arc closepath} bind def
/C10 {BL [] 0 setdash 2 copy 2 copy moveto vpt 270 360 arc closepath fill
	2 copy moveto
	2 copy vpt 90 180 arc closepath fill
	vpt 0 360 arc closepath} bind def
/C11 {BL [] 0 setdash 2 copy moveto
	2 copy vpt 0 180 arc closepath fill
	2 copy moveto
	2 copy vpt 270 360 arc closepath fill
	vpt 0 360 arc closepath} bind def
/C12 {BL [] 0 setdash 2 copy moveto
	2 copy vpt 180 360 arc closepath fill
	vpt 0 360 arc closepath} bind def
/C13 {BL [] 0 setdash 2 copy moveto
	2 copy vpt 0 90 arc closepath fill
	2 copy moveto
	2 copy vpt 180 360 arc closepath fill
	vpt 0 360 arc closepath} bind def
/C14 {BL [] 0 setdash 2 copy moveto
	2 copy vpt 90 360 arc closepath fill
	vpt 0 360 arc} bind def
/C15 {BL [] 0 setdash 2 copy vpt 0 360 arc closepath fill
	vpt 0 360 arc closepath} bind def
/Rec {newpath 4 2 roll moveto 1 index 0 rlineto 0 exch rlineto
	neg 0 rlineto closepath} bind def
/Square {dup Rec} bind def
/Bsquare {vpt sub exch vpt sub exch vpt2 Square} bind def
/S0 {BL [] 0 setdash 2 copy moveto 0 vpt rlineto BL Bsquare} bind def
/S1 {BL [] 0 setdash 2 copy vpt Square fill Bsquare} bind def
/S2 {BL [] 0 setdash 2 copy exch vpt sub exch vpt Square fill Bsquare} bind def
/S3 {BL [] 0 setdash 2 copy exch vpt sub exch vpt2 vpt Rec fill Bsquare} bind def
/S4 {BL [] 0 setdash 2 copy exch vpt sub exch vpt sub vpt Square fill Bsquare} bind def
/S5 {BL [] 0 setdash 2 copy 2 copy vpt Square fill
	exch vpt sub exch vpt sub vpt Square fill Bsquare} bind def
/S6 {BL [] 0 setdash 2 copy exch vpt sub exch vpt sub vpt vpt2 Rec fill Bsquare} bind def
/S7 {BL [] 0 setdash 2 copy exch vpt sub exch vpt sub vpt vpt2 Rec fill
	2 copy vpt Square fill Bsquare} bind def
/S8 {BL [] 0 setdash 2 copy vpt sub vpt Square fill Bsquare} bind def
/S9 {BL [] 0 setdash 2 copy vpt sub vpt vpt2 Rec fill Bsquare} bind def
/S10 {BL [] 0 setdash 2 copy vpt sub vpt Square fill 2 copy exch vpt sub exch vpt Square fill
	Bsquare} bind def
/S11 {BL [] 0 setdash 2 copy vpt sub vpt Square fill 2 copy exch vpt sub exch vpt2 vpt Rec fill
	Bsquare} bind def
/S12 {BL [] 0 setdash 2 copy exch vpt sub exch vpt sub vpt2 vpt Rec fill Bsquare} bind def
/S13 {BL [] 0 setdash 2 copy exch vpt sub exch vpt sub vpt2 vpt Rec fill
	2 copy vpt Square fill Bsquare} bind def
/S14 {BL [] 0 setdash 2 copy exch vpt sub exch vpt sub vpt2 vpt Rec fill
	2 copy exch vpt sub exch vpt Square fill Bsquare} bind def
/S15 {BL [] 0 setdash 2 copy Bsquare fill Bsquare} bind def
/D0 {gsave translate 45 rotate 0 0 S0 stroke grestore} bind def
/D1 {gsave translate 45 rotate 0 0 S1 stroke grestore} bind def
/D2 {gsave translate 45 rotate 0 0 S2 stroke grestore} bind def
/D3 {gsave translate 45 rotate 0 0 S3 stroke grestore} bind def
/D4 {gsave translate 45 rotate 0 0 S4 stroke grestore} bind def
/D5 {gsave translate 45 rotate 0 0 S5 stroke grestore} bind def
/D6 {gsave translate 45 rotate 0 0 S6 stroke grestore} bind def
/D7 {gsave translate 45 rotate 0 0 S7 stroke grestore} bind def
/D8 {gsave translate 45 rotate 0 0 S8 stroke grestore} bind def
/D9 {gsave translate 45 rotate 0 0 S9 stroke grestore} bind def
/D10 {gsave translate 45 rotate 0 0 S10 stroke grestore} bind def
/D11 {gsave translate 45 rotate 0 0 S11 stroke grestore} bind def
/D12 {gsave translate 45 rotate 0 0 S12 stroke grestore} bind def
/D13 {gsave translate 45 rotate 0 0 S13 stroke grestore} bind def
/D14 {gsave translate 45 rotate 0 0 S14 stroke grestore} bind def
/D15 {gsave translate 45 rotate 0 0 S15 stroke grestore} bind def
/DiaE {stroke [] 0 setdash vpt add M
  hpt neg vpt neg V hpt vpt neg V
  hpt vpt V hpt neg vpt V closepath stroke} def
/BoxE {stroke [] 0 setdash exch hpt sub exch vpt add M
  0 vpt2 neg V hpt2 0 V 0 vpt2 V
  hpt2 neg 0 V closepath stroke} def
/TriUE {stroke [] 0 setdash vpt 1.12 mul add M
  hpt neg vpt -1.62 mul V
  hpt 2 mul 0 V
  hpt neg vpt 1.62 mul V closepath stroke} def
/TriDE {stroke [] 0 setdash vpt 1.12 mul sub M
  hpt neg vpt 1.62 mul V
  hpt 2 mul 0 V
  hpt neg vpt -1.62 mul V closepath stroke} def
/PentE {stroke [] 0 setdash gsave
  translate 0 hpt M 4 {72 rotate 0 hpt L} repeat
  closepath stroke grestore} def
/CircE {stroke [] 0 setdash 
  hpt 0 360 arc stroke} def
/Opaque {gsave closepath 1 setgray fill grestore 0 setgray closepath} def
/DiaW {stroke [] 0 setdash vpt add M
  hpt neg vpt neg V hpt vpt neg V
  hpt vpt V hpt neg vpt V Opaque stroke} def
/BoxW {stroke [] 0 setdash exch hpt sub exch vpt add M
  0 vpt2 neg V hpt2 0 V 0 vpt2 V
  hpt2 neg 0 V Opaque stroke} def
/TriUW {stroke [] 0 setdash vpt 1.12 mul add M
  hpt neg vpt -1.62 mul V
  hpt 2 mul 0 V
  hpt neg vpt 1.62 mul V Opaque stroke} def
/TriDW {stroke [] 0 setdash vpt 1.12 mul sub M
  hpt neg vpt 1.62 mul V
  hpt 2 mul 0 V
  hpt neg vpt -1.62 mul V Opaque stroke} def
/PentW {stroke [] 0 setdash gsave
  translate 0 hpt M 4 {72 rotate 0 hpt L} repeat
  Opaque stroke grestore} def
/CircW {stroke [] 0 setdash 
  hpt 0 360 arc Opaque stroke} def
/BoxFill {gsave Rec 1 setgray fill grestore} def
/Density {
  /Fillden exch def
  currentrgbcolor
  /ColB exch def /ColG exch def /ColR exch def
  /ColR ColR Fillden mul Fillden sub 1 add def
  /ColG ColG Fillden mul Fillden sub 1 add def
  /ColB ColB Fillden mul Fillden sub 1 add def
  ColR ColG ColB setrgbcolor} def
/BoxColFill {gsave Rec PolyFill} def
/PolyFill {gsave Density fill grestore grestore} def
/h {rlineto rlineto rlineto gsave closepath fill grestore} bind def
%
% PostScript Level 1 Pattern Fill routine for rectangles
% Usage: x y w h s a XX PatternFill
%	x,y = lower left corner of box to be filled
%	w,h = width and height of box
%	  a = angle in degrees between lines and x-axis
%	 XX = 0/1 for no/yes cross-hatch
%
/PatternFill {gsave /PFa [ 9 2 roll ] def
  PFa 0 get PFa 2 get 2 div add PFa 1 get PFa 3 get 2 div add translate
  PFa 2 get -2 div PFa 3 get -2 div PFa 2 get PFa 3 get Rec
  gsave 1 setgray fill grestore clip
  currentlinewidth 0.5 mul setlinewidth
  /PFs PFa 2 get dup mul PFa 3 get dup mul add sqrt def
  0 0 M PFa 5 get rotate PFs -2 div dup translate
  0 1 PFs PFa 4 get div 1 add floor cvi
	{PFa 4 get mul 0 M 0 PFs V} for
  0 PFa 6 get ne {
	0 1 PFs PFa 4 get div 1 add floor cvi
	{PFa 4 get mul 0 2 1 roll M PFs 0 V} for
 } if
  stroke grestore} def
%
/languagelevel where
 {pop languagelevel} {1} ifelse
 2 lt
	{/InterpretLevel1 true def}
	{/InterpretLevel1 Level1 def}
 ifelse
%
% PostScript level 2 pattern fill definitions
%
/Level2PatternFill {
/Tile8x8 {/PaintType 2 /PatternType 1 /TilingType 1 /BBox [0 0 8 8] /XStep 8 /YStep 8}
	bind def
/KeepColor {currentrgbcolor [/Pattern /DeviceRGB] setcolorspace} bind def
<< Tile8x8
 /PaintProc {0.5 setlinewidth pop 0 0 M 8 8 L 0 8 M 8 0 L stroke} 
>> matrix makepattern
/Pat1 exch def
<< Tile8x8
 /PaintProc {0.5 setlinewidth pop 0 0 M 8 8 L 0 8 M 8 0 L stroke
	0 4 M 4 8 L 8 4 L 4 0 L 0 4 L stroke}
>> matrix makepattern
/Pat2 exch def
<< Tile8x8
 /PaintProc {0.5 setlinewidth pop 0 0 M 0 8 L
	8 8 L 8 0 L 0 0 L fill}
>> matrix makepattern
/Pat3 exch def
<< Tile8x8
 /PaintProc {0.5 setlinewidth pop -4 8 M 8 -4 L
	0 12 M 12 0 L stroke}
>> matrix makepattern
/Pat4 exch def
<< Tile8x8
 /PaintProc {0.5 setlinewidth pop -4 0 M 8 12 L
	0 -4 M 12 8 L stroke}
>> matrix makepattern
/Pat5 exch def
<< Tile8x8
 /PaintProc {0.5 setlinewidth pop -2 8 M 4 -4 L
	0 12 M 8 -4 L 4 12 M 10 0 L stroke}
>> matrix makepattern
/Pat6 exch def
<< Tile8x8
 /PaintProc {0.5 setlinewidth pop -2 0 M 4 12 L
	0 -4 M 8 12 L 4 -4 M 10 8 L stroke}
>> matrix makepattern
/Pat7 exch def
<< Tile8x8
 /PaintProc {0.5 setlinewidth pop 8 -2 M -4 4 L
	12 0 M -4 8 L 12 4 M 0 10 L stroke}
>> matrix makepattern
/Pat8 exch def
<< Tile8x8
 /PaintProc {0.5 setlinewidth pop 0 -2 M 12 4 L
	-4 0 M 12 8 L -4 4 M 8 10 L stroke}
>> matrix makepattern
/Pat9 exch def
/Pattern1 {PatternBgnd KeepColor Pat1 setpattern} bind def
/Pattern2 {PatternBgnd KeepColor Pat2 setpattern} bind def
/Pattern3 {PatternBgnd KeepColor Pat3 setpattern} bind def
/Pattern4 {PatternBgnd KeepColor Landscape {Pat5} {Pat4} ifelse setpattern} bind def
/Pattern5 {PatternBgnd KeepColor Landscape {Pat4} {Pat5} ifelse setpattern} bind def
/Pattern6 {PatternBgnd KeepColor Landscape {Pat9} {Pat6} ifelse setpattern} bind def
/Pattern7 {PatternBgnd KeepColor Landscape {Pat8} {Pat7} ifelse setpattern} bind def
} def
%
%
%End of PostScript Level 2 code
%
/PatternBgnd {
  TransparentPatterns {} {gsave 1 setgray fill grestore} ifelse
} def
%
% Substitute for Level 2 pattern fill codes with
% grayscale if Level 2 support is not selected.
%
/Level1PatternFill {
/Pattern1 {0.250 Density} bind def
/Pattern2 {0.500 Density} bind def
/Pattern3 {0.750 Density} bind def
/Pattern4 {0.125 Density} bind def
/Pattern5 {0.375 Density} bind def
/Pattern6 {0.625 Density} bind def
/Pattern7 {0.875 Density} bind def
} def
%
% Now test for support of Level 2 code
%
Level1 {Level1PatternFill} {Level2PatternFill} ifelse
%
/Symbol-Oblique /Symbol findfont [1 0 .167 1 0 0] makefont
dup length dict begin {1 index /FID eq {pop pop} {def} ifelse} forall
currentdict end definefont pop
/MFshow {
   { dup 5 get 3 ge
     { 5 get 3 eq {gsave} {grestore} ifelse }
     {dup dup 0 get findfont exch 1 get scalefont setfont
     [ currentpoint ] exch dup 2 get 0 exch R dup 5 get 2 ne {dup dup 6
     get exch 4 get {show} {stringwidth pop 0 R} ifelse }if dup 5 get 0 eq
     {dup 3 get {2 get neg 0 exch R pop} {pop aload pop M} ifelse} {dup 5
     get 1 eq {dup 2 get exch dup 3 get exch 6 get stringwidth pop -2 div
     dup 0 R} {dup 6 get stringwidth pop -2 div 0 R 6 get
     show 2 index {aload pop M neg 3 -1 roll neg R pop pop} {pop pop pop
     pop aload pop M} ifelse }ifelse }ifelse }
     ifelse }
   forall} bind def
/MFwidth {0 exch { dup 5 get 3 ge { 5 get 3 eq { 0 } { pop } ifelse }
 {dup 3 get{dup dup 0 get findfont exch 1 get scalefont setfont
     6 get stringwidth pop add} {pop} ifelse} ifelse} forall} bind def
/MLshow { currentpoint stroke M
  0 exch R
  Blacktext {gsave 0 setgray MFshow grestore} {MFshow} ifelse } bind def
/MRshow { currentpoint stroke M
  exch dup MFwidth neg 3 -1 roll R
  Blacktext {gsave 0 setgray MFshow grestore} {MFshow} ifelse } bind def
/MCshow { currentpoint stroke M
  exch dup MFwidth -2 div 3 -1 roll R
  Blacktext {gsave 0 setgray MFshow grestore} {MFshow} ifelse } bind def
/XYsave    { [( ) 1 2 true false 3 ()] } bind def
/XYrestore { [( ) 1 2 true false 4 ()] } bind def
end
%%EndProlog
gnudict begin
gsave
50 50 translate
0.050 0.050 scale
0 setgray
newpath
(Helvetica) findfont 140 scalefont setfont
1.000 UL
LTb
1.000 UL
LTa
1106 1484 M
5884 0 V
stroke
LTb
1106 1484 M
63 0 V
5821 0 R
-63 0 V
stroke
1022 1484 M
[ [(Helvetica) 140.0 0.0 true true 0 ( 0)]
] -46.7 MRshow
1.000 UL
LTb
1.000 UL
LTa
1106 1823 M
5884 0 V
stroke
LTb
1106 1823 M
63 0 V
5821 0 R
-63 0 V
stroke
1022 1823 M
[ [(Helvetica) 140.0 0.0 true true 0 ( 10000)]
] -46.7 MRshow
1.000 UL
LTb
1.000 UL
LTa
1106 2162 M
5884 0 V
stroke
LTb
1106 2162 M
63 0 V
5821 0 R
-63 0 V
stroke
1022 2162 M
[ [(Helvetica) 140.0 0.0 true true 0 ( 20000)]
] -46.7 MRshow
1.000 UL
LTb
1.000 UL
LTa
1106 2500 M
5884 0 V
stroke
LTb
1106 2500 M
63 0 V
5821 0 R
-63 0 V
stroke
1022 2500 M
[ [(Helvetica) 140.0 0.0 true true 0 ( 30000)]
] -46.7 MRshow
1.000 UL
LTb
1.000 UL
LTa
1106 2839 M
5884 0 V
stroke
LTb
1106 2839 M
63 0 V
5821 0 R
-63 0 V
stroke
1022 2839 M
[ [(Helvetica) 140.0 0.0 true true 0 ( 40000)]
] -46.7 MRshow
1.000 UL
LTb
1.000 UL
LTa
1106 3178 M
5884 0 V
stroke
LTb
1106 3178 M
63 0 V
5821 0 R
-63 0 V
stroke
1022 3178 M
[ [(Helvetica) 140.0 0.0 true true 0 ( 50000)]
] -46.7 MRshow
1.000 UL
LTb
1.000 UL
LTa
1106 3517 M
5884 0 V
stroke
LTb
1106 3517 M
63 0 V
5821 0 R
-63 0 V
stroke
1022 3517 M
[ [(Helvetica) 140.0 0.0 true true 0 ( 60000)]
] -46.7 MRshow
1.000 UL
LTb
1.000 UL
LTa
1106 3856 M
5884 0 V
stroke
LTb
1106 3856 M
63 0 V
5821 0 R
-63 0 V
stroke
1022 3856 M
[ [(Helvetica) 140.0 0.0 true true 0 ( 70000)]
] -46.7 MRshow
1.000 UL
LTb
1.000 UL
LTa
1106 4194 M
5884 0 V
stroke
LTb
1106 4194 M
63 0 V
5821 0 R
-63 0 V
stroke
1022 4194 M
[ [(Helvetica) 140.0 0.0 true true 0 ( 80000)]
] -46.7 MRshow
1.000 UL
LTb
1.000 UL
LTa
1106 4533 M
5884 0 V
stroke
LTb
1106 4533 M
63 0 V
5821 0 R
-63 0 V
stroke
1022 4533 M
[ [(Helvetica) 140.0 0.0 true true 0 ( 90000)]
] -46.7 MRshow
1.000 UL
LTb
1.000 UL
LTa
1106 4872 M
5884 0 V
stroke
LTb
1106 4872 M
63 0 V
5821 0 R
-63 0 V
stroke
1022 4872 M
[ [(Helvetica) 140.0 0.0 true true 0 ( 100000)]
] -46.7 MRshow
1.000 UL
LTb
1.000 UL
LTa
1106 1484 M
0 3388 V
stroke
LTb
1106 1484 M
0 63 V
0 3325 R
0 -63 V
stroke
1106 1400 M
currentpoint gsave translate 90 rotate 0 0 moveto
[ [(Helvetica) 140.0 0.0 true true 0 (2014-06-01 20:00)]
] -46.7 MRshow
grestore
1.000 UL
LTb
1229 1484 M
0 31 V
0 3357 R
0 -31 V
stroke
LTa
1351 1484 M
0 3388 V
stroke
LTb
1351 1484 M
0 63 V
0 3325 R
0 -63 V
stroke
1351 1400 M
currentpoint gsave translate 90 rotate 0 0 moveto
[ [(Helvetica) 140.0 0.0 true true 0 (2014-06-01 21:00)]
] -46.7 MRshow
grestore
1.000 UL
LTb
1474 1484 M
0 31 V
0 3357 R
0 -31 V
stroke
LTa
1596 1484 M
0 3388 V
stroke
LTb
1596 1484 M
0 63 V
0 3325 R
0 -63 V
stroke
1596 1400 M
currentpoint gsave translate 90 rotate 0 0 moveto
[ [(Helvetica) 140.0 0.0 true true 0 (2014-06-01 22:00)]
] -46.7 MRshow
grestore
1.000 UL
LTb
1719 1484 M
0 31 V
0 3357 R
0 -31 V
stroke
LTa
1842 1484 M
0 3388 V
stroke
LTb
1842 1484 M
0 63 V
0 3325 R
0 -63 V
stroke
1842 1400 M
currentpoint gsave translate 90 rotate 0 0 moveto
[ [(Helvetica) 140.0 0.0 true true 0 (2014-06-01 23:00)]
] -46.7 MRshow
grestore
1.000 UL
LTb
1964 1484 M
0 31 V
0 3357 R
0 -31 V
stroke
LTa
2087 1484 M
0 3388 V
stroke
LTb
2087 1484 M
0 63 V
0 3325 R
0 -63 V
stroke
2087 1400 M
currentpoint gsave translate 90 rotate 0 0 moveto
[ [(Helvetica) 140.0 0.0 true true 0 (2014-06-02 00:00)]
] -46.7 MRshow
grestore
1.000 UL
LTb
2209 1484 M
0 31 V
0 3357 R
0 -31 V
stroke
LTa
2332 1484 M
0 3388 V
stroke
LTb
2332 1484 M
0 63 V
0 3325 R
0 -63 V
stroke
2332 1400 M
currentpoint gsave translate 90 rotate 0 0 moveto
[ [(Helvetica) 140.0 0.0 true true 0 (2014-06-02 01:00)]
] -46.7 MRshow
grestore
1.000 UL
LTb
2454 1484 M
0 31 V
0 3357 R
0 -31 V
stroke
LTa
2577 1484 M
0 3388 V
stroke
LTb
2577 1484 M
0 63 V
0 3325 R
0 -63 V
stroke
2577 1400 M
currentpoint gsave translate 90 rotate 0 0 moveto
[ [(Helvetica) 140.0 0.0 true true 0 (2014-06-02 02:00)]
] -46.7 MRshow
grestore
1.000 UL
LTb
2700 1484 M
0 31 V
0 3357 R
0 -31 V
stroke
LTa
2822 1484 M
0 3388 V
stroke
LTb
2822 1484 M
0 63 V
0 3325 R
0 -63 V
stroke
2822 1400 M
currentpoint gsave translate 90 rotate 0 0 moveto
[ [(Helvetica) 140.0 0.0 true true 0 (2014-06-02 03:00)]
] -46.7 MRshow
grestore
1.000 UL
LTb
2945 1484 M
0 31 V
0 3357 R
0 -31 V
stroke
LTa
3067 1484 M
0 3388 V
stroke
LTb
3067 1484 M
0 63 V
0 3325 R
0 -63 V
stroke
3067 1400 M
currentpoint gsave translate 90 rotate 0 0 moveto
[ [(Helvetica) 140.0 0.0 true true 0 (2014-06-02 04:00)]
] -46.7 MRshow
grestore
1.000 UL
LTb
3190 1484 M
0 31 V
0 3357 R
0 -31 V
stroke
LTa
3313 1484 M
0 3388 V
stroke
LTb
3313 1484 M
0 63 V
0 3325 R
0 -63 V
stroke
3313 1400 M
currentpoint gsave translate 90 rotate 0 0 moveto
[ [(Helvetica) 140.0 0.0 true true 0 (2014-06-02 05:00)]
] -46.7 MRshow
grestore
1.000 UL
LTb
3435 1484 M
0 31 V
0 3357 R
0 -31 V
stroke
LTa
3558 1484 M
0 3388 V
stroke
LTb
3558 1484 M
0 63 V
0 3325 R
0 -63 V
stroke
3558 1400 M
currentpoint gsave translate 90 rotate 0 0 moveto
[ [(Helvetica) 140.0 0.0 true true 0 (2014-06-02 06:00)]
] -46.7 MRshow
grestore
1.000 UL
LTb
3680 1484 M
0 31 V
0 3357 R
0 -31 V
stroke
LTa
3803 1484 M
0 3388 V
stroke
LTb
3803 1484 M
0 63 V
0 3325 R
0 -63 V
stroke
3803 1400 M
currentpoint gsave translate 90 rotate 0 0 moveto
[ [(Helvetica) 140.0 0.0 true true 0 (2014-06-02 07:00)]
] -46.7 MRshow
grestore
1.000 UL
LTb
3925 1484 M
0 31 V
0 3357 R
0 -31 V
stroke
LTa
4048 1484 M
0 3388 V
stroke
LTb
4048 1484 M
0 63 V
0 3325 R
0 -63 V
stroke
4048 1400 M
currentpoint gsave translate 90 rotate 0 0 moveto
[ [(Helvetica) 140.0 0.0 true true 0 (2014-06-02 08:00)]
] -46.7 MRshow
grestore
1.000 UL
LTb
4171 1484 M
0 31 V
0 3357 R
0 -31 V
stroke
LTa
4293 1484 M
0 3388 V
stroke
LTb
4293 1484 M
0 63 V
0 3325 R
0 -63 V
stroke
4293 1400 M
currentpoint gsave translate 90 rotate 0 0 moveto
[ [(Helvetica) 140.0 0.0 true true 0 (2014-06-02 09:00)]
] -46.7 MRshow
grestore
1.000 UL
LTb
4416 1484 M
0 31 V
0 3357 R
0 -31 V
stroke
LTa
4538 1484 M
0 3388 V
stroke
LTb
4538 1484 M
0 63 V
0 3325 R
0 -63 V
stroke
4538 1400 M
currentpoint gsave translate 90 rotate 0 0 moveto
[ [(Helvetica) 140.0 0.0 true true 0 (2014-06-02 10:00)]
] -46.7 MRshow
grestore
1.000 UL
LTb
4661 1484 M
0 31 V
0 3357 R
0 -31 V
stroke
LTa
4784 1484 M
0 3388 V
stroke
LTb
4784 1484 M
0 63 V
0 3325 R
0 -63 V
stroke
4784 1400 M
currentpoint gsave translate 90 rotate 0 0 moveto
[ [(Helvetica) 140.0 0.0 true true 0 (2014-06-02 11:00)]
] -46.7 MRshow
grestore
1.000 UL
LTb
4906 1484 M
0 31 V
0 3357 R
0 -31 V
stroke
LTa
5029 1484 M
0 3388 V
stroke
LTb
5029 1484 M
0 63 V
0 3325 R
0 -63 V
stroke
5029 1400 M
currentpoint gsave translate 90 rotate 0 0 moveto
[ [(Helvetica) 140.0 0.0 true true 0 (2014-06-02 12:00)]
] -46.7 MRshow
grestore
1.000 UL
LTb
5151 1484 M
0 31 V
0 3357 R
0 -31 V
stroke
LTa
5274 1484 M
0 3388 V
stroke
LTb
5274 1484 M
0 63 V
0 3325 R
0 -63 V
stroke
5274 1400 M
currentpoint gsave translate 90 rotate 0 0 moveto
[ [(Helvetica) 140.0 0.0 true true 0 (2014-06-02 13:00)]
] -46.7 MRshow
grestore
1.000 UL
LTb
5396 1484 M
0 31 V
0 3357 R
0 -31 V
stroke
LTa
5519 1484 M
0 3388 V
stroke
LTb
5519 1484 M
0 63 V
0 3325 R
0 -63 V
stroke
5519 1400 M
currentpoint gsave translate 90 rotate 0 0 moveto
[ [(Helvetica) 140.0 0.0 true true 0 (2014-06-02 14:00)]
] -46.7 MRshow
grestore
1.000 UL
LTb
5642 1484 M
0 31 V
0 3357 R
0 -31 V
stroke
LTa
5764 1484 M
0 3185 V
0 140 R
0 63 V
stroke
LTb
5764 1484 M
0 63 V
0 3325 R
0 -63 V
stroke
5764 1400 M
currentpoint gsave translate 90 rotate 0 0 moveto
[ [(Helvetica) 140.0 0.0 true true 0 (2014-06-02 15:00)]
] -46.7 MRshow
grestore
1.000 UL
LTb
5887 1484 M
0 31 V
0 3357 R
0 -31 V
stroke
LTa
6009 1484 M
0 3185 V
0 140 R
0 63 V
stroke
LTb
6009 1484 M
0 63 V
0 3325 R
0 -63 V
stroke
6009 1400 M
currentpoint gsave translate 90 rotate 0 0 moveto
[ [(Helvetica) 140.0 0.0 true true 0 (2014-06-02 16:00)]
] -46.7 MRshow
grestore
1.000 UL
LTb
6132 1484 M
0 31 V
0 3357 R
0 -31 V
stroke
LTa
6255 1484 M
0 3185 V
0 140 R
0 63 V
stroke
LTb
6255 1484 M
0 63 V
0 3325 R
0 -63 V
stroke
6255 1400 M
currentpoint gsave translate 90 rotate 0 0 moveto
[ [(Helvetica) 140.0 0.0 true true 0 (2014-06-02 17:00)]
] -46.7 MRshow
grestore
1.000 UL
LTb
6377 1484 M
0 31 V
0 3357 R
0 -31 V
stroke
LTa
6500 1484 M
0 3185 V
0 140 R
0 63 V
stroke
LTb
6500 1484 M
0 63 V
0 3325 R
0 -63 V
stroke
6500 1400 M
currentpoint gsave translate 90 rotate 0 0 moveto
[ [(Helvetica) 140.0 0.0 true true 0 (2014-06-02 18:00)]
] -46.7 MRshow
grestore
1.000 UL
LTb
6622 1484 M
0 31 V
0 3357 R
0 -31 V
stroke
LTa
6745 1484 M
0 3185 V
0 140 R
0 63 V
stroke
LTb
6745 1484 M
0 63 V
0 3325 R
0 -63 V
stroke
6745 1400 M
currentpoint gsave translate 90 rotate 0 0 moveto
[ [(Helvetica) 140.0 0.0 true true 0 (2014-06-02 19:00)]
] -46.7 MRshow
grestore
1.000 UL
LTb
6867 1484 M
0 31 V
0 3357 R
0 -31 V
stroke
LTa
6990 1484 M
0 3388 V
stroke
LTb
6990 1484 M
0 63 V
0 3325 R
0 -63 V
stroke
6990 1400 M
currentpoint gsave translate 90 rotate 0 0 moveto
[ [(Helvetica) 140.0 0.0 true true 0 (2014-06-02 20:00)]
] -46.7 MRshow
grestore
1.000 UL
LTb
1.000 UL
LTb
1106 4872 N
0 -3388 V
5884 0 V
0 3388 V
-5884 0 V
Z stroke
LCb setrgbcolor
280 3178 M
currentpoint gsave translate 90 rotate 0 0 moveto
[ [(Helvetica) 140.0 0.0 true true 0 (ZIP code name)]
] -46.7 MCshow
grestore
LTb
1.000 UP
1.000 UL
LTb
1.000 UL
LTb
5583 4669 N
0 140 V
1323 0 V
0 -140 V
-1323 0 V
Z stroke
5583 4809 M
1323 0 V
1.000 UP
stroke
LT0
LTb
6339 4739 M
[ [(Helvetica) 140.0 0.0 true true 0 (Anomalies)]
] -46.7 MRshow
LT0
2.000 UP
5764 4466 Circle
1.000 UP
5519 4408 Circle
2.000 UP
6009 1847 Circle
1.000 UP
5274 2216 Circle
2.000 UP
6009 4385 Circle
2.000 UP
6009 4763 Circle
1.000 UP
5519 3131 Circle
1.000 UP
5274 4027 Circle
1.000 UP
5274 4027 Circle
2.000 UP
5519 3473 Circle
2.000 UP
5519 3168 Circle
3.000 UP
5764 3484 Circle
1.000 UP
5519 4126 Circle
2.000 UP
5519 3947 Circle
2.000 UP
5519 4368 Circle
1.000 UP
5519 1547 Circle
2.000 UP
5764 4610 Circle
3.000 UP
1596 4610 Circle
2.000 UP
5274 1691 Circle
1.000 UP
6009 3201 Circle
2.000 UP
5519 3746 Circle
6.000 UP
5274 4094 Circle
1.000 UP
5519 1546 Circle
1.000 UP
5274 2576 Circle
1.000 UP
5519 4808 Circle
2.000 UP
5519 4808 Circle
3.000 UP
5519 4808 Circle
1.000 UP
5274 1882 Circle
1.000 UP
5519 4561 Circle
2.000 UP
5274 3215 Circle
3.000 UP
5764 2147 Circle
1.000 UP
5764 4786 Circle
1.000 UP
5764 3517 Circle
2.000 UP
5274 3517 Circle
2.000 UP
5029 3957 Circle
1.000 UP
1351 4389 Circle
1.000 UP
5764 4325 Circle
1.000 UP
5274 4801 Circle
3.000 UP
5519 4557 Circle
1.000 UP
5274 3867 Circle
3.000 UP
5519 2479 Circle
2.000 UP
5519 2479 Circle
1.000 UP
6745 2479 Circle
1.000 UP
5519 2126 Circle
2.000 UP
5519 4500 Circle
1.000 UP
6745 2522 Circle
1.000 UP
5764 3499 Circle
1.000 UP
5274 2740 Circle
1.000 UP
6500 4222 Circle
1.000 UP
5764 4222 Circle
2.000 UP
6500 2743 Circle
1.000 UP
6745 2487 Circle
1.000 UP
5274 2847 Circle
1.000 UP
5519 4106 Circle
2.000 UP
5764 4867 Circle
2.000 UP
6500 2447 Circle
1.000 UP
5519 2447 Circle
1.000 UP
5519 2512 Circle
1.000 UP
5519 2512 Circle
1.000 UP
5274 2508 Circle
1.000 UP
5274 3980 Circle
2.000 UP
5274 4144 Circle
3.000 UP
5274 1736 Circle
1.000 UP
5274 2187 Circle
1.000 UP
5519 1556 Circle
1.000 UP
5519 1556 Circle
1.000 UP
5274 1876 Circle
1.000 UP
5274 1876 Circle
1.000 UP
5274 3619 Circle
1.000 UP
5764 4785 Circle
1.000 UP
5274 3992 Circle
2.000 UP
6009 3654 Circle
2.000 UP
5764 4807 Circle
1.000 UP
5519 3532 Circle
2.000 UP
5274 3620 Circle
2.000 UP
6990 3925 Circle
1.000 UP
5274 2792 Circle
1.000 UP
6745 3595 Circle
1.000 UP
6745 3112 Circle
1.000 UP
5274 2510 Circle
1.000 UP
5274 2471 Circle
1.000 UP
5274 2541 Circle
1.000 UP
5519 4730 Circle
1.000 UP
5519 4614 Circle
1.000 UP
6009 4762 Circle
1.000 UP
5274 4139 Circle
2.000 UP
5274 2821 Circle
2.000 UP
5519 1547 Circle
1.000 UP
5274 4093 Circle
1.000 UP
5274 3959 Circle
2.000 UP
5274 3959 Circle
2.000 UP
5519 3952 Circle
1.000 UP
5274 4064 Circle
1.000 UP
6990 2952 Circle
1.000 UP
5274 2576 Circle
1.000 UP
5274 2576 Circle
3.000 UP
5519 4557 Circle
1.000 UP
5519 4806 Circle
1.000 UP
5519 4808 Circle
1.000 UP
5274 3519 Circle
2.000 UP
5764 3519 Circle
2.000 UP
5274 3519 Circle
2.000 UP
5274 3519 Circle
1.000 UP
5274 2913 Circle
2.000 UP
6990 1897 Circle
2.000 UP
5274 1898 Circle
1.000 UP
5764 2724 Circle
1.000 UP
5274 3868 Circle
1.000 UP
5519 2723 Circle
2.000 UP
5764 4760 Circle
3.000 UP
5519 1623 Circle
1.000 UP
6990 2846 Circle
2.000 UP
5519 4185 Circle
1.000 UP
6745 2521 Circle
1.000 UP
5274 2672 Circle
2.000 UP
5519 4499 Circle
3.000 UP
5274 3352 Circle
2.000 UP
5274 2784 Circle
1.000 UP
5764 4656 Circle
1.000 UP
5519 1732 Circle
1.000 UP
6009 2003 Circle
2.000 UP
5274 3993 Circle
2.000 UP
5274 3941 Circle
1.000 UP
5274 3374 Circle
1.000 UP
5274 2593 Circle
1.000 UP
5764 4687 Circle
2.000 UP
5274 4145 Circle
2.000 UP
5519 3747 Circle
1.000 UP
5274 3532 Circle
1.000 UP
5274 3532 Circle
1.000 UP
5274 2982 Circle
2.000 UP
5519 3113 Circle
1.000 UP
6745 2891 Circle
1.000 UP
5764 2827 Circle
1.000 UP
2332 3759 Circle
1.000 UP
5519 3050 Circle
2.000 UP
5274 3926 Circle
2.000 UP
6745 3926 Circle
1.000 UP
5519 3051 Circle
1.000 UP
5764 1744 Circle
1.000 UP
5519 4364 Circle
2.000 UP
5519 2501 Circle
1.000 UP
5764 4067 Circle
1.000 UP
5519 2501 Circle
3.000 UP
5764 4710 Circle
2.000 UP
5274 3868 Circle
1.000 UP
5274 2436 Circle
1.000 UP
5764 4189 Circle
2.000 UP
5519 1548 Circle
1.000 UP
5274 3958 Circle
1.000 UP
5274 3688 Circle
1.000 UP
5764 4814 Circle
2.000 UP
6745 2820 Circle
1.000 UP
5274 1884 Circle
1.000 UP
5274 1884 Circle
3.000 UP
5274 3593 Circle
1.000 UP
5274 2190 Circle
1.000 UP
5274 1507 Circle
1.000 UP
6500 3167 Circle
1.000 UP
5274 2607 Circle
1.000 UP
5274 1888 Circle
1.000 UP
5519 2616 Circle
2.000 UP
5519 3288 Circle
1.000 UP
5274 1841 Circle
2.000 UP
5519 3324 Circle
1.000 UP
5519 1555 Circle
1.000 UP
5519 2841 Circle
1.000 UP
5274 3869 Circle
1.000 UP
5519 4388 Circle
1.000 UP
5274 2801 Circle
1.000 UP
5519 4388 Circle
1.000 UP
5029 2772 Circle
1.000 UP
5274 2772 Circle
1.000 UP
5274 2535 Circle
1.000 UP
5519 3050 Circle
1.000 UP
5519 3173 Circle
3.000 UP
5519 3765 Circle
1.000 UP
5519 3722 Circle
2.000 UP
5274 4146 Circle
2.000 UP
5274 2672 Circle
1.000 UP
5274 2807 Circle
2.000 UP
6990 2807 Circle
1.000 UP
5274 2807 Circle
1.000 UP
5519 1556 Circle
1.000 UP
5274 3533 Circle
2.000 UP
5519 4376 Circle
1.000 UP
5274 3399 Circle
1.000 UP
5764 3423 Circle
1.000 UP
6745 2944 Circle
1.000 UP
6500 4673 Circle
1.000 UP
6009 4304 Circle
2.000 UP
5519 4024 Circle
1.000 UP
5519 1566 Circle
1.000 UP
5274 2991 Circle
2.000 UP
5519 2626 Circle
3.000 UP
5519 2626 Circle
1.000 UP
5519 2823 Circle
3.000 UP
5274 3363 Circle
1.000 UP
5274 2502 Circle
1.000 UP
5519 3727 Circle
3.000 UP
5519 3991 Circle
1.000 UP
5519 3107 Circle
1.000 UP
5274 2779 Circle
2.000 UP
5519 2779 Circle
2.000 UP
5274 2565 Circle
1.000 UP
5274 3958 Circle
1.000 UP
5274 3958 Circle
1.000 UP
5274 2128 Circle
3.000 UP
5029 2028 Circle
2.000 UP
5764 3679 Circle
2.000 UP
5519 3678 Circle
1.000 UP
5274 1515 Circle
2.000 UP
5274 1515 Circle
2.000 UP
5519 4174 Circle
1.000 UP
5519 4385 Circle
1.000 UP
5519 1559 Circle
2.000 UP
5274 4009 Circle
1.000 UP
5274 4082 Circle
1.000 UP
5519 4808 Circle
1.000 UP
5274 3537 Circle
1.000 UP
5519 3287 Circle
1.000 UP
6990 3287 Circle
1.000 UP
6745 4114 Circle
1.000 UP
6745 3153 Circle
1.000 UP
5029 2706 Circle
1.000 UP
6009 4356 Circle
1.000 UP
6500 3021 Circle
1.000 UP
5519 4113 Circle
1.000 UP
5519 2633 Circle
1.000 UP
5519 4186 Circle
1.000 UP
5519 4501 Circle
1.000 UP
5519 3097 Circle
1.000 UP
6745 3350 Circle
1.000 UP
5764 3212 Circle
2.000 UP
5519 1558 Circle
1.000 UP
5519 1782 Circle
1.000 UP
5519 3396 Circle
3.000 UP
5274 3517 Circle
1.000 UP
5274 2234 Circle
1.000 UP
5274 2243 Circle
1.000 UP
5519 4809 Circle
1.000 UP
5519 4108 Circle
1.000 UP
5274 2992 Circle
1.000 UP
5519 2945 Circle
1.000 UP
5519 4578 Circle
2.000 UP
6745 2945 Circle
2.000 UP
5519 4650 Circle
1.000 UP
5519 3080 Circle
2.000 UP
5519 4811 Circle
1.000 UP
5519 4811 Circle
1.000 UP
5764 4811 Circle
2.000 UP
5764 3522 Circle
1.000 UP
5519 3025 Circle
1.000 UP
5274 4020 Circle
1.000 UP
5519 4208 Circle
2.000 UP
5519 3112 Circle
2.000 UP
5519 1839 Circle
2.000 UP
5274 4139 Circle
2.000 UP
6745 2508 Circle
4.000 UP
3067 1682 Circle
2.000 UP
6500 2622 Circle
2.000 UP
5274 2452 Circle
1.000 UP
5519 4121 Circle
1.000 UP
5764 4068 Circle
2.000 UP
5764 4628 Circle
1.000 UP
5274 3976 Circle
3.000 UP
5274 1864 Circle
2.000 UP
5274 2601 Circle
1.000 UP
5519 2601 Circle
2.000 UP
5764 4535 Circle
1.000 UP
6990 2803 Circle
1.000 UP
5274 3884 Circle
3.000 UP
5764 4068 Circle
1.000 UP
5764 3055 Circle
1.000 UP
5274 3393 Circle
1.000 UP
5274 4140 Circle
1.000 UP
5519 1833 Circle
2.000 UP
5764 4605 Circle
1.000 UP
5274 3390 Circle
2.000 UP
5274 4020 Circle
1.000 UP
5519 3075 Circle
2.000 UP
5519 3954 Circle
1.000 UP
5519 1670 Circle
1.000 UP
5764 4169 Circle
1.000 UP
5764 4806 Circle
1.000 UP
5274 3338 Circle
1.000 UP
5519 2634 Circle
1.000 UP
5274 4144 Circle
1.000 UP
5519 2198 Circle
1.000 UP
5274 2976 Circle
1.000 UP
6009 2016 Circle
1.000 UP
5274 3139 Circle
1.000 UP
5764 4605 Circle
1.000 UP
5764 4605 Circle
1.000 UP
5519 1550 Circle
1.000 UP
5764 1783 Circle
2.000 UP
5274 2809 Circle
2.000 UP
5519 3112 Circle
1.000 UP
5519 2616 Circle
2.000 UP
5764 3569 Circle
1.000 UP
5519 3707 Circle
1.000 UP
5274 1703 Circle
1.000 UP
5519 2240 Circle
1.000 UP
5274 2593 Circle
1.000 UP
5519 2063 Circle
3.000 UP
5519 4812 Circle
3.000 UP
5274 3523 Circle
3.000 UP
5274 3523 Circle
1.000 UP
5274 1508 Circle
1.000 UP
5274 3997 Circle
1.000 UP
5519 4376 Circle
1.000 UP
5519 2167 Circle
1.000 UP
6009 2167 Circle
2.000 UP
5274 4128 Circle
3.000 UP
5764 4719 Circle
1.000 UP
5519 4209 Circle
1.000 UP
5274 4209 Circle
2.000 UP
6990 3877 Circle
2.000 UP
6745 2739 Circle
1.000 UP
5274 2508 Circle
1.000 UP
5519 3108 Circle
1.000 UP
5519 2644 Circle
1.000 UP
5764 3924 Circle
1.000 UP
5274 3983 Circle
1.000 UP
5274 3983 Circle
1.000 UP
5519 2097 Circle
1.000 UP
5519 2097 Circle
2.000 UP
5519 2098 Circle
1.000 UP
5764 4578 Circle
1.000 UP
5519 2503 Circle
1.000 UP
5274 4096 Circle
1.000 UP
6009 3467 Circle
1.000 UP
5274 3974 Circle
1.000 UP
5274 4096 Circle
2.000 UP
5274 3974 Circle
1.000 UP
5764 4516 Circle
1.000 UP
5274 2447 Circle
2.000 UP
5519 1745 Circle
1.000 UP
5519 2130 Circle
1.000 UP
5519 4149 Circle
2.000 UP
5274 2341 Circle
1.000 UP
5519 3231 Circle
1.000 UP
5764 4701 Circle
2.000 UP
5274 4156 Circle
1.000 UP
5274 4157 Circle
1.000 UP
5519 2512 Circle
3.000 UP
5519 4010 Circle
2.000 UP
5029 1690 Circle
1.000 UP
6500 3076 Circle
1.000 UP
2087 3342 Circle
3.000 UP
5519 2616 Circle
1.000 UP
5519 4250 Circle
1.000 UP
5274 4251 Circle
2.000 UP
5274 4250 Circle
2.000 UP
5274 2607 Circle
1.000 UP
5764 4671 Circle
1.000 UP
5519 4383 Circle
2.000 UP
5274 2787 Circle
1.000 UP
5274 3858 Circle
1.000 UP
5519 2618 Circle
2.000 UP
5519 2618 Circle
3.000 UP
5764 4706 Circle
2.000 UP
5274 3538 Circle
1.000 UP
5519 3538 Circle
1.000 UP
5764 4571 Circle
1.000 UP
5519 2523 Circle
2.000 UP
5764 4813 Circle
2.000 UP
5274 4129 Circle
1.000 UP
2087 4129 Circle
2.000 UP
5274 4077 Circle
3.000 UP
5274 4077 Circle
1.000 UP
5274 4077 Circle
1.000 UP
5274 4077 Circle
1.000 UP
5519 2519 Circle
3.000 UP
2577 4714 Circle
1.000 UP
5764 4605 Circle
2.000 UP
5519 3653 Circle
2.000 UP
5519 4107 Circle
1.000 UP
5519 2965 Circle
2.000 UP
5519 2585 Circle
1.000 UP
5519 3371 Circle
2.000 UP
5519 4805 Circle
1.000 UP
5519 4805 Circle
1.000 UP
5274 1871 Circle
1.000 UP
5519 4365 Circle
1.000 UP
5764 4813 Circle
1.000 UP
5274 1509 Circle
2.000 UP
5274 1509 Circle
1.000 UP
5029 1509 Circle
1.000 UP
5764 4778 Circle
2.000 UP
5764 3613 Circle
2.000 UP
5519 4225 Circle
2.000 UP
5274 4225 Circle
2.000 UP
5274 4226 Circle
1.000 UP
5519 2869 Circle
1.000 UP
6745 2874 Circle
1.000 UP
5274 2851 Circle
1.000 UP
5274 2305 Circle
2.000 UP
5274 2451 Circle
1.000 UP
5519 2510 Circle
1.000 UP
5274 4060 Circle
1.000 UP
5519 4163 Circle
1.000 UP
5764 4707 Circle
1.000 UP
5764 4827 Circle
2.000 UP
5519 2504 Circle
1.000 UP
5519 3088 Circle
1.000 UP
4784 3088 Circle
1.000 UP
5519 3983 Circle
1.000 UP
6990 2279 Circle
1.000 UP
5519 2279 Circle
1.000 UP
5274 2809 Circle
1.000 UP
5274 3972 Circle
1.000 UP
5274 2442 Circle
1.000 UP
5519 2580 Circle
1.000 UP
5519 2579 Circle
1.000 UP
5029 1689 Circle
1.000 UP
5274 1689 Circle
1.000 UP
5519 1855 Circle
2.000 UP
5764 1855 Circle
2.000 UP
6745 2739 Circle
1.000 UP
5519 2943 Circle
1.000 UP
5274 4239 Circle
1.000 UP
6009 4239 Circle
1.000 UP
5519 3051 Circle
1.000 UP
5274 4045 Circle
1.000 UP
5764 1542 Circle
1.000 UP
5274 3417 Circle
1.000 UP
5274 3858 Circle
2.000 UP
5274 1889 Circle
2.000 UP
5764 4824 Circle
1.000 UP
5764 4824 Circle
3.000 UP
5274 3538 Circle
1.000 UP
5274 3538 Circle
1.000 UP
6745 3340 Circle
1.000 UP
2332 4144 Circle
1.000 UP
5274 2831 Circle
1.000 UP
5274 3342 Circle
1.000 UP
5519 3003 Circle
1.000 UP
5764 4409 Circle
1.000 UP
5764 4078 Circle
2.000 UP
5274 2816 Circle
2.000 UP
6990 2816 Circle
2.000 UP
5274 2816 Circle
1.000 UP
5029 1708 Circle
2.000 UP
5274 3563 Circle
1.000 UP
5519 4106 Circle
2.000 UP
6500 4433 Circle
1.000 UP
5519 4106 Circle
1.000 UP
6990 2458 Circle
2.000 UP
5274 4643 Circle
1.000 UP
5519 2133 Circle
2.000 UP
5764 4649 Circle
1.000 UP
5519 1739 Circle
2.000 UP
5274 2595 Circle
1.000 UP
5764 3521 Circle
2.000 UP
5274 2711 Circle
2.000 UP
5519 4804 Circle
2.000 UP
5519 4845 Circle
3.000 UP
5764 4666 Circle
1.000 UP
5764 4715 Circle
2.000 UP
5519 4813 Circle
3.000 UP
5764 4777 Circle
1.000 UP
5274 3880 Circle
1.000 UP
5274 3622 Circle
1.000 UP
5274 3622 Circle
1.000 UP
5519 3015 Circle
1.000 UP
5519 3614 Circle
3.000 UP
5764 4715 Circle
1.000 UP
6990 3451 Circle
1.000 UP
5274 3962 Circle
1.000 UP
5274 4028 Circle
1.000 UP
6990 4231 Circle
2.000 UP
5274 3593 Circle
2.000 UP
5519 2643 Circle
1.000 UP
5764 2509 Circle
1.000 UP
5764 2675 Circle
3.000 UP
5519 1724 Circle
1.000 UP
5519 1724 Circle
2.000 UP
5274 4061 Circle
3.000 UP
5519 3761 Circle
2.000 UP
5519 3761 Circle
1.000 UP
5764 4602 Circle
1.000 UP
5764 3087 Circle
1.000 UP
6009 1994 Circle
1.000 UP
5519 2487 Circle
4.000 UP
5519 4813 Circle
1.000 UP
5274 3960 Circle
2.000 UP
5274 2811 Circle
1.000 UP
5519 3878 Circle
1.000 UP
5274 2811 Circle
2.000 UP
5274 4071 Circle
1.000 UP
5519 4842 Circle
1.000 UP
5519 4113 Circle
1.000 UP
6990 4059 Circle
2.000 UP
5764 4604 Circle
2.000 UP
5519 4669 Circle
1.000 UP
5519 4047 Circle
1.000 UP
5764 4542 Circle
1.000 UP
5519 4682 Circle
1.000 UP
5519 4203 Circle
1.000 UP
5519 2722 Circle
1.000 UP
5519 3951 Circle
2.000 UP
5764 4071 Circle
1.000 UP
5274 4372 Circle
2.000 UP
5519 2636 Circle
1.000 UP
6500 2636 Circle
1.000 UP
5764 2636 Circle
2.000 UP
5274 3399 Circle
2.000 UP
5519 1746 Circle
1.000 UP
5274 1857 Circle
1.000 UP
5519 4436 Circle
1.000 UP
5764 1704 Circle
1.000 UP
5274 1704 Circle
3.000 UP
5519 2948 Circle
1.000 UP
5519 2948 Circle
1.000 UP
5274 1869 Circle
1.000 UP
5274 2596 Circle
2.000 UP
5274 4032 Circle
1.000 UP
5519 4364 Circle
2.000 UP
5519 2345 Circle
1.000 UP
5519 3045 Circle
2.000 UP
5274 2908 Circle
1.000 UP
5519 3045 Circle
2.000 UP
5519 3254 Circle
1.000 UP
5764 4772 Circle
1.000 UP
5274 4612 Circle
1.000 UP
5764 4666 Circle
1.000 UP
5519 3578 Circle
1.000 UP
6745 2871 Circle
2.000 UP
5764 4535 Circle
1.000 UP
5764 4332 Circle
1.000 UP
5274 2604 Circle
3.000 UP
5274 3284 Circle
1.000 UP
5519 2998 Circle
1.000 UP
5274 1961 Circle
3.000 UP
5519 4006 Circle
3.000 UP
5519 3895 Circle
2.000 UP
5764 4209 Circle
2.000 UP
5274 2797 Circle
1.000 UP
5519 2518 Circle
1.000 UP
5519 3371 Circle
1.000 UP
5274 1723 Circle
1.000 UP
5274 2447 Circle
2.000 UP
5519 1753 Circle
1.000 UP
5274 2423 Circle
1.000 UP
5274 4065 Circle
3.000 UP
5519 2488 Circle
1.000 UP
5029 4016 Circle
1.000 UP
2087 3940 Circle
1.000 UP
5519 2751 Circle
2.000 UP
5519 4809 Circle
1.000 UP
5519 4612 Circle
1.000 UP
5274 2810 Circle
2.000 UP
5764 4185 Circle
1.000 UP
5519 4622 Circle
3.000 UP
5519 4020 Circle
1.000 UP
5764 4687 Circle
1.000 UP
5764 3698 Circle
1.000 UP
5764 2942 Circle
1.000 UP
2087 2942 Circle
1.000 UP
5519 4500 Circle
1.000 UP
5519 4543 Circle
1.000 UP
5519 4373 Circle
2.000 UP
5519 4373 Circle
1.000 UP
5519 4373 Circle
1.000 UP
5519 2751 Circle
1.000 UP
5764 4535 Circle
2.000 UP
5519 4195 Circle
1.000 UP
5519 4195 Circle
1.000 UP
5519 4195 Circle
2.000 UP
5519 3114 Circle
2.000 UP
5764 4710 Circle
1.000 UP
5519 4843 Circle
1.000 UP
5764 4843 Circle
1.000 UP
5519 1777 Circle
2.000 UP
5764 4728 Circle
2.000 UP
5274 4135 Circle
1.000 UP
5519 2617 Circle
2.000 UP
5274 4082 Circle
1.000 UP
5029 2765 Circle
1.000 UP
5274 2763 Circle
1.000 UP
6745 2651 Circle
1.000 UP
3067 1587 Circle
2.000 UP
5764 4172 Circle
2.000 UP
5519 3945 Circle
1.000 UP
5029 3961 Circle
2.000 UP
5519 4504 Circle
1.000 UP
5519 2199 Circle
1.000 UP
5274 2155 Circle
2.000 UP
6009 4860 Circle
3.000 UP
5764 2374 Circle
1.000 UP
5519 4592 Circle
2.000 UP
5274 4030 Circle
1.000 UP
5274 4034 Circle
3.000 UP
5274 4069 Circle
1.000 UP
5519 3903 Circle
1.000 UP
5764 3461 Circle
1.000 UP
5274 4432 Circle
1.000 UP
5519 2724 Circle
1.000 UP
5519 1722 Circle
1.000 UP
5274 3334 Circle
2.000 UP
6745 3873 Circle
1.000 UP
5274 3857 Circle
1.000 UP
6500 2481 Circle
1.000 UP
6990 3986 Circle
1.000 UP
5274 2674 Circle
2.000 UP
5764 4174 Circle
3.000 UP
5519 2584 Circle
1.000 UP
5764 4630 Circle
1.000 UP
5519 4613 Circle
1.000 UP
5519 2589 Circle
1.000 UP
5519 3680 Circle
2.000 UP
5274 4138 Circle
2.000 UP
5519 4817 Circle
2.000 UP
5274 3623 Circle
2.000 UP
5519 4823 Circle
1.000 UP
5519 3898 Circle
1.000 UP
5519 4012 Circle
1.000 UP
5764 4629 Circle
1.000 UP
6745 4373 Circle
2.000 UP
5274 2740 Circle
2.000 UP
5519 4212 Circle
1.000 UP
5519 3034 Circle
1.000 UP
6500 3034 Circle
1.000 UP
6745 3902 Circle
2.000 UP
5764 4727 Circle
3.000 UP
5519 4561 Circle
1.000 UP
5274 2607 Circle
1.000 UP
5519 2616 Circle
1.000 UP
5519 2616 Circle
1.000 UP
5519 4013 Circle
2.000 UP
5274 4146 Circle
2.000 UP
5274 3349 Circle
1.000 UP
5519 3104 Circle
1.000 UP
5519 4230 Circle
1.000 UP
5519 4104 Circle
1.000 UP
5764 4599 Circle
1.000 UP
6009 4305 Circle
2.000 UP
5764 4706 Circle
1.000 UP
5519 3946 Circle
1.000 UP
5274 2776 Circle
1.000 UP
5274 3962 Circle
2.000 UP
5029 3962 Circle
1.000 UP
5519 4503 Circle
1.000 UP
5519 2132 Circle
1.000 UP
5764 4704 Circle
1.000 UP
5274 3360 Circle
1.000 UP
6745 2977 Circle
1.000 UP
6745 3285 Circle
2.000 UP
5519 4806 Circle
1.000 UP
5274 1535 Circle
4.000 UP
5764 3523 Circle
1.000 UP
5764 4574 Circle
2.000 UP
5029 4033 Circle
1.000 UP
5274 4033 Circle
1.000 UP
5274 4033 Circle
1.000 UP
5764 2962 Circle
1.000 UP
5764 4690 Circle
3.000 UP
5519 4557 Circle
2.000 UP
5274 1966 Circle
2.000 UP
5274 1966 Circle
1.000 UP
6745 2498 Circle
1.000 UP
6745 4040 Circle
3.000 UP
5519 1622 Circle
1.000 UP
5029 4060 Circle
3.000 UP
5519 4672 Circle
1.000 UP
5274 3985 Circle
1.000 UP
5274 1713 Circle
1.000 UP
5519 2659 Circle
1.000 UP
5519 4614 Circle
3.000 UP
5519 3724 Circle
2.000 UP
5519 3724 Circle
2.000 UP
5764 3566 Circle
1.000 UP
5519 3995 Circle
1.000 UP
5519 4199 Circle
2.000 UP
5519 4806 Circle
1.000 UP
5519 2804 Circle
1.000 UP
1596 4823 Circle
1.000 UP
5764 3381 Circle
2.000 UP
5519 4021 Circle
1.000 UP
5274 4093 Circle
1.000 UP
5519 4372 Circle
1.000 UP
5519 3976 Circle
1.000 UP
5519 2068 Circle
2.000 UP
5519 4211 Circle
3.000 UP
5274 4002 Circle
1.000 UP
5274 4016 Circle
1.000 UP
5519 3032 Circle
1.000 UP
5274 4134 Circle
1.000 UP
5274 4134 Circle
1.000 UP
5274 3870 Circle
1.000 UP
5274 3870 Circle
1.000 UP
5274 3870 Circle
2.000 UP
5274 3631 Circle
1.000 UP
4293 2298 Circle
1.000 UP
6745 3475 Circle
1.000 UP
5519 2197 Circle
1.000 UP
5519 2506 Circle
2.000 UP
5764 4069 Circle
1.000 UP
5274 2856 Circle
2.000 UP
5519 4103 Circle
3.000 UP
5274 2025 Circle
1.000 UP
1596 2525 Circle
2.000 UP
6745 2652 Circle
1.000 UP
5519 3086 Circle
1.000 UP
5274 3167 Circle
1.000 UP
1351 3349 Circle
1.000 UP
5519 4671 Circle
3.000 UP
5519 4107 Circle
3.000 UP
5274 2000 Circle
2.000 UP
5764 4088 Circle
2.000 UP
5519 4006 Circle
4.000 UP
5519 4862 Circle
3.000 UP
5274 1718 Circle
1.000 UP
5764 3497 Circle
1.000 UP
6009 2037 Circle
2.000 UP
5519 2197 Circle
2.000 UP
6500 2972 Circle
2.000 UP
5519 4236 Circle
3.000 UP
5274 4003 Circle
1.000 UP
5519 4811 Circle
2.000 UP
5519 4811 Circle
2.000 UP
5274 2846 Circle
1.000 UP
5519 3284 Circle
2.000 UP
5764 4866 Circle
1.000 UP
5519 2062 Circle
1.000 UP
5764 2718 Circle
2.000 UP
5274 3524 Circle
2.000 UP
5519 3453 Circle
1.000 UP
5519 2102 Circle
3.000 UP
5519 2162 Circle
2.000 UP
5519 4313 Circle
2.000 UP
5519 4364 Circle
2.000 UP
5519 1780 Circle
1.000 UP
5519 4614 Circle
1.000 UP
6745 4614 Circle
1.000 UP
5519 4643 Circle
1.000 UP
5519 2482 Circle
1.000 UP
5274 3267 Circle
1.000 UP
5764 4707 Circle
2.000 UP
5764 4707 Circle
1.000 UP
5519 3894 Circle
1.000 UP
5519 2669 Circle
1.000 UP
5274 3341 Circle
2.000 UP
6745 3341 Circle
2.000 UP
5274 3936 Circle
2.000 UP
5519 2582 Circle
1.000 UP
5519 2583 Circle
1.000 UP
5519 2583 Circle
2.000 UP
5764 4816 Circle
2.000 UP
5519 1552 Circle
2.000 UP
5519 4636 Circle
1.000 UP
5274 3976 Circle
1.000 UP
5764 3711 Circle
3.000 UP
5274 1511 Circle
1.000 UP
5764 4371 Circle
1.000 UP
5519 2623 Circle
1.000 UP
5519 3056 Circle
1.000 UP
5519 3047 Circle
1.000 UP
5519 3047 Circle
1.000 UP
5519 4065 Circle
2.000 UP
6745 2915 Circle
3.000 UP
5274 4003 Circle
1.000 UP
5519 4618 Circle
2.000 UP
5764 3631 Circle
1.000 UP
5274 3871 Circle
2.000 UP
5274 3871 Circle
1.000 UP
5519 3084 Circle
1.000 UP
5519 3098 Circle
1.000 UP
5764 3918 Circle
1.000 UP
5274 4051 Circle
1.000 UP
5764 4629 Circle
1.000 UP
5519 3722 Circle
1.000 UP
5274 2766 Circle
2.000 UP
5274 4593 Circle
1.000 UP
5274 3586 Circle
2.000 UP
6745 2990 Circle
1.000 UP
5274 2548 Circle
1.000 UP
5274 1582 Circle
2.000 UP
5764 4865 Circle
1.000 UP
5274 2358 Circle
1.000 UP
5764 4088 Circle
3.000 UP
5519 2000 Circle
1.000 UP
5274 2000 Circle
1.000 UP
5274 3963 Circle
2.000 UP
5274 3170 Circle
1.000 UP
5519 4591 Circle
3.000 UP
5274 2575 Circle
1.000 UP
5764 4706 Circle
1.000 UP
6500 4132 Circle
1.000 UP
5274 3623 Circle
1.000 UP
5764 4192 Circle
1.000 UP
5519 4192 Circle
1.000 UP
5274 1881 Circle
2.000 UP
5519 3284 Circle
1.000 UP
5274 2188 Circle
1.000 UP
4784 1506 Circle
1.000 UP
5274 3958 Circle
1.000 UP
5519 4503 Circle
1.000 UP
5274 2613 Circle
1.000 UP
5274 2613 Circle
1.000 UP
5274 2613 Circle
1.000 UP
5274 2613 Circle
1.000 UP
5274 4443 Circle
1.000 UP
5274 3706 Circle
1.000 UP
5519 4541 Circle
1.000 UP
5274 3858 Circle
1.000 UP
5519 2482 Circle
2.000 UP
5274 4140 Circle
2.000 UP
6990 3317 Circle
1.000 UP
5274 4063 Circle
1.000 UP
5274 4063 Circle
1.000 UP
5274 2819 Circle
3.000 UP
5274 1691 Circle
2.000 UP
5274 2582 Circle
2.000 UP
5029 2782 Circle
1.000 UP
5029 2438 Circle
3.000 UP
5274 3392 Circle
1.000 UP
5519 4811 Circle
1.000 UP
5274 3535 Circle
3.000 UP
5519 4371 Circle
1.000 UP
5274 3048 Circle
1.000 UP
5274 3936 Circle
1.000 UP
5274 3936 Circle
1.000 UP
5764 4842 Circle
1.000 UP
5274 1825 Circle
1.000 UP
6009 2733 Circle
3.000 UP
5274 2607 Circle
1.000 UP
5274 2606 Circle
1.000 UP
5519 3013 Circle
2.000 UP
5519 3117 Circle
2.000 UP
5519 3117 Circle
1.000 UP
6745 1773 Circle
1.000 UP
5274 1979 Circle
1.000 UP
5764 4165 Circle
1.000 UP
5274 2794 Circle
3.000 UP
5274 3872 Circle
1.000 UP
6990 4364 Circle
1.000 UP
5519 4364 Circle
1.000 UP
5519 4147 Circle
1.000 UP
5274 2416 Circle
1.000 UP
5274 3776 Circle
1.000 UP
5519 4714 Circle
2.000 UP
5519 3744 Circle
2.000 UP
5274 3082 Circle
1.000 UP
5519 3949 Circle
1.000 UP
6009 3669 Circle
2.000 UP
5274 2703 Circle
2.000 UP
6990 2813 Circle
1.000 UP
5274 2813 Circle
1.000 UP
5519 4399 Circle
2.000 UP
1106 2695 Circle
1.000 UP
5519 2575 Circle
2.000 UP
5764 3553 Circle
1.000 UP
5519 4216 Circle
1.000 UP
5519 3550 Circle
2.000 UP
5029 2000 Circle
2.000 UP
5519 3951 Circle
1.000 UP
6745 4117 Circle
1.000 UP
5764 4719 Circle
3.000 UP
5274 3362 Circle
1.000 UP
5764 3603 Circle
1.000 UP
5519 2060 Circle
1.000 UP
5274 1505 Circle
1.000 UP
5519 4199 Circle
1.000 UP
5519 3118 Circle
1.000 UP
6990 4129 Circle
1.000 UP
5274 3328 Circle
2.000 UP
5274 3329 Circle
2.000 UP
5274 1841 Circle
3.000 UP
5764 4861 Circle
2.000 UP
5274 1841 Circle
3.000 UP
5764 4861 Circle
1.000 UP
5274 2477 Circle
1.000 UP
5519 2477 Circle
3.000 UP
5274 2612 Circle
1.000 UP
6500 2511 Circle
1.000 UP
5519 2511 Circle
3.000 UP
5764 4716 Circle
1.000 UP
5274 2443 Circle
1.000 UP
5274 4063 Circle
2.000 UP
5274 2774 Circle
1.000 UP
6745 2438 Circle
1.000 UP
5519 3287 Circle
1.000 UP
5519 2659 Circle
1.000 UP
5274 2677 Circle
1.000 UP
5274 2677 Circle
1.000 UP
5274 1875 Circle
1.000 UP
5519 1556 Circle
2.000 UP
5519 1556 Circle
2.000 UP
5519 2197 Circle
1.000 UP
5519 4057 Circle
1.000 UP
5764 1571 Circle
2.000 UP
5764 2732 Circle
2.000 UP
5274 3620 Circle
1.000 UP
5274 3620 Circle
1.000 UP
5274 3927 Circle
1.000 UP
6500 4735 Circle
1.000 UP
5274 2989 Circle
1.000 UP
5519 3878 Circle
1.000 UP
5764 2516 Circle
1.000 UP
5519 3762 Circle
1.000 UP
5274 2793 Circle
2.000 UP
5519 2095 Circle
2.000 UP
5519 2631 Circle
1.000 UP
5519 2619 Circle
1.000 UP
5519 4150 Circle
1.000 UP
5274 3080 Circle
1.000 UP
5274 2418 Circle
1.000 UP
5519 1772 Circle
1.000 UP
5519 1751 Circle
2.000 UP
5274 1743 Circle
1.000 UP
5519 1743 Circle
1.000 UP
5519 3738 Circle
1.000 UP
6009 2359 Circle
1.000 UP
5519 4023 Circle
1.000 UP
5274 4023 Circle
2.000 UP
5274 3974 Circle
2.000 UP
5274 3948 Circle
2.000 UP
5274 2813 Circle
2.000 UP
5764 4164 Circle
1.000 UP
5764 2696 Circle
1.000 UP
5274 2152 Circle
1.000 UP
5764 3548 Circle
1.000 UP
5764 3548 Circle
3.000 UP
5764 3548 Circle
2.000 UP
5764 4689 Circle
1.000 UP
5274 3695 Circle
1.000 UP
5274 3373 Circle
2.000 UP
5274 1538 Circle
2.000 UP
5274 4145 Circle
2.000 UP
5274 1517 Circle
2.000 UP
5274 1517 Circle
1.000 UP
5274 1517 Circle
1.000 UP
5274 4113 Circle
1.000 UP
5519 2187 Circle
1.000 UP
5274 1507 Circle
1.000 UP
5519 4198 Circle
1.000 UP
6990 3877 Circle
1.000 UP
5519 2479 Circle
1.000 UP
1842 4222 Circle
1.000 UP
5519 4019 Circle
1.000 UP
5519 4374 Circle
1.000 UP
5764 4571 Circle
1.000 UP
5519 1754 Circle
2.000 UP
5519 2513 Circle
2.000 UP
5764 4701 Circle
1.000 UP
5274 3979 Circle
3.000 UP
5764 2553 Circle
2.000 UP
5274 2677 Circle
1.000 UP
5764 4742 Circle
1.000 UP
5274 2677 Circle
1.000 UP
5274 4064 Circle
1.000 UP
5764 1736 Circle
3.000 UP
5519 3991 Circle
1.000 UP
5519 3991 Circle
2.000 UP
5519 3047 Circle
1.000 UP
5519 3424 Circle
2.000 UP
5764 3424 Circle
2.000 UP
5519 3673 Circle
2.000 UP
5274 3620 Circle
1.000 UP
5764 4731 Circle
1.000 UP
5274 3632 Circle
1.000 UP
5274 1581 Circle
1.000 UP
5519 4334 Circle
1.000 UP
5274 3962 Circle
1.000 UP
5274 4027 Circle
2.000 UP
5764 4832 Circle
1.000 UP
5274 3860 Circle
1.000 UP
5029 3860 Circle
2.000 UP
5519 3899 Circle
1.000 UP
5274 2793 Circle
3.000 UP
5764 4862 Circle
1.000 UP
6745 2514 Circle
1.000 UP
5274 2983 Circle
3.000 UP
5519 3915 Circle
1.000 UP
5764 4173 Circle
1.000 UP
5519 1744 Circle
2.000 UP
2087 2470 Circle
2.000 UP
5519 4178 Circle
1.000 UP
5764 4710 Circle
3.000 UP
5274 3273 Circle
2.000 UP
1106 3273 Circle
1.000 UP
5519 4557 Circle
1.000 UP
5029 2384 Circle
2.000 UP
5519 2230 Circle
1.000 UP
5029 3959 Circle
2.000 UP
5274 2577 Circle
3.000 UP
5764 4666 Circle
1.000 UP
5274 2577 Circle
1.000 UP
1351 3319 Circle
2.000 UP
5764 3319 Circle
2.000 UP
5519 4808 Circle
1.000 UP
5764 4819 Circle
1.000 UP
5519 4560 Circle
1.000 UP
5519 4561 Circle
1.000 UP
5274 3056 Circle
3.000 UP
5274 3993 Circle
1.000 UP
5029 1506 Circle
2.000 UP
5519 3653 Circle
1.000 UP
5274 4141 Circle
4.000 UP
5519 3118 Circle
2.000 UP
5274 3958 Circle
1.000 UP
5274 3958 Circle
4.000 UP
5274 1840 Circle
1.000 UP
5519 4222 Circle
2.000 UP
5764 4412 Circle
1.000 UP
5519 4593 Circle
1.000 UP
5274 1765 Circle
3.000 UP
5519 3764 Circle
1.000 UP
5519 4533 Circle
1.000 UP
5274 2315 Circle
1.000 UP
5274 1860 Circle
1.000 UP
6745 2512 Circle
3.000 UP
5519 2512 Circle
1.000 UP
5519 4500 Circle
1.000 UP
5519 4500 Circle
2.000 UP
6990 2784 Circle
1.000 UP
5274 1715 Circle
2.000 UP
5519 3992 Circle
1.000 UP
5519 3992 Circle
1.000 UP
5764 4775 Circle
1.000 UP
5764 4701 Circle
1.000 UP
5764 4598 Circle
1.000 UP
6745 3396 Circle
1.000 UP
5519 2447 Circle
1.000 UP
5764 3423 Circle
1.000 UP
5519 3174 Circle
1.000 UP
5519 2946 Circle
2.000 UP
5274 2791 Circle
1.000 UP
1106 2791 Circle
1.000 UP
5519 3010 Circle
2.000 UP
5029 2707 Circle
1.000 UP
5274 2707 Circle
3.000 UP
5029 2707 Circle
1.000 UP
5519 3112 Circle
1.000 UP
5274 2427 Circle
1.000 UP
5764 4317 Circle
1.000 UP
5764 4862 Circle
1.000 UP
1351 4529 Circle
1.000 UP
5519 2871 Circle
1.000 UP
5519 4013 Circle
1.000 UP
6745 2824 Circle
1.000 UP
4784 3915 Circle
1.000 UP
5519 4067 Circle
2.000 UP
5274 2700 Circle
1.000 UP
5274 2700 Circle
1.000 UP
5519 4618 Circle
2.000 UP
5274 2265 Circle
3.000 UP
5764 3577 Circle
3.000 UP
5519 4022 Circle
2.000 UP
5764 4657 Circle
3.000 UP
5274 4642 Circle
2.000 UP
6745 2693 Circle
1.000 UP
5274 4093 Circle
2.000 UP
5029 3958 Circle
1.000 UP
5519 4638 Circle
2.000 UP
5519 4638 Circle
1.000 UP
6745 3650 Circle
1.000 UP
5274 2128 Circle
3.000 UP
5519 4819 Circle
3.000 UP
5519 4215 Circle
2.000 UP
5519 4809 Circle
3.000 UP
5764 4673 Circle
1.000 UP
5764 4855 Circle
1.000 UP
5274 2764 Circle
1.000 UP
5519 3287 Circle
2.000 UP
5274 1841 Circle
2.000 UP
5519 2750 Circle
2.000 UP
6990 2749 Circle
2.000 UP
5274 2749 Circle
2.000 UP
5274 2693 Circle
1.000 UP
5274 2847 Circle
3.000 UP
5519 1557 Circle
1.000 UP
5519 2670 Circle
1.000 UP
5274 2672 Circle
1.000 UP
5274 1884 Circle
1.000 UP
5764 4621 Circle
1.000 UP
6990 4158 Circle
3.000 UP
5274 3397 Circle
2.000 UP
6745 3397 Circle
1.000 UP
5764 4762 Circle
1.000 UP
6009 2033 Circle
1.000 UP
5274 2570 Circle
2.000 UP
5519 4233 Circle
1.000 UP
5274 1696 Circle
1.000 UP
5519 4673 Circle
1.000 UP
5519 2074 Circle
1.000 UP
5274 1510 Circle
1.000 UP
5029 1509 Circle
1.000 UP
5764 4555 Circle
1.000 UP
5764 3595 Circle
1.000 UP
5519 1567 Circle
1.000 UP
5274 2982 Circle
1.000 UP
5274 3759 Circle
1.000 UP
5029 4138 Circle
1.000 UP
5274 3926 Circle
1.000 UP
5274 4060 Circle
1.000 UP
5764 2559 Circle
1.000 UP
5274 2760 Circle
1.000 UP
5274 3930 Circle
2.000 UP
5274 3930 Circle
2.000 UP
6009 4711 Circle
1.000 UP
5274 2440 Circle
2.000 UP
5274 3727 Circle
1.000 UP
5274 2250 Circle
1.000 UP
5274 2706 Circle
1.000 UP
5274 4051 Circle
1.000 UP
5274 2779 Circle
2.000 UP
5764 2779 Circle
1.000 UP
5274 3957 Circle
2.000 UP
5274 2692 Circle
5.000 UP
5519 3052 Circle
1.000 UP
5274 2600 Circle
2.000 UP
5274 3524 Circle
2.000 UP
5274 1515 Circle
1.000 UP
5274 1515 Circle
1.000 UP
5274 1515 Circle
3.000 UP
5764 4283 Circle
2.000 UP
5764 4740 Circle
1.000 UP
5519 4642 Circle
2.000 UP
5519 4818 Circle
1.000 UP
6745 2569 Circle
1.000 UP
5519 4504 Circle
4.000 UP
5764 4857 Circle
1.000 UP
5519 2191 Circle
1.000 UP
5519 4623 Circle
1.000 UP
5519 3286 Circle
1.000 UP
5519 3287 Circle
3.000 UP
2332 3287 Circle
1.000 UP
6009 3768 Circle
1.000 UP
5274 1929 Circle
1.000 UP
5274 2449 Circle
1.000 UP
5519 3722 Circle
2.000 UP
1842 3096 Circle
4.000 UP
5274 4500 Circle
1.000 UP
5519 2469 Circle
1.000 UP
6745 2535 Circle
1.000 UP
5274 2535 Circle
2.000 UP
5764 4607 Circle
1.000 UP
5274 3993 Circle
1.000 UP
5519 3993 Circle
1.000 UP
5274 3942 Circle
1.000 UP
6009 2808 Circle
1.000 UP
5274 2807 Circle
1.000 UP
5274 2592 Circle
1.000 UP
5274 2592 Circle
1.000 UP
5029 1699 Circle
1.000 UP
5764 4577 Circle
1.000 UP
5764 4577 Circle
2.000 UP
5274 3656 Circle
1.000 UP
5519 2945 Circle
1.000 UP
5519 2945 Circle
1.000 UP
5519 3722 Circle
1.000 UP
5519 2891 Circle
1.000 UP
2087 2828 Circle
1.000 UP
6745 2828 Circle
1.000 UP
5519 2111 Circle
2.000 UP
6500 3078 Circle
2.000 UP
5519 3107 Circle
1.000 UP
5519 3893 Circle
1.000 UP
5519 4068 Circle
2.000 UP
5519 4179 Circle
1.000 UP
5274 3977 Circle
1.000 UP
5274 4095 Circle
2.000 UP
5764 4707 Circle
1.000 UP
5274 2130 Circle
2.000 UP
5764 4656 Circle
1.000 UP
6990 2477 Circle
1.000 UP
5764 4081 Circle
1.000 UP
5029 3960 Circle
1.000 UP
5274 3976 Circle
1.000 UP
5764 4090 Circle
1.000 UP
5764 4534 Circle
1.000 UP
5274 3669 Circle
2.000 UP
5274 3669 Circle
1.000 UP
6500 4126 Circle
3.000 UP
5274 2919 Circle
1.000 UP
5274 2444 Circle
2.000 UP
5274 2919 Circle
2.000 UP
6745 2919 Circle
2.000 UP
5519 2504 Circle
2.000 UP
5274 4095 Circle
1.000 UP
5764 4074 Circle
1.000 UP
5274 4095 Circle
1.000 UP
5764 4827 Circle
2.000 UP
5274 3874 Circle
2.000 UP
6745 3333 Circle
2.000 UP
5519 1669 Circle
1.000 UP
5274 4209 Circle
1.000 UP
5519 4536 Circle
1.000 UP
5519 2617 Circle
1.000 UP
5519 2104 Circle
1.000 UP
5519 2633 Circle
1.000 UP
5519 2617 Circle
1.000 UP
5764 4075 Circle
1.000 UP
5274 4075 Circle
3.000 UP
5274 4075 Circle
2.000 UP
5274 1759 Circle
3.000 UP
5519 1725 Circle
1.000 UP
5274 1767 Circle
1.000 UP
5274 2652 Circle
1.000 UP
5274 3372 Circle
1.000 UP
5519 2587 Circle
1.000 UP
5519 1783 Circle
4.000 UP
5519 3121 Circle
1.000 UP
5274 2594 Circle
1.000 UP
5029 2945 Circle
1.000 UP
5764 4869 Circle
1.000 UP
5764 4689 Circle
2.000 UP
5274 1871 Circle
2.000 UP
5274 1871 Circle
1.000 UP
5274 1871 Circle
2.000 UP
5519 4812 Circle
1.000 UP
5519 2064 Circle
1.000 UP
5764 4787 Circle
1.000 UP
6745 3531 Circle
1.000 UP
5274 3522 Circle
1.000 UP
5274 1508 Circle
1.000 UP
6009 4376 Circle
1.000 UP
5274 3115 Circle
1.000 UP
5274 2999 Circle
1.000 UP
5274 1839 Circle
1.000 UP
5519 1838 Circle
1.000 UP
5519 4619 Circle
2.000 UP
5274 3623 Circle
1.000 UP
5274 2508 Circle
1.000 UP
5519 2508 Circle
1.000 UP
5519 3082 Circle
3.000 UP
5519 1683 Circle
1.000 UP
6500 3463 Circle
3.000 UP
5274 2434 Circle
1.000 UP
6745 3806 Circle
2.000 UP
5519 3924 Circle
2.000 UP
6745 3983 Circle
3.000 UP
5274 3992 Circle
2.000 UP
5764 2379 Circle
1.000 UP
5519 4579 Circle
1.000 UP
5274 1864 Circle
1.000 UP
5519 1864 Circle
1.000 UP
5274 1864 Circle
1.000 UP
5519 2129 Circle
1.000 UP
5519 3368 Circle
1.000 UP
6745 2580 Circle
2.000 UP
5274 1854 Circle
1.000 UP
5274 3645 Circle
2.000 UP
5519 4554 Circle
2.000 UP
5274 2787 Circle
1.000 UP
5274 1890 Circle
1.000 UP
5274 3537 Circle
1.000 UP
5274 3537 Circle
1.000 UP
5274 3537 Circle
2.000 UP
5274 3537 Circle
1.000 UP
5519 1843 Circle
2.000 UP
5274 4145 Circle
1.000 UP
5519 2633 Circle
1.000 UP
5764 4693 Circle
1.000 UP
5274 2412 Circle
1.000 UP
5519 4637 Circle
1.000 UP
5274 2817 Circle
1.000 UP
5274 3883 Circle
1.000 UP
5764 4574 Circle
1.000 UP
5764 4605 Circle
3.000 UP
5274 3372 Circle
2.000 UP
5274 3943 Circle
1.000 UP
5274 4104 Circle
1.000 UP
5274 1783 Circle
2.000 UP
5519 1783 Circle
1.000 UP
5519 3094 Circle
1.000 UP
5274 2615 Circle
1.000 UP
5274 1703 Circle
1.000 UP
5764 4688 Circle
1.000 UP
5519 4805 Circle
1.000 UP
5274 2594 Circle
2.000 UP
5274 2739 Circle
2.000 UP
6745 2739 Circle
2.000 UP
6745 3382 Circle
1.000 UP
5274 2801 Circle
1.000 UP
5519 4813 Circle
1.000 UP
5274 1509 Circle
1.000 UP
5519 4376 Circle
2.000 UP
6745 2713 Circle
1.000 UP
5274 2327 Circle
1.000 UP
5274 2909 Circle
1.000 UP
5519 2168 Circle
1.000 UP
5274 2167 Circle
2.000 UP
5764 4534 Circle
2.000 UP
5274 2975 Circle
1.000 UP
5519 2473 Circle
1.000 UP
5519 2473 Circle
1.000 UP
5519 2222 Circle
3.000 UP
6745 2602 Circle
1.000 UP
5764 3613 Circle
3.000 UP
5519 3904 Circle
3.000 UP
5519 2644 Circle
1.000 UP
5274 4061 Circle
1.000 UP
5764 4162 Circle
2.000 UP
5274 3630 Circle
1.000 UP
5519 2503 Circle
2.000 UP
5519 2503 Circle
1.000 UP
5519 4578 Circle
1.000 UP
5519 4578 Circle
2.000 UP
5519 3089 Circle
1.000 UP
5274 1864 Circle
1.000 UP
5274 1865 Circle
1.000 UP
5274 1865 Circle
2.000 UP
5274 4139 Circle
1.000 UP
5274 2342 Circle
1.000 UP
5274 4164 Circle
1.000 UP
6009 4762 Circle
1.000 UP
5519 4156 Circle
1.000 UP
5274 3937 Circle
1.000 UP
5274 4096 Circle
1.000 UP
5274 4096 Circle
3.000 UP
5764 4724 Circle
1.000 UP
5274 3314 Circle
1.000 UP
5519 2619 Circle
2.000 UP
5519 2110 Circle
2.000 UP
5274 3538 Circle
1.000 UP
5764 2720 Circle
1.000 UP
5029 2773 Circle
2.000 UP
5519 4725 Circle
2.000 UP
5274 4067 Circle
1.000 UP
5274 4213 Circle
1.000 UP
6009 2014 Circle
1.000 UP
5764 4078 Circle
1.000 UP
5274 4067 Circle
1.000 UP
5274 2959 Circle
1.000 UP
5519 3681 Circle
1.000 UP
5764 4605 Circle
1.000 UP
5519 3563 Circle
2.000 UP
5764 3563 Circle
2.000 UP
6990 2459 Circle
1.000 UP
5274 1703 Circle
1.000 UP
5519 2233 Circle
1.000 UP
5519 2233 Circle
2.000 UP
5519 4605 Circle
1.000 UP
5274 3374 Circle
1.000 UP
5274 4643 Circle
2.000 UP
5519 4805 Circle
1.000 UP
5274 3912 Circle
2.000 UP
5764 4649 Circle
1.000 UP
5764 3440 Circle
2.000 UP
6500 3707 Circle
1.000 UP
5764 4189 Circle
2.000 UP
5274 2326 Circle
1.000 UP
5519 4623 Circle
2.000 UP
5519 4814 Circle
1.000 UP
5519 4534 Circle
1.000 UP
5274 2604 Circle
1.000 UP
4538 1665 Circle
3.000 UP
5274 1522 Circle
1.000 UP
5274 2452 Circle
3.000 UP
5519 3714 Circle
2.000 UP
5519 2509 Circle
4.000 UP
5519 2643 Circle
2.000 UP
5519 4151 Circle
1.000 UP
5519 4150 Circle
1.000 UP
5519 4151 Circle
2.000 UP
5274 2675 Circle
1.000 UP
5519 1724 Circle
2.000 UP
5764 4169 Circle
2.000 UP
5274 2503 Circle
1.000 UP
6500 2503 Circle
1.000 UP
5764 2503 Circle
1.000 UP
5519 2503 Circle
1.000 UP
6990 3089 Circle
1.000 UP
1106 3089 Circle
1.000 UP
5764 3577 Circle
1.000 UP
5274 3982 Circle
2.000 UP
5029 4094 Circle
1.000 UP
6009 4094 Circle
2.000 UP
5764 4061 Circle
1.000 UP
5764 4623 Circle
1.000 UP
5029 3960 Circle
1.000 UP
6745 4805 Circle
2.000 UP
5519 2578 Circle
1.000 UP
5274 4019 Circle
1.000 UP
5274 1855 Circle
1.000 UP
5764 4579 Circle
1.000 UP
5764 4240 Circle
1.000 UP
6009 4239 Circle
1.000 UP
6745 4148 Circle
2.000 UP
5519 3032 Circle
1.000 UP
6009 3318 Circle
2.000 UP
5274 3270 Circle
1.000 UP
5274 3539 Circle
1.000 UP
5764 4726 Circle
1.000 UP
5519 3124 Circle
1.000 UP
5274 1776 Circle
2.000 UP
5274 3755 Circle
1.000 UP
5764 4686 Circle
2.000 UP
5764 3486 Circle
2.000 UP
5274 4129 Circle
1.000 UP
5519 4713 Circle
1.000 UP
5764 4687 Circle
1.000 UP
5274 2817 Circle
3.000 UP
5519 1785 Circle
1.000 UP
5519 1785 Circle
1.000 UP
5519 4105 Circle
1.000 UP
5764 4687 Circle
1.000 UP
5274 2440 Circle
1.000 UP
5274 2440 Circle
3.000 UP
5519 4233 Circle
1.000 UP
5519 4410 Circle
2.000 UP
5519 4504 Circle
1.000 UP
5274 1870 Circle
1.000 UP
5274 1869 Circle
1.000 UP
5274 1869 Circle
1.000 UP
5519 1869 Circle
1.000 UP
5274 1869 Circle
1.000 UP
5519 4621 Circle
1.000 UP
5519 3568 Circle
1.000 UP
5274 2908 Circle
1.000 UP
6745 4054 Circle
3.000 UP
5519 3114 Circle
1.000 UP
5274 4060 Circle
1.000 UP
5519 2845 Circle
2.000 UP
5519 4009 Circle
2.000 UP
5274 1962 Circle
1.000 UP
5764 4836 Circle
2.000 UP
5274 3518 Circle
1.000 UP
5519 4623 Circle
1.000 UP
5274 2450 Circle
1.000 UP
5274 2797 Circle
2.000 UP
5519 2509 Circle
1.000 UP
5519 4151 Circle
1.000 UP
1596 4740 Circle
2.000 UP
5274 1723 Circle
2.000 UP
5764 4710 Circle
2.000 UP
5274 3761 Circle
2.000 UP
5519 4650 Circle
1.000 UP
5519 1728 Circle
1.000 UP
5519 1728 Circle
2.000 UP
5519 2487 Circle
1.000 UP
5274 3986 Circle
1.000 UP
5519 2279 Circle
1.000 UP
5519 4016 Circle
1.000 UP
5274 3937 Circle
1.000 UP
5274 2811 Circle
1.000 UP
5519 4612 Circle
2.000 UP
5764 2140 Circle
1.000 UP
6009 2030 Circle
1.000 UP
5274 4112 Circle
1.000 UP
5764 3697 Circle
2.000 UP
5519 2200 Circle
1.000 UP
5519 3050 Circle
1.000 UP
5274 4031 Circle
1.000 UP
5274 3856 Circle
1.000 UP
5519 4542 Circle
2.000 UP
5274 2608 Circle
1.000 UP
5274 2704 Circle
2.000 UP
5274 4213 Circle
2.000 UP
5519 4194 Circle
2.000 UP
1842 2630 Circle
1.000 UP
5519 2831 Circle
1.000 UP
5274 1889 Circle
2.000 UP
5519 3902 Circle
2.000 UP
5519 2507 Circle
2.000 UP
6745 2507 Circle
1.000 UP
6745 2507 Circle
3.000 UP
5519 3293 Circle
2.000 UP
5274 3293 Circle
3.000 UP
5764 4715 Circle
2.000 UP
5274 3167 Circle
2.000 UP
5274 2745 Circle
4.000 UP
5274 2744 Circle
1.000 UP
5274 2744 Circle
2.000 UP
5274 1758 Circle
1.000 UP
5274 3094 Circle
2.000 UP
6009 3710 Circle
1.000 UP
5519 4105 Circle
1.000 UP
5519 3945 Circle
1.000 UP
5274 2457 Circle
1.000 UP
5519 2457 Circle
2.000 UP
5274 2457 Circle
2.000 UP
5764 4772 Circle
1.000 UP
6500 2948 Circle
1.000 UP
5519 4029 Circle
1.000 UP
5274 4029 Circle
1.000 UP
5274 2595 Circle
1.000 UP
5274 2595 Circle
1.000 UP
5519 4503 Circle
2.000 UP
5519 3955 Circle
1.000 UP
5274 1511 Circle
1.000 UP
5519 4006 Circle
2.000 UP
5274 3995 Circle
1.000 UP
5519 3254 Circle
1.000 UP
5274 2572 Circle
1.000 UP
5274 2572 Circle
2.000 UP
5519 4229 Circle
1.000 UP
5274 2979 Circle
1.000 UP
5274 2979 Circle
2.000 UP
5274 2979 Circle
1.000 UP
5274 1961 Circle
1.000 UP
5764 4689 Circle
1.000 UP
5274 3148 Circle
3.000 UP
5274 3881 Circle
1.000 UP
5519 4558 Circle
1.000 UP
5764 4162 Circle
2.000 UP
5274 2828 Circle
1.000 UP
5519 2725 Circle
1.000 UP
5519 1723 Circle
1.000 UP
5274 1723 Circle
1.000 UP
5519 4152 Circle
2.000 UP
5274 2446 Circle
2.000 UP
5274 4140 Circle
1.000 UP
5274 4231 Circle
1.000 UP
5519 2488 Circle
1.000 UP
5029 1714 Circle
1.000 UP
5519 4613 Circle
2.000 UP
5519 2589 Circle
1.000 UP
5274 4446 Circle
1.000 UP
5274 3696 Circle
3.000 UP
5519 4611 Circle
2.000 UP
5274 3519 Circle
1.000 UP
5519 2591 Circle
1.000 UP
6745 2723 Circle
1.000 UP
5519 4195 Circle
1.000 UP
6745 2768 Circle
2.000 UP
6500 2741 Circle
1.000 UP
5274 2829 Circle
1.000 UP
5519 3902 Circle
2.000 UP
6745 2741 Circle
2.000 UP
6745 4082 Circle
2.000 UP
5274 3342 Circle
1.000 UP
5274 2745 Circle
1.000 UP
6009 3475 Circle
1.000 UP
5519 3189 Circle
1.000 UP
5274 1857 Circle
1.000 UP
5764 4077 Circle
2.000 UP
5519 4236 Circle
2.000 UP
5274 3961 Circle
1.000 UP
5274 3961 Circle
1.000 UP
5519 2949 Circle
1.000 UP
5274 2131 Circle
1.000 UP
5274 2131 Circle
1.000 UP
5519 4592 Circle
1.000 UP
5274 2686 Circle
1.000 UP
5274 2402 Circle
1.000 UP
6009 2973 Circle
1.000 UP
6009 2973 Circle
1.000 UP
5519 4007 Circle
3.000 UP
5274 3995 Circle
1.000 UP
5764 3044 Circle
2.000 UP
6500 3995 Circle
3.000 UP
5274 3384 Circle
2.000 UP
5274 4155 Circle
2.000 UP
5274 4033 Circle
1.000 UP
5274 4033 Circle
2.000 UP
5029 4033 Circle
1.000 UP
5519 4389 Circle
2.000 UP
6500 3159 Circle
1.000 UP
5764 1960 Circle
1.000 UP
5274 2162 Circle
1.000 UP
5274 2978 Circle
1.000 UP
5274 2978 Circle
1.000 UP
5274 2978 Circle
2.000 UP
5519 4619 Circle
2.000 UP
5519 4806 Circle
1.000 UP
5519 1722 Circle
1.000 UP
5519 4823 Circle
1.000 UP
5764 4169 Circle
2.000 UP
5764 4859 Circle
1.000 UP
5764 4859 Circle
1.000 UP
5274 2168 Circle
1.000 UP
5519 1754 Circle
1.000 UP
5274 2572 Circle
1.000 UP
6500 2488 Circle
1.000 UP
1842 2572 Circle
2.000 UP
5274 4155 Circle
2.000 UP
3803 1714 Circle
2.000 UP
5519 4613 Circle
1.000 UP
5274 4095 Circle
1.000 UP
1106 3724 Circle
1.000 UP
5274 2697 Circle
1.000 UP
5029 1705 Circle
1.000 UP
5029 1705 Circle
2.000 UP
5519 4543 Circle
1.000 UP
5764 4039 Circle
1.000 UP
5274 2765 Circle
1.000 UP
5274 2803 Circle
2.000 UP
5519 4653 Circle
1.000 UP
5519 4653 Circle
1.000 UP
5519 4635 Circle
3.000 UP
5519 4635 Circle
1.000 UP
5519 4631 Circle
1.000 UP
5519 4372 Circle
1.000 UP
5519 4372 Circle
1.000 UP
5274 3396 Circle
1.000 UP
5274 3616 Circle
1.000 UP
5274 4365 Circle
2.000 UP
6745 3319 Circle
2.000 UP
5274 2932 Circle
1.000 UP
5274 1824 Circle
1.000 UP
5519 2616 Circle
1.000 UP
5274 2607 Circle
2.000 UP
5519 2616 Circle
1.000 UP
5274 2607 Circle
3.000 UP
5274 3517 Circle
1.000 UP
6745 2505 Circle
2.000 UP
5519 2746 Circle
1.000 UP
5274 2762 Circle
1.000 UP
6745 2571 Circle
2.000 UP
5519 2132 Circle
9.000 UP
5519 3114 Circle
3.000 UP
5274 3080 Circle
1.000 UP
5519 4108 Circle
1.000 UP
5274 2979 Circle
1.000 UP
5764 4219 Circle
1.000 UP
5274 2979 Circle
1.000 UP
5274 2979 Circle
1.000 UP
5519 1850 Circle
1.000 UP
2332 3419 Circle
2.000 UP
5519 2198 Circle
1.000 UP
5519 4614 Circle
1.000 UP
6745 3520 Circle
2.000 UP
5029 4032 Circle
1.000 UP
5029 4032 Circle
1.000 UP
5519 2202 Circle
1.000 UP
5519 2202 Circle
1.000 UP
5519 4230 Circle
1.000 UP
5519 2061 Circle
2.000 UP
5519 4671 Circle
1.000 UP
5764 1931 Circle
1.000 UP
5519 3461 Circle
1.000 UP
5519 2623 Circle
1.000 UP
5519 2623 Circle
1.000 UP
5519 2162 Circle
1.000 UP
5274 2162 Circle
1.000 UP
5029 2162 Circle
1.000 UP
5519 2162 Circle
2.000 UP
5764 4858 Circle
1.000 UP
5519 3092 Circle
3.000 UP
5519 1622 Circle
1.000 UP
5519 2480 Circle
1.000 UP
5274 3339 Circle
1.000 UP
5519 2867 Circle
2.000 UP
5274 4075 Circle
1.000 UP
5274 3984 Circle
1.000 UP
5764 4718 Circle
2.000 UP
5274 4139 Circle
1.000 UP
5519 3783 Circle
1.000 UP
5274 2451 Circle
1.000 UP
5519 3003 Circle
1.000 UP
5274 3281 Circle
1.000 UP
5519 4614 Circle
2.000 UP
5274 3555 Circle
1.000 UP
5519 2583 Circle
1.000 UP
5519 3530 Circle
1.000 UP
5274 2803 Circle
1.000 UP
5519 4040 Circle
1.000 UP
6009 2031 Circle
2.000 UP
6745 3360 Circle
1.000 UP
6990 3368 Circle
2.000 UP
5274 1880 Circle
1.000 UP
5274 1880 Circle
1.000 UP
5274 4094 Circle
1.000 UP
5519 4152 Circle
2.000 UP
5519 4850 Circle
1.000 UP
5274 4003 Circle
1.000 UP
5274 4094 Circle
1.000 UP
5519 3033 Circle
3.000 UP
5274 1823 Circle
1.000 UP
5274 1823 Circle
2.000 UP
5274 2607 Circle
1.000 UP
5274 2608 Circle
1.000 UP
5764 4715 Circle
1.000 UP
6009 4341 Circle
1.000 UP
1106 3597 Circle
3.000 UP
5764 4736 Circle
1.000 UP
5519 3612 Circle
3.000 UP
5519 1588 Circle
3.000 UP
5519 2505 Circle
3.000 UP
5519 2505 Circle
1.000 UP
5029 1512 Circle
1.000 UP
5764 4126 Circle
1.000 UP
5519 4126 Circle
1.000 UP
5274 2766 Circle
1.000 UP
5274 2775 Circle
1.000 UP
5029 2775 Circle
1.000 UP
5764 3571 Circle
2.000 UP
5764 4320 Circle
1.000 UP
5519 4005 Circle
1.000 UP
5519 2286 Circle
1.000 UP
5274 4139 Circle
1.000 UP
5519 2197 Circle
1.000 UP
6009 2972 Circle
2.000 UP
5519 2972 Circle
1.000 UP
5519 2203 Circle
1.000 UP
5519 2203 Circle
1.000 UP
5764 4051 Circle
1.000 UP
5764 3284 Circle
2.000 UP
6009 4764 Circle
1.000 UP
5274 3329 Circle
1.000 UP
5274 3541 Circle
1.000 UP
5274 3986 Circle
2.000 UP
5764 4357 Circle
2.000 UP
5274 3986 Circle
1.000 UP
5519 4205 Circle
1.000 UP
5519 4205 Circle
1.000 UP
5274 2980 Circle
3.000 UP
5519 1620 Circle
1.000 UP
5519 3893 Circle
1.000 UP
5519 2821 Circle
1.000 UP
5274 2822 Circle
1.000 UP
5519 4833 Circle
1.000 UP
5029 2640 Circle
1.000 UP
5519 3783 Circle
3.000 UP
5519 4559 Circle
1.000 UP
6500 2444 Circle
1.000 UP
5764 4603 Circle
1.000 UP
5519 4399 Circle
1.000 UP
5274 2448 Circle
1.000 UP
6009 3451 Circle
3.000 UP
5274 4127 Circle
2.000 UP
5274 2687 Circle
1.000 UP
5519 1557 Circle
1.000 UP
5519 2633 Circle
1.000 UP
5274 3536 Circle
4.000 UP
5519 4635 Circle
1.000 UP
5519 3048 Circle
2.000 UP
6745 3140 Circle
2.000 UP
5519 4004 Circle
1.000 UP
5519 4364 Circle
2.000 UP
5274 4061 Circle
1.000 UP
5519 4504 Circle
1.000 UP
5519 3946 Circle
1.000 UP
5764 4696 Circle
1.000 UP
5519 3014 Circle
1.000 UP
6745 3014 Circle
1.000 UP
1351 3617 Circle
1.000 UP
5274 4013 Circle
1.000 UP
5274 3070 Circle
2.000 UP
6990 3156 Circle
1.000 UP
5274 3802 Circle
4.000 UP
5274 4025 Circle
1.000 UP
6500 3033 Circle
2.000 UP
5519 1628 Circle
1.000 UP
5519 2890 Circle
1.000 UP
5274 4148 Circle
1.000 UP
5519 4148 Circle
1.000 UP
5519 4593 Circle
2.000 UP
5764 4778 Circle
1.000 UP
5274 1511 Circle
1.000 UP
6745 4041 Circle
3.000 UP
5764 4700 Circle
1.000 UP
5274 3963 Circle
2.000 UP
5029 4059 Circle
1.000 UP
5519 4473 Circle
3.000 UP
5764 3401 Circle
1.000 UP
5274 4026 Circle
1.000 UP
5274 2575 Circle
1.000 UP
5274 4026 Circle
2.000 UP
5519 3711 Circle
1.000 UP
6745 4117 Circle
1.000 UP
5764 4555 Circle
1.000 UP
5764 3054 Circle
1.000 UP
5764 3054 Circle
1.000 UP
5519 4550 Circle
1.000 UP
5274 1881 Circle
2.000 UP
6745 3329 Circle
1.000 UP
5274 3329 Circle
1.000 UP
5764 2720 Circle
1.000 UP
5274 2531 Circle
3.000 UP
5519 3304 Circle
3.000 UP
5519 3117 Circle
1.000 UP
5519 2727 Circle
3.000 UP
5764 4861 Circle
1.000 UP
6745 2482 Circle
2.000 UP
5519 2478 Circle
1.000 UP
5274 2613 Circle
2.000 UP
5519 4073 Circle
1.000 UP
5274 4074 Circle
2.000 UP
5274 2742 Circle
2.000 UP
5029 1712 Circle
3.000 UP
5274 3372 Circle
3.000 UP
5519 4629 Circle
3.000 UP
5029 1995 Circle
1.000 UP
5519 2586 Circle
2.000 UP
5519 2511 Circle
2.000 UP
5274 1512 Circle
1.000 UP
5519 3046 Circle
1.000 UP
5519 3046 Circle
1.000 UP
5519 4568 Circle
1.000 UP
5274 2916 Circle
3.000 UP
2087 3304 Circle
1.000 UP
5764 4050 Circle
2.000 UP
6990 3800 Circle
2.000 UP
5274 3632 Circle
1.000 UP
5519 3876 Circle
1.000 UP
5519 3116 Circle
4.000 UP
5519 3116 Circle
2.000 UP
6745 2865 Circle
2.000 UP
5519 2168 Circle
1.000 UP
5764 1926 Circle
1.000 UP
6745 2459 Circle
1.000 UP
5274 3319 Circle
1.000 UP
6500 4125 Circle
1.000 UP
6990 4608 Circle
1.000 UP
5764 2702 Circle
2.000 UP
5274 2702 Circle
3.000 UP
5274 2696 Circle
1.000 UP
5274 2575 Circle
1.000 UP
5274 2575 Circle
2.000 UP
5519 2575 Circle
1.000 UP
5274 1911 Circle
1.000 UP
6745 3464 Circle
1.000 UP
5519 3549 Circle
1.000 UP
5519 2196 Circle
1.000 UP
5519 4246 Circle
1.000 UP
5519 4237 Circle
1.000 UP
5519 3118 Circle
1.000 UP
5764 4689 Circle
1.000 UP
5764 4689 Circle
1.000 UP
5519 1883 Circle
1.000 UP
5274 1883 Circle
1.000 UP
5274 1883 Circle
1.000 UP
5274 1883 Circle
2.000 UP
5274 3518 Circle
1.000 UP
5519 4814 Circle
1.000 UP
5274 1507 Circle
1.000 UP
5274 1506 Circle
1.000 UP
5029 1506 Circle
1.000 UP
5029 1507 Circle
1.000 UP
5519 2617 Circle
1.000 UP
5274 3118 Circle
1.000 UP
5519 4323 Circle
1.000 UP
5764 4323 Circle
1.000 UP
5519 4535 Circle
4.000 UP
5519 4651 Circle
2.000 UP
6500 2830 Circle
1.000 UP
5274 2830 Circle
1.000 UP
5519 1780 Circle
1.000 UP
5274 3328 Circle
1.000 UP
5519 3653 Circle
2.000 UP
5274 2571 Circle
2.000 UP
5519 4651 Circle
1.000 UP
5519 2511 Circle
1.000 UP
5519 2511 Circle
2.000 UP
5519 2511 Circle
1.000 UP
5274 4030 Circle
2.000 UP
5274 3943 Circle
3.000 UP
5519 3090 Circle
2.000 UP
5274 2742 Circle
1.000 UP
5274 2445 Circle
1.000 UP
5764 4064 Circle
1.000 UP
5274 4127 Circle
1.000 UP
5764 2673 Circle
1.000 UP
5274 3531 Circle
1.000 UP
5519 2641 Circle
1.000 UP
6622 4739 Circle
1.000 UL
LTb
1106 4872 N
0 -3388 V
5884 0 V
0 3388 V
-5884 0 V
Z stroke
1.000 UP
1.000 UL
LTb
stroke
grestore
end
showpage
%%Trailer
%%DocumentFonts: Helvetica
