%!PS-Adobe-2.0 EPSF-2.0
%%Title: failure-cluster-false-alarm-removed.eps
%%Creator: gnuplot 4.2 patchlevel 6 
%%CreationDate: Tue Sep 23 15:43:26 2014
%%DocumentFonts: (atend)
%%BoundingBox: 50 50 410 302
%%EndComments
%%BeginProlog
/gnudict 256 dict def
gnudict begin
%
% The following 6 true/false flags may be edited by hand if required
% The unit line width may also be changed
%
/Color true def
/Blacktext false def
/Solid false def
/Dashlength 1 def
/Landscape false def
/Level1 false def
/Rounded false def
/TransparentPatterns false def
/gnulinewidth 5.000 def
/userlinewidth gnulinewidth def
%
/vshift -46 def
/dl1 {
  10.0 Dashlength mul mul
  Rounded { currentlinewidth 0.75 mul sub dup 0 le { pop 0.01 } if } if
} def
/dl2 {
  10.0 Dashlength mul mul
  Rounded { currentlinewidth 0.75 mul add } if
} def
/hpt_ 31.5 def
/vpt_ 31.5 def
/hpt hpt_ def
/vpt vpt_ def
Level1 {} {
/SDict 10 dict def
systemdict /pdfmark known not {
  userdict /pdfmark systemdict /cleartomark get put
} if
SDict begin [
  /Title (failure-cluster-false-alarm-removed.eps)
  /Subject (gnuplot plot)
  /Creator (gnuplot 4.2 patchlevel 6 )
  /Author (Binh Nguyen,[chenxu])
%  /Producer (gnuplot)
%  /Keywords ()
  /CreationDate (Tue Sep 23 15:43:26 2014)
  /DOCINFO pdfmark
end
} ifelse
%
% Gnuplot Prolog Version 4.2 (August 2006)
%
/M {moveto} bind def
/L {lineto} bind def
/R {rmoveto} bind def
/V {rlineto} bind def
/N {newpath moveto} bind def
/Z {closepath} bind def
/C {setrgbcolor} bind def
/f {rlineto fill} bind def
/vpt2 vpt 2 mul def
/hpt2 hpt 2 mul def
/Lshow {currentpoint stroke M 0 vshift R 
	Blacktext {gsave 0 setgray show grestore} {show} ifelse} def
/Rshow {currentpoint stroke M dup stringwidth pop neg vshift R
	Blacktext {gsave 0 setgray show grestore} {show} ifelse} def
/Cshow {currentpoint stroke M dup stringwidth pop -2 div vshift R 
	Blacktext {gsave 0 setgray show grestore} {show} ifelse} def
/UP {dup vpt_ mul /vpt exch def hpt_ mul /hpt exch def
  /hpt2 hpt 2 mul def /vpt2 vpt 2 mul def} def
/DL {Color {setrgbcolor Solid {pop []} if 0 setdash}
 {pop pop pop 0 setgray Solid {pop []} if 0 setdash} ifelse} def
/BL {stroke userlinewidth 2 mul setlinewidth
	Rounded {1 setlinejoin 1 setlinecap} if} def
/AL {stroke userlinewidth 2 div setlinewidth
	Rounded {1 setlinejoin 1 setlinecap} if} def
/UL {dup gnulinewidth mul /userlinewidth exch def
	dup 1 lt {pop 1} if 10 mul /udl exch def} def
/PL {stroke userlinewidth setlinewidth
	Rounded {1 setlinejoin 1 setlinecap} if} def
% Default Line colors
/LCw {1 1 1} def
/LCb {0 0 0} def
/LCa {0 0 0} def
/LC0 {1 0 0} def
/LC1 {0 1 0} def
/LC2 {0 0 1} def
/LC3 {1 0 1} def
/LC4 {0 1 1} def
/LC5 {1 1 0} def
/LC6 {0 0 0} def
/LC7 {1 0.3 0} def
/LC8 {0.5 0.5 0.5} def
% Default Line Types
/LTw {PL [] 1 setgray} def
/LTb {BL [] LCb DL} def
/LTa {AL [1 udl mul 2 udl mul] 0 setdash LCa setrgbcolor} def
/LT0 {PL [] LC0 DL} def
/LT1 {PL [4 dl1 2 dl2] LC1 DL} def
/LT2 {PL [2 dl1 3 dl2] LC2 DL} def
/LT3 {PL [1 dl1 1.5 dl2] LC3 DL} def
/LT4 {PL [6 dl1 2 dl2 1 dl1 2 dl2] LC4 DL} def
/LT5 {PL [3 dl1 3 dl2 1 dl1 3 dl2] LC5 DL} def
/LT6 {PL [2 dl1 2 dl2 2 dl1 6 dl2] LC6 DL} def
/LT7 {PL [1 dl1 2 dl2 6 dl1 2 dl2 1 dl1 2 dl2] LC7 DL} def
/LT8 {PL [2 dl1 2 dl2 2 dl1 2 dl2 2 dl1 2 dl2 2 dl1 4 dl2] LC8 DL} def
/Pnt {stroke [] 0 setdash gsave 1 setlinecap M 0 0 V stroke grestore} def
/Dia {stroke [] 0 setdash 2 copy vpt add M
  hpt neg vpt neg V hpt vpt neg V
  hpt vpt V hpt neg vpt V closepath stroke
  Pnt} def
/Pls {stroke [] 0 setdash vpt sub M 0 vpt2 V
  currentpoint stroke M
  hpt neg vpt neg R hpt2 0 V stroke
 } def
/Box {stroke [] 0 setdash 2 copy exch hpt sub exch vpt add M
  0 vpt2 neg V hpt2 0 V 0 vpt2 V
  hpt2 neg 0 V closepath stroke
  Pnt} def
/Crs {stroke [] 0 setdash exch hpt sub exch vpt add M
  hpt2 vpt2 neg V currentpoint stroke M
  hpt2 neg 0 R hpt2 vpt2 V stroke} def
/TriU {stroke [] 0 setdash 2 copy vpt 1.12 mul add M
  hpt neg vpt -1.62 mul V
  hpt 2 mul 0 V
  hpt neg vpt 1.62 mul V closepath stroke
  Pnt} def
/Star {2 copy Pls Crs} def
/BoxF {stroke [] 0 setdash exch hpt sub exch vpt add M
  0 vpt2 neg V hpt2 0 V 0 vpt2 V
  hpt2 neg 0 V closepath fill} def
/TriUF {stroke [] 0 setdash vpt 1.12 mul add M
  hpt neg vpt -1.62 mul V
  hpt 2 mul 0 V
  hpt neg vpt 1.62 mul V closepath fill} def
/TriD {stroke [] 0 setdash 2 copy vpt 1.12 mul sub M
  hpt neg vpt 1.62 mul V
  hpt 2 mul 0 V
  hpt neg vpt -1.62 mul V closepath stroke
  Pnt} def
/TriDF {stroke [] 0 setdash vpt 1.12 mul sub M
  hpt neg vpt 1.62 mul V
  hpt 2 mul 0 V
  hpt neg vpt -1.62 mul V closepath fill} def
/DiaF {stroke [] 0 setdash vpt add M
  hpt neg vpt neg V hpt vpt neg V
  hpt vpt V hpt neg vpt V closepath fill} def
/Pent {stroke [] 0 setdash 2 copy gsave
  translate 0 hpt M 4 {72 rotate 0 hpt L} repeat
  closepath stroke grestore Pnt} def
/PentF {stroke [] 0 setdash gsave
  translate 0 hpt M 4 {72 rotate 0 hpt L} repeat
  closepath fill grestore} def
/Circle {stroke [] 0 setdash 2 copy
  hpt 0 360 arc stroke Pnt} def
/CircleF {stroke [] 0 setdash hpt 0 360 arc fill} def
/C0 {BL [] 0 setdash 2 copy moveto vpt 90 450 arc} bind def
/C1 {BL [] 0 setdash 2 copy moveto
	2 copy vpt 0 90 arc closepath fill
	vpt 0 360 arc closepath} bind def
/C2 {BL [] 0 setdash 2 copy moveto
	2 copy vpt 90 180 arc closepath fill
	vpt 0 360 arc closepath} bind def
/C3 {BL [] 0 setdash 2 copy moveto
	2 copy vpt 0 180 arc closepath fill
	vpt 0 360 arc closepath} bind def
/C4 {BL [] 0 setdash 2 copy moveto
	2 copy vpt 180 270 arc closepath fill
	vpt 0 360 arc closepath} bind def
/C5 {BL [] 0 setdash 2 copy moveto
	2 copy vpt 0 90 arc
	2 copy moveto
	2 copy vpt 180 270 arc closepath fill
	vpt 0 360 arc} bind def
/C6 {BL [] 0 setdash 2 copy moveto
	2 copy vpt 90 270 arc closepath fill
	vpt 0 360 arc closepath} bind def
/C7 {BL [] 0 setdash 2 copy moveto
	2 copy vpt 0 270 arc closepath fill
	vpt 0 360 arc closepath} bind def
/C8 {BL [] 0 setdash 2 copy moveto
	2 copy vpt 270 360 arc closepath fill
	vpt 0 360 arc closepath} bind def
/C9 {BL [] 0 setdash 2 copy moveto
	2 copy vpt 270 450 arc closepath fill
	vpt 0 360 arc closepath} bind def
/C10 {BL [] 0 setdash 2 copy 2 copy moveto vpt 270 360 arc closepath fill
	2 copy moveto
	2 copy vpt 90 180 arc closepath fill
	vpt 0 360 arc closepath} bind def
/C11 {BL [] 0 setdash 2 copy moveto
	2 copy vpt 0 180 arc closepath fill
	2 copy moveto
	2 copy vpt 270 360 arc closepath fill
	vpt 0 360 arc closepath} bind def
/C12 {BL [] 0 setdash 2 copy moveto
	2 copy vpt 180 360 arc closepath fill
	vpt 0 360 arc closepath} bind def
/C13 {BL [] 0 setdash 2 copy moveto
	2 copy vpt 0 90 arc closepath fill
	2 copy moveto
	2 copy vpt 180 360 arc closepath fill
	vpt 0 360 arc closepath} bind def
/C14 {BL [] 0 setdash 2 copy moveto
	2 copy vpt 90 360 arc closepath fill
	vpt 0 360 arc} bind def
/C15 {BL [] 0 setdash 2 copy vpt 0 360 arc closepath fill
	vpt 0 360 arc closepath} bind def
/Rec {newpath 4 2 roll moveto 1 index 0 rlineto 0 exch rlineto
	neg 0 rlineto closepath} bind def
/Square {dup Rec} bind def
/Bsquare {vpt sub exch vpt sub exch vpt2 Square} bind def
/S0 {BL [] 0 setdash 2 copy moveto 0 vpt rlineto BL Bsquare} bind def
/S1 {BL [] 0 setdash 2 copy vpt Square fill Bsquare} bind def
/S2 {BL [] 0 setdash 2 copy exch vpt sub exch vpt Square fill Bsquare} bind def
/S3 {BL [] 0 setdash 2 copy exch vpt sub exch vpt2 vpt Rec fill Bsquare} bind def
/S4 {BL [] 0 setdash 2 copy exch vpt sub exch vpt sub vpt Square fill Bsquare} bind def
/S5 {BL [] 0 setdash 2 copy 2 copy vpt Square fill
	exch vpt sub exch vpt sub vpt Square fill Bsquare} bind def
/S6 {BL [] 0 setdash 2 copy exch vpt sub exch vpt sub vpt vpt2 Rec fill Bsquare} bind def
/S7 {BL [] 0 setdash 2 copy exch vpt sub exch vpt sub vpt vpt2 Rec fill
	2 copy vpt Square fill Bsquare} bind def
/S8 {BL [] 0 setdash 2 copy vpt sub vpt Square fill Bsquare} bind def
/S9 {BL [] 0 setdash 2 copy vpt sub vpt vpt2 Rec fill Bsquare} bind def
/S10 {BL [] 0 setdash 2 copy vpt sub vpt Square fill 2 copy exch vpt sub exch vpt Square fill
	Bsquare} bind def
/S11 {BL [] 0 setdash 2 copy vpt sub vpt Square fill 2 copy exch vpt sub exch vpt2 vpt Rec fill
	Bsquare} bind def
/S12 {BL [] 0 setdash 2 copy exch vpt sub exch vpt sub vpt2 vpt Rec fill Bsquare} bind def
/S13 {BL [] 0 setdash 2 copy exch vpt sub exch vpt sub vpt2 vpt Rec fill
	2 copy vpt Square fill Bsquare} bind def
/S14 {BL [] 0 setdash 2 copy exch vpt sub exch vpt sub vpt2 vpt Rec fill
	2 copy exch vpt sub exch vpt Square fill Bsquare} bind def
/S15 {BL [] 0 setdash 2 copy Bsquare fill Bsquare} bind def
/D0 {gsave translate 45 rotate 0 0 S0 stroke grestore} bind def
/D1 {gsave translate 45 rotate 0 0 S1 stroke grestore} bind def
/D2 {gsave translate 45 rotate 0 0 S2 stroke grestore} bind def
/D3 {gsave translate 45 rotate 0 0 S3 stroke grestore} bind def
/D4 {gsave translate 45 rotate 0 0 S4 stroke grestore} bind def
/D5 {gsave translate 45 rotate 0 0 S5 stroke grestore} bind def
/D6 {gsave translate 45 rotate 0 0 S6 stroke grestore} bind def
/D7 {gsave translate 45 rotate 0 0 S7 stroke grestore} bind def
/D8 {gsave translate 45 rotate 0 0 S8 stroke grestore} bind def
/D9 {gsave translate 45 rotate 0 0 S9 stroke grestore} bind def
/D10 {gsave translate 45 rotate 0 0 S10 stroke grestore} bind def
/D11 {gsave translate 45 rotate 0 0 S11 stroke grestore} bind def
/D12 {gsave translate 45 rotate 0 0 S12 stroke grestore} bind def
/D13 {gsave translate 45 rotate 0 0 S13 stroke grestore} bind def
/D14 {gsave translate 45 rotate 0 0 S14 stroke grestore} bind def
/D15 {gsave translate 45 rotate 0 0 S15 stroke grestore} bind def
/DiaE {stroke [] 0 setdash vpt add M
  hpt neg vpt neg V hpt vpt neg V
  hpt vpt V hpt neg vpt V closepath stroke} def
/BoxE {stroke [] 0 setdash exch hpt sub exch vpt add M
  0 vpt2 neg V hpt2 0 V 0 vpt2 V
  hpt2 neg 0 V closepath stroke} def
/TriUE {stroke [] 0 setdash vpt 1.12 mul add M
  hpt neg vpt -1.62 mul V
  hpt 2 mul 0 V
  hpt neg vpt 1.62 mul V closepath stroke} def
/TriDE {stroke [] 0 setdash vpt 1.12 mul sub M
  hpt neg vpt 1.62 mul V
  hpt 2 mul 0 V
  hpt neg vpt -1.62 mul V closepath stroke} def
/PentE {stroke [] 0 setdash gsave
  translate 0 hpt M 4 {72 rotate 0 hpt L} repeat
  closepath stroke grestore} def
/CircE {stroke [] 0 setdash 
  hpt 0 360 arc stroke} def
/Opaque {gsave closepath 1 setgray fill grestore 0 setgray closepath} def
/DiaW {stroke [] 0 setdash vpt add M
  hpt neg vpt neg V hpt vpt neg V
  hpt vpt V hpt neg vpt V Opaque stroke} def
/BoxW {stroke [] 0 setdash exch hpt sub exch vpt add M
  0 vpt2 neg V hpt2 0 V 0 vpt2 V
  hpt2 neg 0 V Opaque stroke} def
/TriUW {stroke [] 0 setdash vpt 1.12 mul add M
  hpt neg vpt -1.62 mul V
  hpt 2 mul 0 V
  hpt neg vpt 1.62 mul V Opaque stroke} def
/TriDW {stroke [] 0 setdash vpt 1.12 mul sub M
  hpt neg vpt 1.62 mul V
  hpt 2 mul 0 V
  hpt neg vpt -1.62 mul V Opaque stroke} def
/PentW {stroke [] 0 setdash gsave
  translate 0 hpt M 4 {72 rotate 0 hpt L} repeat
  Opaque stroke grestore} def
/CircW {stroke [] 0 setdash 
  hpt 0 360 arc Opaque stroke} def
/BoxFill {gsave Rec 1 setgray fill grestore} def
/Density {
  /Fillden exch def
  currentrgbcolor
  /ColB exch def /ColG exch def /ColR exch def
  /ColR ColR Fillden mul Fillden sub 1 add def
  /ColG ColG Fillden mul Fillden sub 1 add def
  /ColB ColB Fillden mul Fillden sub 1 add def
  ColR ColG ColB setrgbcolor} def
/BoxColFill {gsave Rec PolyFill} def
/PolyFill {gsave Density fill grestore grestore} def
/h {rlineto rlineto rlineto gsave closepath fill grestore} bind def
%
% PostScript Level 1 Pattern Fill routine for rectangles
% Usage: x y w h s a XX PatternFill
%	x,y = lower left corner of box to be filled
%	w,h = width and height of box
%	  a = angle in degrees between lines and x-axis
%	 XX = 0/1 for no/yes cross-hatch
%
/PatternFill {gsave /PFa [ 9 2 roll ] def
  PFa 0 get PFa 2 get 2 div add PFa 1 get PFa 3 get 2 div add translate
  PFa 2 get -2 div PFa 3 get -2 div PFa 2 get PFa 3 get Rec
  gsave 1 setgray fill grestore clip
  currentlinewidth 0.5 mul setlinewidth
  /PFs PFa 2 get dup mul PFa 3 get dup mul add sqrt def
  0 0 M PFa 5 get rotate PFs -2 div dup translate
  0 1 PFs PFa 4 get div 1 add floor cvi
	{PFa 4 get mul 0 M 0 PFs V} for
  0 PFa 6 get ne {
	0 1 PFs PFa 4 get div 1 add floor cvi
	{PFa 4 get mul 0 2 1 roll M PFs 0 V} for
 } if
  stroke grestore} def
%
/languagelevel where
 {pop languagelevel} {1} ifelse
 2 lt
	{/InterpretLevel1 true def}
	{/InterpretLevel1 Level1 def}
 ifelse
%
% PostScript level 2 pattern fill definitions
%
/Level2PatternFill {
/Tile8x8 {/PaintType 2 /PatternType 1 /TilingType 1 /BBox [0 0 8 8] /XStep 8 /YStep 8}
	bind def
/KeepColor {currentrgbcolor [/Pattern /DeviceRGB] setcolorspace} bind def
<< Tile8x8
 /PaintProc {0.5 setlinewidth pop 0 0 M 8 8 L 0 8 M 8 0 L stroke} 
>> matrix makepattern
/Pat1 exch def
<< Tile8x8
 /PaintProc {0.5 setlinewidth pop 0 0 M 8 8 L 0 8 M 8 0 L stroke
	0 4 M 4 8 L 8 4 L 4 0 L 0 4 L stroke}
>> matrix makepattern
/Pat2 exch def
<< Tile8x8
 /PaintProc {0.5 setlinewidth pop 0 0 M 0 8 L
	8 8 L 8 0 L 0 0 L fill}
>> matrix makepattern
/Pat3 exch def
<< Tile8x8
 /PaintProc {0.5 setlinewidth pop -4 8 M 8 -4 L
	0 12 M 12 0 L stroke}
>> matrix makepattern
/Pat4 exch def
<< Tile8x8
 /PaintProc {0.5 setlinewidth pop -4 0 M 8 12 L
	0 -4 M 12 8 L stroke}
>> matrix makepattern
/Pat5 exch def
<< Tile8x8
 /PaintProc {0.5 setlinewidth pop -2 8 M 4 -4 L
	0 12 M 8 -4 L 4 12 M 10 0 L stroke}
>> matrix makepattern
/Pat6 exch def
<< Tile8x8
 /PaintProc {0.5 setlinewidth pop -2 0 M 4 12 L
	0 -4 M 8 12 L 4 -4 M 10 8 L stroke}
>> matrix makepattern
/Pat7 exch def
<< Tile8x8
 /PaintProc {0.5 setlinewidth pop 8 -2 M -4 4 L
	12 0 M -4 8 L 12 4 M 0 10 L stroke}
>> matrix makepattern
/Pat8 exch def
<< Tile8x8
 /PaintProc {0.5 setlinewidth pop 0 -2 M 12 4 L
	-4 0 M 12 8 L -4 4 M 8 10 L stroke}
>> matrix makepattern
/Pat9 exch def
/Pattern1 {PatternBgnd KeepColor Pat1 setpattern} bind def
/Pattern2 {PatternBgnd KeepColor Pat2 setpattern} bind def
/Pattern3 {PatternBgnd KeepColor Pat3 setpattern} bind def
/Pattern4 {PatternBgnd KeepColor Landscape {Pat5} {Pat4} ifelse setpattern} bind def
/Pattern5 {PatternBgnd KeepColor Landscape {Pat4} {Pat5} ifelse setpattern} bind def
/Pattern6 {PatternBgnd KeepColor Landscape {Pat9} {Pat6} ifelse setpattern} bind def
/Pattern7 {PatternBgnd KeepColor Landscape {Pat8} {Pat7} ifelse setpattern} bind def
} def
%
%
%End of PostScript Level 2 code
%
/PatternBgnd {
  TransparentPatterns {} {gsave 1 setgray fill grestore} ifelse
} def
%
% Substitute for Level 2 pattern fill codes with
% grayscale if Level 2 support is not selected.
%
/Level1PatternFill {
/Pattern1 {0.250 Density} bind def
/Pattern2 {0.500 Density} bind def
/Pattern3 {0.750 Density} bind def
/Pattern4 {0.125 Density} bind def
/Pattern5 {0.375 Density} bind def
/Pattern6 {0.625 Density} bind def
/Pattern7 {0.875 Density} bind def
} def
%
% Now test for support of Level 2 code
%
Level1 {Level1PatternFill} {Level2PatternFill} ifelse
%
/Symbol-Oblique /Symbol findfont [1 0 .167 1 0 0] makefont
dup length dict begin {1 index /FID eq {pop pop} {def} ifelse} forall
currentdict end definefont pop
/MFshow {
   { dup 5 get 3 ge
     { 5 get 3 eq {gsave} {grestore} ifelse }
     {dup dup 0 get findfont exch 1 get scalefont setfont
     [ currentpoint ] exch dup 2 get 0 exch R dup 5 get 2 ne {dup dup 6
     get exch 4 get {show} {stringwidth pop 0 R} ifelse }if dup 5 get 0 eq
     {dup 3 get {2 get neg 0 exch R pop} {pop aload pop M} ifelse} {dup 5
     get 1 eq {dup 2 get exch dup 3 get exch 6 get stringwidth pop -2 div
     dup 0 R} {dup 6 get stringwidth pop -2 div 0 R 6 get
     show 2 index {aload pop M neg 3 -1 roll neg R pop pop} {pop pop pop
     pop aload pop M} ifelse }ifelse }ifelse }
     ifelse }
   forall} bind def
/MFwidth {0 exch { dup 5 get 3 ge { 5 get 3 eq { 0 } { pop } ifelse }
 {dup 3 get{dup dup 0 get findfont exch 1 get scalefont setfont
     6 get stringwidth pop add} {pop} ifelse} ifelse} forall} bind def
/MLshow { currentpoint stroke M
  0 exch R
  Blacktext {gsave 0 setgray MFshow grestore} {MFshow} ifelse } bind def
/MRshow { currentpoint stroke M
  exch dup MFwidth neg 3 -1 roll R
  Blacktext {gsave 0 setgray MFshow grestore} {MFshow} ifelse } bind def
/MCshow { currentpoint stroke M
  exch dup MFwidth -2 div 3 -1 roll R
  Blacktext {gsave 0 setgray MFshow grestore} {MFshow} ifelse } bind def
/XYsave    { [( ) 1 2 true false 3 ()] } bind def
/XYrestore { [( ) 1 2 true false 4 ()] } bind def
end
%%EndProlog
gnudict begin
gsave
50 50 translate
0.050 0.050 scale
0 setgray
newpath
(Helvetica) findfont 140 scalefont setfont
1.000 UL
LTb
1.000 UL
LTa
1106 1484 M
5884 0 V
stroke
LTb
1106 1484 M
63 0 V
5821 0 R
-63 0 V
stroke
1022 1484 M
[ [(Helvetica) 140.0 0.0 true true 0 ( 0)]
] -46.7 MRshow
1.000 UL
LTb
1.000 UL
LTa
1106 1823 M
5884 0 V
stroke
LTb
1106 1823 M
63 0 V
5821 0 R
-63 0 V
stroke
1022 1823 M
[ [(Helvetica) 140.0 0.0 true true 0 ( 10000)]
] -46.7 MRshow
1.000 UL
LTb
1.000 UL
LTa
1106 2162 M
5884 0 V
stroke
LTb
1106 2162 M
63 0 V
5821 0 R
-63 0 V
stroke
1022 2162 M
[ [(Helvetica) 140.0 0.0 true true 0 ( 20000)]
] -46.7 MRshow
1.000 UL
LTb
1.000 UL
LTa
1106 2500 M
5884 0 V
stroke
LTb
1106 2500 M
63 0 V
5821 0 R
-63 0 V
stroke
1022 2500 M
[ [(Helvetica) 140.0 0.0 true true 0 ( 30000)]
] -46.7 MRshow
1.000 UL
LTb
1.000 UL
LTa
1106 2839 M
5884 0 V
stroke
LTb
1106 2839 M
63 0 V
5821 0 R
-63 0 V
stroke
1022 2839 M
[ [(Helvetica) 140.0 0.0 true true 0 ( 40000)]
] -46.7 MRshow
1.000 UL
LTb
1.000 UL
LTa
1106 3178 M
5884 0 V
stroke
LTb
1106 3178 M
63 0 V
5821 0 R
-63 0 V
stroke
1022 3178 M
[ [(Helvetica) 140.0 0.0 true true 0 ( 50000)]
] -46.7 MRshow
1.000 UL
LTb
1.000 UL
LTa
1106 3517 M
5884 0 V
stroke
LTb
1106 3517 M
63 0 V
5821 0 R
-63 0 V
stroke
1022 3517 M
[ [(Helvetica) 140.0 0.0 true true 0 ( 60000)]
] -46.7 MRshow
1.000 UL
LTb
1.000 UL
LTa
1106 3856 M
5884 0 V
stroke
LTb
1106 3856 M
63 0 V
5821 0 R
-63 0 V
stroke
1022 3856 M
[ [(Helvetica) 140.0 0.0 true true 0 ( 70000)]
] -46.7 MRshow
1.000 UL
LTb
1.000 UL
LTa
1106 4194 M
5884 0 V
stroke
LTb
1106 4194 M
63 0 V
5821 0 R
-63 0 V
stroke
1022 4194 M
[ [(Helvetica) 140.0 0.0 true true 0 ( 80000)]
] -46.7 MRshow
1.000 UL
LTb
1.000 UL
LTa
1106 4533 M
5884 0 V
stroke
LTb
1106 4533 M
63 0 V
5821 0 R
-63 0 V
stroke
1022 4533 M
[ [(Helvetica) 140.0 0.0 true true 0 ( 90000)]
] -46.7 MRshow
1.000 UL
LTb
1.000 UL
LTa
1106 4872 M
5884 0 V
stroke
LTb
1106 4872 M
63 0 V
5821 0 R
-63 0 V
stroke
1022 4872 M
[ [(Helvetica) 140.0 0.0 true true 0 ( 100000)]
] -46.7 MRshow
1.000 UL
LTb
1.000 UL
LTa
1106 1484 M
0 3388 V
stroke
LTb
1106 1484 M
0 63 V
0 3325 R
0 -63 V
stroke
1106 1400 M
currentpoint gsave translate 90 rotate 0 0 moveto
[ [(Helvetica) 140.0 0.0 true true 0 (2014-06-01 20:00)]
] -46.7 MRshow
grestore
1.000 UL
LTb
1229 1484 M
0 31 V
0 3357 R
0 -31 V
stroke
LTa
1351 1484 M
0 3388 V
stroke
LTb
1351 1484 M
0 63 V
0 3325 R
0 -63 V
stroke
1351 1400 M
currentpoint gsave translate 90 rotate 0 0 moveto
[ [(Helvetica) 140.0 0.0 true true 0 (2014-06-01 21:00)]
] -46.7 MRshow
grestore
1.000 UL
LTb
1474 1484 M
0 31 V
0 3357 R
0 -31 V
stroke
LTa
1596 1484 M
0 3388 V
stroke
LTb
1596 1484 M
0 63 V
0 3325 R
0 -63 V
stroke
1596 1400 M
currentpoint gsave translate 90 rotate 0 0 moveto
[ [(Helvetica) 140.0 0.0 true true 0 (2014-06-01 22:00)]
] -46.7 MRshow
grestore
1.000 UL
LTb
1719 1484 M
0 31 V
0 3357 R
0 -31 V
stroke
LTa
1842 1484 M
0 3388 V
stroke
LTb
1842 1484 M
0 63 V
0 3325 R
0 -63 V
stroke
1842 1400 M
currentpoint gsave translate 90 rotate 0 0 moveto
[ [(Helvetica) 140.0 0.0 true true 0 (2014-06-01 23:00)]
] -46.7 MRshow
grestore
1.000 UL
LTb
1964 1484 M
0 31 V
0 3357 R
0 -31 V
stroke
LTa
2087 1484 M
0 3388 V
stroke
LTb
2087 1484 M
0 63 V
0 3325 R
0 -63 V
stroke
2087 1400 M
currentpoint gsave translate 90 rotate 0 0 moveto
[ [(Helvetica) 140.0 0.0 true true 0 (2014-06-02 00:00)]
] -46.7 MRshow
grestore
1.000 UL
LTb
2209 1484 M
0 31 V
0 3357 R
0 -31 V
stroke
LTa
2332 1484 M
0 3388 V
stroke
LTb
2332 1484 M
0 63 V
0 3325 R
0 -63 V
stroke
2332 1400 M
currentpoint gsave translate 90 rotate 0 0 moveto
[ [(Helvetica) 140.0 0.0 true true 0 (2014-06-02 01:00)]
] -46.7 MRshow
grestore
1.000 UL
LTb
2454 1484 M
0 31 V
0 3357 R
0 -31 V
stroke
LTa
2577 1484 M
0 3388 V
stroke
LTb
2577 1484 M
0 63 V
0 3325 R
0 -63 V
stroke
2577 1400 M
currentpoint gsave translate 90 rotate 0 0 moveto
[ [(Helvetica) 140.0 0.0 true true 0 (2014-06-02 02:00)]
] -46.7 MRshow
grestore
1.000 UL
LTb
2700 1484 M
0 31 V
0 3357 R
0 -31 V
stroke
LTa
2822 1484 M
0 3388 V
stroke
LTb
2822 1484 M
0 63 V
0 3325 R
0 -63 V
stroke
2822 1400 M
currentpoint gsave translate 90 rotate 0 0 moveto
[ [(Helvetica) 140.0 0.0 true true 0 (2014-06-02 03:00)]
] -46.7 MRshow
grestore
1.000 UL
LTb
2945 1484 M
0 31 V
0 3357 R
0 -31 V
stroke
LTa
3067 1484 M
0 3388 V
stroke
LTb
3067 1484 M
0 63 V
0 3325 R
0 -63 V
stroke
3067 1400 M
currentpoint gsave translate 90 rotate 0 0 moveto
[ [(Helvetica) 140.0 0.0 true true 0 (2014-06-02 04:00)]
] -46.7 MRshow
grestore
1.000 UL
LTb
3190 1484 M
0 31 V
0 3357 R
0 -31 V
stroke
LTa
3313 1484 M
0 3388 V
stroke
LTb
3313 1484 M
0 63 V
0 3325 R
0 -63 V
stroke
3313 1400 M
currentpoint gsave translate 90 rotate 0 0 moveto
[ [(Helvetica) 140.0 0.0 true true 0 (2014-06-02 05:00)]
] -46.7 MRshow
grestore
1.000 UL
LTb
3435 1484 M
0 31 V
0 3357 R
0 -31 V
stroke
LTa
3558 1484 M
0 3388 V
stroke
LTb
3558 1484 M
0 63 V
0 3325 R
0 -63 V
stroke
3558 1400 M
currentpoint gsave translate 90 rotate 0 0 moveto
[ [(Helvetica) 140.0 0.0 true true 0 (2014-06-02 06:00)]
] -46.7 MRshow
grestore
1.000 UL
LTb
3680 1484 M
0 31 V
0 3357 R
0 -31 V
stroke
LTa
3803 1484 M
0 3388 V
stroke
LTb
3803 1484 M
0 63 V
0 3325 R
0 -63 V
stroke
3803 1400 M
currentpoint gsave translate 90 rotate 0 0 moveto
[ [(Helvetica) 140.0 0.0 true true 0 (2014-06-02 07:00)]
] -46.7 MRshow
grestore
1.000 UL
LTb
3925 1484 M
0 31 V
0 3357 R
0 -31 V
stroke
LTa
4048 1484 M
0 3388 V
stroke
LTb
4048 1484 M
0 63 V
0 3325 R
0 -63 V
stroke
4048 1400 M
currentpoint gsave translate 90 rotate 0 0 moveto
[ [(Helvetica) 140.0 0.0 true true 0 (2014-06-02 08:00)]
] -46.7 MRshow
grestore
1.000 UL
LTb
4171 1484 M
0 31 V
0 3357 R
0 -31 V
stroke
LTa
4293 1484 M
0 3388 V
stroke
LTb
4293 1484 M
0 63 V
0 3325 R
0 -63 V
stroke
4293 1400 M
currentpoint gsave translate 90 rotate 0 0 moveto
[ [(Helvetica) 140.0 0.0 true true 0 (2014-06-02 09:00)]
] -46.7 MRshow
grestore
1.000 UL
LTb
4416 1484 M
0 31 V
0 3357 R
0 -31 V
stroke
LTa
4538 1484 M
0 3388 V
stroke
LTb
4538 1484 M
0 63 V
0 3325 R
0 -63 V
stroke
4538 1400 M
currentpoint gsave translate 90 rotate 0 0 moveto
[ [(Helvetica) 140.0 0.0 true true 0 (2014-06-02 10:00)]
] -46.7 MRshow
grestore
1.000 UL
LTb
4661 1484 M
0 31 V
0 3357 R
0 -31 V
stroke
LTa
4784 1484 M
0 3388 V
stroke
LTb
4784 1484 M
0 63 V
0 3325 R
0 -63 V
stroke
4784 1400 M
currentpoint gsave translate 90 rotate 0 0 moveto
[ [(Helvetica) 140.0 0.0 true true 0 (2014-06-02 11:00)]
] -46.7 MRshow
grestore
1.000 UL
LTb
4906 1484 M
0 31 V
0 3357 R
0 -31 V
stroke
LTa
5029 1484 M
0 3388 V
stroke
LTb
5029 1484 M
0 63 V
0 3325 R
0 -63 V
stroke
5029 1400 M
currentpoint gsave translate 90 rotate 0 0 moveto
[ [(Helvetica) 140.0 0.0 true true 0 (2014-06-02 12:00)]
] -46.7 MRshow
grestore
1.000 UL
LTb
5151 1484 M
0 31 V
0 3357 R
0 -31 V
stroke
LTa
5274 1484 M
0 3388 V
stroke
LTb
5274 1484 M
0 63 V
0 3325 R
0 -63 V
stroke
5274 1400 M
currentpoint gsave translate 90 rotate 0 0 moveto
[ [(Helvetica) 140.0 0.0 true true 0 (2014-06-02 13:00)]
] -46.7 MRshow
grestore
1.000 UL
LTb
5396 1484 M
0 31 V
0 3357 R
0 -31 V
stroke
LTa
5519 1484 M
0 3388 V
stroke
LTb
5519 1484 M
0 63 V
0 3325 R
0 -63 V
stroke
5519 1400 M
currentpoint gsave translate 90 rotate 0 0 moveto
[ [(Helvetica) 140.0 0.0 true true 0 (2014-06-02 14:00)]
] -46.7 MRshow
grestore
1.000 UL
LTb
5642 1484 M
0 31 V
0 3357 R
0 -31 V
stroke
LTa
5764 1484 M
0 3185 V
0 140 R
0 63 V
stroke
LTb
5764 1484 M
0 63 V
0 3325 R
0 -63 V
stroke
5764 1400 M
currentpoint gsave translate 90 rotate 0 0 moveto
[ [(Helvetica) 140.0 0.0 true true 0 (2014-06-02 15:00)]
] -46.7 MRshow
grestore
1.000 UL
LTb
5887 1484 M
0 31 V
0 3357 R
0 -31 V
stroke
LTa
6009 1484 M
0 3185 V
0 140 R
0 63 V
stroke
LTb
6009 1484 M
0 63 V
0 3325 R
0 -63 V
stroke
6009 1400 M
currentpoint gsave translate 90 rotate 0 0 moveto
[ [(Helvetica) 140.0 0.0 true true 0 (2014-06-02 16:00)]
] -46.7 MRshow
grestore
1.000 UL
LTb
6132 1484 M
0 31 V
0 3357 R
0 -31 V
stroke
LTa
6255 1484 M
0 3185 V
0 140 R
0 63 V
stroke
LTb
6255 1484 M
0 63 V
0 3325 R
0 -63 V
stroke
6255 1400 M
currentpoint gsave translate 90 rotate 0 0 moveto
[ [(Helvetica) 140.0 0.0 true true 0 (2014-06-02 17:00)]
] -46.7 MRshow
grestore
1.000 UL
LTb
6377 1484 M
0 31 V
0 3357 R
0 -31 V
stroke
LTa
6500 1484 M
0 3185 V
0 140 R
0 63 V
stroke
LTb
6500 1484 M
0 63 V
0 3325 R
0 -63 V
stroke
6500 1400 M
currentpoint gsave translate 90 rotate 0 0 moveto
[ [(Helvetica) 140.0 0.0 true true 0 (2014-06-02 18:00)]
] -46.7 MRshow
grestore
1.000 UL
LTb
6622 1484 M
0 31 V
0 3357 R
0 -31 V
stroke
LTa
6745 1484 M
0 3185 V
0 140 R
0 63 V
stroke
LTb
6745 1484 M
0 63 V
0 3325 R
0 -63 V
stroke
6745 1400 M
currentpoint gsave translate 90 rotate 0 0 moveto
[ [(Helvetica) 140.0 0.0 true true 0 (2014-06-02 19:00)]
] -46.7 MRshow
grestore
1.000 UL
LTb
6867 1484 M
0 31 V
0 3357 R
0 -31 V
stroke
LTa
6990 1484 M
0 3388 V
stroke
LTb
6990 1484 M
0 63 V
0 3325 R
0 -63 V
stroke
6990 1400 M
currentpoint gsave translate 90 rotate 0 0 moveto
[ [(Helvetica) 140.0 0.0 true true 0 (2014-06-02 20:00)]
] -46.7 MRshow
grestore
1.000 UL
LTb
1.000 UL
LTb
1106 4872 N
0 -3388 V
5884 0 V
0 3388 V
-5884 0 V
Z stroke
LCb setrgbcolor
280 3178 M
currentpoint gsave translate 90 rotate 0 0 moveto
[ [(Helvetica) 140.0 0.0 true true 0 (ZIP code name)]
] -46.7 MCshow
grestore
LTb
1.000 UP
1.000 UL
LTb
1.000 UL
LTb
5583 4669 N
0 140 V
1323 0 V
0 -140 V
-1323 0 V
Z stroke
5583 4809 M
1323 0 V
1.000 UP
stroke
LT0
LTb
6339 4739 M
[ [(Helvetica) 140.0 0.0 true true 0 (Anomalies)]
] -46.7 MRshow
LT0
1.000 UP
4784 1506 Circle
1.000 UP
6990 3089 Circle
1.000 UP
1106 3089 Circle
1.000 UP
6990 2279 Circle
1.000 UP
6745 2522 Circle
3.000 UP
5029 2707 Circle
2.000 UP
5029 4094 Circle
2.000 UP
6745 3382 Circle
1.000 UP
2087 2828 Circle
1.000 UP
6745 2828 Circle
1.000 UP
6500 4132 Circle
1.000 UP
5029 1507 Circle
1.000 UP
6745 3595 Circle
1.000 UP
6745 3153 Circle
2.000 UP
6745 3341 Circle
2.000 UP
5029 3957 Circle
1.000 UP
2087 2942 Circle
1.000 UP
6745 3396 Circle
1.000 UP
6990 2458 Circle
2.000 UP
6500 2622 Circle
1.000 UP
6745 2438 Circle
1.000 UP
6745 2723 Circle
1.000 UP
6745 2512 Circle
2.000 UP
5029 4032 Circle
1.000 UP
6500 2444 Circle
1.000 UP
6990 4158 Circle
2.000 UP
6745 3319 Circle
2.000 UP
6745 2713 Circle
1.000 UP
1842 4222 Circle
1.000 UP
5029 2640 Circle
2.000 UP
6500 2830 Circle
1.000 UP
6990 2846 Circle
2.000 UP
6745 3983 Circle
2.000 UP
6745 3360 Circle
1.000 UP
6500 2503 Circle
2.000 UP
6990 3317 Circle
1.000 UP
6990 4364 Circle
2.000 UP
6745 3333 Circle
1.000 UP
5029 3960 Circle
1.000 UP
5029 4138 Circle
1.000 UP
5029 1714 Circle
1.000 UP
6745 2498 Circle
1.000 UP
6990 4608 Circle
2.000 UP
5029 2707 Circle
2.000 UP
6745 3873 Circle
2.000 UP
5029 1690 Circle
2.000 UP
6990 2807 Circle
1.000 UP
6745 2944 Circle
1.000 UP
5029 3860 Circle
1.000 UP
6990 2952 Circle
1.000 UP
5029 1506 Circle
2.000 UP
6500 2743 Circle
1.000 UP
6745 3475 Circle
2.000 UP
6500 3078 Circle
1.000 UP
1106 3597 Circle
2.000 UP
6745 2820 Circle
2.000 UP
6745 3140 Circle
1.000 UP
6500 2636 Circle
1.000 UP
6990 3877 Circle
2.000 UP
5029 3958 Circle
2.000 UP
6745 2739 Circle
1.000 UP
6745 2891 Circle
1.000 UP
6500 2481 Circle
1.000 UP
6745 3520 Circle
2.000 UP
6500 3995 Circle
2.000 UP
6745 2739 Circle
2.000 UP
6745 2507 Circle
1.000 UP
6745 3112 Circle
1.000 UP
6745 2535 Circle
1.000 UP
6745 2507 Circle
1.000 UP
6500 3034 Circle
3.000 UP
2577 4714 Circle
2.000 UP
6990 2459 Circle
1.000 UP
6745 4114 Circle
1.000 UP
6990 3986 Circle
1.000 UP
2087 3940 Circle
1.000 UP
3067 1587 Circle
1.000 UP
6745 4373 Circle
2.000 UP
6990 2784 Circle
3.000 UP
2332 3287 Circle
3.000 UP
5029 2028 Circle
1.000 UP
6745 3350 Circle
2.000 UP
6745 4082 Circle
1.000 UP
6745 3014 Circle
1.000 UP
2087 4129 Circle
1.000 UP
6500 3021 Circle
2.000 UP
6745 2865 Circle
1.000 UP
6500 4125 Circle
2.000 UP
6745 2919 Circle
2.000 UP
1842 2630 Circle
1.000 UP
5029 4032 Circle
1.000 UP
6745 2977 Circle
1.000 UP
6745 4041 Circle
2.000 UP
6500 3159 Circle
3.000 UP
6745 2602 Circle
1.000 UP
6990 2803 Circle
1.000 UP
6745 2459 Circle
1.000 UP
5029 1705 Circle
1.000 UP
1351 4529 Circle
1.000 UP
6500 3076 Circle
2.000 UP
6990 2816 Circle
2.000 UP
5029 4033 Circle
1.000 UP
5029 2438 Circle
1.000 UP
1351 3349 Circle
1.000 UP
5029 3959 Circle
2.000 UP
6990 2749 Circle
1.000 UP
6745 2487 Circle
1.000 UP
5029 1506 Circle
1.000 UP
6990 4231 Circle
1.000 UP
5029 3961 Circle
1.000 UP
1106 3724 Circle
1.000 UP
6990 3287 Circle
1.000 UP
5029 1689 Circle
3.000 UP
2087 3304 Circle
1.000 UP
6745 1773 Circle
1.000 UP
2087 3342 Circle
2.000 UP
6745 2508 Circle
1.000 UP
6500 4126 Circle
1.000 UP
6500 3167 Circle
1.000 UP
6500 4673 Circle
1.000 UP
1596 2525 Circle
2.000 UP
6745 2693 Circle
2.000 UP
6745 3926 Circle
1.000 UP
5029 4016 Circle
1.000 UP
6990 4129 Circle
2.000 UP
6745 2990 Circle
1.000 UP
6745 2479 Circle
1.000 UP
4784 3915 Circle
2.000 UP
6745 3397 Circle
1.000 UP
6990 3368 Circle
1.000 UP
6500 2948 Circle
1.000 UP
1351 3617 Circle
1.000 UP
6745 4117 Circle
3.000 UP
1596 4610 Circle
1.000 UP
6745 3464 Circle
1.000 UP
6745 2824 Circle
1.000 UP
4784 3088 Circle
2.000 UP
6990 2813 Circle
1.000 UP
1596 4740 Circle
2.000 UP
5029 2000 Circle
1.000 UP
4538 1665 Circle
2.000 UP
5029 4059 Circle
4.000 UP
3067 1682 Circle
1.000 UP
5029 1708 Circle
2.000 UP
5029 2782 Circle
1.000 UP
6500 2488 Circle
2.000 UP
6990 3925 Circle
2.000 UP
5029 3962 Circle
1.000 UP
1351 4389 Circle
1.000 UP
6745 3285 Circle
2.000 UP
6500 2447 Circle
2.000 UP
1106 3273 Circle
1.000 UP
5029 3960 Circle
1.000 UP
6745 2571 Circle
1.000 UP
6745 2569 Circle
2.000 UP
6745 2739 Circle
2.000 UP
6745 3329 Circle
1.000 UP
5029 1699 Circle
1.000 UP
6990 2477 Circle
1.000 UP
5029 2162 Circle
2.000 UP
6745 2915 Circle
3.000 UP
5029 1995 Circle
1.000 UP
1596 4823 Circle
1.000 UP
6990 4059 Circle
1.000 UP
5029 2765 Circle
1.000 UP
6745 2871 Circle
1.000 UP
6745 2580 Circle
1.000 UP
6745 3806 Circle
1.000 UP
6745 2482 Circle
1.000 UP
1106 2791 Circle
1.000 UP
2332 3419 Circle
1.000 UP
5029 4060 Circle
1.000 UP
6745 2505 Circle
1.000 UP
6500 3033 Circle
2.000 UP
3803 1714 Circle
1.000 UP
6990 3451 Circle
1.000 UP
6745 4614 Circle
1.000 UP
6745 4805 Circle
1.000 UP
6745 2874 Circle
1.000 UP
5029 2706 Circle
1.000 UP
5029 1512 Circle
2.000 UP
6745 2652 Circle
2.000 UP
6990 1897 Circle
1.000 UP
6745 4040 Circle
2.000 UP
6500 4433 Circle
1.000 UP
5029 1509 Circle
1.000 UP
5029 2773 Circle
1.000 UP
2332 3759 Circle
1.000 UP
6745 2651 Circle
1.000 UP
5029 2775 Circle
2.000 UP
6745 2945 Circle
1.000 UP
6745 2521 Circle
1.000 UP
6745 3650 Circle
1.000 UP
6745 3340 Circle
1.000 UP
5029 2945 Circle
2.000 UP
5029 4033 Circle
1.000 UP
5029 2384 Circle
2.000 UP
1106 2695 Circle
1.000 UP
4293 2298 Circle
1.000 UP
5029 2772 Circle
2.000 UP
1842 3096 Circle
2.000 UP
6990 3800 Circle
2.000 UP
6500 3707 Circle
2.000 UP
6500 2741 Circle
2.000 UP
2087 2470 Circle
1.000 UP
6745 3531 Circle
2.000 UP
6990 3156 Circle
1.000 UP
6745 3902 Circle
1.000 UP
1842 2572 Circle
1.000 UP
6745 4117 Circle
1.000 UP
6745 2514 Circle
1.000 UP
6500 2511 Circle
1.000 UP
6745 4054 Circle
1.000 UP
6500 3463 Circle
2.000 UP
6500 2972 Circle
1.000 UP
5029 1509 Circle
2.000 UP
5029 1712 Circle
1.000 UP
6745 4148 Circle
1.000 UP
5029 1705 Circle
1.000 UP
2332 4144 Circle
2.000 UP
6990 3877 Circle
2.000 UP
6745 2741 Circle
1.000 UP
6500 4735 Circle
1.000 UP
1351 3319 Circle
1.000 UP
6500 4222 Circle
1.000 UP
6745 2768 Circle
1.000 UP
6622 4739 Circle
1.000 UL
LTb
1106 4872 N
0 -3388 V
5884 0 V
0 3388 V
-5884 0 V
Z stroke
1.000 UP
1.000 UL
LTb
stroke
grestore
end
showpage
%%Trailer
%%DocumentFonts: Helvetica
