%!PS-Adobe-2.0 EPSF-2.0
%%Title: last_event.eps
%%Creator: gnuplot 4.6 patchlevel 1
%%CreationDate: Thu Oct 29 01:40:35 2015
%%DocumentFonts: (atend)
%%BoundingBox: 50 50 410 302
%%EndComments
%%BeginProlog
/gnudict 256 dict def
gnudict begin
%
% The following true/false flags may be edited by hand if desired.
% The unit line width and grayscale image gamma correction may also be changed.
%
/Color true def
/Blacktext false def
/Solid false def
/Dashlength 1 def
/Landscape false def
/Level1 false def
/Rounded false def
/ClipToBoundingBox false def
/SuppressPDFMark false def
/TransparentPatterns false def
/gnulinewidth 5.000 def
/userlinewidth gnulinewidth def
/Gamma 1.0 def
/BackgroundColor {-1.000 -1.000 -1.000} def
%
/vshift -100 def
/dl1 {
  10.0 Dashlength mul mul
  Rounded { currentlinewidth 0.75 mul sub dup 0 le { pop 0.01 } if } if
} def
/dl2 {
  10.0 Dashlength mul mul
  Rounded { currentlinewidth 0.75 mul add } if
} def
/hpt_ 31.5 def
/vpt_ 31.5 def
/hpt hpt_ def
/vpt vpt_ def
/doclip {
  ClipToBoundingBox {
    newpath 50 50 moveto 410 50 lineto 410 302 lineto 50 302 lineto closepath
    clip
  } if
} def
%
% Gnuplot Prolog Version 4.6 (September 2012)
%
%/SuppressPDFMark true def
%
/M {moveto} bind def
/L {lineto} bind def
/R {rmoveto} bind def
/V {rlineto} bind def
/N {newpath moveto} bind def
/Z {closepath} bind def
/C {setrgbcolor} bind def
/f {rlineto fill} bind def
/g {setgray} bind def
/Gshow {show} def   % May be redefined later in the file to support UTF-8
/vpt2 vpt 2 mul def
/hpt2 hpt 2 mul def
/Lshow {currentpoint stroke M 0 vshift R 
	Blacktext {gsave 0 setgray show grestore} {show} ifelse} def
/Rshow {currentpoint stroke M dup stringwidth pop neg vshift R
	Blacktext {gsave 0 setgray show grestore} {show} ifelse} def
/Cshow {currentpoint stroke M dup stringwidth pop -2 div vshift R 
	Blacktext {gsave 0 setgray show grestore} {show} ifelse} def
/UP {dup vpt_ mul /vpt exch def hpt_ mul /hpt exch def
  /hpt2 hpt 2 mul def /vpt2 vpt 2 mul def} def
/DL {Color {setrgbcolor Solid {pop []} if 0 setdash}
 {pop pop pop 0 setgray Solid {pop []} if 0 setdash} ifelse} def
/BL {stroke userlinewidth 2 mul setlinewidth
	Rounded {1 setlinejoin 1 setlinecap} if} def
/AL {stroke userlinewidth 2 div setlinewidth
	Rounded {1 setlinejoin 1 setlinecap} if} def
/UL {dup gnulinewidth mul /userlinewidth exch def
	dup 1 lt {pop 1} if 10 mul /udl exch def} def
/PL {stroke userlinewidth setlinewidth
	Rounded {1 setlinejoin 1 setlinecap} if} def
3.8 setmiterlimit
% Default Line colors
/LCw {1 1 1} def
/LCb {0 0 0} def
/LCa {0 0 0} def
/LC0 {1 0 0} def
/LC1 {0 1 0} def
/LC2 {0 0 1} def
/LC3 {1 0 1} def
/LC4 {0 1 1} def
/LC5 {1 1 0} def
/LC6 {0 0 0} def
/LC7 {1 0.3 0} def
/LC8 {0.5 0.5 0.5} def
% Default Line Types
/LTw {PL [] 1 setgray} def
/LTb {BL [] LCb DL} def
/LTa {AL [1 udl mul 2 udl mul] 0 setdash LCa setrgbcolor} def
/LT0 {PL [] LC0 DL} def
/LT1 {PL [4 dl1 2 dl2] LC1 DL} def
/LT2 {PL [2 dl1 3 dl2] LC2 DL} def
/LT3 {PL [1 dl1 1.5 dl2] LC3 DL} def
/LT4 {PL [6 dl1 2 dl2 1 dl1 2 dl2] LC4 DL} def
/LT5 {PL [3 dl1 3 dl2 1 dl1 3 dl2] LC5 DL} def
/LT6 {PL [2 dl1 2 dl2 2 dl1 6 dl2] LC6 DL} def
/LT7 {PL [1 dl1 2 dl2 6 dl1 2 dl2 1 dl1 2 dl2] LC7 DL} def
/LT8 {PL [2 dl1 2 dl2 2 dl1 2 dl2 2 dl1 2 dl2 2 dl1 4 dl2] LC8 DL} def
/Pnt {stroke [] 0 setdash gsave 1 setlinecap M 0 0 V stroke grestore} def
/Dia {stroke [] 0 setdash 2 copy vpt add M
  hpt neg vpt neg V hpt vpt neg V
  hpt vpt V hpt neg vpt V closepath stroke
  Pnt} def
/Pls {stroke [] 0 setdash vpt sub M 0 vpt2 V
  currentpoint stroke M
  hpt neg vpt neg R hpt2 0 V stroke
 } def
/Box {stroke [] 0 setdash 2 copy exch hpt sub exch vpt add M
  0 vpt2 neg V hpt2 0 V 0 vpt2 V
  hpt2 neg 0 V closepath stroke
  Pnt} def
/Crs {stroke [] 0 setdash exch hpt sub exch vpt add M
  hpt2 vpt2 neg V currentpoint stroke M
  hpt2 neg 0 R hpt2 vpt2 V stroke} def
/TriU {stroke [] 0 setdash 2 copy vpt 1.12 mul add M
  hpt neg vpt -1.62 mul V
  hpt 2 mul 0 V
  hpt neg vpt 1.62 mul V closepath stroke
  Pnt} def
/Star {2 copy Pls Crs} def
/BoxF {stroke [] 0 setdash exch hpt sub exch vpt add M
  0 vpt2 neg V hpt2 0 V 0 vpt2 V
  hpt2 neg 0 V closepath fill} def
/TriUF {stroke [] 0 setdash vpt 1.12 mul add M
  hpt neg vpt -1.62 mul V
  hpt 2 mul 0 V
  hpt neg vpt 1.62 mul V closepath fill} def
/TriD {stroke [] 0 setdash 2 copy vpt 1.12 mul sub M
  hpt neg vpt 1.62 mul V
  hpt 2 mul 0 V
  hpt neg vpt -1.62 mul V closepath stroke
  Pnt} def
/TriDF {stroke [] 0 setdash vpt 1.12 mul sub M
  hpt neg vpt 1.62 mul V
  hpt 2 mul 0 V
  hpt neg vpt -1.62 mul V closepath fill} def
/DiaF {stroke [] 0 setdash vpt add M
  hpt neg vpt neg V hpt vpt neg V
  hpt vpt V hpt neg vpt V closepath fill} def
/Pent {stroke [] 0 setdash 2 copy gsave
  translate 0 hpt M 4 {72 rotate 0 hpt L} repeat
  closepath stroke grestore Pnt} def
/PentF {stroke [] 0 setdash gsave
  translate 0 hpt M 4 {72 rotate 0 hpt L} repeat
  closepath fill grestore} def
/Circle {stroke [] 0 setdash 2 copy
  hpt 0 360 arc stroke Pnt} def
/CircleF {stroke [] 0 setdash hpt 0 360 arc fill} def
/C0 {BL [] 0 setdash 2 copy moveto vpt 90 450 arc} bind def
/C1 {BL [] 0 setdash 2 copy moveto
	2 copy vpt 0 90 arc closepath fill
	vpt 0 360 arc closepath} bind def
/C2 {BL [] 0 setdash 2 copy moveto
	2 copy vpt 90 180 arc closepath fill
	vpt 0 360 arc closepath} bind def
/C3 {BL [] 0 setdash 2 copy moveto
	2 copy vpt 0 180 arc closepath fill
	vpt 0 360 arc closepath} bind def
/C4 {BL [] 0 setdash 2 copy moveto
	2 copy vpt 180 270 arc closepath fill
	vpt 0 360 arc closepath} bind def
/C5 {BL [] 0 setdash 2 copy moveto
	2 copy vpt 0 90 arc
	2 copy moveto
	2 copy vpt 180 270 arc closepath fill
	vpt 0 360 arc} bind def
/C6 {BL [] 0 setdash 2 copy moveto
	2 copy vpt 90 270 arc closepath fill
	vpt 0 360 arc closepath} bind def
/C7 {BL [] 0 setdash 2 copy moveto
	2 copy vpt 0 270 arc closepath fill
	vpt 0 360 arc closepath} bind def
/C8 {BL [] 0 setdash 2 copy moveto
	2 copy vpt 270 360 arc closepath fill
	vpt 0 360 arc closepath} bind def
/C9 {BL [] 0 setdash 2 copy moveto
	2 copy vpt 270 450 arc closepath fill
	vpt 0 360 arc closepath} bind def
/C10 {BL [] 0 setdash 2 copy 2 copy moveto vpt 270 360 arc closepath fill
	2 copy moveto
	2 copy vpt 90 180 arc closepath fill
	vpt 0 360 arc closepath} bind def
/C11 {BL [] 0 setdash 2 copy moveto
	2 copy vpt 0 180 arc closepath fill
	2 copy moveto
	2 copy vpt 270 360 arc closepath fill
	vpt 0 360 arc closepath} bind def
/C12 {BL [] 0 setdash 2 copy moveto
	2 copy vpt 180 360 arc closepath fill
	vpt 0 360 arc closepath} bind def
/C13 {BL [] 0 setdash 2 copy moveto
	2 copy vpt 0 90 arc closepath fill
	2 copy moveto
	2 copy vpt 180 360 arc closepath fill
	vpt 0 360 arc closepath} bind def
/C14 {BL [] 0 setdash 2 copy moveto
	2 copy vpt 90 360 arc closepath fill
	vpt 0 360 arc} bind def
/C15 {BL [] 0 setdash 2 copy vpt 0 360 arc closepath fill
	vpt 0 360 arc closepath} bind def
/Rec {newpath 4 2 roll moveto 1 index 0 rlineto 0 exch rlineto
	neg 0 rlineto closepath} bind def
/Square {dup Rec} bind def
/Bsquare {vpt sub exch vpt sub exch vpt2 Square} bind def
/S0 {BL [] 0 setdash 2 copy moveto 0 vpt rlineto BL Bsquare} bind def
/S1 {BL [] 0 setdash 2 copy vpt Square fill Bsquare} bind def
/S2 {BL [] 0 setdash 2 copy exch vpt sub exch vpt Square fill Bsquare} bind def
/S3 {BL [] 0 setdash 2 copy exch vpt sub exch vpt2 vpt Rec fill Bsquare} bind def
/S4 {BL [] 0 setdash 2 copy exch vpt sub exch vpt sub vpt Square fill Bsquare} bind def
/S5 {BL [] 0 setdash 2 copy 2 copy vpt Square fill
	exch vpt sub exch vpt sub vpt Square fill Bsquare} bind def
/S6 {BL [] 0 setdash 2 copy exch vpt sub exch vpt sub vpt vpt2 Rec fill Bsquare} bind def
/S7 {BL [] 0 setdash 2 copy exch vpt sub exch vpt sub vpt vpt2 Rec fill
	2 copy vpt Square fill Bsquare} bind def
/S8 {BL [] 0 setdash 2 copy vpt sub vpt Square fill Bsquare} bind def
/S9 {BL [] 0 setdash 2 copy vpt sub vpt vpt2 Rec fill Bsquare} bind def
/S10 {BL [] 0 setdash 2 copy vpt sub vpt Square fill 2 copy exch vpt sub exch vpt Square fill
	Bsquare} bind def
/S11 {BL [] 0 setdash 2 copy vpt sub vpt Square fill 2 copy exch vpt sub exch vpt2 vpt Rec fill
	Bsquare} bind def
/S12 {BL [] 0 setdash 2 copy exch vpt sub exch vpt sub vpt2 vpt Rec fill Bsquare} bind def
/S13 {BL [] 0 setdash 2 copy exch vpt sub exch vpt sub vpt2 vpt Rec fill
	2 copy vpt Square fill Bsquare} bind def
/S14 {BL [] 0 setdash 2 copy exch vpt sub exch vpt sub vpt2 vpt Rec fill
	2 copy exch vpt sub exch vpt Square fill Bsquare} bind def
/S15 {BL [] 0 setdash 2 copy Bsquare fill Bsquare} bind def
/D0 {gsave translate 45 rotate 0 0 S0 stroke grestore} bind def
/D1 {gsave translate 45 rotate 0 0 S1 stroke grestore} bind def
/D2 {gsave translate 45 rotate 0 0 S2 stroke grestore} bind def
/D3 {gsave translate 45 rotate 0 0 S3 stroke grestore} bind def
/D4 {gsave translate 45 rotate 0 0 S4 stroke grestore} bind def
/D5 {gsave translate 45 rotate 0 0 S5 stroke grestore} bind def
/D6 {gsave translate 45 rotate 0 0 S6 stroke grestore} bind def
/D7 {gsave translate 45 rotate 0 0 S7 stroke grestore} bind def
/D8 {gsave translate 45 rotate 0 0 S8 stroke grestore} bind def
/D9 {gsave translate 45 rotate 0 0 S9 stroke grestore} bind def
/D10 {gsave translate 45 rotate 0 0 S10 stroke grestore} bind def
/D11 {gsave translate 45 rotate 0 0 S11 stroke grestore} bind def
/D12 {gsave translate 45 rotate 0 0 S12 stroke grestore} bind def
/D13 {gsave translate 45 rotate 0 0 S13 stroke grestore} bind def
/D14 {gsave translate 45 rotate 0 0 S14 stroke grestore} bind def
/D15 {gsave translate 45 rotate 0 0 S15 stroke grestore} bind def
/DiaE {stroke [] 0 setdash vpt add M
  hpt neg vpt neg V hpt vpt neg V
  hpt vpt V hpt neg vpt V closepath stroke} def
/BoxE {stroke [] 0 setdash exch hpt sub exch vpt add M
  0 vpt2 neg V hpt2 0 V 0 vpt2 V
  hpt2 neg 0 V closepath stroke} def
/TriUE {stroke [] 0 setdash vpt 1.12 mul add M
  hpt neg vpt -1.62 mul V
  hpt 2 mul 0 V
  hpt neg vpt 1.62 mul V closepath stroke} def
/TriDE {stroke [] 0 setdash vpt 1.12 mul sub M
  hpt neg vpt 1.62 mul V
  hpt 2 mul 0 V
  hpt neg vpt -1.62 mul V closepath stroke} def
/PentE {stroke [] 0 setdash gsave
  translate 0 hpt M 4 {72 rotate 0 hpt L} repeat
  closepath stroke grestore} def
/CircE {stroke [] 0 setdash 
  hpt 0 360 arc stroke} def
/Opaque {gsave closepath 1 setgray fill grestore 0 setgray closepath} def
/DiaW {stroke [] 0 setdash vpt add M
  hpt neg vpt neg V hpt vpt neg V
  hpt vpt V hpt neg vpt V Opaque stroke} def
/BoxW {stroke [] 0 setdash exch hpt sub exch vpt add M
  0 vpt2 neg V hpt2 0 V 0 vpt2 V
  hpt2 neg 0 V Opaque stroke} def
/TriUW {stroke [] 0 setdash vpt 1.12 mul add M
  hpt neg vpt -1.62 mul V
  hpt 2 mul 0 V
  hpt neg vpt 1.62 mul V Opaque stroke} def
/TriDW {stroke [] 0 setdash vpt 1.12 mul sub M
  hpt neg vpt 1.62 mul V
  hpt 2 mul 0 V
  hpt neg vpt -1.62 mul V Opaque stroke} def
/PentW {stroke [] 0 setdash gsave
  translate 0 hpt M 4 {72 rotate 0 hpt L} repeat
  Opaque stroke grestore} def
/CircW {stroke [] 0 setdash 
  hpt 0 360 arc Opaque stroke} def
/BoxFill {gsave Rec 1 setgray fill grestore} def
/Density {
  /Fillden exch def
  currentrgbcolor
  /ColB exch def /ColG exch def /ColR exch def
  /ColR ColR Fillden mul Fillden sub 1 add def
  /ColG ColG Fillden mul Fillden sub 1 add def
  /ColB ColB Fillden mul Fillden sub 1 add def
  ColR ColG ColB setrgbcolor} def
/BoxColFill {gsave Rec PolyFill} def
/PolyFill {gsave Density fill grestore grestore} def
/h {rlineto rlineto rlineto gsave closepath fill grestore} bind def
%
% PostScript Level 1 Pattern Fill routine for rectangles
% Usage: x y w h s a XX PatternFill
%	x,y = lower left corner of box to be filled
%	w,h = width and height of box
%	  a = angle in degrees between lines and x-axis
%	 XX = 0/1 for no/yes cross-hatch
%
/PatternFill {gsave /PFa [ 9 2 roll ] def
  PFa 0 get PFa 2 get 2 div add PFa 1 get PFa 3 get 2 div add translate
  PFa 2 get -2 div PFa 3 get -2 div PFa 2 get PFa 3 get Rec
  TransparentPatterns {} {gsave 1 setgray fill grestore} ifelse
  clip
  currentlinewidth 0.5 mul setlinewidth
  /PFs PFa 2 get dup mul PFa 3 get dup mul add sqrt def
  0 0 M PFa 5 get rotate PFs -2 div dup translate
  0 1 PFs PFa 4 get div 1 add floor cvi
	{PFa 4 get mul 0 M 0 PFs V} for
  0 PFa 6 get ne {
	0 1 PFs PFa 4 get div 1 add floor cvi
	{PFa 4 get mul 0 2 1 roll M PFs 0 V} for
 } if
  stroke grestore} def
%
/languagelevel where
 {pop languagelevel} {1} ifelse
 2 lt
	{/InterpretLevel1 true def}
	{/InterpretLevel1 Level1 def}
 ifelse
%
% PostScript level 2 pattern fill definitions
%
/Level2PatternFill {
/Tile8x8 {/PaintType 2 /PatternType 1 /TilingType 1 /BBox [0 0 8 8] /XStep 8 /YStep 8}
	bind def
/KeepColor {currentrgbcolor [/Pattern /DeviceRGB] setcolorspace} bind def
<< Tile8x8
 /PaintProc {0.5 setlinewidth pop 0 0 M 8 8 L 0 8 M 8 0 L stroke} 
>> matrix makepattern
/Pat1 exch def
<< Tile8x8
 /PaintProc {0.5 setlinewidth pop 0 0 M 8 8 L 0 8 M 8 0 L stroke
	0 4 M 4 8 L 8 4 L 4 0 L 0 4 L stroke}
>> matrix makepattern
/Pat2 exch def
<< Tile8x8
 /PaintProc {0.5 setlinewidth pop 0 0 M 0 8 L
	8 8 L 8 0 L 0 0 L fill}
>> matrix makepattern
/Pat3 exch def
<< Tile8x8
 /PaintProc {0.5 setlinewidth pop -4 8 M 8 -4 L
	0 12 M 12 0 L stroke}
>> matrix makepattern
/Pat4 exch def
<< Tile8x8
 /PaintProc {0.5 setlinewidth pop -4 0 M 8 12 L
	0 -4 M 12 8 L stroke}
>> matrix makepattern
/Pat5 exch def
<< Tile8x8
 /PaintProc {0.5 setlinewidth pop -2 8 M 4 -4 L
	0 12 M 8 -4 L 4 12 M 10 0 L stroke}
>> matrix makepattern
/Pat6 exch def
<< Tile8x8
 /PaintProc {0.5 setlinewidth pop -2 0 M 4 12 L
	0 -4 M 8 12 L 4 -4 M 10 8 L stroke}
>> matrix makepattern
/Pat7 exch def
<< Tile8x8
 /PaintProc {0.5 setlinewidth pop 8 -2 M -4 4 L
	12 0 M -4 8 L 12 4 M 0 10 L stroke}
>> matrix makepattern
/Pat8 exch def
<< Tile8x8
 /PaintProc {0.5 setlinewidth pop 0 -2 M 12 4 L
	-4 0 M 12 8 L -4 4 M 8 10 L stroke}
>> matrix makepattern
/Pat9 exch def
/Pattern1 {PatternBgnd KeepColor Pat1 setpattern} bind def
/Pattern2 {PatternBgnd KeepColor Pat2 setpattern} bind def
/Pattern3 {PatternBgnd KeepColor Pat3 setpattern} bind def
/Pattern4 {PatternBgnd KeepColor Landscape {Pat5} {Pat4} ifelse setpattern} bind def
/Pattern5 {PatternBgnd KeepColor Landscape {Pat4} {Pat5} ifelse setpattern} bind def
/Pattern6 {PatternBgnd KeepColor Landscape {Pat9} {Pat6} ifelse setpattern} bind def
/Pattern7 {PatternBgnd KeepColor Landscape {Pat8} {Pat7} ifelse setpattern} bind def
} def
%
%
%End of PostScript Level 2 code
%
/PatternBgnd {
  TransparentPatterns {} {gsave 1 setgray fill grestore} ifelse
} def
%
% Substitute for Level 2 pattern fill codes with
% grayscale if Level 2 support is not selected.
%
/Level1PatternFill {
/Pattern1 {0.250 Density} bind def
/Pattern2 {0.500 Density} bind def
/Pattern3 {0.750 Density} bind def
/Pattern4 {0.125 Density} bind def
/Pattern5 {0.375 Density} bind def
/Pattern6 {0.625 Density} bind def
/Pattern7 {0.875 Density} bind def
} def
%
% Now test for support of Level 2 code
%
Level1 {Level1PatternFill} {Level2PatternFill} ifelse
%
/Symbol-Oblique /Symbol findfont [1 0 .167 1 0 0] makefont
dup length dict begin {1 index /FID eq {pop pop} {def} ifelse} forall
currentdict end definefont pop
/MFshow {
   { dup 5 get 3 ge
     { 5 get 3 eq {gsave} {grestore} ifelse }
     {dup dup 0 get findfont exch 1 get scalefont setfont
     [ currentpoint ] exch dup 2 get 0 exch R dup 5 get 2 ne {dup dup 6
     get exch 4 get {Gshow} {stringwidth pop 0 R} ifelse }if dup 5 get 0 eq
     {dup 3 get {2 get neg 0 exch R pop} {pop aload pop M} ifelse} {dup 5
     get 1 eq {dup 2 get exch dup 3 get exch 6 get stringwidth pop -2 div
     dup 0 R} {dup 6 get stringwidth pop -2 div 0 R 6 get
     show 2 index {aload pop M neg 3 -1 roll neg R pop pop} {pop pop pop
     pop aload pop M} ifelse }ifelse }ifelse }
     ifelse }
   forall} def
/Gswidth {dup type /stringtype eq {stringwidth} {pop (n) stringwidth} ifelse} def
/MFwidth {0 exch { dup 5 get 3 ge { 5 get 3 eq { 0 } { pop } ifelse }
 {dup 3 get{dup dup 0 get findfont exch 1 get scalefont setfont
     6 get Gswidth pop add} {pop} ifelse} ifelse} forall} def
/MLshow { currentpoint stroke M
  0 exch R
  Blacktext {gsave 0 setgray MFshow grestore} {MFshow} ifelse } bind def
/MRshow { currentpoint stroke M
  exch dup MFwidth neg 3 -1 roll R
  Blacktext {gsave 0 setgray MFshow grestore} {MFshow} ifelse } bind def
/MCshow { currentpoint stroke M
  exch dup MFwidth -2 div 3 -1 roll R
  Blacktext {gsave 0 setgray MFshow grestore} {MFshow} ifelse } bind def
/XYsave    { [( ) 1 2 true false 3 ()] } bind def
/XYrestore { [( ) 1 2 true false 4 ()] } bind def
Level1 SuppressPDFMark or 
{} {
/SDict 10 dict def
systemdict /pdfmark known not {
  userdict /pdfmark systemdict /cleartomark get put
} if
SDict begin [
  /Title (last_event.eps)
  /Subject (gnuplot plot)
  /Creator (gnuplot 4.6 patchlevel 1)
  /Author (binh)
%  /Producer (gnuplot)
%  /Keywords ()
  /CreationDate (Thu Oct 29 01:40:35 2015)
  /DOCINFO pdfmark
end
} ifelse
end
%%EndProlog
%%Page: 1 1
gnudict begin
gsave
doclip
50 50 translate
0.050 0.050 scale
0 setgray
newpath
(Helvetica) findfont 300 scalefont setfont
BackgroundColor 0 lt 3 1 roll 0 lt exch 0 lt or or not {BackgroundColor C 1.000 0 0 7200.00 5040.00 BoxColFill} if
1.000 UL
LTb
0.500 UL
LTa
1470 960 M
5189 0 V
stroke
1.000 UL
LTb
1470 960 M
5189 0 R
stroke
1290 960 M
[ [(Helvetica) 300.0 0.0 true true 0 ( 0)]
] -100.0 MRshow
1.000 UL
LTb
0.500 UL
LTa
1470 1580 M
5189 0 V
stroke
1.000 UL
LTb
1470 1580 M
5189 0 R
stroke
1290 1580 M
[ [(Helvetica) 300.0 0.0 true true 0 ( 0.5)]
] -100.0 MRshow
1.000 UL
LTb
0.500 UL
LTa
1470 2200 M
5189 0 V
stroke
1.000 UL
LTb
1470 2200 M
5189 0 R
stroke
1290 2200 M
[ [(Helvetica) 300.0 0.0 true true 0 ( 1)]
] -100.0 MRshow
1.000 UL
LTb
0.500 UL
LTa
1470 2820 M
5189 0 V
stroke
1.000 UL
LTb
1470 2820 M
5189 0 R
stroke
1290 2820 M
[ [(Helvetica) 300.0 0.0 true true 0 ( 1.5)]
] -100.0 MRshow
1.000 UL
LTb
0.500 UL
LTa
1470 3439 M
5189 0 V
stroke
1.000 UL
LTb
1470 3439 M
5189 0 R
stroke
1290 3439 M
[ [(Helvetica) 300.0 0.0 true true 0 ( 2)]
] -100.0 MRshow
1.000 UL
LTb
0.500 UL
LTa
1470 4059 M
180 0 V
3366 0 R
1643 0 V
stroke
1.000 UL
LTb
1470 4059 M
5189 0 R
stroke
1290 4059 M
[ [(Helvetica) 300.0 0.0 true true 0 ( 2.5)]
] -100.0 MRshow
1.000 UL
LTb
0.500 UL
LTa
1470 4679 M
5189 0 V
stroke
1.000 UL
LTb
1470 4679 M
5189 0 R
stroke
1290 4679 M
[ [(Helvetica) 300.0 0.0 true true 0 ( 3)]
] -100.0 MRshow
1.000 UL
LTb
2211 960 M
0 63 V
stroke
2211 660 M
[ [(Helvetica) 200.0 0.0 true true 0 (100)]
] -66.7 MCshow
1.000 UL
LTb
2953 960 M
0 63 V
stroke
2953 660 M
[ [(Helvetica) 200.0 0.0 true true 0 (500)]
] -66.7 MCshow
1.000 UL
LTb
3694 960 M
0 63 V
stroke
3694 660 M
[ [(Helvetica) 200.0 0.0 true true 0 (1000)]
] -66.7 MCshow
1.000 UL
LTb
4435 960 M
0 63 V
stroke
4435 660 M
[ [(Helvetica) 200.0 0.0 true true 0 (1500)]
] -66.7 MCshow
1.000 UL
LTb
5176 960 M
0 63 V
stroke
5176 660 M
[ [(Helvetica) 200.0 0.0 true true 0 (2000)]
] -66.7 MCshow
1.000 UL
LTb
5918 960 M
0 63 V
stroke
5918 660 M
[ [(Helvetica) 200.0 0.0 true true 0 (2500)]
] -66.7 MCshow
1.000 UL
LTb
1.000 UL
LTb
1470 4679 N
0 -3719 V
5189 0 V
0 3719 V
-5189 0 V
Z stroke
LCb setrgbcolor
240 2819 M
currentpoint gsave translate -270 rotate 0 0 moveto
[ [(Helvetica) 300.0 0.0 true true 0 (Processing time \(ms\))]
] -100.0 MCshow
grestore
LTb
LCb setrgbcolor
4064 210 M
[ [(Helvetica) 300.0 0.0 true true 0 (# of events)]
] -100.0 MCshow
LTb
1.000 UP
1.000 UL
LTb
% Begin plot #1
3.000 UL
LT0
LCb setrgbcolor
2730 4466 M
[ [(Helvetica) 250.0 0.0 true true 0 (C2S)]
] -83.3 MRshow
LT0
1.000 2910 4391 243 150 BoxColFill
LCb setrgbcolor
2910 4391 N
243 0 V
0 150 V
-243 0 V
0 -150 V
Z stroke
LT0
1.000 1915 960 149 988 BoxColFill
LCb setrgbcolor
1915 960 N
0 987 V
148 0 V
0 -987 V
-148 0 V
Z stroke
LT0
1.000 2656 960 149 913 BoxColFill
LCb setrgbcolor
2656 960 N
0 912 V
148 0 V
0 -912 V
-148 0 V
Z stroke
LT0
1.000 3397 960 150 916 BoxColFill
LCb setrgbcolor
3397 960 N
0 915 V
149 0 V
0 -915 V
-149 0 V
Z stroke
LT0
1.000 4139 960 149 914 BoxColFill
LCb setrgbcolor
4139 960 N
0 913 V
148 0 V
0 -913 V
-148 0 V
Z stroke
LT0
1.000 4880 960 149 915 BoxColFill
LCb setrgbcolor
4880 960 N
0 914 V
148 0 V
0 -914 V
-148 0 V
Z stroke
LT0
1.000 5621 960 149 917 BoxColFill
LCb setrgbcolor
5621 960 N
0 916 V
148 0 V
0 -916 V
-148 0 V
Z stroke
LT0
3.000 UL
LCb setrgbcolor
1989 2160 M
0 -426 V
-31 426 R
62 0 V
-62 -426 R
62 0 V
710 222 R
0 -168 V
-31 168 R
62 0 V
-62 -168 R
62 0 V
710 177 R
0 -179 V
-31 179 R
62 0 V
-62 -179 R
62 0 V
711 181 R
0 -187 V
-31 187 R
62 0 V
-62 -187 R
62 0 V
710 179 R
0 -170 V
-31 170 R
62 0 V
-62 -170 R
62 0 V
710 182 R
0 -189 V
-31 189 R
62 0 V
-62 -189 R
62 0 V
stroke
LT0
% End plot #1
% Begin plot #2
3.000 UL
LT1
LCb setrgbcolor
2730 4166 M
[ [(Helvetica) 250.0 0.0 true true 0 (P2P)]
] -83.3 MRshow
LT1
1.000 2910 4091 243 150 BoxColFill
LCb setrgbcolor
2910 4091 N
243 0 V
0 150 V
-243 0 V
0 -150 V
Z stroke
LT1
1.000 2063 960 149 2052 BoxColFill
LCb setrgbcolor
2063 960 N
0 2051 V
148 0 V
0 -2051 V
-148 0 V
Z stroke
LT1
1.000 2804 960 150 1987 BoxColFill
LCb setrgbcolor
2804 960 N
0 1986 V
149 0 V
0 -1986 V
-149 0 V
Z stroke
LT1
1.000 3546 960 149 1992 BoxColFill
LCb setrgbcolor
3546 960 N
0 1991 V
148 0 V
0 -1991 V
-148 0 V
Z stroke
LT1
1.000 4287 960 149 1987 BoxColFill
LCb setrgbcolor
4287 960 N
0 1986 V
148 0 V
0 -1986 V
-148 0 V
Z stroke
LT1
1.000 5028 960 149 1995 BoxColFill
LCb setrgbcolor
5028 960 N
0 1994 V
148 0 V
0 -1994 V
-148 0 V
Z stroke
LT1
1.000 5769 960 150 2001 BoxColFill
LCb setrgbcolor
5769 960 N
0 2000 V
149 0 V
0 -2000 V
-149 0 V
Z stroke
LT1
3.000 UL
LCb setrgbcolor
2137 3310 M
0 -598 V
-31 598 R
62 0 V
-62 -598 R
62 0 V
710 412 R
0 -355 V
-31 355 R
62 0 V
-62 -355 R
62 0 V
711 361 R
0 -358 V
-31 358 R
62 0 V
-62 -358 R
62 0 V
710 350 R
0 -351 V
-31 351 R
62 0 V
-62 -351 R
62 0 V
710 359 R
0 -352 V
-31 352 R
62 0 V
-62 -352 R
62 0 V
711 408 R
0 -451 V
-31 451 R
62 0 V
-62 -451 R
62 0 V
stroke
LT1
% End plot #2
% Begin plot #3
3.000 UL
LT2
LCb setrgbcolor
4413 4466 M
[ [(Helvetica) 250.0 0.0 true true 0 (HO-C2S)]
] -83.3 MRshow
LT2
1.000 4593 4391 243 150 BoxColFill
LCb setrgbcolor
4593 4391 N
243 0 V
0 150 V
-243 0 V
0 -150 V
Z stroke
LT2
1.000 2211 960 150 2884 BoxColFill
LCb setrgbcolor
2211 960 N
0 2883 V
149 0 V
0 -2883 V
-149 0 V
Z stroke
LT2
1.000 2953 960 149 2855 BoxColFill
LCb setrgbcolor
2953 960 N
0 2854 V
148 0 V
0 -2854 V
-148 0 V
Z stroke
LT2
1.000 3694 960 149 2846 BoxColFill
LCb setrgbcolor
3694 960 N
0 2845 V
148 0 V
0 -2845 V
-148 0 V
Z stroke
LT2
1.000 4435 960 149 2841 BoxColFill
LCb setrgbcolor
4435 960 N
0 2840 V
148 0 V
0 -2840 V
-148 0 V
Z stroke
LT2
1.000 5176 960 150 2839 BoxColFill
LCb setrgbcolor
5176 960 N
0 2838 V
149 0 V
0 -2838 V
-149 0 V
Z stroke
LT2
1.000 5918 960 149 2837 BoxColFill
LCb setrgbcolor
5918 960 N
0 2836 V
148 0 V
0 -2836 V
-148 0 V
Z stroke
LT2
3.000 UL
LCb setrgbcolor
2285 4142 M
0 -598 V
-31 598 R
62 0 V
-62 -598 R
62 0 V
711 521 R
0 -503 V
-31 503 R
62 0 V
-62 -503 R
62 0 V
710 478 R
0 -469 V
-31 469 R
62 0 V
-62 -469 R
62 0 V
710 456 R
0 -453 V
-31 453 R
62 0 V
-62 -453 R
62 0 V
711 446 R
0 -444 V
-31 444 R
62 0 V
-62 -444 R
62 0 V
710 438 R
0 -436 V
-31 436 R
62 0 V
-62 -436 R
62 0 V
stroke
LT2
% End plot #3
% Begin plot #4
3.000 UL
LT3
LCb setrgbcolor
4413 4166 M
[ [(Helvetica) 250.0 0.0 true true 0 (HO-P2P)]
] -83.3 MRshow
LT3
1.000 4593 4091 243 150 BoxColFill
LCb setrgbcolor
4593 4091 N
243 0 V
0 150 V
-243 0 V
0 -150 V
Z stroke
LT3
1.000 2360 960 149 2166 BoxColFill
LCb setrgbcolor
2360 960 N
0 2165 V
148 0 V
0 -2165 V
-148 0 V
Z stroke
LT3
1.000 3101 960 149 2130 BoxColFill
LCb setrgbcolor
3101 960 N
0 2129 V
148 0 V
0 -2129 V
-148 0 V
Z stroke
LT3
1.000 3842 960 149 2125 BoxColFill
LCb setrgbcolor
3842 960 N
0 2124 V
148 0 V
0 -2124 V
-148 0 V
Z stroke
LT3
1.000 4583 960 150 2191 BoxColFill
LCb setrgbcolor
4583 960 N
0 2190 V
149 0 V
0 -2190 V
-149 0 V
Z stroke
LT3
1.000 5325 960 149 2128 BoxColFill
LCb setrgbcolor
5325 960 N
0 2127 V
148 0 V
0 -2127 V
-148 0 V
Z stroke
LT3
1.000 6066 960 149 2123 BoxColFill
LCb setrgbcolor
6066 960 N
0 2122 V
148 0 V
0 -2122 V
-148 0 V
Z stroke
LT3
3.000 UL
LCb setrgbcolor
2434 3309 M
0 -368 V
-31 368 R
62 0 V
-62 -368 R
62 0 V
710 315 R
0 -333 V
-31 333 R
62 0 V
-62 -333 R
62 0 V
710 295 R
0 -267 V
-31 267 R
62 0 V
-62 -267 R
62 0 V
711 482 R
0 -566 V
-31 566 R
62 0 V
-62 -566 R
62 0 V
710 363 R
0 -285 V
-31 285 R
62 0 V
-62 -285 R
62 0 V
710 261 R
0 -248 V
-31 248 R
62 0 V
-62 -248 R
62 0 V
stroke
LT3
% End plot #4
1.000 UL
LTb
1470 4679 N
0 -3719 V
5189 0 V
0 3719 V
-5189 0 V
Z stroke
1.000 UP
1.000 UL
LTb
stroke
grestore
end
showpage
%%Trailer
%%DocumentFonts: Helvetica
