%!PS-Adobe-2.0 EPSF-2.0
%%Title: data-service-noise.eps
%%Creator: gnuplot 4.2 patchlevel 6 
%%CreationDate: Thu Sep 11 02:09:36 2014
%%DocumentFonts: (atend)
%%BoundingBox: 50 50 410 302
%%EndComments
%%BeginProlog
/gnudict 256 dict def
gnudict begin
%
% The following 6 true/false flags may be edited by hand if required
% The unit line width may also be changed
%
/Color true def
/Blacktext false def
/Solid false def
/Dashlength 1 def
/Landscape false def
/Level1 false def
/Rounded false def
/TransparentPatterns false def
/gnulinewidth 5.000 def
/userlinewidth gnulinewidth def
%
/vshift -46 def
/dl1 {
  10.0 Dashlength mul mul
  Rounded { currentlinewidth 0.75 mul sub dup 0 le { pop 0.01 } if } if
} def
/dl2 {
  10.0 Dashlength mul mul
  Rounded { currentlinewidth 0.75 mul add } if
} def
/hpt_ 31.5 def
/vpt_ 31.5 def
/hpt hpt_ def
/vpt vpt_ def
Level1 {} {
/SDict 10 dict def
systemdict /pdfmark known not {
  userdict /pdfmark systemdict /cleartomark get put
} if
SDict begin [
  /Title (data-service-noise.eps)
  /Subject (gnuplot plot)
  /Creator (gnuplot 4.2 patchlevel 6 )
  /Author (Binh Nguyen,[chenxu])
%  /Producer (gnuplot)
%  /Keywords ()
  /CreationDate (Thu Sep 11 02:09:36 2014)
  /DOCINFO pdfmark
end
} ifelse
%
% Gnuplot Prolog Version 4.2 (August 2006)
%
/M {moveto} bind def
/L {lineto} bind def
/R {rmoveto} bind def
/V {rlineto} bind def
/N {newpath moveto} bind def
/Z {closepath} bind def
/C {setrgbcolor} bind def
/f {rlineto fill} bind def
/vpt2 vpt 2 mul def
/hpt2 hpt 2 mul def
/Lshow {currentpoint stroke M 0 vshift R 
	Blacktext {gsave 0 setgray show grestore} {show} ifelse} def
/Rshow {currentpoint stroke M dup stringwidth pop neg vshift R
	Blacktext {gsave 0 setgray show grestore} {show} ifelse} def
/Cshow {currentpoint stroke M dup stringwidth pop -2 div vshift R 
	Blacktext {gsave 0 setgray show grestore} {show} ifelse} def
/UP {dup vpt_ mul /vpt exch def hpt_ mul /hpt exch def
  /hpt2 hpt 2 mul def /vpt2 vpt 2 mul def} def
/DL {Color {setrgbcolor Solid {pop []} if 0 setdash}
 {pop pop pop 0 setgray Solid {pop []} if 0 setdash} ifelse} def
/BL {stroke userlinewidth 2 mul setlinewidth
	Rounded {1 setlinejoin 1 setlinecap} if} def
/AL {stroke userlinewidth 2 div setlinewidth
	Rounded {1 setlinejoin 1 setlinecap} if} def
/UL {dup gnulinewidth mul /userlinewidth exch def
	dup 1 lt {pop 1} if 10 mul /udl exch def} def
/PL {stroke userlinewidth setlinewidth
	Rounded {1 setlinejoin 1 setlinecap} if} def
% Default Line colors
/LCw {1 1 1} def
/LCb {0 0 0} def
/LCa {0 0 0} def
/LC0 {1 0 0} def
/LC1 {0 1 0} def
/LC2 {0 0 1} def
/LC3 {1 0 1} def
/LC4 {0 1 1} def
/LC5 {1 1 0} def
/LC6 {0 0 0} def
/LC7 {1 0.3 0} def
/LC8 {0.5 0.5 0.5} def
% Default Line Types
/LTw {PL [] 1 setgray} def
/LTb {BL [] LCb DL} def
/LTa {AL [1 udl mul 2 udl mul] 0 setdash LCa setrgbcolor} def
/LT0 {PL [] LC0 DL} def
/LT1 {PL [4 dl1 2 dl2] LC1 DL} def
/LT2 {PL [2 dl1 3 dl2] LC2 DL} def
/LT3 {PL [1 dl1 1.5 dl2] LC3 DL} def
/LT4 {PL [6 dl1 2 dl2 1 dl1 2 dl2] LC4 DL} def
/LT5 {PL [3 dl1 3 dl2 1 dl1 3 dl2] LC5 DL} def
/LT6 {PL [2 dl1 2 dl2 2 dl1 6 dl2] LC6 DL} def
/LT7 {PL [1 dl1 2 dl2 6 dl1 2 dl2 1 dl1 2 dl2] LC7 DL} def
/LT8 {PL [2 dl1 2 dl2 2 dl1 2 dl2 2 dl1 2 dl2 2 dl1 4 dl2] LC8 DL} def
/Pnt {stroke [] 0 setdash gsave 1 setlinecap M 0 0 V stroke grestore} def
/Dia {stroke [] 0 setdash 2 copy vpt add M
  hpt neg vpt neg V hpt vpt neg V
  hpt vpt V hpt neg vpt V closepath stroke
  Pnt} def
/Pls {stroke [] 0 setdash vpt sub M 0 vpt2 V
  currentpoint stroke M
  hpt neg vpt neg R hpt2 0 V stroke
 } def
/Box {stroke [] 0 setdash 2 copy exch hpt sub exch vpt add M
  0 vpt2 neg V hpt2 0 V 0 vpt2 V
  hpt2 neg 0 V closepath stroke
  Pnt} def
/Crs {stroke [] 0 setdash exch hpt sub exch vpt add M
  hpt2 vpt2 neg V currentpoint stroke M
  hpt2 neg 0 R hpt2 vpt2 V stroke} def
/TriU {stroke [] 0 setdash 2 copy vpt 1.12 mul add M
  hpt neg vpt -1.62 mul V
  hpt 2 mul 0 V
  hpt neg vpt 1.62 mul V closepath stroke
  Pnt} def
/Star {2 copy Pls Crs} def
/BoxF {stroke [] 0 setdash exch hpt sub exch vpt add M
  0 vpt2 neg V hpt2 0 V 0 vpt2 V
  hpt2 neg 0 V closepath fill} def
/TriUF {stroke [] 0 setdash vpt 1.12 mul add M
  hpt neg vpt -1.62 mul V
  hpt 2 mul 0 V
  hpt neg vpt 1.62 mul V closepath fill} def
/TriD {stroke [] 0 setdash 2 copy vpt 1.12 mul sub M
  hpt neg vpt 1.62 mul V
  hpt 2 mul 0 V
  hpt neg vpt -1.62 mul V closepath stroke
  Pnt} def
/TriDF {stroke [] 0 setdash vpt 1.12 mul sub M
  hpt neg vpt 1.62 mul V
  hpt 2 mul 0 V
  hpt neg vpt -1.62 mul V closepath fill} def
/DiaF {stroke [] 0 setdash vpt add M
  hpt neg vpt neg V hpt vpt neg V
  hpt vpt V hpt neg vpt V closepath fill} def
/Pent {stroke [] 0 setdash 2 copy gsave
  translate 0 hpt M 4 {72 rotate 0 hpt L} repeat
  closepath stroke grestore Pnt} def
/PentF {stroke [] 0 setdash gsave
  translate 0 hpt M 4 {72 rotate 0 hpt L} repeat
  closepath fill grestore} def
/Circle {stroke [] 0 setdash 2 copy
  hpt 0 360 arc stroke Pnt} def
/CircleF {stroke [] 0 setdash hpt 0 360 arc fill} def
/C0 {BL [] 0 setdash 2 copy moveto vpt 90 450 arc} bind def
/C1 {BL [] 0 setdash 2 copy moveto
	2 copy vpt 0 90 arc closepath fill
	vpt 0 360 arc closepath} bind def
/C2 {BL [] 0 setdash 2 copy moveto
	2 copy vpt 90 180 arc closepath fill
	vpt 0 360 arc closepath} bind def
/C3 {BL [] 0 setdash 2 copy moveto
	2 copy vpt 0 180 arc closepath fill
	vpt 0 360 arc closepath} bind def
/C4 {BL [] 0 setdash 2 copy moveto
	2 copy vpt 180 270 arc closepath fill
	vpt 0 360 arc closepath} bind def
/C5 {BL [] 0 setdash 2 copy moveto
	2 copy vpt 0 90 arc
	2 copy moveto
	2 copy vpt 180 270 arc closepath fill
	vpt 0 360 arc} bind def
/C6 {BL [] 0 setdash 2 copy moveto
	2 copy vpt 90 270 arc closepath fill
	vpt 0 360 arc closepath} bind def
/C7 {BL [] 0 setdash 2 copy moveto
	2 copy vpt 0 270 arc closepath fill
	vpt 0 360 arc closepath} bind def
/C8 {BL [] 0 setdash 2 copy moveto
	2 copy vpt 270 360 arc closepath fill
	vpt 0 360 arc closepath} bind def
/C9 {BL [] 0 setdash 2 copy moveto
	2 copy vpt 270 450 arc closepath fill
	vpt 0 360 arc closepath} bind def
/C10 {BL [] 0 setdash 2 copy 2 copy moveto vpt 270 360 arc closepath fill
	2 copy moveto
	2 copy vpt 90 180 arc closepath fill
	vpt 0 360 arc closepath} bind def
/C11 {BL [] 0 setdash 2 copy moveto
	2 copy vpt 0 180 arc closepath fill
	2 copy moveto
	2 copy vpt 270 360 arc closepath fill
	vpt 0 360 arc closepath} bind def
/C12 {BL [] 0 setdash 2 copy moveto
	2 copy vpt 180 360 arc closepath fill
	vpt 0 360 arc closepath} bind def
/C13 {BL [] 0 setdash 2 copy moveto
	2 copy vpt 0 90 arc closepath fill
	2 copy moveto
	2 copy vpt 180 360 arc closepath fill
	vpt 0 360 arc closepath} bind def
/C14 {BL [] 0 setdash 2 copy moveto
	2 copy vpt 90 360 arc closepath fill
	vpt 0 360 arc} bind def
/C15 {BL [] 0 setdash 2 copy vpt 0 360 arc closepath fill
	vpt 0 360 arc closepath} bind def
/Rec {newpath 4 2 roll moveto 1 index 0 rlineto 0 exch rlineto
	neg 0 rlineto closepath} bind def
/Square {dup Rec} bind def
/Bsquare {vpt sub exch vpt sub exch vpt2 Square} bind def
/S0 {BL [] 0 setdash 2 copy moveto 0 vpt rlineto BL Bsquare} bind def
/S1 {BL [] 0 setdash 2 copy vpt Square fill Bsquare} bind def
/S2 {BL [] 0 setdash 2 copy exch vpt sub exch vpt Square fill Bsquare} bind def
/S3 {BL [] 0 setdash 2 copy exch vpt sub exch vpt2 vpt Rec fill Bsquare} bind def
/S4 {BL [] 0 setdash 2 copy exch vpt sub exch vpt sub vpt Square fill Bsquare} bind def
/S5 {BL [] 0 setdash 2 copy 2 copy vpt Square fill
	exch vpt sub exch vpt sub vpt Square fill Bsquare} bind def
/S6 {BL [] 0 setdash 2 copy exch vpt sub exch vpt sub vpt vpt2 Rec fill Bsquare} bind def
/S7 {BL [] 0 setdash 2 copy exch vpt sub exch vpt sub vpt vpt2 Rec fill
	2 copy vpt Square fill Bsquare} bind def
/S8 {BL [] 0 setdash 2 copy vpt sub vpt Square fill Bsquare} bind def
/S9 {BL [] 0 setdash 2 copy vpt sub vpt vpt2 Rec fill Bsquare} bind def
/S10 {BL [] 0 setdash 2 copy vpt sub vpt Square fill 2 copy exch vpt sub exch vpt Square fill
	Bsquare} bind def
/S11 {BL [] 0 setdash 2 copy vpt sub vpt Square fill 2 copy exch vpt sub exch vpt2 vpt Rec fill
	Bsquare} bind def
/S12 {BL [] 0 setdash 2 copy exch vpt sub exch vpt sub vpt2 vpt Rec fill Bsquare} bind def
/S13 {BL [] 0 setdash 2 copy exch vpt sub exch vpt sub vpt2 vpt Rec fill
	2 copy vpt Square fill Bsquare} bind def
/S14 {BL [] 0 setdash 2 copy exch vpt sub exch vpt sub vpt2 vpt Rec fill
	2 copy exch vpt sub exch vpt Square fill Bsquare} bind def
/S15 {BL [] 0 setdash 2 copy Bsquare fill Bsquare} bind def
/D0 {gsave translate 45 rotate 0 0 S0 stroke grestore} bind def
/D1 {gsave translate 45 rotate 0 0 S1 stroke grestore} bind def
/D2 {gsave translate 45 rotate 0 0 S2 stroke grestore} bind def
/D3 {gsave translate 45 rotate 0 0 S3 stroke grestore} bind def
/D4 {gsave translate 45 rotate 0 0 S4 stroke grestore} bind def
/D5 {gsave translate 45 rotate 0 0 S5 stroke grestore} bind def
/D6 {gsave translate 45 rotate 0 0 S6 stroke grestore} bind def
/D7 {gsave translate 45 rotate 0 0 S7 stroke grestore} bind def
/D8 {gsave translate 45 rotate 0 0 S8 stroke grestore} bind def
/D9 {gsave translate 45 rotate 0 0 S9 stroke grestore} bind def
/D10 {gsave translate 45 rotate 0 0 S10 stroke grestore} bind def
/D11 {gsave translate 45 rotate 0 0 S11 stroke grestore} bind def
/D12 {gsave translate 45 rotate 0 0 S12 stroke grestore} bind def
/D13 {gsave translate 45 rotate 0 0 S13 stroke grestore} bind def
/D14 {gsave translate 45 rotate 0 0 S14 stroke grestore} bind def
/D15 {gsave translate 45 rotate 0 0 S15 stroke grestore} bind def
/DiaE {stroke [] 0 setdash vpt add M
  hpt neg vpt neg V hpt vpt neg V
  hpt vpt V hpt neg vpt V closepath stroke} def
/BoxE {stroke [] 0 setdash exch hpt sub exch vpt add M
  0 vpt2 neg V hpt2 0 V 0 vpt2 V
  hpt2 neg 0 V closepath stroke} def
/TriUE {stroke [] 0 setdash vpt 1.12 mul add M
  hpt neg vpt -1.62 mul V
  hpt 2 mul 0 V
  hpt neg vpt 1.62 mul V closepath stroke} def
/TriDE {stroke [] 0 setdash vpt 1.12 mul sub M
  hpt neg vpt 1.62 mul V
  hpt 2 mul 0 V
  hpt neg vpt -1.62 mul V closepath stroke} def
/PentE {stroke [] 0 setdash gsave
  translate 0 hpt M 4 {72 rotate 0 hpt L} repeat
  closepath stroke grestore} def
/CircE {stroke [] 0 setdash 
  hpt 0 360 arc stroke} def
/Opaque {gsave closepath 1 setgray fill grestore 0 setgray closepath} def
/DiaW {stroke [] 0 setdash vpt add M
  hpt neg vpt neg V hpt vpt neg V
  hpt vpt V hpt neg vpt V Opaque stroke} def
/BoxW {stroke [] 0 setdash exch hpt sub exch vpt add M
  0 vpt2 neg V hpt2 0 V 0 vpt2 V
  hpt2 neg 0 V Opaque stroke} def
/TriUW {stroke [] 0 setdash vpt 1.12 mul add M
  hpt neg vpt -1.62 mul V
  hpt 2 mul 0 V
  hpt neg vpt 1.62 mul V Opaque stroke} def
/TriDW {stroke [] 0 setdash vpt 1.12 mul sub M
  hpt neg vpt 1.62 mul V
  hpt 2 mul 0 V
  hpt neg vpt -1.62 mul V Opaque stroke} def
/PentW {stroke [] 0 setdash gsave
  translate 0 hpt M 4 {72 rotate 0 hpt L} repeat
  Opaque stroke grestore} def
/CircW {stroke [] 0 setdash 
  hpt 0 360 arc Opaque stroke} def
/BoxFill {gsave Rec 1 setgray fill grestore} def
/Density {
  /Fillden exch def
  currentrgbcolor
  /ColB exch def /ColG exch def /ColR exch def
  /ColR ColR Fillden mul Fillden sub 1 add def
  /ColG ColG Fillden mul Fillden sub 1 add def
  /ColB ColB Fillden mul Fillden sub 1 add def
  ColR ColG ColB setrgbcolor} def
/BoxColFill {gsave Rec PolyFill} def
/PolyFill {gsave Density fill grestore grestore} def
/h {rlineto rlineto rlineto gsave closepath fill grestore} bind def
%
% PostScript Level 1 Pattern Fill routine for rectangles
% Usage: x y w h s a XX PatternFill
%	x,y = lower left corner of box to be filled
%	w,h = width and height of box
%	  a = angle in degrees between lines and x-axis
%	 XX = 0/1 for no/yes cross-hatch
%
/PatternFill {gsave /PFa [ 9 2 roll ] def
  PFa 0 get PFa 2 get 2 div add PFa 1 get PFa 3 get 2 div add translate
  PFa 2 get -2 div PFa 3 get -2 div PFa 2 get PFa 3 get Rec
  gsave 1 setgray fill grestore clip
  currentlinewidth 0.5 mul setlinewidth
  /PFs PFa 2 get dup mul PFa 3 get dup mul add sqrt def
  0 0 M PFa 5 get rotate PFs -2 div dup translate
  0 1 PFs PFa 4 get div 1 add floor cvi
	{PFa 4 get mul 0 M 0 PFs V} for
  0 PFa 6 get ne {
	0 1 PFs PFa 4 get div 1 add floor cvi
	{PFa 4 get mul 0 2 1 roll M PFs 0 V} for
 } if
  stroke grestore} def
%
/languagelevel where
 {pop languagelevel} {1} ifelse
 2 lt
	{/InterpretLevel1 true def}
	{/InterpretLevel1 Level1 def}
 ifelse
%
% PostScript level 2 pattern fill definitions
%
/Level2PatternFill {
/Tile8x8 {/PaintType 2 /PatternType 1 /TilingType 1 /BBox [0 0 8 8] /XStep 8 /YStep 8}
	bind def
/KeepColor {currentrgbcolor [/Pattern /DeviceRGB] setcolorspace} bind def
<< Tile8x8
 /PaintProc {0.5 setlinewidth pop 0 0 M 8 8 L 0 8 M 8 0 L stroke} 
>> matrix makepattern
/Pat1 exch def
<< Tile8x8
 /PaintProc {0.5 setlinewidth pop 0 0 M 8 8 L 0 8 M 8 0 L stroke
	0 4 M 4 8 L 8 4 L 4 0 L 0 4 L stroke}
>> matrix makepattern
/Pat2 exch def
<< Tile8x8
 /PaintProc {0.5 setlinewidth pop 0 0 M 0 8 L
	8 8 L 8 0 L 0 0 L fill}
>> matrix makepattern
/Pat3 exch def
<< Tile8x8
 /PaintProc {0.5 setlinewidth pop -4 8 M 8 -4 L
	0 12 M 12 0 L stroke}
>> matrix makepattern
/Pat4 exch def
<< Tile8x8
 /PaintProc {0.5 setlinewidth pop -4 0 M 8 12 L
	0 -4 M 12 8 L stroke}
>> matrix makepattern
/Pat5 exch def
<< Tile8x8
 /PaintProc {0.5 setlinewidth pop -2 8 M 4 -4 L
	0 12 M 8 -4 L 4 12 M 10 0 L stroke}
>> matrix makepattern
/Pat6 exch def
<< Tile8x8
 /PaintProc {0.5 setlinewidth pop -2 0 M 4 12 L
	0 -4 M 8 12 L 4 -4 M 10 8 L stroke}
>> matrix makepattern
/Pat7 exch def
<< Tile8x8
 /PaintProc {0.5 setlinewidth pop 8 -2 M -4 4 L
	12 0 M -4 8 L 12 4 M 0 10 L stroke}
>> matrix makepattern
/Pat8 exch def
<< Tile8x8
 /PaintProc {0.5 setlinewidth pop 0 -2 M 12 4 L
	-4 0 M 12 8 L -4 4 M 8 10 L stroke}
>> matrix makepattern
/Pat9 exch def
/Pattern1 {PatternBgnd KeepColor Pat1 setpattern} bind def
/Pattern2 {PatternBgnd KeepColor Pat2 setpattern} bind def
/Pattern3 {PatternBgnd KeepColor Pat3 setpattern} bind def
/Pattern4 {PatternBgnd KeepColor Landscape {Pat5} {Pat4} ifelse setpattern} bind def
/Pattern5 {PatternBgnd KeepColor Landscape {Pat4} {Pat5} ifelse setpattern} bind def
/Pattern6 {PatternBgnd KeepColor Landscape {Pat9} {Pat6} ifelse setpattern} bind def
/Pattern7 {PatternBgnd KeepColor Landscape {Pat8} {Pat7} ifelse setpattern} bind def
} def
%
%
%End of PostScript Level 2 code
%
/PatternBgnd {
  TransparentPatterns {} {gsave 1 setgray fill grestore} ifelse
} def
%
% Substitute for Level 2 pattern fill codes with
% grayscale if Level 2 support is not selected.
%
/Level1PatternFill {
/Pattern1 {0.250 Density} bind def
/Pattern2 {0.500 Density} bind def
/Pattern3 {0.750 Density} bind def
/Pattern4 {0.125 Density} bind def
/Pattern5 {0.375 Density} bind def
/Pattern6 {0.625 Density} bind def
/Pattern7 {0.875 Density} bind def
} def
%
% Now test for support of Level 2 code
%
Level1 {Level1PatternFill} {Level2PatternFill} ifelse
%
/Symbol-Oblique /Symbol findfont [1 0 .167 1 0 0] makefont
dup length dict begin {1 index /FID eq {pop pop} {def} ifelse} forall
currentdict end definefont pop
/MFshow {
   { dup 5 get 3 ge
     { 5 get 3 eq {gsave} {grestore} ifelse }
     {dup dup 0 get findfont exch 1 get scalefont setfont
     [ currentpoint ] exch dup 2 get 0 exch R dup 5 get 2 ne {dup dup 6
     get exch 4 get {show} {stringwidth pop 0 R} ifelse }if dup 5 get 0 eq
     {dup 3 get {2 get neg 0 exch R pop} {pop aload pop M} ifelse} {dup 5
     get 1 eq {dup 2 get exch dup 3 get exch 6 get stringwidth pop -2 div
     dup 0 R} {dup 6 get stringwidth pop -2 div 0 R 6 get
     show 2 index {aload pop M neg 3 -1 roll neg R pop pop} {pop pop pop
     pop aload pop M} ifelse }ifelse }ifelse }
     ifelse }
   forall} bind def
/MFwidth {0 exch { dup 5 get 3 ge { 5 get 3 eq { 0 } { pop } ifelse }
 {dup 3 get{dup dup 0 get findfont exch 1 get scalefont setfont
     6 get stringwidth pop add} {pop} ifelse} ifelse} forall} bind def
/MLshow { currentpoint stroke M
  0 exch R
  Blacktext {gsave 0 setgray MFshow grestore} {MFshow} ifelse } bind def
/MRshow { currentpoint stroke M
  exch dup MFwidth neg 3 -1 roll R
  Blacktext {gsave 0 setgray MFshow grestore} {MFshow} ifelse } bind def
/MCshow { currentpoint stroke M
  exch dup MFwidth -2 div 3 -1 roll R
  Blacktext {gsave 0 setgray MFshow grestore} {MFshow} ifelse } bind def
/XYsave    { [( ) 1 2 true false 3 ()] } bind def
/XYrestore { [( ) 1 2 true false 4 ()] } bind def
end
%%EndProlog
gnudict begin
gsave
50 50 translate
0.050 0.050 scale
0 setgray
newpath
(Helvetica) findfont 140 scalefont setfont
1.000 UL
LTb
1.000 UL
LTa
854 448 M
6136 0 V
stroke
LTb
854 448 M
63 0 V
6073 0 R
-63 0 V
stroke
770 448 M
[ [(Helvetica) 140.0 0.0 true true 0 ( 0)]
] -46.7 MRshow
1.000 UL
LTb
1.000 UL
LTa
854 1185 M
6136 0 V
stroke
LTb
854 1185 M
63 0 V
6073 0 R
-63 0 V
stroke
770 1185 M
[ [(Helvetica) 140.0 0.0 true true 0 ( 0.1)]
] -46.7 MRshow
1.000 UL
LTb
1.000 UL
LTa
854 1923 M
6136 0 V
stroke
LTb
854 1923 M
63 0 V
6073 0 R
-63 0 V
stroke
770 1923 M
[ [(Helvetica) 140.0 0.0 true true 0 ( 0.2)]
] -46.7 MRshow
1.000 UL
LTb
1.000 UL
LTa
854 2660 M
6136 0 V
stroke
LTb
854 2660 M
63 0 V
6073 0 R
-63 0 V
stroke
770 2660 M
[ [(Helvetica) 140.0 0.0 true true 0 ( 0.3)]
] -46.7 MRshow
1.000 UL
LTb
1.000 UL
LTa
854 3397 M
6136 0 V
stroke
LTb
854 3397 M
63 0 V
6073 0 R
-63 0 V
stroke
770 3397 M
[ [(Helvetica) 140.0 0.0 true true 0 ( 0.4)]
] -46.7 MRshow
1.000 UL
LTb
1.000 UL
LTa
854 4135 M
6136 0 V
stroke
LTb
854 4135 M
63 0 V
6073 0 R
-63 0 V
stroke
770 4135 M
[ [(Helvetica) 140.0 0.0 true true 0 ( 0.5)]
] -46.7 MRshow
1.000 UL
LTb
1.000 UL
LTa
854 4872 M
6136 0 V
stroke
LTb
854 4872 M
63 0 V
6073 0 R
-63 0 V
stroke
770 4872 M
[ [(Helvetica) 140.0 0.0 true true 0 ( 0.6)]
] -46.7 MRshow
1.000 UL
LTb
1.000 UL
LTa
854 448 M
0 4424 V
stroke
LTb
854 448 M
0 63 V
0 4361 R
0 -63 V
stroke
854 308 M
[ [(Helvetica) 140.0 0.0 true true 0 ( 0)]
] -46.7 MCshow
1.000 UL
LTb
1.000 UL
LTa
1621 448 M
0 4424 V
stroke
LTb
1621 448 M
0 63 V
0 4361 R
0 -63 V
stroke
1621 308 M
[ [(Helvetica) 140.0 0.0 true true 0 ( 10000)]
] -46.7 MCshow
1.000 UL
LTb
1.000 UL
LTa
2388 448 M
0 4424 V
stroke
LTb
2388 448 M
0 63 V
0 4361 R
0 -63 V
stroke
2388 308 M
[ [(Helvetica) 140.0 0.0 true true 0 ( 20000)]
] -46.7 MCshow
1.000 UL
LTb
1.000 UL
LTa
3155 448 M
0 4424 V
stroke
LTb
3155 448 M
0 63 V
0 4361 R
0 -63 V
stroke
3155 308 M
[ [(Helvetica) 140.0 0.0 true true 0 ( 30000)]
] -46.7 MCshow
1.000 UL
LTb
1.000 UL
LTa
3922 448 M
0 4424 V
stroke
LTb
3922 448 M
0 63 V
0 4361 R
0 -63 V
stroke
3922 308 M
[ [(Helvetica) 140.0 0.0 true true 0 ( 40000)]
] -46.7 MCshow
1.000 UL
LTb
1.000 UL
LTa
4689 448 M
0 4424 V
stroke
LTb
4689 448 M
0 63 V
0 4361 R
0 -63 V
stroke
4689 308 M
[ [(Helvetica) 140.0 0.0 true true 0 ( 50000)]
] -46.7 MCshow
1.000 UL
LTb
1.000 UL
LTa
5456 448 M
0 4424 V
stroke
LTb
5456 448 M
0 63 V
0 4361 R
0 -63 V
stroke
5456 308 M
[ [(Helvetica) 140.0 0.0 true true 0 ( 60000)]
] -46.7 MCshow
1.000 UL
LTb
1.000 UL
LTa
6223 448 M
0 3941 V
0 420 R
0 63 V
stroke
LTb
6223 448 M
0 63 V
0 4361 R
0 -63 V
stroke
6223 308 M
[ [(Helvetica) 140.0 0.0 true true 0 ( 70000)]
] -46.7 MCshow
1.000 UL
LTb
1.000 UL
LTa
6990 448 M
0 4424 V
stroke
LTb
6990 448 M
0 63 V
0 4361 R
0 -63 V
stroke
6990 308 M
[ [(Helvetica) 140.0 0.0 true true 0 ( 80000)]
] -46.7 MCshow
1.000 UL
LTb
1.000 UL
LTb
854 4872 N
854 448 L
6136 0 V
0 4424 V
-6136 0 V
Z stroke
LCb setrgbcolor
280 2660 M
currentpoint gsave translate 90 rotate 0 0 moveto
[ [(Helvetica) 140.0 0.0 true true 0 (Noise ratio)]
] -46.7 MCshow
grestore
LTb
LCb setrgbcolor
3922 98 M
[ [(Helvetica) 140.0 0.0 true true 0 (Group size)]
] -46.7 MCshow
LTb
1.000 UP
1.000 UL
LTb
1.000 UL
LTb
5583 4389 N
0 420 V
1323 0 V
0 -420 V
-1323 0 V
Z stroke
5583 4809 M
1323 0 V
1.000 UP
stroke
2.000 UL
LT0
LTb
6339 4739 M
[ [(Helvetica) 140.0 0.0 true true 0 (MMS)]
] -46.7 MRshow
LT0
6423 4739 M
399 0 V
-399 31 R
0 -62 V
399 62 R
0 -62 V
892 3153 M
1046 2074 L
153 -367 V
154 -96 V
153 99 V
153 -56 V
154 70 V
153 -394 V
154 168 V
153 67 V
153 -12 V
154 -96 V
153 -115 V
154 197 V
153 -89 V
153 -93 V
154 24 V
153 -67 V
154 97 V
153 -206 V
153 69 V
154 -92 V
153 64 V
154 40 V
153 6 V
153 -198 V
154 212 V
153 87 V
154 -53 V
153 -148 V
153 111 V
154 -18 V
153 37 V
154 88 V
153 -143 V
153 29 V
154 -162 V
153 -34 V
154 49 V
153 47 V
892 2231 M
0 1843 V
861 2231 M
62 0 V
861 4074 M
62 0 V
1046 1742 M
0 665 V
-31 -665 R
62 0 V
-62 665 R
62 0 V
122 -924 R
0 449 V
-31 -449 R
62 0 V
-62 449 R
62 0 V
123 -581 R
0 520 V
-31 -520 R
62 0 V
-62 520 R
62 0 V
122 -692 R
0 1063 V
1475 1179 M
62 0 V
-62 1063 R
62 0 V
1659 832 M
0 1643 V
1628 832 M
62 0 V
-62 1643 R
62 0 V
1813 833 M
0 1782 V
1782 833 M
62 0 V
-62 1782 R
62 0 V
1966 1104 M
0 453 V
-31 -453 R
62 0 V
-62 453 R
62 0 V
2120 873 M
0 1250 V
2089 873 M
62 0 V
-62 1250 R
62 0 V
2273 776 M
0 1579 V
2242 776 M
62 0 V
-62 1579 R
62 0 V
2426 724 M
0 1658 V
2395 724 M
62 0 V
-62 1658 R
62 0 V
stroke 2457 2382 M
2580 723 M
0 1467 V
2549 723 M
62 0 V
-62 1467 R
62 0 V
2733 743 M
0 1198 V
2702 743 M
62 0 V
-62 1198 R
62 0 V
2887 798 M
0 1482 V
2856 798 M
62 0 V
-62 1482 R
62 0 V
3040 830 M
0 1239 V
3009 830 M
62 0 V
-62 1239 R
62 0 V
3193 991 M
0 731 V
3162 991 M
62 0 V
-62 731 R
62 0 V
3347 771 M
0 1220 V
3316 771 M
62 0 V
-62 1220 R
62 0 V
3500 848 M
0 931 V
3469 848 M
62 0 V
-62 931 R
62 0 V
3654 749 M
0 1324 V
3623 749 M
62 0 V
-62 1324 R
62 0 V
3807 935 M
0 540 V
3776 935 M
62 0 V
-62 540 R
62 0 V
3960 894 M
0 760 V
3929 894 M
62 0 V
-62 760 R
62 0 V
4114 759 M
0 847 V
4083 759 M
62 0 V
-62 847 R
62 0 V
4267 834 M
0 823 V
4236 834 M
62 0 V
-62 823 R
62 0 V
4421 812 M
0 948 V
4390 812 M
62 0 V
-62 948 R
62 0 V
4574 776 M
0 1032 V
4543 776 M
62 0 V
-62 1032 R
62 0 V
4727 819 M
0 550 V
4696 819 M
62 0 V
-62 550 R
62 0 V
4881 840 M
0 931 V
4850 840 M
62 0 V
-62 931 R
62 0 V
5034 891 M
0 1003 V
5003 891 M
62 0 V
-62 1003 R
62 0 V
5188 819 M
0 1043 V
stroke 5188 1862 M
5157 819 M
62 0 V
-62 1043 R
62 0 V
5341 825 M
0 734 V
5310 825 M
62 0 V
-62 734 R
62 0 V
5494 812 M
0 982 V
5463 812 M
62 0 V
-62 982 R
62 0 V
5648 834 M
0 903 V
5617 834 M
62 0 V
-62 903 R
62 0 V
5801 884 M
0 876 V
5770 884 M
62 0 V
-62 876 R
62 0 V
5955 909 M
0 1002 V
5924 909 M
62 0 V
-62 1002 R
62 0 V
6108 870 M
0 794 V
6077 870 M
62 0 V
-62 794 R
62 0 V
6261 969 M
0 654 V
6230 969 M
62 0 V
-62 654 R
62 0 V
6415 824 M
0 620 V
6384 824 M
62 0 V
-62 620 R
62 0 V
6568 767 M
0 666 V
6537 767 M
62 0 V
-62 666 R
62 0 V
6722 868 M
0 562 V
6691 868 M
62 0 V
-62 562 R
62 0 V
6875 824 M
0 743 V
6844 824 M
62 0 V
-62 743 R
62 0 V
892 3153 Pls
1046 2074 Pls
1199 1707 Pls
1353 1611 Pls
1506 1710 Pls
1659 1654 Pls
1813 1724 Pls
1966 1330 Pls
2120 1498 Pls
2273 1565 Pls
2426 1553 Pls
2580 1457 Pls
2733 1342 Pls
2887 1539 Pls
3040 1450 Pls
3193 1357 Pls
3347 1381 Pls
3500 1314 Pls
3654 1411 Pls
3807 1205 Pls
3960 1274 Pls
4114 1182 Pls
4267 1246 Pls
4421 1286 Pls
4574 1292 Pls
4727 1094 Pls
4881 1306 Pls
5034 1393 Pls
5188 1340 Pls
5341 1192 Pls
5494 1303 Pls
5648 1285 Pls
5801 1322 Pls
5955 1410 Pls
6108 1267 Pls
6261 1296 Pls
6415 1134 Pls
6568 1100 Pls
6722 1149 Pls
6875 1196 Pls
6622 4739 Pls
1.000 UP
2.000 UL
LT1
LTb
6339 4599 M
[ [(Helvetica) 140.0 0.0 true true 0 (LTE)]
] -46.7 MRshow
LT1
6423 4599 M
399 0 V
-399 31 R
0 -62 V
399 62 R
0 -62 V
892 3696 M
1046 2037 L
153 -243 V
154 -327 V
153 13 V
153 -116 V
154 -71 V
153 -8 V
154 -109 V
153 -9 V
153 -37 V
154 17 V
153 -55 V
154 -26 V
153 25 V
153 -59 V
154 23 V
153 -71 V
154 26 V
153 -18 V
153 -17 V
154 34 V
153 -3 V
154 -60 V
153 34 V
153 -12 V
154 -4 V
153 -34 V
154 19 V
153 -10 V
153 -13 V
154 -8 V
153 3 V
154 -2 V
153 5 V
153 -2 V
154 6 V
153 -28 V
154 14 V
153 -19 V
892 2891 M
0 1611 V
861 2891 M
62 0 V
861 4502 M
62 0 V
1046 1712 M
0 649 V
-31 -649 R
62 0 V
-62 649 R
62 0 V
122 -810 R
0 485 V
-31 -485 R
62 0 V
-62 485 R
62 0 V
123 -746 R
0 353 V
-31 -353 R
62 0 V
-62 353 R
62 0 V
122 -343 R
0 361 V
-31 -361 R
62 0 V
-62 361 R
62 0 V
122 -378 R
0 163 V
-31 -163 R
62 0 V
-62 163 R
62 0 V
123 -262 R
0 217 V
-31 -217 R
62 0 V
-62 217 R
62 0 V
122 -336 R
0 441 V
-31 -441 R
62 0 V
-62 441 R
62 0 V
123 -437 R
0 215 V
-31 -215 R
62 0 V
-62 215 R
62 0 V
122 -264 R
0 293 V
-31 -293 R
62 0 V
-62 293 R
62 0 V
122 -285 R
0 205 V
-31 -205 R
62 0 V
-62 205 R
62 0 V
stroke 2457 1233 M
123 -213 R
0 254 V
-31 -254 R
62 0 V
-62 254 R
62 0 V
2733 992 M
0 200 V
2702 992 M
62 0 V
-62 200 R
62 0 V
123 -190 R
0 127 V
-31 -127 R
62 0 V
-62 127 R
62 0 V
122 -115 R
0 154 V
-31 -154 R
62 0 V
-62 154 R
62 0 V
3193 959 M
0 146 V
3162 959 M
62 0 V
-62 146 R
62 0 V
3347 986 M
0 138 V
3316 986 M
62 0 V
-62 138 R
62 0 V
3500 921 M
0 125 V
3469 921 M
62 0 V
-62 125 R
62 0 V
3654 869 M
0 282 V
3623 869 M
62 0 V
-62 282 R
62 0 V
3807 934 M
0 117 V
3776 934 M
62 0 V
-62 117 R
62 0 V
3960 908 M
0 135 V
3929 908 M
62 0 V
-62 135 R
62 0 V
4114 917 M
0 184 V
4083 917 M
62 0 V
-62 184 R
62 0 V
4267 883 M
0 247 V
4236 883 M
62 0 V
-62 247 R
62 0 V
4421 892 M
0 108 V
4390 892 M
62 0 V
-62 108 R
62 0 V
4574 887 M
0 186 V
4543 887 M
62 0 V
-62 186 R
62 0 V
4727 910 M
0 116 V
4696 910 M
62 0 V
-62 116 R
62 0 V
4881 874 M
0 180 V
4850 874 M
62 0 V
-62 180 R
62 0 V
5034 892 M
0 76 V
-31 -76 R
62 0 V
-62 76 R
62 0 V
123 -99 R
0 159 V
stroke 5188 1028 M
5157 869 M
62 0 V
-62 159 R
62 0 V
5341 894 M
0 91 V
-31 -91 R
62 0 V
-62 91 R
62 0 V
122 -96 R
0 75 V
-31 -75 R
62 0 V
-62 75 R
62 0 V
123 -89 R
0 85 V
-31 -85 R
62 0 V
-62 85 R
62 0 V
122 -76 R
0 75 V
-31 -75 R
62 0 V
-62 75 R
62 0 V
123 -82 R
0 84 V
-31 -84 R
62 0 V
-62 84 R
62 0 V
6108 848 M
0 152 V
6077 848 M
62 0 V
-62 152 R
62 0 V
6261 874 M
0 95 V
-31 -95 R
62 0 V
-62 95 R
62 0 V
6415 863 M
0 130 V
6384 863 M
62 0 V
-62 130 R
62 0 V
6568 856 M
0 88 V
-31 -88 R
62 0 V
-62 88 R
62 0 V
123 -83 R
0 106 V
6691 861 M
62 0 V
-62 106 R
62 0 V
6875 846 M
0 98 V
-31 -98 R
62 0 V
-62 98 R
62 0 V
892 3696 Crs
1046 2037 Crs
1199 1794 Crs
1353 1467 Crs
1506 1480 Crs
1659 1364 Crs
1813 1293 Crs
1966 1285 Crs
2120 1176 Crs
2273 1167 Crs
2426 1130 Crs
2580 1147 Crs
2733 1092 Crs
2887 1066 Crs
3040 1091 Crs
3193 1032 Crs
3347 1055 Crs
3500 984 Crs
3654 1010 Crs
3807 992 Crs
3960 975 Crs
4114 1009 Crs
4267 1006 Crs
4421 946 Crs
4574 980 Crs
4727 968 Crs
4881 964 Crs
5034 930 Crs
5188 949 Crs
5341 939 Crs
5494 926 Crs
5648 918 Crs
5801 921 Crs
5955 919 Crs
6108 924 Crs
6261 922 Crs
6415 928 Crs
6568 900 Crs
6722 914 Crs
6875 895 Crs
6622 4599 Crs
1.000 UP
2.000 UL
LT2
LTb
6339 4459 M
[ [(Helvetica) 140.0 0.0 true true 0 (Broadband)]
] -46.7 MRshow
LT2
6423 4459 M
399 0 V
-399 31 R
0 -62 V
399 62 R
0 -62 V
892 2084 M
154 -303 V
153 43 V
154 -419 V
153 90 V
153 -100 V
154 -30 V
153 -92 V
154 -33 V
153 20 V
153 -48 V
154 -14 V
153 5 V
154 -32 V
153 -18 V
153 -14 V
154 20 V
153 -17 V
154 -30 V
153 22 V
153 -30 V
154 -16 V
153 47 V
154 -61 V
153 19 V
153 10 V
154 -16 V
153 -25 V
154 1 V
153 3 V
153 -4 V
154 23 V
153 -9 V
154 1 V
153 -14 V
153 3 V
154 5 V
153 -23 V
154 -3 V
153 20 V
892 1656 M
0 856 V
861 1656 M
62 0 V
-62 856 R
62 0 V
1046 1466 M
0 630 V
-31 -630 R
62 0 V
-62 630 R
62 0 V
122 -753 R
0 963 V
-31 -963 R
62 0 V
-62 963 R
62 0 V
1353 1117 M
0 577 V
-31 -577 R
62 0 V
-62 577 R
62 0 V
122 -512 R
0 625 V
-31 -625 R
62 0 V
-62 625 R
62 0 V
122 -613 R
0 403 V
-31 -403 R
62 0 V
-62 403 R
62 0 V
123 -448 R
0 432 V
-31 -432 R
62 0 V
-62 432 R
62 0 V
122 -461 R
0 307 V
-31 -307 R
62 0 V
-62 307 R
62 0 V
123 -341 R
0 307 V
-31 -307 R
62 0 V
-62 307 R
62 0 V
122 -252 R
0 238 V
-31 -238 R
62 0 V
-62 238 R
62 0 V
stroke 2304 1379 M
122 -294 R
0 253 V
-31 -253 R
62 0 V
-62 253 R
62 0 V
123 -233 R
0 186 V
-31 -186 R
62 0 V
-62 186 R
62 0 V
122 -189 R
0 202 V
-31 -202 R
62 0 V
-62 202 R
62 0 V
123 -229 R
0 193 V
-31 -193 R
62 0 V
-62 193 R
62 0 V
122 -184 R
0 138 V
-31 -138 R
62 0 V
-62 138 R
62 0 V
122 -164 R
0 161 V
-31 -161 R
62 0 V
-62 161 R
62 0 V
123 -198 R
0 276 V
-31 -276 R
62 0 V
-62 276 R
62 0 V
122 -295 R
0 281 V
-31 -281 R
62 0 V
-62 281 R
62 0 V
3654 999 M
0 226 V
3623 999 M
62 0 V
-62 226 R
62 0 V
122 -186 R
0 190 V
-31 -190 R
62 0 V
-62 190 R
62 0 V
122 -184 R
0 119 V
-31 -119 R
62 0 V
-62 119 R
62 0 V
123 -148 R
0 145 V
-31 -145 R
62 0 V
-62 145 R
62 0 V
122 -146 R
0 239 V
-31 -239 R
62 0 V
-62 239 R
62 0 V
4421 997 M
0 154 V
4390 997 M
62 0 V
-62 154 R
62 0 V
122 -143 R
0 170 V
-31 -170 R
62 0 V
-62 170 R
62 0 V
122 -134 R
0 119 V
-31 -119 R
62 0 V
-62 119 R
62 0 V
4881 994 M
0 186 V
4850 994 M
62 0 V
-62 186 R
62 0 V
122 -174 R
0 112 V
stroke 5034 1118 M
-31 -112 R
62 0 V
-62 112 R
62 0 V
123 -118 R
0 125 V
-31 -125 R
62 0 V
-62 125 R
62 0 V
122 -112 R
0 105 V
-31 -105 R
62 0 V
-62 105 R
62 0 V
122 -111 R
0 111 V
-31 -111 R
62 0 V
-62 111 R
62 0 V
123 -96 R
0 127 V
-31 -127 R
62 0 V
-62 127 R
62 0 V
5801 996 M
0 159 V
5770 996 M
62 0 V
-62 159 R
62 0 V
123 -146 R
0 136 V
-31 -136 R
62 0 V
-62 136 R
62 0 V
6108 983 M
0 161 V
6077 983 M
62 0 V
-62 161 R
62 0 V
122 -132 R
0 107 V
-31 -107 R
62 0 V
-62 107 R
62 0 V
123 -101 R
0 105 V
-31 -105 R
62 0 V
-62 105 R
62 0 V
122 -120 R
0 91 V
-31 -91 R
62 0 V
-62 91 R
62 0 V
123 -98 R
0 98 V
-31 -98 R
62 0 V
-62 98 R
62 0 V
122 -75 R
0 93 V
-31 -93 R
62 0 V
-62 93 R
62 0 V
892 2084 Star
1046 1781 Star
1199 1824 Star
1353 1405 Star
1506 1495 Star
1659 1395 Star
1813 1365 Star
1966 1273 Star
2120 1240 Star
2273 1260 Star
2426 1212 Star
2580 1198 Star
2733 1203 Star
2887 1171 Star
3040 1153 Star
3193 1139 Star
3347 1159 Star
3500 1142 Star
3654 1112 Star
3807 1134 Star
3960 1104 Star
4114 1088 Star
4267 1135 Star
4421 1074 Star
4574 1093 Star
4727 1103 Star
4881 1087 Star
5034 1062 Star
5188 1063 Star
5341 1066 Star
5494 1062 Star
5648 1085 Star
5801 1076 Star
5955 1077 Star
6108 1063 Star
6261 1066 Star
6415 1071 Star
6568 1048 Star
6722 1045 Star
6875 1065 Star
6622 4459 Star
1.000 UL
LTb
854 4872 N
854 448 L
6136 0 V
0 4424 V
-6136 0 V
Z stroke
1.000 UP
1.000 UL
LTb
stroke
grestore
end
showpage
%%Trailer
%%DocumentFonts: Helvetica
