%!PS-Adobe-2.0 EPSF-2.0
%%Title: regular-service-noise.eps
%%Creator: gnuplot 4.2 patchlevel 6 
%%CreationDate: Thu Sep 11 02:09:36 2014
%%DocumentFonts: (atend)
%%BoundingBox: 50 50 410 302
%%EndComments
%%BeginProlog
/gnudict 256 dict def
gnudict begin
%
% The following 6 true/false flags may be edited by hand if required
% The unit line width may also be changed
%
/Color true def
/Blacktext false def
/Solid false def
/Dashlength 1 def
/Landscape false def
/Level1 false def
/Rounded false def
/TransparentPatterns false def
/gnulinewidth 5.000 def
/userlinewidth gnulinewidth def
%
/vshift -46 def
/dl1 {
  10.0 Dashlength mul mul
  Rounded { currentlinewidth 0.75 mul sub dup 0 le { pop 0.01 } if } if
} def
/dl2 {
  10.0 Dashlength mul mul
  Rounded { currentlinewidth 0.75 mul add } if
} def
/hpt_ 31.5 def
/vpt_ 31.5 def
/hpt hpt_ def
/vpt vpt_ def
Level1 {} {
/SDict 10 dict def
systemdict /pdfmark known not {
  userdict /pdfmark systemdict /cleartomark get put
} if
SDict begin [
  /Title (regular-service-noise.eps)
  /Subject (gnuplot plot)
  /Creator (gnuplot 4.2 patchlevel 6 )
  /Author (Binh Nguyen,[chenxu])
%  /Producer (gnuplot)
%  /Keywords ()
  /CreationDate (Thu Sep 11 02:09:36 2014)
  /DOCINFO pdfmark
end
} ifelse
%
% Gnuplot Prolog Version 4.2 (August 2006)
%
/M {moveto} bind def
/L {lineto} bind def
/R {rmoveto} bind def
/V {rlineto} bind def
/N {newpath moveto} bind def
/Z {closepath} bind def
/C {setrgbcolor} bind def
/f {rlineto fill} bind def
/vpt2 vpt 2 mul def
/hpt2 hpt 2 mul def
/Lshow {currentpoint stroke M 0 vshift R 
	Blacktext {gsave 0 setgray show grestore} {show} ifelse} def
/Rshow {currentpoint stroke M dup stringwidth pop neg vshift R
	Blacktext {gsave 0 setgray show grestore} {show} ifelse} def
/Cshow {currentpoint stroke M dup stringwidth pop -2 div vshift R 
	Blacktext {gsave 0 setgray show grestore} {show} ifelse} def
/UP {dup vpt_ mul /vpt exch def hpt_ mul /hpt exch def
  /hpt2 hpt 2 mul def /vpt2 vpt 2 mul def} def
/DL {Color {setrgbcolor Solid {pop []} if 0 setdash}
 {pop pop pop 0 setgray Solid {pop []} if 0 setdash} ifelse} def
/BL {stroke userlinewidth 2 mul setlinewidth
	Rounded {1 setlinejoin 1 setlinecap} if} def
/AL {stroke userlinewidth 2 div setlinewidth
	Rounded {1 setlinejoin 1 setlinecap} if} def
/UL {dup gnulinewidth mul /userlinewidth exch def
	dup 1 lt {pop 1} if 10 mul /udl exch def} def
/PL {stroke userlinewidth setlinewidth
	Rounded {1 setlinejoin 1 setlinecap} if} def
% Default Line colors
/LCw {1 1 1} def
/LCb {0 0 0} def
/LCa {0 0 0} def
/LC0 {1 0 0} def
/LC1 {0 1 0} def
/LC2 {0 0 1} def
/LC3 {1 0 1} def
/LC4 {0 1 1} def
/LC5 {1 1 0} def
/LC6 {0 0 0} def
/LC7 {1 0.3 0} def
/LC8 {0.5 0.5 0.5} def
% Default Line Types
/LTw {PL [] 1 setgray} def
/LTb {BL [] LCb DL} def
/LTa {AL [1 udl mul 2 udl mul] 0 setdash LCa setrgbcolor} def
/LT0 {PL [] LC0 DL} def
/LT1 {PL [4 dl1 2 dl2] LC1 DL} def
/LT2 {PL [2 dl1 3 dl2] LC2 DL} def
/LT3 {PL [1 dl1 1.5 dl2] LC3 DL} def
/LT4 {PL [6 dl1 2 dl2 1 dl1 2 dl2] LC4 DL} def
/LT5 {PL [3 dl1 3 dl2 1 dl1 3 dl2] LC5 DL} def
/LT6 {PL [2 dl1 2 dl2 2 dl1 6 dl2] LC6 DL} def
/LT7 {PL [1 dl1 2 dl2 6 dl1 2 dl2 1 dl1 2 dl2] LC7 DL} def
/LT8 {PL [2 dl1 2 dl2 2 dl1 2 dl2 2 dl1 2 dl2 2 dl1 4 dl2] LC8 DL} def
/Pnt {stroke [] 0 setdash gsave 1 setlinecap M 0 0 V stroke grestore} def
/Dia {stroke [] 0 setdash 2 copy vpt add M
  hpt neg vpt neg V hpt vpt neg V
  hpt vpt V hpt neg vpt V closepath stroke
  Pnt} def
/Pls {stroke [] 0 setdash vpt sub M 0 vpt2 V
  currentpoint stroke M
  hpt neg vpt neg R hpt2 0 V stroke
 } def
/Box {stroke [] 0 setdash 2 copy exch hpt sub exch vpt add M
  0 vpt2 neg V hpt2 0 V 0 vpt2 V
  hpt2 neg 0 V closepath stroke
  Pnt} def
/Crs {stroke [] 0 setdash exch hpt sub exch vpt add M
  hpt2 vpt2 neg V currentpoint stroke M
  hpt2 neg 0 R hpt2 vpt2 V stroke} def
/TriU {stroke [] 0 setdash 2 copy vpt 1.12 mul add M
  hpt neg vpt -1.62 mul V
  hpt 2 mul 0 V
  hpt neg vpt 1.62 mul V closepath stroke
  Pnt} def
/Star {2 copy Pls Crs} def
/BoxF {stroke [] 0 setdash exch hpt sub exch vpt add M
  0 vpt2 neg V hpt2 0 V 0 vpt2 V
  hpt2 neg 0 V closepath fill} def
/TriUF {stroke [] 0 setdash vpt 1.12 mul add M
  hpt neg vpt -1.62 mul V
  hpt 2 mul 0 V
  hpt neg vpt 1.62 mul V closepath fill} def
/TriD {stroke [] 0 setdash 2 copy vpt 1.12 mul sub M
  hpt neg vpt 1.62 mul V
  hpt 2 mul 0 V
  hpt neg vpt -1.62 mul V closepath stroke
  Pnt} def
/TriDF {stroke [] 0 setdash vpt 1.12 mul sub M
  hpt neg vpt 1.62 mul V
  hpt 2 mul 0 V
  hpt neg vpt -1.62 mul V closepath fill} def
/DiaF {stroke [] 0 setdash vpt add M
  hpt neg vpt neg V hpt vpt neg V
  hpt vpt V hpt neg vpt V closepath fill} def
/Pent {stroke [] 0 setdash 2 copy gsave
  translate 0 hpt M 4 {72 rotate 0 hpt L} repeat
  closepath stroke grestore Pnt} def
/PentF {stroke [] 0 setdash gsave
  translate 0 hpt M 4 {72 rotate 0 hpt L} repeat
  closepath fill grestore} def
/Circle {stroke [] 0 setdash 2 copy
  hpt 0 360 arc stroke Pnt} def
/CircleF {stroke [] 0 setdash hpt 0 360 arc fill} def
/C0 {BL [] 0 setdash 2 copy moveto vpt 90 450 arc} bind def
/C1 {BL [] 0 setdash 2 copy moveto
	2 copy vpt 0 90 arc closepath fill
	vpt 0 360 arc closepath} bind def
/C2 {BL [] 0 setdash 2 copy moveto
	2 copy vpt 90 180 arc closepath fill
	vpt 0 360 arc closepath} bind def
/C3 {BL [] 0 setdash 2 copy moveto
	2 copy vpt 0 180 arc closepath fill
	vpt 0 360 arc closepath} bind def
/C4 {BL [] 0 setdash 2 copy moveto
	2 copy vpt 180 270 arc closepath fill
	vpt 0 360 arc closepath} bind def
/C5 {BL [] 0 setdash 2 copy moveto
	2 copy vpt 0 90 arc
	2 copy moveto
	2 copy vpt 180 270 arc closepath fill
	vpt 0 360 arc} bind def
/C6 {BL [] 0 setdash 2 copy moveto
	2 copy vpt 90 270 arc closepath fill
	vpt 0 360 arc closepath} bind def
/C7 {BL [] 0 setdash 2 copy moveto
	2 copy vpt 0 270 arc closepath fill
	vpt 0 360 arc closepath} bind def
/C8 {BL [] 0 setdash 2 copy moveto
	2 copy vpt 270 360 arc closepath fill
	vpt 0 360 arc closepath} bind def
/C9 {BL [] 0 setdash 2 copy moveto
	2 copy vpt 270 450 arc closepath fill
	vpt 0 360 arc closepath} bind def
/C10 {BL [] 0 setdash 2 copy 2 copy moveto vpt 270 360 arc closepath fill
	2 copy moveto
	2 copy vpt 90 180 arc closepath fill
	vpt 0 360 arc closepath} bind def
/C11 {BL [] 0 setdash 2 copy moveto
	2 copy vpt 0 180 arc closepath fill
	2 copy moveto
	2 copy vpt 270 360 arc closepath fill
	vpt 0 360 arc closepath} bind def
/C12 {BL [] 0 setdash 2 copy moveto
	2 copy vpt 180 360 arc closepath fill
	vpt 0 360 arc closepath} bind def
/C13 {BL [] 0 setdash 2 copy moveto
	2 copy vpt 0 90 arc closepath fill
	2 copy moveto
	2 copy vpt 180 360 arc closepath fill
	vpt 0 360 arc closepath} bind def
/C14 {BL [] 0 setdash 2 copy moveto
	2 copy vpt 90 360 arc closepath fill
	vpt 0 360 arc} bind def
/C15 {BL [] 0 setdash 2 copy vpt 0 360 arc closepath fill
	vpt 0 360 arc closepath} bind def
/Rec {newpath 4 2 roll moveto 1 index 0 rlineto 0 exch rlineto
	neg 0 rlineto closepath} bind def
/Square {dup Rec} bind def
/Bsquare {vpt sub exch vpt sub exch vpt2 Square} bind def
/S0 {BL [] 0 setdash 2 copy moveto 0 vpt rlineto BL Bsquare} bind def
/S1 {BL [] 0 setdash 2 copy vpt Square fill Bsquare} bind def
/S2 {BL [] 0 setdash 2 copy exch vpt sub exch vpt Square fill Bsquare} bind def
/S3 {BL [] 0 setdash 2 copy exch vpt sub exch vpt2 vpt Rec fill Bsquare} bind def
/S4 {BL [] 0 setdash 2 copy exch vpt sub exch vpt sub vpt Square fill Bsquare} bind def
/S5 {BL [] 0 setdash 2 copy 2 copy vpt Square fill
	exch vpt sub exch vpt sub vpt Square fill Bsquare} bind def
/S6 {BL [] 0 setdash 2 copy exch vpt sub exch vpt sub vpt vpt2 Rec fill Bsquare} bind def
/S7 {BL [] 0 setdash 2 copy exch vpt sub exch vpt sub vpt vpt2 Rec fill
	2 copy vpt Square fill Bsquare} bind def
/S8 {BL [] 0 setdash 2 copy vpt sub vpt Square fill Bsquare} bind def
/S9 {BL [] 0 setdash 2 copy vpt sub vpt vpt2 Rec fill Bsquare} bind def
/S10 {BL [] 0 setdash 2 copy vpt sub vpt Square fill 2 copy exch vpt sub exch vpt Square fill
	Bsquare} bind def
/S11 {BL [] 0 setdash 2 copy vpt sub vpt Square fill 2 copy exch vpt sub exch vpt2 vpt Rec fill
	Bsquare} bind def
/S12 {BL [] 0 setdash 2 copy exch vpt sub exch vpt sub vpt2 vpt Rec fill Bsquare} bind def
/S13 {BL [] 0 setdash 2 copy exch vpt sub exch vpt sub vpt2 vpt Rec fill
	2 copy vpt Square fill Bsquare} bind def
/S14 {BL [] 0 setdash 2 copy exch vpt sub exch vpt sub vpt2 vpt Rec fill
	2 copy exch vpt sub exch vpt Square fill Bsquare} bind def
/S15 {BL [] 0 setdash 2 copy Bsquare fill Bsquare} bind def
/D0 {gsave translate 45 rotate 0 0 S0 stroke grestore} bind def
/D1 {gsave translate 45 rotate 0 0 S1 stroke grestore} bind def
/D2 {gsave translate 45 rotate 0 0 S2 stroke grestore} bind def
/D3 {gsave translate 45 rotate 0 0 S3 stroke grestore} bind def
/D4 {gsave translate 45 rotate 0 0 S4 stroke grestore} bind def
/D5 {gsave translate 45 rotate 0 0 S5 stroke grestore} bind def
/D6 {gsave translate 45 rotate 0 0 S6 stroke grestore} bind def
/D7 {gsave translate 45 rotate 0 0 S7 stroke grestore} bind def
/D8 {gsave translate 45 rotate 0 0 S8 stroke grestore} bind def
/D9 {gsave translate 45 rotate 0 0 S9 stroke grestore} bind def
/D10 {gsave translate 45 rotate 0 0 S10 stroke grestore} bind def
/D11 {gsave translate 45 rotate 0 0 S11 stroke grestore} bind def
/D12 {gsave translate 45 rotate 0 0 S12 stroke grestore} bind def
/D13 {gsave translate 45 rotate 0 0 S13 stroke grestore} bind def
/D14 {gsave translate 45 rotate 0 0 S14 stroke grestore} bind def
/D15 {gsave translate 45 rotate 0 0 S15 stroke grestore} bind def
/DiaE {stroke [] 0 setdash vpt add M
  hpt neg vpt neg V hpt vpt neg V
  hpt vpt V hpt neg vpt V closepath stroke} def
/BoxE {stroke [] 0 setdash exch hpt sub exch vpt add M
  0 vpt2 neg V hpt2 0 V 0 vpt2 V
  hpt2 neg 0 V closepath stroke} def
/TriUE {stroke [] 0 setdash vpt 1.12 mul add M
  hpt neg vpt -1.62 mul V
  hpt 2 mul 0 V
  hpt neg vpt 1.62 mul V closepath stroke} def
/TriDE {stroke [] 0 setdash vpt 1.12 mul sub M
  hpt neg vpt 1.62 mul V
  hpt 2 mul 0 V
  hpt neg vpt -1.62 mul V closepath stroke} def
/PentE {stroke [] 0 setdash gsave
  translate 0 hpt M 4 {72 rotate 0 hpt L} repeat
  closepath stroke grestore} def
/CircE {stroke [] 0 setdash 
  hpt 0 360 arc stroke} def
/Opaque {gsave closepath 1 setgray fill grestore 0 setgray closepath} def
/DiaW {stroke [] 0 setdash vpt add M
  hpt neg vpt neg V hpt vpt neg V
  hpt vpt V hpt neg vpt V Opaque stroke} def
/BoxW {stroke [] 0 setdash exch hpt sub exch vpt add M
  0 vpt2 neg V hpt2 0 V 0 vpt2 V
  hpt2 neg 0 V Opaque stroke} def
/TriUW {stroke [] 0 setdash vpt 1.12 mul add M
  hpt neg vpt -1.62 mul V
  hpt 2 mul 0 V
  hpt neg vpt 1.62 mul V Opaque stroke} def
/TriDW {stroke [] 0 setdash vpt 1.12 mul sub M
  hpt neg vpt 1.62 mul V
  hpt 2 mul 0 V
  hpt neg vpt -1.62 mul V Opaque stroke} def
/PentW {stroke [] 0 setdash gsave
  translate 0 hpt M 4 {72 rotate 0 hpt L} repeat
  Opaque stroke grestore} def
/CircW {stroke [] 0 setdash 
  hpt 0 360 arc Opaque stroke} def
/BoxFill {gsave Rec 1 setgray fill grestore} def
/Density {
  /Fillden exch def
  currentrgbcolor
  /ColB exch def /ColG exch def /ColR exch def
  /ColR ColR Fillden mul Fillden sub 1 add def
  /ColG ColG Fillden mul Fillden sub 1 add def
  /ColB ColB Fillden mul Fillden sub 1 add def
  ColR ColG ColB setrgbcolor} def
/BoxColFill {gsave Rec PolyFill} def
/PolyFill {gsave Density fill grestore grestore} def
/h {rlineto rlineto rlineto gsave closepath fill grestore} bind def
%
% PostScript Level 1 Pattern Fill routine for rectangles
% Usage: x y w h s a XX PatternFill
%	x,y = lower left corner of box to be filled
%	w,h = width and height of box
%	  a = angle in degrees between lines and x-axis
%	 XX = 0/1 for no/yes cross-hatch
%
/PatternFill {gsave /PFa [ 9 2 roll ] def
  PFa 0 get PFa 2 get 2 div add PFa 1 get PFa 3 get 2 div add translate
  PFa 2 get -2 div PFa 3 get -2 div PFa 2 get PFa 3 get Rec
  gsave 1 setgray fill grestore clip
  currentlinewidth 0.5 mul setlinewidth
  /PFs PFa 2 get dup mul PFa 3 get dup mul add sqrt def
  0 0 M PFa 5 get rotate PFs -2 div dup translate
  0 1 PFs PFa 4 get div 1 add floor cvi
	{PFa 4 get mul 0 M 0 PFs V} for
  0 PFa 6 get ne {
	0 1 PFs PFa 4 get div 1 add floor cvi
	{PFa 4 get mul 0 2 1 roll M PFs 0 V} for
 } if
  stroke grestore} def
%
/languagelevel where
 {pop languagelevel} {1} ifelse
 2 lt
	{/InterpretLevel1 true def}
	{/InterpretLevel1 Level1 def}
 ifelse
%
% PostScript level 2 pattern fill definitions
%
/Level2PatternFill {
/Tile8x8 {/PaintType 2 /PatternType 1 /TilingType 1 /BBox [0 0 8 8] /XStep 8 /YStep 8}
	bind def
/KeepColor {currentrgbcolor [/Pattern /DeviceRGB] setcolorspace} bind def
<< Tile8x8
 /PaintProc {0.5 setlinewidth pop 0 0 M 8 8 L 0 8 M 8 0 L stroke} 
>> matrix makepattern
/Pat1 exch def
<< Tile8x8
 /PaintProc {0.5 setlinewidth pop 0 0 M 8 8 L 0 8 M 8 0 L stroke
	0 4 M 4 8 L 8 4 L 4 0 L 0 4 L stroke}
>> matrix makepattern
/Pat2 exch def
<< Tile8x8
 /PaintProc {0.5 setlinewidth pop 0 0 M 0 8 L
	8 8 L 8 0 L 0 0 L fill}
>> matrix makepattern
/Pat3 exch def
<< Tile8x8
 /PaintProc {0.5 setlinewidth pop -4 8 M 8 -4 L
	0 12 M 12 0 L stroke}
>> matrix makepattern
/Pat4 exch def
<< Tile8x8
 /PaintProc {0.5 setlinewidth pop -4 0 M 8 12 L
	0 -4 M 12 8 L stroke}
>> matrix makepattern
/Pat5 exch def
<< Tile8x8
 /PaintProc {0.5 setlinewidth pop -2 8 M 4 -4 L
	0 12 M 8 -4 L 4 12 M 10 0 L stroke}
>> matrix makepattern
/Pat6 exch def
<< Tile8x8
 /PaintProc {0.5 setlinewidth pop -2 0 M 4 12 L
	0 -4 M 8 12 L 4 -4 M 10 8 L stroke}
>> matrix makepattern
/Pat7 exch def
<< Tile8x8
 /PaintProc {0.5 setlinewidth pop 8 -2 M -4 4 L
	12 0 M -4 8 L 12 4 M 0 10 L stroke}
>> matrix makepattern
/Pat8 exch def
<< Tile8x8
 /PaintProc {0.5 setlinewidth pop 0 -2 M 12 4 L
	-4 0 M 12 8 L -4 4 M 8 10 L stroke}
>> matrix makepattern
/Pat9 exch def
/Pattern1 {PatternBgnd KeepColor Pat1 setpattern} bind def
/Pattern2 {PatternBgnd KeepColor Pat2 setpattern} bind def
/Pattern3 {PatternBgnd KeepColor Pat3 setpattern} bind def
/Pattern4 {PatternBgnd KeepColor Landscape {Pat5} {Pat4} ifelse setpattern} bind def
/Pattern5 {PatternBgnd KeepColor Landscape {Pat4} {Pat5} ifelse setpattern} bind def
/Pattern6 {PatternBgnd KeepColor Landscape {Pat9} {Pat6} ifelse setpattern} bind def
/Pattern7 {PatternBgnd KeepColor Landscape {Pat8} {Pat7} ifelse setpattern} bind def
} def
%
%
%End of PostScript Level 2 code
%
/PatternBgnd {
  TransparentPatterns {} {gsave 1 setgray fill grestore} ifelse
} def
%
% Substitute for Level 2 pattern fill codes with
% grayscale if Level 2 support is not selected.
%
/Level1PatternFill {
/Pattern1 {0.250 Density} bind def
/Pattern2 {0.500 Density} bind def
/Pattern3 {0.750 Density} bind def
/Pattern4 {0.125 Density} bind def
/Pattern5 {0.375 Density} bind def
/Pattern6 {0.625 Density} bind def
/Pattern7 {0.875 Density} bind def
} def
%
% Now test for support of Level 2 code
%
Level1 {Level1PatternFill} {Level2PatternFill} ifelse
%
/Symbol-Oblique /Symbol findfont [1 0 .167 1 0 0] makefont
dup length dict begin {1 index /FID eq {pop pop} {def} ifelse} forall
currentdict end definefont pop
/MFshow {
   { dup 5 get 3 ge
     { 5 get 3 eq {gsave} {grestore} ifelse }
     {dup dup 0 get findfont exch 1 get scalefont setfont
     [ currentpoint ] exch dup 2 get 0 exch R dup 5 get 2 ne {dup dup 6
     get exch 4 get {show} {stringwidth pop 0 R} ifelse }if dup 5 get 0 eq
     {dup 3 get {2 get neg 0 exch R pop} {pop aload pop M} ifelse} {dup 5
     get 1 eq {dup 2 get exch dup 3 get exch 6 get stringwidth pop -2 div
     dup 0 R} {dup 6 get stringwidth pop -2 div 0 R 6 get
     show 2 index {aload pop M neg 3 -1 roll neg R pop pop} {pop pop pop
     pop aload pop M} ifelse }ifelse }ifelse }
     ifelse }
   forall} bind def
/MFwidth {0 exch { dup 5 get 3 ge { 5 get 3 eq { 0 } { pop } ifelse }
 {dup 3 get{dup dup 0 get findfont exch 1 get scalefont setfont
     6 get stringwidth pop add} {pop} ifelse} ifelse} forall} bind def
/MLshow { currentpoint stroke M
  0 exch R
  Blacktext {gsave 0 setgray MFshow grestore} {MFshow} ifelse } bind def
/MRshow { currentpoint stroke M
  exch dup MFwidth neg 3 -1 roll R
  Blacktext {gsave 0 setgray MFshow grestore} {MFshow} ifelse } bind def
/MCshow { currentpoint stroke M
  exch dup MFwidth -2 div 3 -1 roll R
  Blacktext {gsave 0 setgray MFshow grestore} {MFshow} ifelse } bind def
/XYsave    { [( ) 1 2 true false 3 ()] } bind def
/XYrestore { [( ) 1 2 true false 4 ()] } bind def
end
%%EndProlog
gnudict begin
gsave
50 50 translate
0.050 0.050 scale
0 setgray
newpath
(Helvetica) findfont 140 scalefont setfont
1.000 UL
LTb
1.000 UL
LTa
938 448 M
6052 0 V
stroke
LTb
938 448 M
63 0 V
5989 0 R
-63 0 V
stroke
854 448 M
[ [(Helvetica) 140.0 0.0 true true 0 ( 0)]
] -46.7 MRshow
1.000 UL
LTb
1.000 UL
LTa
938 890 M
6052 0 V
stroke
LTb
938 890 M
63 0 V
5989 0 R
-63 0 V
stroke
854 890 M
[ [(Helvetica) 140.0 0.0 true true 0 ( 0.05)]
] -46.7 MRshow
1.000 UL
LTb
1.000 UL
LTa
938 1333 M
6052 0 V
stroke
LTb
938 1333 M
63 0 V
5989 0 R
-63 0 V
stroke
854 1333 M
[ [(Helvetica) 140.0 0.0 true true 0 ( 0.1)]
] -46.7 MRshow
1.000 UL
LTb
1.000 UL
LTa
938 1775 M
6052 0 V
stroke
LTb
938 1775 M
63 0 V
5989 0 R
-63 0 V
stroke
854 1775 M
[ [(Helvetica) 140.0 0.0 true true 0 ( 0.15)]
] -46.7 MRshow
1.000 UL
LTb
1.000 UL
LTa
938 2218 M
6052 0 V
stroke
LTb
938 2218 M
63 0 V
5989 0 R
-63 0 V
stroke
854 2218 M
[ [(Helvetica) 140.0 0.0 true true 0 ( 0.2)]
] -46.7 MRshow
1.000 UL
LTb
1.000 UL
LTa
938 2660 M
6052 0 V
stroke
LTb
938 2660 M
63 0 V
5989 0 R
-63 0 V
stroke
854 2660 M
[ [(Helvetica) 140.0 0.0 true true 0 ( 0.25)]
] -46.7 MRshow
1.000 UL
LTb
1.000 UL
LTa
938 3102 M
6052 0 V
stroke
LTb
938 3102 M
63 0 V
5989 0 R
-63 0 V
stroke
854 3102 M
[ [(Helvetica) 140.0 0.0 true true 0 ( 0.3)]
] -46.7 MRshow
1.000 UL
LTb
1.000 UL
LTa
938 3545 M
6052 0 V
stroke
LTb
938 3545 M
63 0 V
5989 0 R
-63 0 V
stroke
854 3545 M
[ [(Helvetica) 140.0 0.0 true true 0 ( 0.35)]
] -46.7 MRshow
1.000 UL
LTb
1.000 UL
LTa
938 3987 M
6052 0 V
stroke
LTb
938 3987 M
63 0 V
5989 0 R
-63 0 V
stroke
854 3987 M
[ [(Helvetica) 140.0 0.0 true true 0 ( 0.4)]
] -46.7 MRshow
1.000 UL
LTb
1.000 UL
LTa
938 4430 M
4645 0 V
1323 0 R
84 0 V
stroke
LTb
938 4430 M
63 0 V
5989 0 R
-63 0 V
stroke
854 4430 M
[ [(Helvetica) 140.0 0.0 true true 0 ( 0.45)]
] -46.7 MRshow
1.000 UL
LTb
1.000 UL
LTa
938 4872 M
6052 0 V
stroke
LTb
938 4872 M
63 0 V
5989 0 R
-63 0 V
stroke
854 4872 M
[ [(Helvetica) 140.0 0.0 true true 0 ( 0.5)]
] -46.7 MRshow
1.000 UL
LTb
1.000 UL
LTa
938 448 M
0 4424 V
stroke
LTb
938 448 M
0 63 V
0 4361 R
0 -63 V
stroke
938 308 M
[ [(Helvetica) 140.0 0.0 true true 0 ( 0)]
] -46.7 MCshow
1.000 UL
LTb
1.000 UL
LTa
1695 448 M
0 4424 V
stroke
LTb
1695 448 M
0 63 V
0 4361 R
0 -63 V
stroke
1695 308 M
[ [(Helvetica) 140.0 0.0 true true 0 ( 500)]
] -46.7 MCshow
1.000 UL
LTb
1.000 UL
LTa
2451 448 M
0 4424 V
stroke
LTb
2451 448 M
0 63 V
0 4361 R
0 -63 V
stroke
2451 308 M
[ [(Helvetica) 140.0 0.0 true true 0 ( 1000)]
] -46.7 MCshow
1.000 UL
LTb
1.000 UL
LTa
3208 448 M
0 4424 V
stroke
LTb
3208 448 M
0 63 V
0 4361 R
0 -63 V
stroke
3208 308 M
[ [(Helvetica) 140.0 0.0 true true 0 ( 1500)]
] -46.7 MCshow
1.000 UL
LTb
1.000 UL
LTa
3964 448 M
0 4424 V
stroke
LTb
3964 448 M
0 63 V
0 4361 R
0 -63 V
stroke
3964 308 M
[ [(Helvetica) 140.0 0.0 true true 0 ( 2000)]
] -46.7 MCshow
1.000 UL
LTb
1.000 UL
LTa
4721 448 M
0 4424 V
stroke
LTb
4721 448 M
0 63 V
0 4361 R
0 -63 V
stroke
4721 308 M
[ [(Helvetica) 140.0 0.0 true true 0 ( 2500)]
] -46.7 MCshow
1.000 UL
LTb
1.000 UL
LTa
5477 448 M
0 4424 V
stroke
LTb
5477 448 M
0 63 V
0 4361 R
0 -63 V
stroke
5477 308 M
[ [(Helvetica) 140.0 0.0 true true 0 ( 3000)]
] -46.7 MCshow
1.000 UL
LTb
1.000 UL
LTa
6234 448 M
0 3941 V
0 420 R
0 63 V
stroke
LTb
6234 448 M
0 63 V
0 4361 R
0 -63 V
stroke
6234 308 M
[ [(Helvetica) 140.0 0.0 true true 0 ( 3500)]
] -46.7 MCshow
1.000 UL
LTb
1.000 UL
LTa
6990 448 M
0 4424 V
stroke
LTb
6990 448 M
0 63 V
0 4361 R
0 -63 V
stroke
6990 308 M
[ [(Helvetica) 140.0 0.0 true true 0 ( 4000)]
] -46.7 MCshow
1.000 UL
LTb
1.000 UL
LTb
938 4872 N
938 448 L
6052 0 V
0 4424 V
-6052 0 V
Z stroke
LCb setrgbcolor
280 2660 M
currentpoint gsave translate 90 rotate 0 0 moveto
[ [(Helvetica) 140.0 0.0 true true 0 (Noise ratio)]
] -46.7 MCshow
grestore
LTb
LCb setrgbcolor
3964 98 M
[ [(Helvetica) 140.0 0.0 true true 0 (Group size)]
] -46.7 MCshow
LTb
1.000 UP
1.000 UL
LTb
1.000 UL
LTb
5583 4389 N
0 420 V
1323 0 V
0 -420 V
-1323 0 V
Z stroke
5583 4809 M
1323 0 V
1.000 UP
stroke
2.000 UL
LT0
LTb
6339 4739 M
[ [(Helvetica) 140.0 0.0 true true 0 (3G/4G)]
] -46.7 MRshow
LT0
6423 4739 M
399 0 V
-399 31 R
0 -62 V
399 62 R
0 -62 V
999 2521 M
75 -450 V
76 -226 V
75 -213 V
76 -69 V
76 -150 V
75 11 V
76 -86 V
76 -42 V
75 -3 V
76 -35 V
76 14 V
75 -59 V
76 -36 V
76 -40 V
75 -14 V
76 5 V
76 -37 V
75 21 V
76 -27 V
76 -50 V
75 20 V
76 -13 V
75 -13 V
76 31 V
76 -50 V
75 -12 V
76 -12 V
76 10 V
75 -4 V
76 -5 V
76 -12 V
75 -2 V
76 57 V
76 -57 V
75 18 V
76 -6 V
76 -16 V
75 10 V
76 -9 V
76 -6 V
75 -17 V
76 -10 V
75 18 V
76 6 V
76 4 V
75 12 V
76 -23 V
76 0 V
75 12 V
76 -30 V
76 39 V
75 -10 V
76 -4 V
76 -9 V
75 -1 V
76 3 V
76 6 V
75 -11 V
76 5 V
76 -18 V
75 -9 V
76 27 V
75 6 V
76 -10 V
76 -3 V
75 5 V
76 30 V
76 -44 V
75 3 V
76 10 V
76 6 V
75 -36 V
76 34 V
76 5 V
75 -5 V
76 31 V
76 -17 V
75 -27 V
76 -26 V
999 1940 M
0 1162 V
968 1940 M
62 0 V
968 3102 M
62 0 V
44 -1343 R
0 624 V
-31 -624 R
62 0 V
-62 624 R
62 0 V
45 -792 R
0 508 V
-31 -508 R
62 0 V
-62 508 R
62 0 V
44 -628 R
0 321 V
stroke 1225 1792 M
-31 -321 R
62 0 V
-62 321 R
62 0 V
45 -533 R
0 609 V
-31 -609 R
62 0 V
-62 609 R
62 0 V
45 -543 R
0 176 V
-31 -176 R
62 0 V
-62 176 R
62 0 V
44 -245 R
0 336 V
-31 -336 R
62 0 V
-62 336 R
62 0 V
45 -371 R
0 234 V
-31 -234 R
62 0 V
-62 234 R
62 0 V
45 -331 R
0 343 V
-31 -343 R
62 0 V
-62 343 R
62 0 V
44 -294 R
0 240 V
-31 -240 R
62 0 V
-62 240 R
62 0 V
45 -233 R
0 156 V
-31 -156 R
62 0 V
-62 156 R
62 0 V
45 -167 R
0 206 V
-31 -206 R
62 0 V
-62 206 R
62 0 V
44 -304 R
0 284 V
-31 -284 R
62 0 V
-62 284 R
62 0 V
45 -240 R
0 125 V
-31 -125 R
62 0 V
-62 125 R
62 0 V
45 -202 R
0 198 V
-31 -198 R
62 0 V
-62 198 R
62 0 V
44 -173 R
0 120 V
-31 -120 R
62 0 V
-62 120 R
62 0 V
45 -178 R
0 246 V
-31 -246 R
62 0 V
-62 246 R
62 0 V
45 -253 R
0 186 V
2254 998 M
62 0 V
-62 186 R
62 0 V
44 -197 R
0 251 V
2329 987 M
62 0 V
-62 251 R
62 0 V
45 -235 R
0 164 V
-31 -164 R
62 0 V
-62 164 R
62 0 V
45 -202 R
0 141 V
2481 965 M
62 0 V
stroke 2543 965 M
-62 141 R
62 0 V
44 -122 R
0 142 V
2556 984 M
62 0 V
-62 142 R
62 0 V
45 -170 R
0 172 V
2632 956 M
62 0 V
-62 172 R
62 0 V
44 -161 R
0 125 V
2707 967 M
62 0 V
-62 125 R
62 0 V
45 -128 R
0 191 V
2783 964 M
62 0 V
-62 191 R
62 0 V
45 -217 R
0 144 V
2859 938 M
62 0 V
-62 144 R
62 0 V
44 -130 R
0 91 V
-31 -91 R
62 0 V
-62 91 R
62 0 V
45 -100 R
0 86 V
-31 -86 R
62 0 V
-62 86 R
62 0 V
45 -80 R
0 95 V
-31 -95 R
62 0 V
-62 95 R
62 0 V
44 -96 R
0 88 V
-31 -88 R
62 0 V
-62 88 R
62 0 V
45 -113 R
0 129 V
3237 923 M
62 0 V
-62 129 R
62 0 V
45 -138 R
0 123 V
3313 914 M
62 0 V
-62 123 R
62 0 V
44 -104 R
0 80 V
-31 -80 R
62 0 V
-62 80 R
62 0 V
45 -140 R
0 313 V
3464 873 M
62 0 V
-62 313 R
62 0 V
45 -275 R
0 124 V
3540 911 M
62 0 V
-62 124 R
62 0 V
44 -109 R
0 129 V
3615 926 M
62 0 V
-62 129 R
62 0 V
45 -137 R
0 133 V
3691 918 M
62 0 V
-62 133 R
62 0 V
45 -137 R
0 111 V
3767 914 M
62 0 V
-62 111 R
62 0 V
stroke 3829 1025 M
44 -103 R
0 113 V
3842 922 M
62 0 V
-62 113 R
62 0 V
45 -140 R
0 150 V
3918 895 M
62 0 V
-62 150 R
62 0 V
45 -145 R
0 128 V
3994 900 M
62 0 V
-62 128 R
62 0 V
44 -122 R
0 83 V
-31 -83 R
62 0 V
-62 83 R
62 0 V
45 -90 R
0 77 V
-31 -77 R
62 0 V
-62 77 R
62 0 V
44 -72 R
0 102 V
4220 904 M
62 0 V
-62 102 R
62 0 V
45 -94 R
0 98 V
-31 -98 R
62 0 V
-62 98 R
62 0 V
45 -114 R
0 137 V
4372 896 M
62 0 V
-62 137 R
62 0 V
44 -161 R
0 210 V
4447 872 M
62 0 V
-62 210 R
62 0 V
45 -185 R
0 115 V
4523 897 M
62 0 V
-62 115 R
62 0 V
45 -97 R
0 78 V
-31 -78 R
62 0 V
-62 78 R
62 0 V
44 -89 R
0 124 V
4674 904 M
62 0 V
-62 124 R
62 0 V
45 -122 R
0 60 V
-31 -60 R
62 0 V
-62 60 R
62 0 V
45 -70 R
0 159 V
4826 896 M
62 0 V
-62 159 R
62 0 V
44 -155 R
0 129 V
4901 900 M
62 0 V
-62 129 R
62 0 V
45 -142 R
0 147 V
4977 887 M
62 0 V
-62 147 R
62 0 V
45 -148 R
0 133 V
5053 886 M
62 0 V
-62 133 R
62 0 V
44 -124 R
0 113 V
stroke 5159 1008 M
5128 895 M
62 0 V
-62 113 R
62 0 V
45 -102 R
0 96 V
-31 -96 R
62 0 V
-62 96 R
62 0 V
45 -149 R
0 215 V
5280 853 M
62 0 V
-62 215 R
62 0 V
44 -173 R
0 107 V
5355 895 M
62 0 V
-62 107 R
62 0 V
45 -164 R
0 232 V
5431 838 M
62 0 V
-62 232 R
62 0 V
45 -179 R
0 90 V
-31 -90 R
62 0 V
-62 90 R
62 0 V
44 -91 R
0 73 V
-31 -73 R
62 0 V
-62 73 R
62 0 V
45 -99 R
0 180 V
5658 864 M
62 0 V
-62 180 R
62 0 V
44 -146 R
0 124 V
5733 898 M
62 0 V
-62 124 R
62 0 V
45 -131 R
0 118 V
5809 891 M
62 0 V
-62 118 R
62 0 V
45 -120 R
0 116 V
5885 889 M
62 0 V
-62 116 R
62 0 V
44 -101 R
0 96 V
-31 -96 R
62 0 V
-62 96 R
62 0 V
45 -108 R
0 179 V
6036 892 M
62 0 V
-62 179 R
62 0 V
45 -173 R
0 80 V
-31 -80 R
62 0 V
-62 80 R
62 0 V
44 -66 R
0 57 V
-31 -57 R
62 0 V
-62 57 R
62 0 V
45 -74 R
0 111 V
6263 895 M
62 0 V
-62 111 R
62 0 V
45 -139 R
0 180 V
6339 867 M
62 0 V
-62 180 R
62 0 V
44 -172 R
0 91 V
-31 -91 R
62 0 V
stroke 6476 875 M
-62 91 R
62 0 V
45 -108 R
0 194 V
6490 858 M
62 0 V
-62 194 R
62 0 V
45 -169 R
0 155 V
6566 883 M
62 0 V
-62 155 R
62 0 V
44 -164 R
0 163 V
6641 874 M
62 0 V
-62 163 R
62 0 V
45 -136 R
0 169 V
6717 901 M
62 0 V
-62 169 R
62 0 V
45 -179 R
0 157 V
6793 891 M
62 0 V
-62 157 R
62 0 V
44 -156 R
0 99 V
-31 -99 R
62 0 V
-62 99 R
62 0 V
45 -113 R
0 75 V
-31 -75 R
62 0 V
-62 75 R
62 0 V
999 2521 Pls
1074 2071 Pls
1150 1845 Pls
1225 1632 Pls
1301 1563 Pls
1377 1413 Pls
1452 1424 Pls
1528 1338 Pls
1604 1296 Pls
1679 1293 Pls
1755 1258 Pls
1831 1272 Pls
1906 1213 Pls
1982 1177 Pls
2058 1137 Pls
2133 1123 Pls
2209 1128 Pls
2285 1091 Pls
2360 1112 Pls
2436 1085 Pls
2512 1035 Pls
2587 1055 Pls
2663 1042 Pls
2738 1029 Pls
2814 1060 Pls
2890 1010 Pls
2965 998 Pls
3041 986 Pls
3117 996 Pls
3192 992 Pls
3268 987 Pls
3344 975 Pls
3419 973 Pls
3495 1030 Pls
3571 973 Pls
3646 991 Pls
3722 985 Pls
3798 969 Pls
3873 979 Pls
3949 970 Pls
4025 964 Pls
4100 947 Pls
4176 937 Pls
4251 955 Pls
4327 961 Pls
4403 965 Pls
4478 977 Pls
4554 954 Pls
4630 954 Pls
4705 966 Pls
4781 936 Pls
4857 975 Pls
4932 965 Pls
5008 961 Pls
5084 952 Pls
5159 951 Pls
5235 954 Pls
5311 960 Pls
5386 949 Pls
5462 954 Pls
5538 936 Pls
5613 927 Pls
5689 954 Pls
5764 960 Pls
5840 950 Pls
5916 947 Pls
5991 952 Pls
6067 982 Pls
6143 938 Pls
6218 941 Pls
6294 951 Pls
6370 957 Pls
6445 921 Pls
6521 955 Pls
6597 960 Pls
6672 955 Pls
6748 986 Pls
6824 969 Pls
6899 942 Pls
6975 916 Pls
6622 4739 Pls
1.000 UP
2.000 UL
LT1
LTb
6339 4599 M
[ [(Helvetica) 140.0 0.0 true true 0 (Voice)]
] -46.7 MRshow
LT1
6423 4599 M
399 0 V
-399 31 R
0 -62 V
399 62 R
0 -62 V
968 4165 M
76 -738 V
76 -514 V
75 -310 V
76 -110 V
76 -264 V
75 -103 V
76 -95 V
75 -65 V
76 -83 V
76 -99 V
75 -7 V
76 -17 V
76 14 V
75 -42 V
76 -69 V
76 -31 V
75 -50 V
76 9 V
76 -16 V
75 -8 V
76 -60 V
76 -5 V
75 17 V
76 -65 V
76 -10 V
75 20 V
76 -44 V
75 32 V
76 -56 V
76 21 V
75 -22 V
76 15 V
76 -16 V
75 -5 V
76 -13 V
76 -21 V
75 9 V
76 13 V
76 -37 V
75 -13 V
76 -12 V
76 19 V
75 22 V
76 -18 V
76 -30 V
75 16 V
76 -12 V
75 -13 V
76 14 V
76 5 V
75 -18 V
76 -28 V
76 9 V
75 -8 V
76 -5 V
76 25 V
75 -29 V
76 18 V
76 -8 V
75 -32 V
76 9 V
76 -7 V
75 29 V
76 -22 V
76 7 V
75 7 V
76 0 V
75 -25 V
76 3 V
76 0 V
75 4 V
76 24 V
76 -37 V
75 2 V
76 -30 V
76 44 V
75 -22 V
76 -12 V
76 0 V
968 3873 M
0 585 V
937 3873 M
62 0 V
-62 585 R
62 0 V
45 -1334 R
0 605 V
-31 -605 R
62 0 V
-62 605 R
62 0 V
45 -1066 R
0 499 V
-31 -499 R
62 0 V
-62 499 R
62 0 V
44 -771 R
0 424 V
stroke 1195 2815 M
-31 -424 R
62 0 V
-62 424 R
62 0 V
45 -1046 R
0 1448 V
1240 1769 M
62 0 V
-62 1448 R
62 0 V
45 -1170 R
0 363 V
-31 -363 R
62 0 V
-62 363 R
62 0 V
44 -506 R
0 444 V
-31 -444 R
62 0 V
-62 444 R
62 0 V
45 -490 R
0 346 V
-31 -346 R
62 0 V
-62 346 R
62 0 V
44 -389 R
0 301 V
-31 -301 R
62 0 V
-62 301 R
62 0 V
45 -363 R
0 260 V
-31 -260 R
62 0 V
-62 260 R
62 0 V
45 -344 R
0 230 V
-31 -230 R
62 0 V
-62 230 R
62 0 V
44 -199 R
0 154 V
-31 -154 R
62 0 V
-62 154 R
62 0 V
45 -206 R
0 225 V
-31 -225 R
62 0 V
-62 225 R
62 0 V
45 -213 R
0 228 V
-31 -228 R
62 0 V
-62 228 R
62 0 V
44 -291 R
0 270 V
-31 -270 R
62 0 V
-62 270 R
62 0 V
45 -294 R
0 181 V
-31 -181 R
62 0 V
-62 181 R
62 0 V
45 -230 R
0 216 V
-31 -216 R
62 0 V
-62 216 R
62 0 V
44 -255 R
0 194 V
-31 -194 R
62 0 V
-62 194 R
62 0 V
45 -189 R
0 202 V
-31 -202 R
62 0 V
-62 202 R
62 0 V
45 -199 R
0 164 V
-31 -164 R
62 0 V
-62 164 R
62 0 V
44 -153 R
0 126 V
-31 -126 R
62 0 V
stroke 2512 1504 M
-62 126 R
62 0 V
45 -223 R
0 200 V
-31 -200 R
62 0 V
-62 200 R
62 0 V
45 -186 R
0 162 V
-31 -162 R
62 0 V
-62 162 R
62 0 V
44 -175 R
0 222 V
-31 -222 R
62 0 V
-62 222 R
62 0 V
45 -270 R
0 188 V
-31 -188 R
62 0 V
-62 188 R
62 0 V
45 -159 R
0 110 V
-31 -110 R
62 0 V
-62 110 R
62 0 V
44 -97 R
0 125 V
-31 -125 R
62 0 V
-62 125 R
62 0 V
45 -166 R
0 118 V
-31 -118 R
62 0 V
-62 118 R
62 0 V
44 -134 R
0 214 V
-31 -214 R
62 0 V
-62 214 R
62 0 V
45 -272 R
0 218 V
-31 -218 R
62 0 V
-62 218 R
62 0 V
45 -148 R
0 121 V
-31 -121 R
62 0 V
-62 121 R
62 0 V
44 -175 R
0 184 V
-31 -184 R
62 0 V
-62 184 R
62 0 V
45 -163 R
0 172 V
-31 -172 R
62 0 V
-62 172 R
62 0 V
45 -170 R
0 135 V
-31 -135 R
62 0 V
-62 135 R
62 0 V
44 -121 R
0 98 V
-31 -98 R
62 0 V
-62 98 R
62 0 V
45 -210 R
0 296 V
-31 -296 R
62 0 V
-62 296 R
62 0 V
45 -233 R
0 128 V
-31 -128 R
62 0 V
-62 128 R
62 0 V
44 -112 R
0 114 V
-31 -114 R
62 0 V
-62 114 R
62 0 V
stroke 3798 1421 M
45 -103 R
0 118 V
-31 -118 R
62 0 V
-62 118 R
62 0 V
45 -164 R
0 136 V
-31 -136 R
62 0 V
-62 136 R
62 0 V
44 -153 R
0 143 V
-31 -143 R
62 0 V
-62 143 R
62 0 V
45 -141 R
0 115 V
-31 -115 R
62 0 V
-62 115 R
62 0 V
45 -92 R
0 109 V
-31 -109 R
62 0 V
-62 109 R
62 0 V
44 -146 R
0 225 V
-31 -225 R
62 0 V
-62 225 R
62 0 V
45 -224 R
0 188 V
-31 -188 R
62 0 V
-62 188 R
62 0 V
45 -180 R
0 112 V
-31 -112 R
62 0 V
-62 112 R
62 0 V
44 -77 R
0 74 V
-31 -74 R
62 0 V
-62 74 R
62 0 V
45 -95 R
0 91 V
-31 -91 R
62 0 V
-62 91 R
62 0 V
44 -113 R
0 109 V
-31 -109 R
62 0 V
-62 109 R
62 0 V
45 -114 R
0 149 V
-31 -149 R
62 0 V
-62 149 R
62 0 V
45 -164 R
0 188 V
-31 -188 R
62 0 V
-62 188 R
62 0 V
44 -166 R
0 109 V
-31 -109 R
62 0 V
-62 109 R
62 0 V
45 -114 R
0 62 V
-31 -62 R
62 0 V
-62 62 R
62 0 V
45 -63 R
0 82 V
-31 -82 R
62 0 V
-62 82 R
62 0 V
44 -102 R
0 106 V
-31 -106 R
62 0 V
-62 106 R
62 0 V
45 -104 R
0 91 V
stroke 5129 1313 M
-31 -91 R
62 0 V
-62 91 R
62 0 V
45 -114 R
0 187 V
-31 -187 R
62 0 V
-62 187 R
62 0 V
44 -206 R
0 169 V
-31 -169 R
62 0 V
-62 169 R
62 0 V
45 -113 R
0 91 V
-31 -91 R
62 0 V
-62 91 R
62 0 V
45 -108 R
0 110 V
-31 -110 R
62 0 V
-62 110 R
62 0 V
44 -146 R
0 118 V
-31 -118 R
62 0 V
-62 118 R
62 0 V
45 -101 R
0 102 V
-31 -102 R
62 0 V
-62 102 R
62 0 V
45 -110 R
0 104 V
-31 -104 R
62 0 V
-62 104 R
62 0 V
44 -92 R
0 138 V
-31 -138 R
62 0 V
-62 138 R
62 0 V
45 -133 R
0 83 V
-31 -83 R
62 0 V
-62 83 R
62 0 V
45 -67 R
0 67 V
-31 -67 R
62 0 V
-62 67 R
62 0 V
44 -77 R
0 99 V
-31 -99 R
62 0 V
-62 99 R
62 0 V
45 -112 R
0 126 V
-31 -126 R
62 0 V
-62 126 R
62 0 V
44 -133 R
0 90 V
-31 -90 R
62 0 V
-62 90 R
62 0 V
45 -82 R
0 80 V
-31 -80 R
62 0 V
-62 80 R
62 0 V
45 -79 R
0 79 V
-31 -79 R
62 0 V
-62 79 R
62 0 V
44 -79 R
0 85 V
-31 -85 R
62 0 V
-62 85 R
62 0 V
45 -92 R
0 147 V
-31 -147 R
62 0 V
stroke 6446 1197 M
-62 147 R
62 0 V
45 -152 R
0 84 V
-31 -84 R
62 0 V
-62 84 R
62 0 V
44 -113 R
0 145 V
-31 -145 R
62 0 V
-62 145 R
62 0 V
45 -146 R
0 88 V
-31 -88 R
62 0 V
-62 88 R
62 0 V
45 -85 R
0 170 V
-31 -170 R
62 0 V
-62 170 R
62 0 V
44 -148 R
0 82 V
-31 -82 R
62 0 V
-62 82 R
62 0 V
45 -94 R
0 82 V
-31 -82 R
62 0 V
-62 82 R
62 0 V
45 -81 R
0 80 V
-31 -80 R
62 0 V
-62 80 R
62 0 V
968 4165 Crs
1044 3427 Crs
1120 2913 Crs
1195 2603 Crs
1271 2493 Crs
1347 2229 Crs
1422 2126 Crs
1498 2031 Crs
1573 1966 Crs
1649 1883 Crs
1725 1784 Crs
1800 1777 Crs
1876 1760 Crs
1952 1774 Crs
2027 1732 Crs
2103 1663 Crs
2179 1632 Crs
2254 1582 Crs
2330 1591 Crs
2406 1575 Crs
2481 1567 Crs
2557 1507 Crs
2633 1502 Crs
2708 1519 Crs
2784 1454 Crs
2860 1444 Crs
2935 1464 Crs
3011 1420 Crs
3086 1452 Crs
3162 1396 Crs
3238 1417 Crs
3313 1395 Crs
3389 1410 Crs
3465 1394 Crs
3540 1389 Crs
3616 1376 Crs
3692 1355 Crs
3767 1364 Crs
3843 1377 Crs
3919 1340 Crs
3994 1327 Crs
4070 1315 Crs
4146 1334 Crs
4221 1356 Crs
4297 1338 Crs
4373 1308 Crs
4448 1324 Crs
4524 1312 Crs
4599 1299 Crs
4675 1313 Crs
4751 1318 Crs
4826 1300 Crs
4902 1272 Crs
4978 1281 Crs
5053 1273 Crs
5129 1268 Crs
5205 1293 Crs
5280 1264 Crs
5356 1282 Crs
5432 1274 Crs
5507 1242 Crs
5583 1251 Crs
5659 1244 Crs
5734 1273 Crs
5810 1251 Crs
5886 1258 Crs
5961 1265 Crs
6037 1265 Crs
6112 1240 Crs
6188 1243 Crs
6264 1243 Crs
6339 1247 Crs
6415 1271 Crs
6491 1234 Crs
6566 1236 Crs
6642 1206 Crs
6718 1250 Crs
6793 1228 Crs
6869 1216 Crs
6945 1216 Crs
6622 4599 Crs
1.000 UP
2.000 UL
LT2
LTb
6339 4459 M
[ [(Helvetica) 140.0 0.0 true true 0 (Voicemail)]
] -46.7 MRshow
LT2
6423 4459 M
399 0 V
-399 31 R
0 -62 V
399 62 R
0 -62 V
968 3975 M
76 257 V
76 -465 V
75 -232 V
76 -331 V
76 -170 V
75 -156 V
76 -204 V
75 -78 V
76 -82 V
76 -8 V
75 -135 V
76 -49 V
76 -67 V
75 -10 V
76 -101 V
76 17 V
75 -42 V
76 -36 V
76 -74 V
75 8 V
76 -55 V
76 12 V
75 46 V
76 -59 V
76 -48 V
75 -45 V
76 0 V
75 -54 V
76 -34 V
76 -2 V
75 -4 V
76 -35 V
76 39 V
75 -69 V
76 -22 V
76 -23 V
75 67 V
76 -54 V
76 -29 V
75 4 V
76 -42 V
76 14 V
75 -19 V
76 10 V
76 -13 V
75 19 V
76 -12 V
75 -33 V
76 7 V
76 -9 V
75 -21 V
76 0 V
76 16 V
75 -16 V
76 -25 V
76 -4 V
75 11 V
76 -5 V
76 -20 V
75 14 V
76 -4 V
76 -19 V
75 6 V
76 -21 V
76 -2 V
75 -9 V
76 2 V
75 -16 V
76 9 V
76 19 V
75 -17 V
76 -15 V
76 13 V
75 -44 V
76 45 V
76 -19 V
75 -2 V
76 -22 V
76 21 V
968 3402 M
0 1145 V
937 3402 M
62 0 V
937 4547 M
62 0 V
45 -727 R
0 824 V
-31 -824 R
62 0 V
-62 824 R
62 0 V
45 -1263 R
0 772 V
-31 -772 R
62 0 V
-62 772 R
62 0 V
44 -880 R
0 525 V
stroke 1195 3798 M
-31 -525 R
62 0 V
-62 525 R
62 0 V
45 -899 R
0 610 V
-31 -610 R
62 0 V
-62 610 R
62 0 V
45 -717 R
0 485 V
-31 -485 R
62 0 V
-62 485 R
62 0 V
44 -579 R
0 361 V
-31 -361 R
62 0 V
-62 361 R
62 0 V
45 -532 R
0 294 V
-31 -294 R
62 0 V
-62 294 R
62 0 V
44 -535 R
0 621 V
-31 -621 R
62 0 V
-62 621 R
62 0 V
45 -546 R
0 307 V
-31 -307 R
62 0 V
-62 307 R
62 0 V
45 -402 R
0 480 V
-31 -480 R
62 0 V
-62 480 R
62 0 V
44 -542 R
0 334 V
-31 -334 R
62 0 V
-62 334 R
62 0 V
45 -420 R
0 407 V
-31 -407 R
62 0 V
-62 407 R
62 0 V
45 -430 R
0 321 V
-31 -321 R
62 0 V
-62 321 R
62 0 V
44 -388 R
0 434 V
-31 -434 R
62 0 V
-62 434 R
62 0 V
45 -612 R
0 589 V
-31 -589 R
62 0 V
-62 589 R
62 0 V
45 -466 R
0 376 V
-31 -376 R
62 0 V
-62 376 R
62 0 V
44 -413 R
0 366 V
-31 -366 R
62 0 V
-62 366 R
62 0 V
45 -365 R
0 292 V
-31 -292 R
62 0 V
-62 292 R
62 0 V
45 -395 R
0 350 V
-31 -350 R
62 0 V
-62 350 R
62 0 V
44 -356 R
0 378 V
-31 -378 R
62 0 V
stroke 2512 1828 M
-62 378 R
62 0 V
45 -354 R
0 221 V
-31 -221 R
62 0 V
-62 221 R
62 0 V
45 -198 R
0 198 V
-31 -198 R
62 0 V
-62 198 R
62 0 V
44 -227 R
0 348 V
-31 -348 R
62 0 V
-62 348 R
62 0 V
45 -711 R
0 955 V
-31 -955 R
62 0 V
-62 955 R
62 0 V
45 -675 R
0 299 V
-31 -299 R
62 0 V
-62 299 R
62 0 V
44 -337 R
0 285 V
-31 -285 R
62 0 V
-62 285 R
62 0 V
45 -241 R
0 197 V
-31 -197 R
62 0 V
-62 197 R
62 0 V
44 -263 R
0 221 V
-31 -221 R
62 0 V
-62 221 R
62 0 V
45 -224 R
0 159 V
-31 -159 R
62 0 V
-62 159 R
62 0 V
45 -189 R
0 216 V
-31 -216 R
62 0 V
-62 216 R
62 0 V
44 -207 R
0 190 V
-31 -190 R
62 0 V
-62 190 R
62 0 V
45 -221 R
0 182 V
-31 -182 R
62 0 V
-62 182 R
62 0 V
45 -187 R
0 269 V
-31 -269 R
62 0 V
-62 269 R
62 0 V
44 -327 R
0 249 V
-31 -249 R
62 0 V
-62 249 R
62 0 V
45 -214 R
0 133 V
-31 -133 R
62 0 V
-62 133 R
62 0 V
45 -173 R
0 167 V
-31 -167 R
62 0 V
-62 167 R
62 0 V
44 -171 R
0 311 V
-31 -311 R
62 0 V
-62 311 R
62 0 V
stroke 3798 1887 M
45 -299 R
0 177 V
-31 -177 R
62 0 V
-62 177 R
62 0 V
45 -212 R
0 190 V
-31 -190 R
62 0 V
-62 190 R
62 0 V
44 -222 R
0 262 V
-31 -262 R
62 0 V
-62 262 R
62 0 V
45 -240 R
0 133 V
-31 -133 R
62 0 V
-62 133 R
62 0 V
45 -153 R
0 201 V
-31 -201 R
62 0 V
-62 201 R
62 0 V
44 -192 R
0 146 V
-31 -146 R
62 0 V
-62 146 R
62 0 V
45 -167 R
0 208 V
-31 -208 R
62 0 V
-62 208 R
62 0 V
45 -207 R
0 179 V
-31 -179 R
62 0 V
-62 179 R
62 0 V
44 -146 R
0 152 V
-31 -152 R
62 0 V
-62 152 R
62 0 V
45 -203 R
0 229 V
-31 -229 R
62 0 V
-62 229 R
62 0 V
44 -232 R
0 170 V
-31 -170 R
62 0 V
-62 170 R
62 0 V
45 -177 R
0 197 V
-31 -197 R
62 0 V
-62 197 R
62 0 V
45 -218 R
0 221 V
-31 -221 R
62 0 V
-62 221 R
62 0 V
44 -202 R
0 141 V
-31 -141 R
62 0 V
-62 141 R
62 0 V
45 -170 R
0 201 V
-31 -201 R
62 0 V
-62 201 R
62 0 V
45 -150 R
0 129 V
-31 -129 R
62 0 V
-62 129 R
62 0 V
44 -161 R
0 162 V
-31 -162 R
62 0 V
-62 162 R
62 0 V
45 -186 R
0 160 V
stroke 5129 1608 M
-31 -160 R
62 0 V
-62 160 R
62 0 V
45 -168 R
0 168 V
-31 -168 R
62 0 V
-62 168 R
62 0 V
44 -137 R
0 129 V
-31 -129 R
62 0 V
-62 129 R
62 0 V
45 -144 R
0 148 V
-31 -148 R
62 0 V
-62 148 R
62 0 V
45 -155 R
0 121 V
-31 -121 R
62 0 V
-62 121 R
62 0 V
44 -94 R
0 96 V
-31 -96 R
62 0 V
-62 96 R
62 0 V
45 -102 R
0 100 V
-31 -100 R
62 0 V
-62 100 R
62 0 V
45 -124 R
0 110 V
-31 -110 R
62 0 V
-62 110 R
62 0 V
44 -124 R
0 150 V
-31 -150 R
62 0 V
-62 150 R
62 0 V
45 -173 R
0 155 V
-31 -155 R
62 0 V
-62 155 R
62 0 V
45 -139 R
0 117 V
-31 -117 R
62 0 V
-62 117 R
62 0 V
44 -131 R
0 129 V
-31 -129 R
62 0 V
-62 129 R
62 0 V
45 -147 R
0 169 V
-31 -169 R
62 0 V
-62 169 R
62 0 V
44 -182 R
0 161 V
-31 -161 R
62 0 V
-62 161 R
62 0 V
45 -138 R
0 134 V
-31 -134 R
62 0 V
-62 134 R
62 0 V
45 -114 R
0 133 V
-31 -133 R
62 0 V
-62 133 R
62 0 V
44 -143 R
0 119 V
-31 -119 R
62 0 V
-62 119 R
62 0 V
45 -140 R
0 130 V
-31 -130 R
62 0 V
stroke 6446 1392 M
-62 130 R
62 0 V
45 -120 R
0 137 V
-31 -137 R
62 0 V
-62 137 R
62 0 V
44 -187 R
0 149 V
-31 -149 R
62 0 V
-62 149 R
62 0 V
45 -107 R
0 154 V
-31 -154 R
62 0 V
-62 154 R
62 0 V
45 -170 R
0 148 V
-31 -148 R
62 0 V
-62 148 R
62 0 V
44 -134 R
0 115 V
-31 -115 R
62 0 V
-62 115 R
62 0 V
45 -151 R
0 144 V
-31 -144 R
62 0 V
-62 144 R
62 0 V
45 -107 R
0 111 V
-31 -111 R
62 0 V
-62 111 R
62 0 V
968 3975 Star
1044 4232 Star
1120 3767 Star
1195 3535 Star
1271 3204 Star
1347 3034 Star
1422 2878 Star
1498 2674 Star
1573 2596 Star
1649 2514 Star
1725 2506 Star
1800 2371 Star
1876 2322 Star
1952 2255 Star
2027 2245 Star
2103 2144 Star
2179 2161 Star
2254 2119 Star
2330 2083 Star
2406 2009 Star
2481 2017 Star
2557 1962 Star
2633 1974 Star
2708 2020 Star
2784 1961 Star
2860 1913 Star
2935 1868 Star
3011 1868 Star
3086 1814 Star
3162 1780 Star
3238 1778 Star
3313 1774 Star
3389 1739 Star
3465 1778 Star
3540 1709 Star
3616 1687 Star
3692 1664 Star
3767 1731 Star
3843 1677 Star
3919 1648 Star
3994 1652 Star
4070 1610 Star
4146 1624 Star
4221 1605 Star
4297 1615 Star
4373 1602 Star
4448 1621 Star
4524 1609 Star
4599 1576 Star
4675 1583 Star
4751 1574 Star
4826 1553 Star
4902 1553 Star
4978 1569 Star
5053 1553 Star
5129 1528 Star
5205 1524 Star
5280 1535 Star
5356 1530 Star
5432 1510 Star
5507 1524 Star
5583 1520 Star
5659 1501 Star
5734 1507 Star
5810 1486 Star
5886 1484 Star
5961 1475 Star
6037 1477 Star
6112 1461 Star
6188 1470 Star
6264 1489 Star
6339 1472 Star
6415 1457 Star
6491 1470 Star
6566 1426 Star
6642 1471 Star
6718 1452 Star
6793 1450 Star
6869 1428 Star
6945 1449 Star
6622 4459 Star
1.000 UL
LTb
938 4872 N
938 448 L
6052 0 V
0 4424 V
-6052 0 V
Z stroke
1.000 UP
1.000 UL
LTb
stroke
grestore
end
showpage
%%Trailer
%%DocumentFonts: Helvetica
