%!PS-Adobe-2.0 EPSF-2.0
%%Title: latency-each-msg-attach.eps
%%Creator: gnuplot 4.6 patchlevel 1
%%CreationDate: Tue Jan 17 16:45:20 2017
%%DocumentFonts: (atend)
%%BoundingBox: 50 50 410 302
%%EndComments
%%BeginProlog
/gnudict 256 dict def
gnudict begin
%
% The following true/false flags may be edited by hand if desired.
% The unit line width and grayscale image gamma correction may also be changed.
%
/Color true def
/Blacktext false def
/Solid false def
/Dashlength 1 def
/Landscape false def
/Level1 false def
/Rounded false def
/ClipToBoundingBox false def
/SuppressPDFMark false def
/TransparentPatterns false def
/gnulinewidth 5.000 def
/userlinewidth gnulinewidth def
/Gamma 1.0 def
/BackgroundColor {-1.000 -1.000 -1.000} def
%
/vshift -83 def
/dl1 {
  10.0 Dashlength mul mul
  Rounded { currentlinewidth 0.75 mul sub dup 0 le { pop 0.01 } if } if
} def
/dl2 {
  10.0 Dashlength mul mul
  Rounded { currentlinewidth 0.75 mul add } if
} def
/hpt_ 31.5 def
/vpt_ 31.5 def
/hpt hpt_ def
/vpt vpt_ def
/doclip {
  ClipToBoundingBox {
    newpath 50 50 moveto 410 50 lineto 410 302 lineto 50 302 lineto closepath
    clip
  } if
} def
%
% Gnuplot Prolog Version 4.6 (September 2012)
%
%/SuppressPDFMark true def
%
/M {moveto} bind def
/L {lineto} bind def
/R {rmoveto} bind def
/V {rlineto} bind def
/N {newpath moveto} bind def
/Z {closepath} bind def
/C {setrgbcolor} bind def
/f {rlineto fill} bind def
/g {setgray} bind def
/Gshow {show} def   % May be redefined later in the file to support UTF-8
/vpt2 vpt 2 mul def
/hpt2 hpt 2 mul def
/Lshow {currentpoint stroke M 0 vshift R 
	Blacktext {gsave 0 setgray show grestore} {show} ifelse} def
/Rshow {currentpoint stroke M dup stringwidth pop neg vshift R
	Blacktext {gsave 0 setgray show grestore} {show} ifelse} def
/Cshow {currentpoint stroke M dup stringwidth pop -2 div vshift R 
	Blacktext {gsave 0 setgray show grestore} {show} ifelse} def
/UP {dup vpt_ mul /vpt exch def hpt_ mul /hpt exch def
  /hpt2 hpt 2 mul def /vpt2 vpt 2 mul def} def
/DL {Color {setrgbcolor Solid {pop []} if 0 setdash}
 {pop pop pop 0 setgray Solid {pop []} if 0 setdash} ifelse} def
/BL {stroke userlinewidth 2 mul setlinewidth
	Rounded {1 setlinejoin 1 setlinecap} if} def
/AL {stroke userlinewidth 2 div setlinewidth
	Rounded {1 setlinejoin 1 setlinecap} if} def
/UL {dup gnulinewidth mul /userlinewidth exch def
	dup 1 lt {pop 1} if 10 mul /udl exch def} def
/PL {stroke userlinewidth setlinewidth
	Rounded {1 setlinejoin 1 setlinecap} if} def
3.8 setmiterlimit
% Default Line colors
/LCw {1 1 1} def
/LCb {0 0 0} def
/LCa {0 0 0} def
/LC0 {1 0 0} def
/LC1 {0 1 0} def
/LC2 {0 0 1} def
/LC3 {1 0 1} def
/LC4 {0 1 1} def
/LC5 {1 1 0} def
/LC6 {0 0 0} def
/LC7 {1 0.3 0} def
/LC8 {0.5 0.5 0.5} def
% Default Line Types
/LTw {PL [] 1 setgray} def
/LTb {BL [] LCb DL} def
/LTa {AL [1 udl mul 2 udl mul] 0 setdash LCa setrgbcolor} def
/LT0 {PL [] LC0 DL} def
/LT1 {PL [4 dl1 2 dl2] LC1 DL} def
/LT2 {PL [2 dl1 3 dl2] LC2 DL} def
/LT3 {PL [1 dl1 1.5 dl2] LC3 DL} def
/LT4 {PL [6 dl1 2 dl2 1 dl1 2 dl2] LC4 DL} def
/LT5 {PL [3 dl1 3 dl2 1 dl1 3 dl2] LC5 DL} def
/LT6 {PL [2 dl1 2 dl2 2 dl1 6 dl2] LC6 DL} def
/LT7 {PL [1 dl1 2 dl2 6 dl1 2 dl2 1 dl1 2 dl2] LC7 DL} def
/LT8 {PL [2 dl1 2 dl2 2 dl1 2 dl2 2 dl1 2 dl2 2 dl1 4 dl2] LC8 DL} def
/Pnt {stroke [] 0 setdash gsave 1 setlinecap M 0 0 V stroke grestore} def
/Dia {stroke [] 0 setdash 2 copy vpt add M
  hpt neg vpt neg V hpt vpt neg V
  hpt vpt V hpt neg vpt V closepath stroke
  Pnt} def
/Pls {stroke [] 0 setdash vpt sub M 0 vpt2 V
  currentpoint stroke M
  hpt neg vpt neg R hpt2 0 V stroke
 } def
/Box {stroke [] 0 setdash 2 copy exch hpt sub exch vpt add M
  0 vpt2 neg V hpt2 0 V 0 vpt2 V
  hpt2 neg 0 V closepath stroke
  Pnt} def
/Crs {stroke [] 0 setdash exch hpt sub exch vpt add M
  hpt2 vpt2 neg V currentpoint stroke M
  hpt2 neg 0 R hpt2 vpt2 V stroke} def
/TriU {stroke [] 0 setdash 2 copy vpt 1.12 mul add M
  hpt neg vpt -1.62 mul V
  hpt 2 mul 0 V
  hpt neg vpt 1.62 mul V closepath stroke
  Pnt} def
/Star {2 copy Pls Crs} def
/BoxF {stroke [] 0 setdash exch hpt sub exch vpt add M
  0 vpt2 neg V hpt2 0 V 0 vpt2 V
  hpt2 neg 0 V closepath fill} def
/TriUF {stroke [] 0 setdash vpt 1.12 mul add M
  hpt neg vpt -1.62 mul V
  hpt 2 mul 0 V
  hpt neg vpt 1.62 mul V closepath fill} def
/TriD {stroke [] 0 setdash 2 copy vpt 1.12 mul sub M
  hpt neg vpt 1.62 mul V
  hpt 2 mul 0 V
  hpt neg vpt -1.62 mul V closepath stroke
  Pnt} def
/TriDF {stroke [] 0 setdash vpt 1.12 mul sub M
  hpt neg vpt 1.62 mul V
  hpt 2 mul 0 V
  hpt neg vpt -1.62 mul V closepath fill} def
/DiaF {stroke [] 0 setdash vpt add M
  hpt neg vpt neg V hpt vpt neg V
  hpt vpt V hpt neg vpt V closepath fill} def
/Pent {stroke [] 0 setdash 2 copy gsave
  translate 0 hpt M 4 {72 rotate 0 hpt L} repeat
  closepath stroke grestore Pnt} def
/PentF {stroke [] 0 setdash gsave
  translate 0 hpt M 4 {72 rotate 0 hpt L} repeat
  closepath fill grestore} def
/Circle {stroke [] 0 setdash 2 copy
  hpt 0 360 arc stroke Pnt} def
/CircleF {stroke [] 0 setdash hpt 0 360 arc fill} def
/C0 {BL [] 0 setdash 2 copy moveto vpt 90 450 arc} bind def
/C1 {BL [] 0 setdash 2 copy moveto
	2 copy vpt 0 90 arc closepath fill
	vpt 0 360 arc closepath} bind def
/C2 {BL [] 0 setdash 2 copy moveto
	2 copy vpt 90 180 arc closepath fill
	vpt 0 360 arc closepath} bind def
/C3 {BL [] 0 setdash 2 copy moveto
	2 copy vpt 0 180 arc closepath fill
	vpt 0 360 arc closepath} bind def
/C4 {BL [] 0 setdash 2 copy moveto
	2 copy vpt 180 270 arc closepath fill
	vpt 0 360 arc closepath} bind def
/C5 {BL [] 0 setdash 2 copy moveto
	2 copy vpt 0 90 arc
	2 copy moveto
	2 copy vpt 180 270 arc closepath fill
	vpt 0 360 arc} bind def
/C6 {BL [] 0 setdash 2 copy moveto
	2 copy vpt 90 270 arc closepath fill
	vpt 0 360 arc closepath} bind def
/C7 {BL [] 0 setdash 2 copy moveto
	2 copy vpt 0 270 arc closepath fill
	vpt 0 360 arc closepath} bind def
/C8 {BL [] 0 setdash 2 copy moveto
	2 copy vpt 270 360 arc closepath fill
	vpt 0 360 arc closepath} bind def
/C9 {BL [] 0 setdash 2 copy moveto
	2 copy vpt 270 450 arc closepath fill
	vpt 0 360 arc closepath} bind def
/C10 {BL [] 0 setdash 2 copy 2 copy moveto vpt 270 360 arc closepath fill
	2 copy moveto
	2 copy vpt 90 180 arc closepath fill
	vpt 0 360 arc closepath} bind def
/C11 {BL [] 0 setdash 2 copy moveto
	2 copy vpt 0 180 arc closepath fill
	2 copy moveto
	2 copy vpt 270 360 arc closepath fill
	vpt 0 360 arc closepath} bind def
/C12 {BL [] 0 setdash 2 copy moveto
	2 copy vpt 180 360 arc closepath fill
	vpt 0 360 arc closepath} bind def
/C13 {BL [] 0 setdash 2 copy moveto
	2 copy vpt 0 90 arc closepath fill
	2 copy moveto
	2 copy vpt 180 360 arc closepath fill
	vpt 0 360 arc closepath} bind def
/C14 {BL [] 0 setdash 2 copy moveto
	2 copy vpt 90 360 arc closepath fill
	vpt 0 360 arc} bind def
/C15 {BL [] 0 setdash 2 copy vpt 0 360 arc closepath fill
	vpt 0 360 arc closepath} bind def
/Rec {newpath 4 2 roll moveto 1 index 0 rlineto 0 exch rlineto
	neg 0 rlineto closepath} bind def
/Square {dup Rec} bind def
/Bsquare {vpt sub exch vpt sub exch vpt2 Square} bind def
/S0 {BL [] 0 setdash 2 copy moveto 0 vpt rlineto BL Bsquare} bind def
/S1 {BL [] 0 setdash 2 copy vpt Square fill Bsquare} bind def
/S2 {BL [] 0 setdash 2 copy exch vpt sub exch vpt Square fill Bsquare} bind def
/S3 {BL [] 0 setdash 2 copy exch vpt sub exch vpt2 vpt Rec fill Bsquare} bind def
/S4 {BL [] 0 setdash 2 copy exch vpt sub exch vpt sub vpt Square fill Bsquare} bind def
/S5 {BL [] 0 setdash 2 copy 2 copy vpt Square fill
	exch vpt sub exch vpt sub vpt Square fill Bsquare} bind def
/S6 {BL [] 0 setdash 2 copy exch vpt sub exch vpt sub vpt vpt2 Rec fill Bsquare} bind def
/S7 {BL [] 0 setdash 2 copy exch vpt sub exch vpt sub vpt vpt2 Rec fill
	2 copy vpt Square fill Bsquare} bind def
/S8 {BL [] 0 setdash 2 copy vpt sub vpt Square fill Bsquare} bind def
/S9 {BL [] 0 setdash 2 copy vpt sub vpt vpt2 Rec fill Bsquare} bind def
/S10 {BL [] 0 setdash 2 copy vpt sub vpt Square fill 2 copy exch vpt sub exch vpt Square fill
	Bsquare} bind def
/S11 {BL [] 0 setdash 2 copy vpt sub vpt Square fill 2 copy exch vpt sub exch vpt2 vpt Rec fill
	Bsquare} bind def
/S12 {BL [] 0 setdash 2 copy exch vpt sub exch vpt sub vpt2 vpt Rec fill Bsquare} bind def
/S13 {BL [] 0 setdash 2 copy exch vpt sub exch vpt sub vpt2 vpt Rec fill
	2 copy vpt Square fill Bsquare} bind def
/S14 {BL [] 0 setdash 2 copy exch vpt sub exch vpt sub vpt2 vpt Rec fill
	2 copy exch vpt sub exch vpt Square fill Bsquare} bind def
/S15 {BL [] 0 setdash 2 copy Bsquare fill Bsquare} bind def
/D0 {gsave translate 45 rotate 0 0 S0 stroke grestore} bind def
/D1 {gsave translate 45 rotate 0 0 S1 stroke grestore} bind def
/D2 {gsave translate 45 rotate 0 0 S2 stroke grestore} bind def
/D3 {gsave translate 45 rotate 0 0 S3 stroke grestore} bind def
/D4 {gsave translate 45 rotate 0 0 S4 stroke grestore} bind def
/D5 {gsave translate 45 rotate 0 0 S5 stroke grestore} bind def
/D6 {gsave translate 45 rotate 0 0 S6 stroke grestore} bind def
/D7 {gsave translate 45 rotate 0 0 S7 stroke grestore} bind def
/D8 {gsave translate 45 rotate 0 0 S8 stroke grestore} bind def
/D9 {gsave translate 45 rotate 0 0 S9 stroke grestore} bind def
/D10 {gsave translate 45 rotate 0 0 S10 stroke grestore} bind def
/D11 {gsave translate 45 rotate 0 0 S11 stroke grestore} bind def
/D12 {gsave translate 45 rotate 0 0 S12 stroke grestore} bind def
/D13 {gsave translate 45 rotate 0 0 S13 stroke grestore} bind def
/D14 {gsave translate 45 rotate 0 0 S14 stroke grestore} bind def
/D15 {gsave translate 45 rotate 0 0 S15 stroke grestore} bind def
/DiaE {stroke [] 0 setdash vpt add M
  hpt neg vpt neg V hpt vpt neg V
  hpt vpt V hpt neg vpt V closepath stroke} def
/BoxE {stroke [] 0 setdash exch hpt sub exch vpt add M
  0 vpt2 neg V hpt2 0 V 0 vpt2 V
  hpt2 neg 0 V closepath stroke} def
/TriUE {stroke [] 0 setdash vpt 1.12 mul add M
  hpt neg vpt -1.62 mul V
  hpt 2 mul 0 V
  hpt neg vpt 1.62 mul V closepath stroke} def
/TriDE {stroke [] 0 setdash vpt 1.12 mul sub M
  hpt neg vpt 1.62 mul V
  hpt 2 mul 0 V
  hpt neg vpt -1.62 mul V closepath stroke} def
/PentE {stroke [] 0 setdash gsave
  translate 0 hpt M 4 {72 rotate 0 hpt L} repeat
  closepath stroke grestore} def
/CircE {stroke [] 0 setdash 
  hpt 0 360 arc stroke} def
/Opaque {gsave closepath 1 setgray fill grestore 0 setgray closepath} def
/DiaW {stroke [] 0 setdash vpt add M
  hpt neg vpt neg V hpt vpt neg V
  hpt vpt V hpt neg vpt V Opaque stroke} def
/BoxW {stroke [] 0 setdash exch hpt sub exch vpt add M
  0 vpt2 neg V hpt2 0 V 0 vpt2 V
  hpt2 neg 0 V Opaque stroke} def
/TriUW {stroke [] 0 setdash vpt 1.12 mul add M
  hpt neg vpt -1.62 mul V
  hpt 2 mul 0 V
  hpt neg vpt 1.62 mul V Opaque stroke} def
/TriDW {stroke [] 0 setdash vpt 1.12 mul sub M
  hpt neg vpt 1.62 mul V
  hpt 2 mul 0 V
  hpt neg vpt -1.62 mul V Opaque stroke} def
/PentW {stroke [] 0 setdash gsave
  translate 0 hpt M 4 {72 rotate 0 hpt L} repeat
  Opaque stroke grestore} def
/CircW {stroke [] 0 setdash 
  hpt 0 360 arc Opaque stroke} def
/BoxFill {gsave Rec 1 setgray fill grestore} def
/Density {
  /Fillden exch def
  currentrgbcolor
  /ColB exch def /ColG exch def /ColR exch def
  /ColR ColR Fillden mul Fillden sub 1 add def
  /ColG ColG Fillden mul Fillden sub 1 add def
  /ColB ColB Fillden mul Fillden sub 1 add def
  ColR ColG ColB setrgbcolor} def
/BoxColFill {gsave Rec PolyFill} def
/PolyFill {gsave Density fill grestore grestore} def
/h {rlineto rlineto rlineto gsave closepath fill grestore} bind def
%
% PostScript Level 1 Pattern Fill routine for rectangles
% Usage: x y w h s a XX PatternFill
%	x,y = lower left corner of box to be filled
%	w,h = width and height of box
%	  a = angle in degrees between lines and x-axis
%	 XX = 0/1 for no/yes cross-hatch
%
/PatternFill {gsave /PFa [ 9 2 roll ] def
  PFa 0 get PFa 2 get 2 div add PFa 1 get PFa 3 get 2 div add translate
  PFa 2 get -2 div PFa 3 get -2 div PFa 2 get PFa 3 get Rec
  TransparentPatterns {} {gsave 1 setgray fill grestore} ifelse
  clip
  currentlinewidth 0.5 mul setlinewidth
  /PFs PFa 2 get dup mul PFa 3 get dup mul add sqrt def
  0 0 M PFa 5 get rotate PFs -2 div dup translate
  0 1 PFs PFa 4 get div 1 add floor cvi
	{PFa 4 get mul 0 M 0 PFs V} for
  0 PFa 6 get ne {
	0 1 PFs PFa 4 get div 1 add floor cvi
	{PFa 4 get mul 0 2 1 roll M PFs 0 V} for
 } if
  stroke grestore} def
%
/languagelevel where
 {pop languagelevel} {1} ifelse
 2 lt
	{/InterpretLevel1 true def}
	{/InterpretLevel1 Level1 def}
 ifelse
%
% PostScript level 2 pattern fill definitions
%
/Level2PatternFill {
/Tile8x8 {/PaintType 2 /PatternType 1 /TilingType 1 /BBox [0 0 8 8] /XStep 8 /YStep 8}
	bind def
/KeepColor {currentrgbcolor [/Pattern /DeviceRGB] setcolorspace} bind def
<< Tile8x8
 /PaintProc {0.5 setlinewidth pop 0 0 M 8 8 L 0 8 M 8 0 L stroke} 
>> matrix makepattern
/Pat1 exch def
<< Tile8x8
 /PaintProc {0.5 setlinewidth pop 0 0 M 8 8 L 0 8 M 8 0 L stroke
	0 4 M 4 8 L 8 4 L 4 0 L 0 4 L stroke}
>> matrix makepattern
/Pat2 exch def
<< Tile8x8
 /PaintProc {0.5 setlinewidth pop 0 0 M 0 8 L
	8 8 L 8 0 L 0 0 L fill}
>> matrix makepattern
/Pat3 exch def
<< Tile8x8
 /PaintProc {0.5 setlinewidth pop -4 8 M 8 -4 L
	0 12 M 12 0 L stroke}
>> matrix makepattern
/Pat4 exch def
<< Tile8x8
 /PaintProc {0.5 setlinewidth pop -4 0 M 8 12 L
	0 -4 M 12 8 L stroke}
>> matrix makepattern
/Pat5 exch def
<< Tile8x8
 /PaintProc {0.5 setlinewidth pop -2 8 M 4 -4 L
	0 12 M 8 -4 L 4 12 M 10 0 L stroke}
>> matrix makepattern
/Pat6 exch def
<< Tile8x8
 /PaintProc {0.5 setlinewidth pop -2 0 M 4 12 L
	0 -4 M 8 12 L 4 -4 M 10 8 L stroke}
>> matrix makepattern
/Pat7 exch def
<< Tile8x8
 /PaintProc {0.5 setlinewidth pop 8 -2 M -4 4 L
	12 0 M -4 8 L 12 4 M 0 10 L stroke}
>> matrix makepattern
/Pat8 exch def
<< Tile8x8
 /PaintProc {0.5 setlinewidth pop 0 -2 M 12 4 L
	-4 0 M 12 8 L -4 4 M 8 10 L stroke}
>> matrix makepattern
/Pat9 exch def
/Pattern1 {PatternBgnd KeepColor Pat1 setpattern} bind def
/Pattern2 {PatternBgnd KeepColor Pat2 setpattern} bind def
/Pattern3 {PatternBgnd KeepColor Pat3 setpattern} bind def
/Pattern4 {PatternBgnd KeepColor Landscape {Pat5} {Pat4} ifelse setpattern} bind def
/Pattern5 {PatternBgnd KeepColor Landscape {Pat4} {Pat5} ifelse setpattern} bind def
/Pattern6 {PatternBgnd KeepColor Landscape {Pat9} {Pat6} ifelse setpattern} bind def
/Pattern7 {PatternBgnd KeepColor Landscape {Pat8} {Pat7} ifelse setpattern} bind def
} def
%
%
%End of PostScript Level 2 code
%
/PatternBgnd {
  TransparentPatterns {} {gsave 1 setgray fill grestore} ifelse
} def
%
% Substitute for Level 2 pattern fill codes with
% grayscale if Level 2 support is not selected.
%
/Level1PatternFill {
/Pattern1 {0.250 Density} bind def
/Pattern2 {0.500 Density} bind def
/Pattern3 {0.750 Density} bind def
/Pattern4 {0.125 Density} bind def
/Pattern5 {0.375 Density} bind def
/Pattern6 {0.625 Density} bind def
/Pattern7 {0.875 Density} bind def
} def
%
% Now test for support of Level 2 code
%
Level1 {Level1PatternFill} {Level2PatternFill} ifelse
%
/Symbol-Oblique /Symbol findfont [1 0 .167 1 0 0] makefont
dup length dict begin {1 index /FID eq {pop pop} {def} ifelse} forall
currentdict end definefont pop
/MFshow {
   { dup 5 get 3 ge
     { 5 get 3 eq {gsave} {grestore} ifelse }
     {dup dup 0 get findfont exch 1 get scalefont setfont
     [ currentpoint ] exch dup 2 get 0 exch R dup 5 get 2 ne {dup dup 6
     get exch 4 get {Gshow} {stringwidth pop 0 R} ifelse }if dup 5 get 0 eq
     {dup 3 get {2 get neg 0 exch R pop} {pop aload pop M} ifelse} {dup 5
     get 1 eq {dup 2 get exch dup 3 get exch 6 get stringwidth pop -2 div
     dup 0 R} {dup 6 get stringwidth pop -2 div 0 R 6 get
     show 2 index {aload pop M neg 3 -1 roll neg R pop pop} {pop pop pop
     pop aload pop M} ifelse }ifelse }ifelse }
     ifelse }
   forall} def
/Gswidth {dup type /stringtype eq {stringwidth} {pop (n) stringwidth} ifelse} def
/MFwidth {0 exch { dup 5 get 3 ge { 5 get 3 eq { 0 } { pop } ifelse }
 {dup 3 get{dup dup 0 get findfont exch 1 get scalefont setfont
     6 get Gswidth pop add} {pop} ifelse} ifelse} forall} def
/MLshow { currentpoint stroke M
  0 exch R
  Blacktext {gsave 0 setgray MFshow grestore} {MFshow} ifelse } bind def
/MRshow { currentpoint stroke M
  exch dup MFwidth neg 3 -1 roll R
  Blacktext {gsave 0 setgray MFshow grestore} {MFshow} ifelse } bind def
/MCshow { currentpoint stroke M
  exch dup MFwidth -2 div 3 -1 roll R
  Blacktext {gsave 0 setgray MFshow grestore} {MFshow} ifelse } bind def
/XYsave    { [( ) 1 2 true false 3 ()] } bind def
/XYrestore { [( ) 1 2 true false 4 ()] } bind def
Level1 SuppressPDFMark or 
{} {
/SDict 10 dict def
systemdict /pdfmark known not {
  userdict /pdfmark systemdict /cleartomark get put
} if
SDict begin [
  /Title (latency-each-msg-attach.eps)
  /Subject (gnuplot plot)
  /Creator (gnuplot 4.6 patchlevel 1)
  /Author (binh)
%  /Producer (gnuplot)
%  /Keywords ()
  /CreationDate (Tue Jan 17 16:45:20 2017)
  /DOCINFO pdfmark
end
} ifelse
end
%%EndProlog
%%Page: 1 1
gnudict begin
gsave
doclip
50 50 translate
0.050 0.050 scale
0 setgray
newpath
(Helvetica) findfont 250 scalefont setfont
BackgroundColor 0 lt 3 1 roll 0 lt exch 0 lt or or not {BackgroundColor C 1.000 0 0 7200.00 5040.00 BoxColFill} if
1.000 UL
LTb
1225 800 M
63 0 V
5461 0 R
-63 0 V
stroke
1075 800 M
[ [(Helvetica) 250.0 0.0 true true 0 ( 0)]
] -83.3 MRshow
1.000 UL
LTb
1225 1516 M
63 0 V
5461 0 R
-63 0 V
stroke
1075 1516 M
[ [(Helvetica) 250.0 0.0 true true 0 ( 100)]
] -83.3 MRshow
1.000 UL
LTb
1225 2232 M
63 0 V
5461 0 R
-63 0 V
stroke
1075 2232 M
[ [(Helvetica) 250.0 0.0 true true 0 ( 200)]
] -83.3 MRshow
1.000 UL
LTb
1225 2949 M
63 0 V
5461 0 R
-63 0 V
stroke
1075 2949 M
[ [(Helvetica) 250.0 0.0 true true 0 ( 300)]
] -83.3 MRshow
1.000 UL
LTb
1225 3665 M
63 0 V
5461 0 R
-63 0 V
stroke
1075 3665 M
[ [(Helvetica) 250.0 0.0 true true 0 ( 400)]
] -83.3 MRshow
1.000 UL
LTb
1225 4381 M
63 0 V
5461 0 R
-63 0 V
stroke
1075 4381 M
[ [(Helvetica) 250.0 0.0 true true 0 ( 500)]
] -83.3 MRshow
1.000 UL
LTb
1839 800 M
0 63 V
0 3876 R
0 -63 V
stroke
1839 550 M
[ [(Helvetica) 250.0 0.0 true true 0 (A)]
] -83.3 MCshow
1.000 UL
LTb
2453 800 M
0 63 V
0 3876 R
0 -63 V
stroke
2453 550 M
[ [(Helvetica) 250.0 0.0 true true 0 (B)]
] -83.3 MCshow
1.000 UL
LTb
3066 800 M
0 63 V
0 3876 R
0 -63 V
stroke
3066 550 M
[ [(Helvetica) 250.0 0.0 true true 0 (C)]
] -83.3 MCshow
1.000 UL
LTb
3680 800 M
0 63 V
0 3876 R
0 -63 V
stroke
3680 550 M
[ [(Helvetica) 250.0 0.0 true true 0 (D)]
] -83.3 MCshow
1.000 UL
LTb
4294 800 M
0 63 V
0 3876 R
0 -63 V
stroke
4294 550 M
[ [(Helvetica) 250.0 0.0 true true 0 (E)]
] -83.3 MCshow
1.000 UL
LTb
4908 800 M
0 63 V
0 3876 R
0 -63 V
stroke
4908 550 M
[ [(Helvetica) 250.0 0.0 true true 0 (F)]
] -83.3 MCshow
1.000 UL
LTb
5521 800 M
0 63 V
0 3876 R
0 -63 V
stroke
5521 550 M
[ [(Helvetica) 250.0 0.0 true true 0 (G)]
] -83.3 MCshow
1.000 UL
LTb
6135 800 M
0 63 V
0 3876 R
0 -63 V
stroke
6135 550 M
[ [(Helvetica) 250.0 0.0 true true 0 (H)]
] -83.3 MCshow
1.000 UL
LTb
1.000 UL
LTb
1225 4739 N
0 -3939 V
5524 0 V
0 3939 V
-5524 0 V
Z stroke
LCb setrgbcolor
200 2769 M
currentpoint gsave translate -270 rotate 0 0 moveto
[ [(Helvetica) 250.0 0.0 true true 0 (Latency \(ms\))]
] -83.3 MCshow
grestore
LTb
LCb setrgbcolor
3987 175 M
[ [(Helvetica) 250.0 0.0 true true 0 (Attach procedure messages)]
] -83.3 MCshow
LTb
1.000 UP
1.000 UL
LTb
% Begin plot #1
1.000 UL
LT0
LCb setrgbcolor
5636 4551 M
[ [(Helvetica) 250.0 0.0 true true 0 (Disk)]
] -83.3 MRshow
LT0
1.000 5786 4489 663 125 BoxColFill
LCb setrgbcolor
5786 4489 N
663 0 V
0 124 V
-663 0 V
0 -124 V
Z stroke
LT0
1.000 1690 800 94 544 BoxColFill
LCb setrgbcolor
1690 800 N
0 543 V
93 0 V
0 -543 V
-93 0 V
Z stroke
LT0
1.000 2304 800 93 3546 BoxColFill
LCb setrgbcolor
2304 800 N
0 3545 V
92 0 V
0 -3545 V
-92 0 V
Z stroke
LT0
1.000 2918 800 93 417 BoxColFill
LCb setrgbcolor
2918 800 N
0 416 V
92 0 V
0 -416 V
-92 0 V
Z stroke
LT0
1.000 3532 800 93 230 BoxColFill
LCb setrgbcolor
3532 800 N
0 229 V
92 0 V
0 -229 V
-92 0 V
Z stroke
LT0
1.000 4146 800 93 697 BoxColFill
LCb setrgbcolor
4146 800 N
0 696 V
92 0 V
0 -696 V
-92 0 V
Z stroke
LT0
1.000 4759 800 93 259 BoxColFill
LCb setrgbcolor
4759 800 N
0 258 V
92 0 V
0 -258 V
-92 0 V
Z stroke
LT0
1.000 5373 800 93 603 BoxColFill
LCb setrgbcolor
5373 800 N
0 602 V
92 0 V
0 -602 V
-92 0 V
Z stroke
LT0
1.000 5987 800 93 1082 BoxColFill
LCb setrgbcolor
5987 800 N
0 1081 V
92 0 V
0 -1081 V
-92 0 V
Z stroke
LT0
3.000 UL
PL LCb setrgbcolor
1736 1363 M
0 -40 V
-31 40 R
62 0 V
-62 -40 R
62 0 V
583 3069 R
0 -95 V
-31 95 R
62 0 V
-62 -95 R
62 0 V
2964 1230 M
0 -29 V
-31 29 R
62 0 V
-62 -29 R
62 0 V
583 -130 R
0 -84 V
-31 84 R
62 0 V
-62 -84 R
62 0 V
583 612 R
0 -207 V
-31 207 R
62 0 V
-62 -207 R
62 0 V
582 -287 R
0 -94 V
-31 94 R
62 0 V
-62 -94 R
62 0 V
583 540 R
0 -298 V
-31 298 R
62 0 V
-62 -298 R
62 0 V
583 796 R
0 -335 V
-31 335 R
62 0 V
-62 -335 R
62 0 V
stroke
1.000 UL
LT0
% End plot #1
% Begin plot #2
1.000 UL
LT1
LCb setrgbcolor
5636 4301 M
[ [(Helvetica) 250.0 0.0 true true 0 (Disk-nFC)]
] -83.3 MRshow
LT1
1.000 5786 4239 663 125 BoxColFill
LCb setrgbcolor
5786 4239 N
663 0 V
0 124 V
-663 0 V
0 -124 V
Z stroke
LT1
1.000 1793 800 93 461 BoxColFill
LCb setrgbcolor
1793 800 N
0 460 V
92 0 V
0 -460 V
-92 0 V
Z stroke
LT1
1.000 2407 800 93 3520 BoxColFill
LCb setrgbcolor
2407 800 N
0 3519 V
92 0 V
0 -3519 V
-92 0 V
Z stroke
LT1
1.000 3020 800 93 369 BoxColFill
LCb setrgbcolor
3020 800 N
0 368 V
92 0 V
0 -368 V
-92 0 V
Z stroke
LT1
1.000 3634 800 93 277 BoxColFill
LCb setrgbcolor
3634 800 N
0 276 V
92 0 V
0 -276 V
-92 0 V
Z stroke
LT1
1.000 4248 800 93 569 BoxColFill
LCb setrgbcolor
4248 800 N
0 568 V
92 0 V
0 -568 V
-92 0 V
Z stroke
LT1
1.000 4862 800 93 270 BoxColFill
LCb setrgbcolor
4862 800 N
0 269 V
92 0 V
0 -269 V
-92 0 V
Z stroke
LT1
1.000 5475 800 93 523 BoxColFill
LCb setrgbcolor
5475 800 N
0 522 V
92 0 V
0 -522 V
-92 0 V
Z stroke
LT1
1.000 6089 800 93 1277 BoxColFill
LCb setrgbcolor
6089 800 N
0 1276 V
92 0 V
0 -1276 V
-92 0 V
Z stroke
LT1
3.000 UL
PL LCb setrgbcolor
1839 1270 M
0 -19 V
-31 19 R
62 0 V
-62 -19 R
62 0 V
583 3130 R
0 -125 V
-31 125 R
62 0 V
-62 -125 R
62 0 V
3066 1176 M
0 -17 V
-31 17 R
62 0 V
-62 -17 R
62 0 V
583 -9 R
0 -147 V
-31 147 R
62 0 V
-62 -147 R
62 0 V
583 500 R
0 -269 V
-31 269 R
62 0 V
-62 -269 R
62 0 V
583 -90 R
0 -151 V
-31 151 R
62 0 V
4877 993 M
62 0 V
582 474 R
0 -290 V
-31 290 R
62 0 V
-62 -290 R
62 0 V
583 937 R
0 -76 V
-31 76 R
62 0 V
-62 -76 R
62 0 V
stroke
1.000 UL
LT1
% End plot #2
% Begin plot #3
1.000 UL
LT2
LCb setrgbcolor
5636 4051 M
[ [(Helvetica) 250.0 0.0 true true 0 (Ramdisk)]
] -83.3 MRshow
LT2
1.000 5786 3989 663 125 BoxColFill
LCb setrgbcolor
5786 3989 N
663 0 V
0 124 V
-663 0 V
0 -124 V
Z stroke
LT2
1.000 1895 800 93 479 BoxColFill
LCb setrgbcolor
1895 800 N
0 478 V
92 0 V
0 -478 V
-92 0 V
Z stroke
LT2
1.000 2509 800 93 3571 BoxColFill
LCb setrgbcolor
2509 800 N
0 3570 V
92 0 V
0 -3570 V
-92 0 V
Z stroke
LT2
1.000 3123 800 93 376 BoxColFill
LCb setrgbcolor
3123 800 N
0 375 V
92 0 V
0 -375 V
-92 0 V
Z stroke
LT2
1.000 3736 800 93 264 BoxColFill
LCb setrgbcolor
3736 800 N
0 263 V
92 0 V
0 -263 V
-92 0 V
Z stroke
LT2
1.000 4350 800 93 571 BoxColFill
LCb setrgbcolor
4350 800 N
0 570 V
92 0 V
0 -570 V
-92 0 V
Z stroke
LT2
1.000 4964 800 93 247 BoxColFill
LCb setrgbcolor
4964 800 N
0 246 V
92 0 V
0 -246 V
-92 0 V
Z stroke
LT2
1.000 5578 800 93 582 BoxColFill
LCb setrgbcolor
5578 800 N
0 581 V
92 0 V
0 -581 V
-92 0 V
Z stroke
LT2
1.000 6191 800 94 1121 BoxColFill
LCb setrgbcolor
6191 800 N
0 1120 V
93 0 V
0 -1120 V
-93 0 V
Z stroke
LT2
3.000 UL
PL LCb setrgbcolor
1941 1304 M
0 -53 V
-31 53 R
62 0 V
-62 -53 R
62 0 V
583 3317 R
0 -396 V
-31 396 R
62 0 V
-62 -396 R
62 0 V
3169 1192 M
0 -34 V
-31 34 R
62 0 V
-62 -34 R
62 0 V
582 -68 R
0 -54 V
-31 54 R
62 0 V
-62 -54 R
62 0 V
583 476 R
0 -284 V
-31 284 R
62 0 V
-62 -284 R
62 0 V
583 -118 R
0 -127 V
-31 127 R
62 0 V
4979 983 M
62 0 V
583 533 R
0 -271 V
-31 271 R
62 0 V
-62 -271 R
62 0 V
583 847 R
0 -344 V
-31 344 R
62 0 V
-62 -344 R
62 0 V
stroke
1.000 UL
LT2
% End plot #3
% Begin plot #4
1.000 UL
LT3
LCb setrgbcolor
5636 3801 M
[ [(Helvetica) 250.0 0.0 true true 0 (OpenEPC)]
] -83.3 MRshow
LT3
1.000 5786 3739 663 125 BoxColFill
LCb setrgbcolor
5786 3739 N
663 0 V
0 124 V
-663 0 V
0 -124 V
Z stroke
LT3
1.000 1997 800 93 368 BoxColFill
LCb setrgbcolor
1997 800 N
0 367 V
92 0 V
0 -367 V
-92 0 V
Z stroke
LT3
1.000 2611 800 93 3510 BoxColFill
LCb setrgbcolor
2611 800 N
0 3509 V
92 0 V
0 -3509 V
-92 0 V
Z stroke
LT3
1.000 3225 800 93 265 BoxColFill
LCb setrgbcolor
3225 800 N
0 264 V
92 0 V
0 -264 V
-92 0 V
Z stroke
LT3
1.000 3839 800 93 303 BoxColFill
LCb setrgbcolor
3839 800 N
0 302 V
92 0 V
0 -302 V
-92 0 V
Z stroke
LT3
1.000 4452 800 94 467 BoxColFill
LCb setrgbcolor
4452 800 N
0 466 V
93 0 V
0 -466 V
-93 0 V
Z stroke
LT3
1.000 5066 800 93 238 BoxColFill
LCb setrgbcolor
5066 800 N
0 237 V
92 0 V
0 -237 V
-92 0 V
Z stroke
LT3
1.000 5680 800 93 471 BoxColFill
LCb setrgbcolor
5680 800 N
0 470 V
92 0 V
0 -470 V
-92 0 V
Z stroke
LT3
1.000 6294 800 93 1148 BoxColFill
LCb setrgbcolor
6294 800 N
0 1147 V
92 0 V
0 -1147 V
-92 0 V
Z stroke
LT3
3.000 UL
PL LCb setrgbcolor
2043 1190 M
0 -47 V
-31 47 R
62 0 V
-62 -47 R
62 0 V
583 3243 R
0 -153 V
-31 153 R
62 0 V
-62 -153 R
62 0 V
3271 1079 M
0 -30 V
-31 30 R
62 0 V
-62 -30 R
62 0 V
583 80 R
0 -53 V
-31 53 R
62 0 V
-62 -53 R
62 0 V
582 323 R
0 -265 V
-31 265 R
62 0 V
-62 -265 R
62 0 V
583 -52 R
0 -91 V
-31 91 R
62 0 V
-62 -91 R
62 0 V
583 407 R
0 -257 V
-31 257 R
62 0 V
-62 -257 R
62 0 V
583 972 R
0 -333 V
-31 333 R
62 0 V
-62 -333 R
62 0 V
stroke
1.000 UL
LT3
% End plot #4
1.000 UL
LTb
1225 4739 N
0 -3939 V
5524 0 V
0 3939 V
-5524 0 V
Z stroke
1.000 UP
1.000 UL
LTb
stroke
grestore
end
showpage
%%Trailer
%%DocumentFonts: Helvetica
