%!PS-Adobe-3.0 EPSF-3.0
%%Creator: (MATLAB, The Mathworks, Inc. Version 8.5.0.197613 \(R2015a\). Operating System: Windows 8)
%%Title: C:/Users/bozidar/Documents/Code/Belgrade/sigcomm-17/figs/results/tcpping_outage_cdf.eps
%%CreationDate: 2017-01-26T15:16:00
%%Pages: (atend)
%%BoundingBox: 0 0 800 315
%%LanguageLevel: 2
%%EndComments
%%BeginProlog
%%BeginResource: procset (Apache XML Graphics Std ProcSet) 1.2 0
%%Version: 1.2 0
%%Copyright: (Copyright 2001-2003,2010 The Apache Software Foundation. License terms: http://www.apache.org/licenses/LICENSE-2.0)
/bd{bind def}bind def
/ld{load def}bd
/GR/grestore ld
/M/moveto ld
/LJ/setlinejoin ld
/C/curveto ld
/f/fill ld
/LW/setlinewidth ld
/GC/setgray ld
/t/show ld
/N/newpath ld
/CT/concat ld
/cp/closepath ld
/S/stroke ld
/L/lineto ld
/CC/setcmykcolor ld
/A/ashow ld
/GS/gsave ld
/RC/setrgbcolor ld
/RM/rmoveto ld
/ML/setmiterlimit ld
/re {4 2 roll M
1 index 0 rlineto
0 exch rlineto
neg 0 rlineto
cp } bd
/_ctm matrix def
/_tm matrix def
/BT { _ctm currentmatrix pop matrix _tm copy pop 0 0 moveto } bd
/ET { _ctm setmatrix } bd
/iTm { _ctm setmatrix _tm concat } bd
/Tm { _tm astore pop iTm 0 0 moveto } bd
/ux 0.0 def
/uy 0.0 def
/F {
  /Tp exch def
  /Tf exch def
  Tf findfont Tp scalefont setfont
  /cf Tf def  /cs Tp def
} bd
/ULS {currentpoint /uy exch def /ux exch def} bd
/ULE {
  /Tcx currentpoint pop def
  gsave
  newpath
  cf findfont cs scalefont dup
  /FontMatrix get 0 get /Ts exch def /FontInfo get dup
  /UnderlinePosition get Ts mul /To exch def
  /UnderlineThickness get Ts mul /Tt exch def
  ux uy To add moveto  Tcx uy To add lineto
  Tt setlinewidth stroke
  grestore
} bd
/OLE {
  /Tcx currentpoint pop def
  gsave
  newpath
  cf findfont cs scalefont dup
  /FontMatrix get 0 get /Ts exch def /FontInfo get dup
  /UnderlinePosition get Ts mul /To exch def
  /UnderlineThickness get Ts mul /Tt exch def
  ux uy To add cs add moveto Tcx uy To add cs add lineto
  Tt setlinewidth stroke
  grestore
} bd
/SOE {
  /Tcx currentpoint pop def
  gsave
  newpath
  cf findfont cs scalefont dup
  /FontMatrix get 0 get /Ts exch def /FontInfo get dup
  /UnderlinePosition get Ts mul /To exch def
  /UnderlineThickness get Ts mul /Tt exch def
  ux uy To add cs 10 mul 26 idiv add moveto Tcx uy To add cs 10 mul 26 idiv add lineto
  Tt setlinewidth stroke
  grestore
} bd
/QT {
/Y22 exch store
/X22 exch store
/Y21 exch store
/X21 exch store
currentpoint
/Y21 load 2 mul add 3 div exch
/X21 load 2 mul add 3 div exch
/X21 load 2 mul /X22 load add 3 div
/Y21 load 2 mul /Y22 load add 3 div
/X22 load /Y22 load curveto
} bd
/SSPD {
dup length /d exch dict def
{
/v exch def
/k exch def
currentpagedevice k known {
/cpdv currentpagedevice k get def
v cpdv ne {
/upd false def
/nullv v type /nulltype eq def
/nullcpdv cpdv type /nulltype eq def
nullv nullcpdv or
{
/upd true def
} {
/sametype v type cpdv type eq def
sametype {
v type /arraytype eq {
/vlen v length def
/cpdvlen cpdv length def
vlen cpdvlen eq {
0 1 vlen 1 sub {
/i exch def
/obj v i get def
/cpdobj cpdv i get def
obj cpdobj ne {
/upd true def
exit
} if
} for
} {
/upd true def
} ifelse
} {
v type /dicttype eq {
v {
/dv exch def
/dk exch def
/cpddv cpdv dk get def
dv cpddv ne {
/upd true def
exit
} if
} forall
} {
/upd true def
} ifelse
} ifelse
} if
} ifelse
upd true eq {
d k v put
} if
} if
} if
} forall
d length 0 gt {
d setpagedevice
} if
} bd
%%EndResource
%%BeginResource: procset (Apache XML Graphics EPS ProcSet) 1.0 0
%%Version: 1.0 0
%%Copyright: (Copyright 2002-2003 The Apache Software Foundation. License terms: http://www.apache.org/licenses/LICENSE-2.0)
/BeginEPSF { %def
/b4_Inc_state save def         % Save state for cleanup
/dict_count countdictstack def % Count objects on dict stack
/op_count count 1 sub def      % Count objects on operand stack
userdict begin                 % Push userdict on dict stack
/showpage { } def              % Redefine showpage, { } = null proc
0 setgray 0 setlinecap         % Prepare graphics state
1 setlinewidth 0 setlinejoin
10 setmiterlimit [ ] 0 setdash newpath
/languagelevel where           % If level not equal to 1 then
{pop languagelevel             % set strokeadjust and
1 ne                           % overprint to their defaults.
{false setstrokeadjust false setoverprint
} if
} if
} bd
/EndEPSF { %def
count op_count sub {pop} repeat            % Clean up stacks
countdictstack dict_count sub {end} repeat
b4_Inc_state restore
} bd
%%EndResource
%FOPBeginFontDict
%%IncludeResource: font Courier-Bold
%%IncludeResource: font Helvetica
%%IncludeResource: font Courier-BoldOblique
%%IncludeResource: font Courier-Oblique
%%IncludeResource: font Times-Roman
%%IncludeResource: font Helvetica-BoldOblique
%%IncludeResource: font Helvetica-Bold
%%IncludeResource: font Helvetica-Oblique
%%IncludeResource: font Times-BoldItalic
%%IncludeResource: font Courier
%%IncludeResource: font Times-Italic
%%IncludeResource: font Times-Bold
%%IncludeResource: font Symbol
%%IncludeResource: font ZapfDingbats
%FOPEndFontDict
%%BeginResource: encoding WinAnsiEncoding
/WinAnsiEncoding [
/.notdef /.notdef /.notdef /.notdef /.notdef
/.notdef /.notdef /.notdef /.notdef /.notdef
/.notdef /.notdef /.notdef /.notdef /.notdef
/.notdef /.notdef /.notdef /.notdef /.notdef
/.notdef /.notdef /.notdef /.notdef /.notdef
/.notdef /.notdef /.notdef /.notdef /.notdef
/.notdef /.notdef /space /exclam /quotedbl
/numbersign /dollar /percent /ampersand /quotesingle
/parenleft /parenright /asterisk /plus /comma
/hyphen /period /slash /zero /one
/two /three /four /five /six
/seven /eight /nine /colon /semicolon
/less /equal /greater /question /at
/A /B /C /D /E
/F /G /H /I /J
/K /L /M /N /O
/P /Q /R /S /T
/U /V /W /X /Y
/Z /bracketleft /backslash /bracketright /asciicircum
/underscore /quoteleft /a /b /c
/d /e /f /g /h
/i /j /k /l /m
/n /o /p /q /r
/s /t /u /v /w
/x /y /z /braceleft /bar
/braceright /asciitilde /bullet /Euro /bullet
/quotesinglbase /florin /quotedblbase /ellipsis /dagger
/daggerdbl /circumflex /perthousand /Scaron /guilsinglleft
/OE /bullet /Zcaron /bullet /bullet
/quoteleft /quoteright /quotedblleft /quotedblright /bullet
/endash /emdash /asciitilde /trademark /scaron
/guilsinglright /oe /bullet /zcaron /Ydieresis
/space /exclamdown /cent /sterling /currency
/yen /brokenbar /section /dieresis /copyright
/ordfeminine /guillemotleft /logicalnot /sfthyphen /registered
/macron /degree /plusminus /twosuperior /threesuperior
/acute /mu /paragraph /middot /cedilla
/onesuperior /ordmasculine /guillemotright /onequarter /onehalf
/threequarters /questiondown /Agrave /Aacute /Acircumflex
/Atilde /Adieresis /Aring /AE /Ccedilla
/Egrave /Eacute /Ecircumflex /Edieresis /Igrave
/Iacute /Icircumflex /Idieresis /Eth /Ntilde
/Ograve /Oacute /Ocircumflex /Otilde /Odieresis
/multiply /Oslash /Ugrave /Uacute /Ucircumflex
/Udieresis /Yacute /Thorn /germandbls /agrave
/aacute /acircumflex /atilde /adieresis /aring
/ae /ccedilla /egrave /eacute /ecircumflex
/edieresis /igrave /iacute /icircumflex /idieresis
/eth /ntilde /ograve /oacute /ocircumflex
/otilde /odieresis /divide /oslash /ugrave
/uacute /ucircumflex /udieresis /yacute /thorn
/ydieresis
] def
%%EndResource
%FOPBeginFontReencode
/Courier-Bold findfont
dup length dict begin
  {1 index /FID ne {def} {pop pop} ifelse} forall
  /Encoding WinAnsiEncoding def
  currentdict
end
/Courier-Bold exch definefont pop
/Helvetica findfont
dup length dict begin
  {1 index /FID ne {def} {pop pop} ifelse} forall
  /Encoding WinAnsiEncoding def
  currentdict
end
/Helvetica exch definefont pop
/Courier-BoldOblique findfont
dup length dict begin
  {1 index /FID ne {def} {pop pop} ifelse} forall
  /Encoding WinAnsiEncoding def
  currentdict
end
/Courier-BoldOblique exch definefont pop
/Courier-Oblique findfont
dup length dict begin
  {1 index /FID ne {def} {pop pop} ifelse} forall
  /Encoding WinAnsiEncoding def
  currentdict
end
/Courier-Oblique exch definefont pop
/Times-Roman findfont
dup length dict begin
  {1 index /FID ne {def} {pop pop} ifelse} forall
  /Encoding WinAnsiEncoding def
  currentdict
end
/Times-Roman exch definefont pop
/Helvetica-BoldOblique findfont
dup length dict begin
  {1 index /FID ne {def} {pop pop} ifelse} forall
  /Encoding WinAnsiEncoding def
  currentdict
end
/Helvetica-BoldOblique exch definefont pop
/Helvetica-Bold findfont
dup length dict begin
  {1 index /FID ne {def} {pop pop} ifelse} forall
  /Encoding WinAnsiEncoding def
  currentdict
end
/Helvetica-Bold exch definefont pop
/Helvetica-Oblique findfont
dup length dict begin
  {1 index /FID ne {def} {pop pop} ifelse} forall
  /Encoding WinAnsiEncoding def
  currentdict
end
/Helvetica-Oblique exch definefont pop
/Times-BoldItalic findfont
dup length dict begin
  {1 index /FID ne {def} {pop pop} ifelse} forall
  /Encoding WinAnsiEncoding def
  currentdict
end
/Times-BoldItalic exch definefont pop
/Courier findfont
dup length dict begin
  {1 index /FID ne {def} {pop pop} ifelse} forall
  /Encoding WinAnsiEncoding def
  currentdict
end
/Courier exch definefont pop
/Times-Italic findfont
dup length dict begin
  {1 index /FID ne {def} {pop pop} ifelse} forall
  /Encoding WinAnsiEncoding def
  currentdict
end
/Times-Italic exch definefont pop
/Times-Bold findfont
dup length dict begin
  {1 index /FID ne {def} {pop pop} ifelse} forall
  /Encoding WinAnsiEncoding def
  currentdict
end
/Times-Bold exch definefont pop
%FOPEndFontReencode
%%EndProlog
%%Page: 1 1
%%PageBoundingBox: 0 0 800 315
%%BeginPageSetup
[1 0 0 -1 0 315] CT
%%EndPageSetup
GS
[0.75 0 0 0.75 0 0] CT
1 GC
N
0 0 1066 420 re
f
GR
GS
[0.75 0 0 0.75 0 0] CT
1 GC
N
0 0 1066 420 re
f
GR
GS
[0.75 0 0 0.75 0 0] CT
1 GC
N
139 318 M
965 318 L
965 31 L
139 31 L
cp
f
GR
GS
[0.75 0 0 0.75 0 0] CT
0.149 GC
2 setlinecap
10.0 ML
N
201.163 318 M
201.163 313.87 L
S
GR
GS
[0.75 0 0 0.75 0 0] CT
0.149 GC
2 setlinecap
10.0 ML
N
237.526 318 M
237.526 313.87 L
S
GR
GS
[0.75 0 0 0.75 0 0] CT
0.149 GC
2 setlinecap
10.0 ML
N
263.325 318 M
263.325 313.87 L
S
GR
GS
[0.75 0 0 0.75 0 0] CT
0.149 GC
2 setlinecap
10.0 ML
N
283.337 318 M
283.337 313.87 L
S
GR
GS
[0.75 0 0 0.75 0 0] CT
0.149 GC
2 setlinecap
10.0 ML
N
299.688 318 M
299.688 313.87 L
S
GR
GS
[0.75 0 0 0.75 0 0] CT
0.149 GC
2 setlinecap
10.0 ML
N
313.513 318 M
313.513 313.87 L
S
GR
GS
[0.75 0 0 0.75 0 0] CT
0.149 GC
2 setlinecap
10.0 ML
N
325.488 318 M
325.488 313.87 L
S
GR
GS
[0.75 0 0 0.75 0 0] CT
0.149 GC
2 setlinecap
10.0 ML
N
336.051 318 M
336.051 313.87 L
S
GR
GS
[0.75 0 0 0.75 0 0] CT
0.149 GC
2 setlinecap
10.0 ML
N
407.663 318 M
407.663 313.87 L
S
GR
GS
[0.75 0 0 0.75 0 0] CT
0.149 GC
2 setlinecap
10.0 ML
N
444.026 318 M
444.026 313.87 L
S
GR
GS
[0.75 0 0 0.75 0 0] CT
0.149 GC
2 setlinecap
10.0 ML
N
469.825 318 M
469.825 313.87 L
S
GR
GS
[0.75 0 0 0.75 0 0] CT
0.149 GC
2 setlinecap
10.0 ML
N
489.837 318 M
489.837 313.87 L
S
GR
GS
[0.75 0 0 0.75 0 0] CT
0.149 GC
2 setlinecap
10.0 ML
N
506.188 318 M
506.188 313.87 L
S
GR
GS
[0.75 0 0 0.75 0 0] CT
0.149 GC
2 setlinecap
10.0 ML
N
520.013 318 M
520.013 313.87 L
S
GR
GS
[0.75 0 0 0.75 0 0] CT
0.149 GC
2 setlinecap
10.0 ML
N
531.988 318 M
531.988 313.87 L
S
GR
GS
[0.75 0 0 0.75 0 0] CT
0.149 GC
2 setlinecap
10.0 ML
N
542.551 318 M
542.551 313.87 L
S
GR
GS
[0.75 0 0 0.75 0 0] CT
0.149 GC
2 setlinecap
10.0 ML
N
614.163 318 M
614.163 313.87 L
S
GR
GS
[0.75 0 0 0.75 0 0] CT
0.149 GC
2 setlinecap
10.0 ML
N
650.526 318 M
650.526 313.87 L
S
GR
GS
[0.75 0 0 0.75 0 0] CT
0.149 GC
2 setlinecap
10.0 ML
N
676.325 318 M
676.325 313.87 L
S
GR
GS
[0.75 0 0 0.75 0 0] CT
0.149 GC
2 setlinecap
10.0 ML
N
696.337 318 M
696.337 313.87 L
S
GR
GS
[0.75 0 0 0.75 0 0] CT
0.149 GC
2 setlinecap
10.0 ML
N
712.688 318 M
712.688 313.87 L
S
GR
GS
[0.75 0 0 0.75 0 0] CT
0.149 GC
2 setlinecap
10.0 ML
N
726.513 318 M
726.513 313.87 L
S
GR
GS
[0.75 0 0 0.75 0 0] CT
0.149 GC
2 setlinecap
10.0 ML
N
738.488 318 M
738.488 313.87 L
S
GR
GS
[0.75 0 0 0.75 0 0] CT
0.149 GC
2 setlinecap
10.0 ML
N
749.051 318 M
749.051 313.87 L
S
GR
GS
[0.75 0 0 0.75 0 0] CT
0.149 GC
2 setlinecap
10.0 ML
N
820.663 318 M
820.663 313.87 L
S
GR
GS
[0.75 0 0 0.75 0 0] CT
0.149 GC
2 setlinecap
10.0 ML
N
857.026 318 M
857.026 313.87 L
S
GR
GS
[0.75 0 0 0.75 0 0] CT
0.149 GC
2 setlinecap
10.0 ML
N
882.825 318 M
882.825 313.87 L
S
GR
GS
[0.75 0 0 0.75 0 0] CT
0.149 GC
2 setlinecap
10.0 ML
N
902.837 318 M
902.837 313.87 L
S
GR
GS
[0.75 0 0 0.75 0 0] CT
0.149 GC
2 setlinecap
10.0 ML
N
919.188 318 M
919.188 313.87 L
S
GR
GS
[0.75 0 0 0.75 0 0] CT
0.149 GC
2 setlinecap
10.0 ML
N
933.013 318 M
933.013 313.87 L
S
GR
GS
[0.75 0 0 0.75 0 0] CT
0.149 GC
2 setlinecap
10.0 ML
N
944.988 318 M
944.988 313.87 L
S
GR
GS
[0.75 0 0 0.75 0 0] CT
0.149 GC
2 setlinecap
10.0 ML
N
955.551 318 M
955.551 313.87 L
S
GR
GS
[0.75 0 0 0.75 0 0] CT
0.149 GC
2 setlinecap
10.0 ML
N
201.163 31 M
201.163 35.13 L
S
GR
GS
[0.75 0 0 0.75 0 0] CT
0.149 GC
2 setlinecap
10.0 ML
N
237.526 31 M
237.526 35.13 L
S
GR
GS
[0.75 0 0 0.75 0 0] CT
0.149 GC
2 setlinecap
10.0 ML
N
263.325 31 M
263.325 35.13 L
S
GR
GS
[0.75 0 0 0.75 0 0] CT
0.149 GC
2 setlinecap
10.0 ML
N
283.337 31 M
283.337 35.13 L
S
GR
GS
[0.75 0 0 0.75 0 0] CT
0.149 GC
2 setlinecap
10.0 ML
N
299.688 31 M
299.688 35.13 L
S
GR
GS
[0.75 0 0 0.75 0 0] CT
0.149 GC
2 setlinecap
10.0 ML
N
313.513 31 M
313.513 35.13 L
S
GR
GS
[0.75 0 0 0.75 0 0] CT
0.149 GC
2 setlinecap
10.0 ML
N
325.488 31 M
325.488 35.13 L
S
GR
GS
[0.75 0 0 0.75 0 0] CT
0.149 GC
2 setlinecap
10.0 ML
N
336.051 31 M
336.051 35.13 L
S
GR
GS
[0.75 0 0 0.75 0 0] CT
0.149 GC
2 setlinecap
10.0 ML
N
407.663 31 M
407.663 35.13 L
S
GR
GS
[0.75 0 0 0.75 0 0] CT
0.149 GC
2 setlinecap
10.0 ML
N
444.026 31 M
444.026 35.13 L
S
GR
GS
[0.75 0 0 0.75 0 0] CT
0.149 GC
2 setlinecap
10.0 ML
N
469.825 31 M
469.825 35.13 L
S
GR
GS
[0.75 0 0 0.75 0 0] CT
0.149 GC
2 setlinecap
10.0 ML
N
489.837 31 M
489.837 35.13 L
S
GR
GS
[0.75 0 0 0.75 0 0] CT
0.149 GC
2 setlinecap
10.0 ML
N
506.188 31 M
506.188 35.13 L
S
GR
GS
[0.75 0 0 0.75 0 0] CT
0.149 GC
2 setlinecap
10.0 ML
N
520.013 31 M
520.013 35.13 L
S
GR
GS
[0.75 0 0 0.75 0 0] CT
0.149 GC
2 setlinecap
10.0 ML
N
531.988 31 M
531.988 35.13 L
S
GR
GS
[0.75 0 0 0.75 0 0] CT
0.149 GC
2 setlinecap
10.0 ML
N
542.551 31 M
542.551 35.13 L
S
GR
GS
[0.75 0 0 0.75 0 0] CT
0.149 GC
2 setlinecap
10.0 ML
N
614.163 31 M
614.163 35.13 L
S
GR
GS
[0.75 0 0 0.75 0 0] CT
0.149 GC
2 setlinecap
10.0 ML
N
650.526 31 M
650.526 35.13 L
S
GR
GS
[0.75 0 0 0.75 0 0] CT
0.149 GC
2 setlinecap
10.0 ML
N
676.325 31 M
676.325 35.13 L
S
GR
GS
[0.75 0 0 0.75 0 0] CT
0.149 GC
2 setlinecap
10.0 ML
N
696.337 31 M
696.337 35.13 L
S
GR
GS
[0.75 0 0 0.75 0 0] CT
0.149 GC
2 setlinecap
10.0 ML
N
712.688 31 M
712.688 35.13 L
S
GR
GS
[0.75 0 0 0.75 0 0] CT
0.149 GC
2 setlinecap
10.0 ML
N
726.513 31 M
726.513 35.13 L
S
GR
GS
[0.75 0 0 0.75 0 0] CT
0.149 GC
2 setlinecap
10.0 ML
N
738.488 31 M
738.488 35.13 L
S
GR
GS
[0.75 0 0 0.75 0 0] CT
0.149 GC
2 setlinecap
10.0 ML
N
749.051 31 M
749.051 35.13 L
S
GR
GS
[0.75 0 0 0.75 0 0] CT
0.149 GC
2 setlinecap
10.0 ML
N
820.663 31 M
820.663 35.13 L
S
GR
GS
[0.75 0 0 0.75 0 0] CT
0.149 GC
2 setlinecap
10.0 ML
N
857.026 31 M
857.026 35.13 L
S
GR
GS
[0.75 0 0 0.75 0 0] CT
0.149 GC
2 setlinecap
10.0 ML
N
882.825 31 M
882.825 35.13 L
S
GR
GS
[0.75 0 0 0.75 0 0] CT
0.149 GC
2 setlinecap
10.0 ML
N
902.837 31 M
902.837 35.13 L
S
GR
GS
[0.75 0 0 0.75 0 0] CT
0.149 GC
2 setlinecap
10.0 ML
N
919.188 31 M
919.188 35.13 L
S
GR
GS
[0.75 0 0 0.75 0 0] CT
0.149 GC
2 setlinecap
10.0 ML
N
933.013 31 M
933.013 35.13 L
S
GR
GS
[0.75 0 0 0.75 0 0] CT
0.149 GC
2 setlinecap
10.0 ML
N
944.988 31 M
944.988 35.13 L
S
GR
GS
[0.75 0 0 0.75 0 0] CT
0.149 GC
2 setlinecap
10.0 ML
N
955.551 31 M
955.551 35.13 L
S
GR
GS
[0.75 0 0 0.75 414.00027 284.55] CT
0.149 GC
/Helvetica 32 F
GS
[1 0 0 1 0 0] CT
-136.5 33 moveto 
1 -1 scale
(Outage duration [s]) t 
GR
GR
GS
[0.75 0 0 0.75 0 0] CT
0.149 GC
2 setlinecap
10.0 ML
N
139 318 M
965 318 L
S
GR
GS
[0.75 0 0 0.75 0 0] CT
0.149 GC
2 setlinecap
10.0 ML
N
139 31 M
965 31 L
S
GR
GS
[0.75 0 0 0.75 0 0] CT
0.149 GC
2 setlinecap
10.0 ML
N
139 318 M
139 309.74 L
S
GR
GS
[0.75 0 0 0.75 0 0] CT
0.149 GC
2 setlinecap
10.0 ML
N
345.5 318 M
345.5 309.74 L
S
GR
GS
[0.75 0 0 0.75 0 0] CT
0.149 GC
2 setlinecap
10.0 ML
N
552 318 M
552 309.74 L
S
GR
GS
[0.75 0 0 0.75 0 0] CT
0.149 GC
2 setlinecap
10.0 ML
N
758.5 318 M
758.5 309.74 L
S
GR
GS
[0.75 0 0 0.75 0 0] CT
0.149 GC
2 setlinecap
10.0 ML
N
965 318 M
965 309.74 L
S
GR
GS
[0.75 0 0 0.75 0 0] CT
0.149 GC
2 setlinecap
10.0 ML
N
139 31 M
139 39.26 L
S
GR
GS
[0.75 0 0 0.75 0 0] CT
0.149 GC
2 setlinecap
10.0 ML
N
345.5 31 M
345.5 39.26 L
S
GR
GS
[0.75 0 0 0.75 0 0] CT
0.149 GC
2 setlinecap
10.0 ML
N
552 31 M
552 39.26 L
S
GR
GS
[0.75 0 0 0.75 0 0] CT
0.149 GC
2 setlinecap
10.0 ML
N
758.5 31 M
758.5 39.26 L
S
GR
GS
[0.75 0 0 0.75 0 0] CT
0.149 GC
2 setlinecap
10.0 ML
N
965 31 M
965 39.26 L
S
GR
GS
[0.75 0 0 0.75 85.5 276.75] CT
0.149 GC
/Helvetica 32 F
GS
[1 0 0 1 0 0] CT
0 0 moveto 
1 -1 scale
(10) t 
GR
GR
GS
[0.75 0 0 0.75 112.5 264.75] CT
0.149 GC
/Helvetica 25 F
GS
[1 0 0 1 0 0] CT
0 0 moveto 
1 -1 scale
(0) t 
GR
GR
GS
[0.75 0 0 0.75 240.75 276.75] CT
0.149 GC
/Helvetica 32 F
GS
[1 0 0 1 0 0] CT
0 0 moveto 
1 -1 scale
(10) t 
GR
GR
GS
[0.75 0 0 0.75 267.75 264.75] CT
0.149 GC
/Helvetica 25 F
GS
[1 0 0 1 0 0] CT
0 0 moveto 
1 -1 scale
(1) t 
GR
GR
GS
[0.75 0 0 0.75 395.25 276.75] CT
0.149 GC
/Helvetica 32 F
GS
[1 0 0 1 0 0] CT
0 0 moveto 
1 -1 scale
(10) t 
GR
GR
GS
[0.75 0 0 0.75 422.25 264.75] CT
0.149 GC
/Helvetica 25 F
GS
[1 0 0 1 0 0] CT
0 0 moveto 
1 -1 scale
(2) t 
GR
GR
GS
[0.75 0 0 0.75 550.5 276.75] CT
0.149 GC
/Helvetica 32 F
GS
[1 0 0 1 0 0] CT
0 0 moveto 
1 -1 scale
(10) t 
GR
GR
GS
[0.75 0 0 0.75 577.5 264.75] CT
0.149 GC
/Helvetica 25 F
GS
[1 0 0 1 0 0] CT
0 0 moveto 
1 -1 scale
(3) t 
GR
GR
GS
[0.75 0 0 0.75 705 276.75] CT
0.149 GC
/Helvetica 32 F
GS
[1 0 0 1 0 0] CT
0 0 moveto 
1 -1 scale
(10) t 
GR
GR
GS
[0.75 0 0 0.75 732 264.75] CT
0.149 GC
/Helvetica 25 F
GS
[1 0 0 1 0 0] CT
0 0 moveto 
1 -1 scale
(4) t 
GR
GR
GS
[0 -0.75 0.75 0 60.7 130.8749] CT
0.149 GC
/Helvetica 32 F
GS
[1 0 0 1 0 0] CT
-33 -8 moveto 
1 -1 scale
(CDF) t 
GR
GR
GS
[0.75 0 0 0.75 0 0] CT
0.149 GC
2 setlinecap
10.0 ML
N
139 318 M
139 31 L
S
GR
GS
[0.75 0 0 0.75 0 0] CT
0.149 GC
2 setlinecap
10.0 ML
N
965 318 M
965 31 L
S
GR
GS
[0.75 0 0 0.75 0 0] CT
0.149 GC
2 setlinecap
10.0 ML
N
139 318 M
147.26 318 L
S
GR
GS
[0.75 0 0 0.75 0 0] CT
0.149 GC
2 setlinecap
10.0 ML
N
139 174.5 M
147.26 174.5 L
S
GR
GS
[0.75 0 0 0.75 0 0] CT
0.149 GC
2 setlinecap
10.0 ML
N
139 31 M
147.26 31 L
S
GR
GS
[0.75 0 0 0.75 0 0] CT
0.149 GC
2 setlinecap
10.0 ML
N
965 318 M
956.74 318 L
S
GR
GS
[0.75 0 0 0.75 0 0] CT
0.149 GC
2 setlinecap
10.0 ML
N
965 174.5 M
956.74 174.5 L
S
GR
GS
[0.75 0 0 0.75 0 0] CT
0.149 GC
2 setlinecap
10.0 ML
N
965 31 M
956.74 31 L
S
GR
GS
[0.75 0 0 0.75 97.45 238.5] CT
0.149 GC
/Helvetica 32 F
GS
[1 0 0 1 0 0] CT
-18 12.5 moveto 
1 -1 scale
(0) t 
GR
GR
GS
[0.75 0 0 0.75 97.45 130.875] CT
0.149 GC
/Helvetica 32 F
GS
[1 0 0 1 0 0] CT
-45 12.5 moveto 
1 -1 scale
(0.5) t 
GR
GR
GS
[0.75 0 0 0.75 97.45 23.25] CT
0.149 GC
/Helvetica 32 F
GS
[1 0 0 1 0 0] CT
-18 12.5 moveto 
1 -1 scale
(1) t 
GR
GR
GS
[0.75 0 0 0.75 0 0] CT
[16 4 8 4] 0 setdash
2 LJ
4 LW
N
201.163 318 M
201.163 316.671 L
201.163 315.343 L
201.163 314.014 L
201.163 312.685 L
201.163 311.356 L
201.163 310.028 L
201.163 308.699 L
201.163 307.37 L
201.163 306.042 L
201.163 304.713 L
201.163 303.384 L
201.163 302.056 L
201.163 300.727 L
201.163 299.398 L
201.163 298.069 L
201.163 296.741 L
201.163 295.412 L
201.163 294.083 L
201.163 292.755 L
201.163 291.426 L
201.163 290.097 L
201.163 288.769 L
201.163 287.44 L
201.163 286.111 L
201.163 284.782 L
201.163 283.454 L
201.163 282.125 L
201.163 280.796 L
201.163 279.468 L
201.163 278.139 L
201.163 276.81 L
201.163 275.481 L
201.163 274.153 L
201.163 272.824 L
201.163 271.495 L
201.163 270.167 L
201.163 268.838 L
201.163 267.509 L
201.163 266.181 L
201.163 264.852 L
201.163 263.523 L
201.163 262.194 L
201.163 260.866 L
201.163 259.537 L
201.163 258.208 L
201.163 256.88 L
201.163 255.551 L
201.163 254.222 L
201.163 252.894 L
201.163 251.565 L
201.163 250.236 L
201.163 248.907 L
201.163 247.579 L
201.163 246.25 L
201.163 244.921 L
201.163 243.593 L
201.163 242.264 L
201.163 240.935 L
201.163 239.606 L
201.163 238.278 L
201.163 236.949 L
201.163 235.62 L
201.163 234.292 L
201.163 232.963 L
201.163 231.634 L
201.163 230.306 L
201.163 228.977 L
201.163 227.648 L
201.163 226.319 L
201.163 224.991 L
201.163 223.662 L
201.163 222.333 L
237.526 221.005 L
237.526 219.676 L
263.325 218.347 L
263.325 217.019 L
263.325 215.69 L
263.325 214.361 L
263.325 213.032 L
263.325 211.704 L
263.325 210.375 L
283.337 209.046 L
283.337 207.718 L
283.337 206.389 L
283.337 205.06 L
283.337 203.731 L
283.337 202.403 L
283.337 201.074 L
283.337 199.745 L
283.337 198.417 L
283.337 197.088 L
283.337 195.759 L
299.688 194.431 L
299.688 193.102 L
299.688 191.773 L
299.688 190.444 L
299.688 189.116 L
299.688 187.787 L
299.688 186.458 L
299.688 185.13 L
299.688 183.801 L
299.688 182.472 L
299.688 181.144 L
299.688 179.815 L
299.688 178.486 L
299.688 177.157 L
299.688 175.829 L
299.688 174.5 L
299.688 173.171 L
299.688 171.843 L
313.513 170.514 L
313.513 169.185 L
313.513 167.856 L
313.513 166.528 L
313.513 165.199 L
313.513 163.87 L
313.513 162.542 L
313.513 161.213 L
313.513 159.884 L
313.513 158.556 L
313.513 157.227 L
313.513 155.898 L
313.513 154.569 L
313.513 153.241 L
313.513 151.912 L
313.513 150.583 L
313.513 149.255 L
313.513 147.926 L
313.513 146.597 L
313.513 145.269 L
313.513 143.94 L
313.513 142.611 L
313.513 141.282 L
313.513 139.954 L
313.513 138.625 L
313.513 137.296 L
325.488 135.968 L
325.488 134.639 L
325.488 133.31 L
325.488 131.981 L
325.488 130.653 L
325.488 129.324 L
325.488 127.995 L
325.488 126.667 L
325.488 125.338 L
325.488 124.009 L
325.488 122.681 L
325.488 121.352 L
325.488 120.023 L
325.488 118.694 L
325.488 117.366 L
325.488 116.037 L
325.488 114.708 L
325.488 113.38 L
325.488 112.051 L
325.488 110.722 L
325.488 109.394 L
325.488 108.065 L
325.488 106.736 L
325.488 105.407 L
325.488 104.079 L
325.488 102.75 L
325.488 101.421 L
336.051 100.093 L
336.051 98.764 L
336.051 97.435 L
336.051 96.106 L
336.051 94.778 L
336.051 93.449 L
336.051 92.12 L
336.051 90.792 L
336.051 89.463 L
336.051 88.134 L
336.051 86.806 L
336.051 85.477 L
336.051 84.148 L
336.051 82.819 L
336.051 81.491 L
336.051 80.162 L
336.051 78.833 L
336.051 77.505 L
336.051 76.176 L
336.051 74.847 L
336.051 73.519 L
336.051 72.19 L
345.5 70.861 L
345.5 69.532 L
345.5 68.204 L
345.5 66.875 L
345.5 65.546 L
345.5 64.218 L
345.5 62.889 L
345.5 61.56 L
345.5 60.231 L
345.5 58.903 L
354.048 57.574 L
354.048 56.245 L
354.048 54.917 L
354.048 53.588 L
361.851 52.259 L
361.851 50.931 L
369.029 49.602 L
369.029 48.273 L
369.029 46.944 L
375.675 45.616 L
387.651 44.287 L
393.088 42.958 L
398.214 41.63 L
416.21 40.301 L
537.425 38.972 L
545.492 37.644 L
572.727 36.315 L
704.394 34.986 L
704.394 33.657 L
709.183 32.329 L
710.264 31 L
S
GR
GS
[0.75 0 0 0.75 0 0] CT
0 0 1 RC
[4 4] 0 setdash
2 LJ
4 LW
N
201.163 318 M
201.163 316.741 L
201.163 315.482 L
201.163 314.224 L
201.163 312.965 L
201.163 311.706 L
201.163 310.447 L
201.163 309.189 L
201.163 307.93 L
201.163 306.671 L
201.163 305.412 L
201.163 304.154 L
201.163 302.895 L
201.163 301.636 L
201.163 300.377 L
201.163 299.118 L
201.163 297.86 L
201.163 296.601 L
201.163 295.342 L
201.163 294.083 L
201.163 292.825 L
201.163 291.566 L
201.163 290.307 L
201.163 289.048 L
201.163 287.789 L
201.163 286.531 L
201.163 285.272 L
201.163 284.013 L
201.163 282.754 L
201.163 281.496 L
201.163 280.237 L
201.163 278.978 L
201.163 277.719 L
201.163 276.461 L
201.163 275.202 L
201.163 273.943 L
201.163 272.684 L
201.163 271.425 L
201.163 270.167 L
201.163 268.908 L
201.163 267.649 L
201.163 266.39 L
201.163 265.132 L
201.163 263.873 L
201.163 262.614 L
201.163 261.355 L
201.163 260.096 L
201.163 258.838 L
201.163 257.579 L
201.163 256.32 L
201.163 255.061 L
201.163 253.803 L
201.163 252.544 L
201.163 251.285 L
201.163 250.026 L
201.163 248.768 L
201.163 247.509 L
201.163 246.25 L
201.163 244.991 L
201.163 243.732 L
201.163 242.474 L
201.163 241.215 L
201.163 239.956 L
201.163 238.697 L
201.163 237.439 L
201.163 236.18 L
201.163 234.921 L
201.163 233.662 L
201.163 232.404 L
201.163 231.145 L
201.163 229.886 L
201.163 228.627 L
237.526 227.368 L
237.526 226.11 L
263.325 224.851 L
263.325 223.592 L
263.325 222.333 L
263.325 221.075 L
263.325 219.816 L
263.325 218.557 L
263.325 217.298 L
283.337 216.039 L
283.337 214.781 L
283.337 213.522 L
283.337 212.263 L
283.337 211.004 L
283.337 209.746 L
283.337 208.487 L
283.337 207.228 L
283.337 205.969 L
299.688 204.711 L
299.688 203.452 L
299.688 202.193 L
299.688 200.934 L
299.688 199.675 L
299.688 198.417 L
299.688 197.158 L
299.688 195.899 L
299.688 194.64 L
299.688 193.382 L
299.688 192.123 L
299.688 190.864 L
299.688 189.605 L
299.688 188.346 L
299.688 187.088 L
299.688 185.829 L
299.688 184.57 L
299.688 183.311 L
299.688 182.053 L
299.688 180.794 L
299.688 179.535 L
313.513 178.276 L
313.513 177.018 L
313.513 175.759 L
313.513 174.5 L
313.513 173.241 L
313.513 171.982 L
313.513 170.724 L
313.513 169.465 L
313.513 168.206 L
313.513 166.947 L
313.513 165.689 L
313.513 164.43 L
313.513 163.171 L
313.513 161.912 L
313.513 160.654 L
313.513 159.395 L
313.513 158.136 L
313.513 156.877 L
313.513 155.618 L
313.513 154.36 L
325.488 153.101 L
325.488 151.842 L
325.488 150.583 L
325.488 149.325 L
325.488 148.066 L
325.488 146.807 L
325.488 145.548 L
325.488 144.289 L
325.488 143.031 L
325.488 141.772 L
325.488 140.513 L
325.488 139.254 L
325.488 137.996 L
325.488 136.737 L
325.488 135.478 L
325.488 134.219 L
325.488 132.961 L
325.488 131.702 L
325.488 130.443 L
325.488 129.184 L
325.488 127.925 L
325.488 126.667 L
325.488 125.408 L
325.488 124.149 L
325.488 122.89 L
325.488 121.632 L
325.488 120.373 L
325.488 119.114 L
325.488 117.855 L
336.051 116.596 L
336.051 115.338 L
336.051 114.079 L
336.051 112.82 L
336.051 111.561 L
336.051 110.303 L
336.051 109.044 L
336.051 107.785 L
336.051 106.526 L
336.051 105.268 L
336.051 104.009 L
336.051 102.75 L
336.051 101.491 L
336.051 100.232 L
336.051 98.974 L
336.051 97.715 L
336.051 96.456 L
336.051 95.197 L
336.051 93.939 L
336.051 92.68 L
336.051 91.421 L
336.051 90.162 L
336.051 88.904 L
336.051 87.645 L
336.051 86.386 L
336.051 85.127 L
345.5 83.868 L
345.5 82.61 L
345.5 81.351 L
345.5 80.092 L
345.5 78.833 L
345.5 77.575 L
345.5 76.316 L
345.5 75.057 L
345.5 73.798 L
345.5 72.539 L
345.5 71.281 L
345.5 70.022 L
345.5 68.763 L
345.5 67.504 L
345.5 66.246 L
345.5 64.987 L
345.5 63.728 L
345.5 62.469 L
354.048 61.211 L
354.048 59.952 L
354.048 58.693 L
354.048 57.434 L
354.048 56.175 L
354.048 54.917 L
361.851 53.658 L
369.029 52.399 L
375.675 51.14 L
381.863 49.882 L
387.651 48.623 L
393.088 47.364 L
407.663 46.105 L
535.29 44.846 L
536.364 43.588 L
537.425 42.329 L
570.565 41.07 L
572.727 39.811 L
576.216 38.553 L
703.901 37.294 L
704.066 36.035 L
704.394 34.776 L
709.648 33.518 L
710.111 32.259 L
710.418 31 L
S
GR
GS
[0.75 0 0 0.75 0 0] CT
1 0 0 RC
[16 16] 0 setdash
2 LJ
4 LW
N
201.163 318 M
201.163 317.889 L
201.163 317.777 L
201.163 317.666 L
201.163 317.554 L
201.163 317.443 L
201.163 317.331 L
201.163 317.22 L
201.163 317.108 L
201.163 316.997 L
201.163 316.885 L
201.163 316.774 L
201.163 316.663 L
201.163 316.551 L
201.163 316.44 L
201.163 316.328 L
201.163 316.217 L
201.163 316.105 L
201.163 315.994 L
201.163 315.882 L
201.163 315.771 L
201.163 315.659 L
201.163 315.548 L
201.163 315.436 L
201.163 315.325 L
201.163 315.214 L
201.163 315.102 L
201.163 314.991 L
201.163 314.879 L
201.163 314.768 L
201.163 314.656 L
201.163 314.545 L
201.163 314.433 L
201.163 314.322 L
201.163 314.21 L
201.163 314.099 L
201.163 313.988 L
201.163 313.876 L
201.163 313.765 L
201.163 313.653 L
201.163 313.542 L
201.163 313.43 L
201.163 313.319 L
201.163 313.207 L
201.163 313.096 L
201.163 312.984 L
201.163 312.873 L
201.163 312.762 L
201.163 312.65 L
201.163 312.539 L
201.163 312.427 L
201.163 312.316 L
201.163 312.204 L
201.163 312.093 L
201.163 311.981 L
201.163 311.87 L
201.163 311.758 L
201.163 311.647 L
201.163 311.536 L
201.163 311.424 L
201.163 311.313 L
201.163 311.201 L
201.163 311.09 L
201.163 310.978 L
201.163 310.867 L
201.163 310.755 L
201.163 310.644 L
201.163 310.532 L
201.163 310.421 L
201.163 310.31 L
201.163 310.198 L
201.163 310.087 L
201.163 309.975 L
201.163 309.864 L
201.163 309.752 L
201.163 309.641 L
201.163 309.529 L
201.163 309.418 L
201.163 309.306 L
201.163 309.195 L
201.163 309.083 L
201.163 308.972 L
201.163 308.861 L
201.163 308.749 L
201.163 308.638 L
201.163 308.526 L
201.163 308.415 L
201.163 308.303 L
201.163 308.192 L
201.163 308.08 L
201.163 307.969 L
201.163 307.857 L
201.163 307.746 L
201.163 307.635 L
201.163 307.523 L
201.163 307.412 L
201.163 307.3 L
201.163 307.189 L
201.163 307.077 L
201.163 306.966 L
201.163 306.854 L
201.163 306.743 L
201.163 306.631 L
201.163 306.52 L
201.163 306.409 L
201.163 306.297 L
201.163 306.186 L
201.163 306.074 L
201.163 305.963 L
201.163 305.851 L
201.163 305.74 L
201.163 305.628 L
201.163 305.517 L
201.163 305.405 L
201.163 305.294 L
201.163 305.183 L
201.163 305.071 L
201.163 304.96 L
201.163 304.848 L
201.163 304.737 L
201.163 304.625 L
201.163 304.514 L
201.163 304.402 L
201.163 304.291 L
201.163 304.179 L
201.163 304.068 L
201.163 303.957 L
201.163 303.845 L
201.163 303.734 L
201.163 303.622 L
201.163 303.511 L
201.163 303.399 L
201.163 303.288 L
201.163 303.176 L
201.163 303.065 L
201.163 302.953 L
201.163 302.842 L
201.163 302.73 L
201.163 302.619 L
201.163 302.508 L
201.163 302.396 L
201.163 302.285 L
201.163 302.173 L
201.163 302.062 L
201.163 301.95 L
201.163 301.839 L
201.163 301.727 L
201.163 301.616 L
201.163 301.504 L
201.163 301.393 L
201.163 301.282 L
201.163 301.17 L
201.163 301.059 L
201.163 300.947 L
201.163 300.836 L
201.163 300.724 L
201.163 300.613 L
201.163 300.501 L
201.163 300.39 L
201.163 300.278 L
201.163 300.167 L
201.163 300.056 L
201.163 299.944 L
201.163 299.833 L
201.163 299.721 L
201.163 299.61 L
201.163 299.498 L
201.163 299.387 L
201.163 299.275 L
201.163 299.164 L
201.163 299.052 L
201.163 298.941 L
201.163 298.83 L
201.163 298.718 L
201.163 298.607 L
201.163 298.495 L
201.163 298.384 L
201.163 298.272 L
201.163 298.161 L
201.163 298.049 L
201.163 297.938 L
201.163 297.826 L
201.163 297.715 L
201.163 297.603 L
201.163 297.492 L
201.163 297.381 L
201.163 297.269 L
201.163 297.158 L
201.163 297.046 L
201.163 296.935 L
201.163 296.823 L
201.163 296.712 L
201.163 296.6 L
201.163 296.489 L
201.163 296.377 L
201.163 296.266 L
201.163 296.155 L
201.163 296.043 L
201.163 295.932 L
201.163 295.82 L
201.163 295.709 L
201.163 295.597 L
201.163 295.486 L
201.163 295.374 L
201.163 295.263 L
201.163 295.151 L
201.163 295.04 L
201.163 294.929 L
201.163 294.817 L
201.163 294.706 L
201.163 294.594 L
201.163 294.483 L
201.163 294.371 L
201.163 294.26 L
201.163 294.148 L
201.163 294.037 L
201.163 293.925 L
201.163 293.814 L
201.163 293.703 L
201.163 293.591 L
201.163 293.48 L
201.163 293.368 L
201.163 293.257 L
201.163 293.145 L
201.163 293.034 L
201.163 292.922 L
201.163 292.811 L
201.163 292.699 L
201.163 292.588 L
201.163 292.477 L
201.163 292.365 L
201.163 292.254 L
201.163 292.142 L
201.163 292.031 L
201.163 291.919 L
201.163 291.808 L
201.163 291.696 L
201.163 291.585 L
201.163 291.473 L
201.163 291.362 L
201.163 291.25 L
201.163 291.139 L
201.163 291.028 L
201.163 290.916 L
201.163 290.805 L
201.163 290.693 L
201.163 290.582 L
201.163 290.47 L
201.163 290.359 L
201.163 290.247 L
201.163 290.136 L
201.163 290.024 L
201.163 289.913 L
201.163 289.802 L
201.163 289.69 L
201.163 289.579 L
201.163 289.467 L
201.163 289.356 L
201.163 289.244 L
201.163 289.133 L
201.163 289.021 L
201.163 288.91 L
201.163 288.798 L
201.163 288.687 L
201.163 288.576 L
201.163 288.464 L
201.163 288.353 L
201.163 288.241 L
201.163 288.13 L
201.163 288.018 L
201.163 287.907 L
201.163 287.795 L
201.163 287.684 L
201.163 287.572 L
201.163 287.461 L
201.163 287.35 L
201.163 287.238 L
201.163 287.127 L
201.163 287.015 L
201.163 286.904 L
201.163 286.792 L
201.163 286.681 L
201.163 286.569 L
201.163 286.458 L
201.163 286.346 L
201.163 286.235 L
201.163 286.124 L
201.163 286.012 L
201.163 285.901 L
201.163 285.789 L
201.163 285.678 L
201.163 285.566 L
201.163 285.455 L
237.526 285.343 L
237.526 285.232 L
237.526 285.12 L
237.526 285.009 L
237.526 284.897 L
237.526 284.786 L
237.526 284.675 L
237.526 284.563 L
263.325 284.452 L
263.325 284.34 L
263.325 284.229 L
263.325 284.117 L
263.325 284.006 L
263.325 283.894 L
263.325 283.783 L
263.325 283.671 L
263.325 283.56 L
263.325 283.449 L
263.325 283.337 L
263.325 283.226 L
263.325 283.114 L
263.325 283.003 L
263.325 282.891 L
263.325 282.78 L
263.325 282.668 L
263.325 282.557 L
263.325 282.445 L
263.325 282.334 L
263.325 282.223 L
263.325 282.111 L
263.325 282 L
263.325 281.888 L
263.325 281.777 L
263.325 281.665 L
263.325 281.554 L
263.325 281.442 L
263.325 281.331 L
263.325 281.219 L
263.325 281.108 L
263.325 280.996 L
263.325 280.885 L
263.325 280.774 L
263.325 280.662 L
263.325 280.551 L
263.325 280.439 L
263.325 280.328 L
263.325 280.216 L
263.325 280.105 L
263.325 279.993 L
263.325 279.882 L
263.325 279.77 L
263.325 279.659 L
263.325 279.548 L
263.325 279.436 L
263.325 279.325 L
263.325 279.213 L
263.325 279.102 L
263.325 278.99 L
263.325 278.879 L
263.325 278.767 L
263.325 278.656 L
263.325 278.544 L
263.325 278.433 L
263.325 278.322 L
263.325 278.21 L
263.325 278.099 L
263.325 277.987 L
263.325 277.876 L
263.325 277.764 L
263.325 277.653 L
263.325 277.541 L
263.325 277.43 L
263.325 277.318 L
263.325 277.207 L
263.325 277.096 L
263.325 276.984 L
263.325 276.873 L
283.337 276.761 L
283.337 276.65 L
283.337 276.538 L
283.337 276.427 L
283.337 276.315 L
283.337 276.204 L
283.337 276.092 L
283.337 275.981 L
283.337 275.87 L
283.337 275.758 L
283.337 275.647 L
283.337 275.535 L
283.337 275.424 L
283.337 275.312 L
283.337 275.201 L
283.337 275.089 L
283.337 274.978 L
283.337 274.866 L
283.337 274.755 L
283.337 274.643 L
283.337 274.532 L
283.337 274.421 L
283.337 274.309 L
283.337 274.198 L
283.337 274.086 L
283.337 273.975 L
283.337 273.863 L
283.337 273.752 L
283.337 273.64 L
283.337 273.529 L
283.337 273.417 L
283.337 273.306 L
283.337 273.195 L
283.337 273.083 L
283.337 272.972 L
283.337 272.86 L
283.337 272.749 L
283.337 272.637 L
283.337 272.526 L
283.337 272.414 L
283.337 272.303 L
283.337 272.191 L
283.337 272.08 L
283.337 271.969 L
283.337 271.857 L
283.337 271.746 L
283.337 271.634 L
283.337 271.523 L
283.337 271.411 L
283.337 271.3 L
283.337 271.188 L
283.337 271.077 L
283.337 270.965 L
283.337 270.854 L
283.337 270.743 L
283.337 270.631 L
283.337 270.52 L
283.337 270.408 L
283.337 270.297 L
283.337 270.185 L
283.337 270.074 L
283.337 269.962 L
283.337 269.851 L
283.337 269.739 L
283.337 269.628 L
283.337 269.517 L
283.337 269.405 L
283.337 269.294 L
283.337 269.182 L
283.337 269.071 L
283.337 268.959 L
283.337 268.848 L
283.337 268.736 L
283.337 268.625 L
283.337 268.513 L
299.688 268.402 L
299.688 268.29 L
299.688 268.179 L
299.688 268.068 L
299.688 267.956 L
299.688 267.845 L
299.688 267.733 L
299.688 267.622 L
299.688 267.51 L
299.688 267.399 L
299.688 267.287 L
299.688 267.176 L
299.688 267.064 L
299.688 266.953 L
299.688 266.842 L
299.688 266.73 L
299.688 266.619 L
299.688 266.507 L
299.688 266.396 L
299.688 266.284 L
299.688 266.173 L
299.688 266.061 L
299.688 265.95 L
299.688 265.838 L
299.688 265.727 L
299.688 265.616 L
299.688 265.504 L
299.688 265.393 L
299.688 265.281 L
299.688 265.17 L
299.688 265.058 L
299.688 264.947 L
299.688 264.835 L
299.688 264.724 L
299.688 264.612 L
299.688 264.501 L
299.688 264.39 L
299.688 264.278 L
299.688 264.167 L
299.688 264.055 L
299.688 263.944 L
299.688 263.832 L
299.688 263.721 L
299.688 263.609 L
299.688 263.498 L
299.688 263.386 L
299.688 263.275 L
299.688 263.163 L
299.688 263.052 L
299.688 262.941 L
299.688 262.829 L
299.688 262.718 L
299.688 262.606 L
299.688 262.495 L
299.688 262.383 L
299.688 262.272 L
299.688 262.16 L
299.688 262.049 L
299.688 261.937 L
299.688 261.826 L
299.688 261.715 L
299.688 261.603 L
299.688 261.492 L
299.688 261.38 L
299.688 261.269 L
299.688 261.157 L
299.688 261.046 L
299.688 260.934 L
299.688 260.823 L
299.688 260.711 L
299.688 260.6 L
299.688 260.489 L
299.688 260.377 L
299.688 260.266 L
299.688 260.154 L
299.688 260.043 L
299.688 259.931 L
299.688 259.82 L
299.688 259.708 L
299.688 259.597 L
299.688 259.485 L
299.688 259.374 L
299.688 259.263 L
299.688 259.151 L
299.688 259.04 L
299.688 258.928 L
299.688 258.817 L
299.688 258.705 L
299.688 258.594 L
299.688 258.482 L
299.688 258.371 L
299.688 258.259 L
299.688 258.148 L
299.688 258.036 L
299.688 257.925 L
299.688 257.814 L
299.688 257.702 L
299.688 257.591 L
299.688 257.479 L
299.688 257.368 L
299.688 257.256 L
299.688 257.145 L
299.688 257.033 L
299.688 256.922 L
299.688 256.81 L
299.688 256.699 L
299.688 256.588 L
299.688 256.476 L
299.688 256.365 L
299.688 256.253 L
299.688 256.142 L
299.688 256.03 L
299.688 255.919 L
299.688 255.807 L
299.688 255.696 L
299.688 255.584 L
299.688 255.473 L
299.688 255.362 L
299.688 255.25 L
299.688 255.139 L
299.688 255.027 L
299.688 254.916 L
299.688 254.804 L
299.688 254.693 L
299.688 254.581 L
299.688 254.47 L
299.688 254.358 L
299.688 254.247 L
299.688 254.136 L
299.688 254.024 L
299.688 253.913 L
299.688 253.801 L
299.688 253.69 L
299.688 253.578 L
299.688 253.467 L
299.688 253.355 L
313.513 253.244 L
313.513 253.132 L
313.513 253.021 L
313.513 252.91 L
313.513 252.798 L
313.513 252.687 L
313.513 252.575 L
313.513 252.464 L
313.513 252.352 L
313.513 252.241 L
313.513 252.129 L
313.513 252.018 L
313.513 251.906 L
313.513 251.795 L
313.513 251.684 L
313.513 251.572 L
313.513 251.461 L
313.513 251.349 L
313.513 251.238 L
313.513 251.126 L
313.513 251.015 L
313.513 250.903 L
313.513 250.792 L
313.513 250.68 L
313.513 250.569 L
313.513 250.457 L
313.513 250.346 L
313.513 250.235 L
313.513 250.123 L
313.513 250.012 L
313.513 249.9 L
313.513 249.789 L
313.513 249.677 L
313.513 249.566 L
313.513 249.454 L
313.513 249.343 L
313.513 249.231 L
313.513 249.12 L
313.513 249.009 L
313.513 248.897 L
313.513 248.786 L
313.513 248.674 L
313.513 248.563 L
313.513 248.451 L
313.513 248.34 L
313.513 248.228 L
313.513 248.117 L
313.513 248.005 L
313.513 247.894 L
313.513 247.783 L
313.513 247.671 L
313.513 247.56 L
313.513 247.448 L
313.513 247.337 L
313.513 247.225 L
313.513 247.114 L
313.513 247.002 L
313.513 246.891 L
313.513 246.779 L
313.513 246.668 L
313.513 246.557 L
313.513 246.445 L
313.513 246.334 L
313.513 246.222 L
313.513 246.111 L
313.513 245.999 L
313.513 245.888 L
313.513 245.776 L
313.513 245.665 L
313.513 245.553 L
313.513 245.442 L
313.513 245.33 L
313.513 245.219 L
313.513 245.108 L
313.513 244.996 L
313.513 244.885 L
313.513 244.773 L
313.513 244.662 L
313.513 244.55 L
313.513 244.439 L
313.513 244.327 L
313.513 244.216 L
313.513 244.104 L
313.513 243.993 L
313.513 243.882 L
313.513 243.77 L
313.513 243.659 L
313.513 243.547 L
313.513 243.436 L
313.513 243.324 L
313.513 243.213 L
313.513 243.101 L
313.513 242.99 L
313.513 242.878 L
313.513 242.767 L
313.513 242.656 L
313.513 242.544 L
313.513 242.433 L
313.513 242.321 L
313.513 242.21 L
313.513 242.098 L
313.513 241.987 L
313.513 241.875 L
313.513 241.764 L
313.513 241.652 L
313.513 241.541 L
313.513 241.43 L
313.513 241.318 L
313.513 241.207 L
313.513 241.095 L
313.513 240.984 L
313.513 240.872 L
313.513 240.761 L
313.513 240.649 L
313.513 240.538 L
313.513 240.426 L
313.513 240.315 L
313.513 240.204 L
313.513 240.092 L
313.513 239.981 L
313.513 239.869 L
313.513 239.758 L
313.513 239.646 L
313.513 239.535 L
313.513 239.423 L
313.513 239.312 L
313.513 239.2 L
313.513 239.089 L
313.513 238.977 L
313.513 238.866 L
313.513 238.755 L
313.513 238.643 L
313.513 238.532 L
313.513 238.42 L
313.513 238.309 L
313.513 238.197 L
313.513 238.086 L
313.513 237.974 L
313.513 237.863 L
313.513 237.751 L
313.513 237.64 L
313.513 237.529 L
313.513 237.417 L
313.513 237.306 L
313.513 237.194 L
313.513 237.083 L
313.513 236.971 L
313.513 236.86 L
313.513 236.748 L
313.513 236.637 L
313.513 236.525 L
313.513 236.414 L
313.513 236.303 L
313.513 236.191 L
313.513 236.08 L
313.513 235.968 L
313.513 235.857 L
313.513 235.745 L
313.513 235.634 L
313.513 235.522 L
313.513 235.411 L
313.513 235.299 L
313.513 235.188 L
313.513 235.077 L
313.513 234.965 L
313.513 234.854 L
313.513 234.742 L
313.513 234.631 L
313.513 234.519 L
313.513 234.408 L
313.513 234.296 L
313.513 234.185 L
313.513 234.073 L
313.513 233.962 L
313.513 233.85 L
313.513 233.739 L
313.513 233.628 L
313.513 233.516 L
313.513 233.405 L
313.513 233.293 L
313.513 233.182 L
313.513 233.07 L
313.513 232.959 L
313.513 232.847 L
313.513 232.736 L
313.513 232.624 L
313.513 232.513 L
313.513 232.402 L
313.513 232.29 L
313.513 232.179 L
313.513 232.067 L
313.513 231.956 L
313.513 231.844 L
313.513 231.733 L
313.513 231.621 L
313.513 231.51 L
313.513 231.398 L
313.513 231.287 L
313.513 231.176 L
313.513 231.064 L
313.513 230.953 L
313.513 230.841 L
313.513 230.73 L
313.513 230.618 L
313.513 230.507 L
313.513 230.395 L
313.513 230.284 L
313.513 230.172 L
313.513 230.061 L
313.513 229.95 L
313.513 229.838 L
313.513 229.727 L
313.513 229.615 L
313.513 229.504 L
313.513 229.392 L
313.513 229.281 L
313.513 229.169 L
313.513 229.058 L
313.513 228.946 L
313.513 228.835 L
313.513 228.723 L
313.513 228.612 L
313.513 228.501 L
313.513 228.389 L
313.513 228.278 L
313.513 228.166 L
313.513 228.055 L
313.513 227.943 L
313.513 227.832 L
313.513 227.72 L
313.513 227.609 L
313.513 227.497 L
313.513 227.386 L
313.513 227.275 L
313.513 227.163 L
313.513 227.052 L
313.513 226.94 L
313.513 226.829 L
313.513 226.717 L
313.513 226.606 L
313.513 226.494 L
313.513 226.383 L
313.513 226.271 L
313.513 226.16 L
313.513 226.049 L
313.513 225.937 L
313.513 225.826 L
313.513 225.714 L
313.513 225.603 L
313.513 225.491 L
313.513 225.38 L
313.513 225.268 L
313.513 225.157 L
313.513 225.045 L
313.513 224.934 L
313.513 224.823 L
313.513 224.711 L
313.513 224.6 L
313.513 224.488 L
313.513 224.377 L
313.513 224.265 L
313.513 224.154 L
313.513 224.042 L
313.513 223.931 L
313.513 223.819 L
313.513 223.708 L
313.513 223.596 L
313.513 223.485 L
313.513 223.374 L
313.513 223.262 L
313.513 223.151 L
313.513 223.039 L
313.513 222.928 L
313.513 222.816 L
313.513 222.705 L
313.513 222.593 L
313.513 222.482 L
313.513 222.37 L
313.513 222.259 L
313.513 222.148 L
313.513 222.036 L
313.513 221.925 L
313.513 221.813 L
313.513 221.702 L
313.513 221.59 L
313.513 221.479 L
313.513 221.367 L
313.513 221.256 L
313.513 221.144 L
313.513 221.033 L
313.513 220.922 L
313.513 220.81 L
313.513 220.699 L
313.513 220.587 L
313.513 220.476 L
313.513 220.364 L
313.513 220.253 L
313.513 220.141 L
313.513 220.03 L
313.513 219.918 L
313.513 219.807 L
313.513 219.696 L
313.513 219.584 L
313.513 219.473 L
313.513 219.361 L
313.513 219.25 L
313.513 219.138 L
313.513 219.027 L
313.513 218.915 L
313.513 218.804 L
313.513 218.692 L
313.513 218.581 L
313.513 218.47 L
313.513 218.358 L
313.513 218.247 L
313.513 218.135 L
313.513 218.024 L
313.513 217.912 L
313.513 217.801 L
313.513 217.689 L
313.513 217.578 L
313.513 217.466 L
313.513 217.355 L
313.513 217.243 L
313.513 217.132 L
313.513 217.021 L
313.513 216.909 L
313.513 216.798 L
313.513 216.686 L
313.513 216.575 L
313.513 216.463 L
313.513 216.352 L
313.513 216.24 L
313.513 216.129 L
313.513 216.017 L
313.513 215.906 L
313.513 215.795 L
313.513 215.683 L
313.513 215.572 L
313.513 215.46 L
313.513 215.349 L
313.513 215.237 L
313.513 215.126 L
313.513 215.014 L
313.513 214.903 L
313.513 214.791 L
313.513 214.68 L
313.513 214.569 L
313.513 214.457 L
313.513 214.346 L
313.513 214.234 L
313.513 214.123 L
313.513 214.011 L
313.513 213.9 L
313.513 213.788 L
313.513 213.677 L
313.513 213.565 L
313.513 213.454 L
313.513 213.343 L
313.513 213.231 L
313.513 213.12 L
313.513 213.008 L
313.513 212.897 L
313.513 212.785 L
313.513 212.674 L
313.513 212.562 L
313.513 212.451 L
313.513 212.339 L
313.513 212.228 L
313.513 212.117 L
313.513 212.005 L
313.513 211.894 L
313.513 211.782 L
313.513 211.671 L
313.513 211.559 L
313.513 211.448 L
313.513 211.336 L
313.513 211.225 L
313.513 211.113 L
313.513 211.002 L
313.513 210.89 L
313.513 210.779 L
313.513 210.668 L
313.513 210.556 L
313.513 210.445 L
313.513 210.333 L
313.513 210.222 L
313.513 210.11 L
313.513 209.999 L
313.513 209.887 L
313.513 209.776 L
313.513 209.664 L
313.513 209.553 L
313.513 209.442 L
313.513 209.33 L
313.513 209.219 L
313.513 209.107 L
313.513 208.996 L
313.513 208.884 L
313.513 208.773 L
313.513 208.661 L
313.513 208.55 L
313.513 208.438 L
313.513 208.327 L
313.513 208.216 L
313.513 208.104 L
313.513 207.993 L
313.513 207.881 L
313.513 207.77 L
313.513 207.658 L
313.513 207.547 L
313.513 207.435 L
313.513 207.324 L
313.513 207.212 L
313.513 207.101 L
313.513 206.99 L
313.513 206.878 L
313.513 206.767 L
313.513 206.655 L
313.513 206.544 L
313.513 206.432 L
313.513 206.321 L
313.513 206.209 L
313.513 206.098 L
313.513 205.986 L
313.513 205.875 L
313.513 205.764 L
313.513 205.652 L
313.513 205.541 L
313.513 205.429 L
313.513 205.318 L
313.513 205.206 L
313.513 205.095 L
313.513 204.983 L
313.513 204.872 L
313.513 204.76 L
313.513 204.649 L
313.513 204.537 L
313.513 204.426 L
313.513 204.315 L
313.513 204.203 L
313.513 204.092 L
313.513 203.98 L
313.513 203.869 L
313.513 203.757 L
313.513 203.646 L
313.513 203.534 L
313.513 203.423 L
313.513 203.311 L
313.513 203.2 L
313.513 203.089 L
313.513 202.977 L
313.513 202.866 L
313.513 202.754 L
313.513 202.643 L
313.513 202.531 L
313.513 202.42 L
313.513 202.308 L
313.513 202.197 L
313.513 202.085 L
313.513 201.974 L
313.513 201.863 L
313.513 201.751 L
313.513 201.64 L
313.513 201.528 L
313.513 201.417 L
313.513 201.305 L
313.513 201.194 L
313.513 201.082 L
313.513 200.971 L
313.513 200.859 L
313.513 200.748 L
313.513 200.637 L
313.513 200.525 L
313.513 200.414 L
313.513 200.302 L
313.513 200.191 L
313.513 200.079 L
313.513 199.968 L
313.513 199.856 L
313.513 199.745 L
313.513 199.633 L
313.513 199.522 L
313.513 199.41 L
313.513 199.299 L
313.513 199.188 L
313.513 199.076 L
313.513 198.965 L
313.513 198.853 L
313.513 198.742 L
313.513 198.63 L
313.513 198.519 L
313.513 198.407 L
313.513 198.296 L
313.513 198.184 L
313.513 198.073 L
313.513 197.962 L
313.513 197.85 L
313.513 197.739 L
313.513 197.627 L
313.513 197.516 L
313.513 197.404 L
313.513 197.293 L
313.513 197.181 L
313.513 197.07 L
313.513 196.958 L
313.513 196.847 L
313.513 196.736 L
313.513 196.624 L
313.513 196.513 L
313.513 196.401 L
313.513 196.29 L
313.513 196.178 L
313.513 196.067 L
313.513 195.955 L
313.513 195.844 L
313.513 195.732 L
313.513 195.621 L
313.513 195.51 L
313.513 195.398 L
313.513 195.287 L
313.513 195.175 L
313.513 195.064 L
313.513 194.952 L
313.513 194.841 L
313.513 194.729 L
313.513 194.618 L
313.513 194.506 L
313.513 194.395 L
313.513 194.283 L
313.513 194.172 L
313.513 194.061 L
313.513 193.949 L
313.513 193.838 L
313.513 193.726 L
313.513 193.615 L
313.513 193.503 L
313.513 193.392 L
313.513 193.28 L
313.513 193.169 L
313.513 193.057 L
313.513 192.946 L
313.513 192.835 L
313.513 192.723 L
313.513 192.612 L
313.513 192.5 L
313.513 192.389 L
313.513 192.277 L
313.513 192.166 L
313.513 192.054 L
313.513 191.943 L
313.513 191.831 L
313.513 191.72 L
313.513 191.609 L
313.513 191.497 L
313.513 191.386 L
313.513 191.274 L
313.513 191.163 L
313.513 191.051 L
313.513 190.94 L
313.513 190.828 L
313.513 190.717 L
313.513 190.605 L
313.513 190.494 L
313.513 190.383 L
313.513 190.271 L
313.513 190.16 L
313.513 190.048 L
313.513 189.937 L
313.513 189.825 L
313.513 189.714 L
313.513 189.602 L
313.513 189.491 L
313.513 189.379 L
313.513 189.268 L
313.513 189.156 L
313.513 189.045 L
313.513 188.934 L
313.513 188.822 L
313.513 188.711 L
313.513 188.599 L
313.513 188.488 L
313.513 188.376 L
313.513 188.265 L
313.513 188.153 L
313.513 188.042 L
313.513 187.93 L
313.513 187.819 L
313.513 187.708 L
313.513 187.596 L
313.513 187.485 L
313.513 187.373 L
313.513 187.262 L
313.513 187.15 L
313.513 187.039 L
313.513 186.927 L
313.513 186.816 L
313.513 186.704 L
313.513 186.593 L
313.513 186.482 L
313.513 186.37 L
313.513 186.259 L
313.513 186.147 L
313.513 186.036 L
313.513 185.924 L
313.513 185.813 L
313.513 185.701 L
313.513 185.59 L
313.513 185.478 L
313.513 185.367 L
313.513 185.256 L
313.513 185.144 L
313.513 185.033 L
313.513 184.921 L
313.513 184.81 L
313.513 184.698 L
313.513 184.587 L
313.513 184.475 L
313.513 184.364 L
313.513 184.252 L
313.513 184.141 L
313.513 184.03 L
313.513 183.918 L
313.513 183.807 L
313.513 183.695 L
313.513 183.584 L
313.513 183.472 L
313.513 183.361 L
313.513 183.249 L
313.513 183.138 L
313.513 183.026 L
313.513 182.915 L
313.513 182.803 L
313.513 182.692 L
313.513 182.581 L
313.513 182.469 L
313.513 182.358 L
313.513 182.246 L
313.513 182.135 L
313.513 182.023 L
313.513 181.912 L
313.513 181.8 L
313.513 181.689 L
313.513 181.577 L
313.513 181.466 L
313.513 181.355 L
313.513 181.243 L
313.513 181.132 L
313.513 181.02 L
313.513 180.909 L
313.513 180.797 L
313.513 180.686 L
313.513 180.574 L
313.513 180.463 L
313.513 180.351 L
313.513 180.24 L
313.513 180.129 L
313.513 180.017 L
313.513 179.906 L
313.513 179.794 L
313.513 179.683 L
313.513 179.571 L
313.513 179.46 L
313.513 179.348 L
313.513 179.237 L
313.513 179.125 L
313.513 179.014 L
313.513 178.903 L
313.513 178.791 L
313.513 178.68 L
313.513 178.568 L
313.513 178.457 L
313.513 178.345 L
313.513 178.234 L
313.513 178.122 L
313.513 178.011 L
313.513 177.899 L
313.513 177.788 L
313.513 177.676 L
313.513 177.565 L
313.513 177.454 L
313.513 177.342 L
313.513 177.231 L
313.513 177.119 L
313.513 177.008 L
313.513 176.896 L
313.513 176.785 L
313.513 176.673 L
313.513 176.562 L
313.513 176.45 L
313.513 176.339 L
313.513 176.228 L
313.513 176.116 L
313.513 176.005 L
313.513 175.893 L
313.513 175.782 L
313.513 175.67 L
313.513 175.559 L
313.513 175.447 L
313.513 175.336 L
313.513 175.224 L
325.488 175.113 L
325.488 175.002 L
325.488 174.89 L
325.488 174.779 L
325.488 174.667 L
325.488 174.556 L
325.488 174.444 L
325.488 174.333 L
325.488 174.221 L
325.488 174.11 L
325.488 173.998 L
325.488 173.887 L
325.488 173.776 L
325.488 173.664 L
325.488 173.553 L
325.488 173.441 L
325.488 173.33 L
325.488 173.218 L
325.488 173.107 L
325.488 172.995 L
325.488 172.884 L
325.488 172.772 L
325.488 172.661 L
325.488 172.55 L
325.488 172.438 L
325.488 172.327 L
325.488 172.215 L
325.488 172.104 L
325.488 171.992 L
325.488 171.881 L
325.488 171.769 L
325.488 171.658 L
325.488 171.546 L
325.488 171.435 L
325.488 171.323 L
325.488 171.212 L
325.488 171.101 L
325.488 170.989 L
325.488 170.878 L
325.488 170.766 L
325.488 170.655 L
325.488 170.543 L
325.488 170.432 L
325.488 170.32 L
325.488 170.209 L
325.488 170.097 L
325.488 169.986 L
325.488 169.875 L
325.488 169.763 L
325.488 169.652 L
325.488 169.54 L
325.488 169.429 L
325.488 169.317 L
325.488 169.206 L
325.488 169.094 L
325.488 168.983 L
325.488 168.871 L
325.488 168.76 L
325.488 168.649 L
325.488 168.537 L
325.488 168.426 L
325.488 168.314 L
325.488 168.203 L
325.488 168.091 L
325.488 167.98 L
325.488 167.868 L
325.488 167.757 L
325.488 167.645 L
325.488 167.534 L
325.488 167.423 L
325.488 167.311 L
325.488 167.2 L
325.488 167.088 L
325.488 166.977 L
325.488 166.865 L
325.488 166.754 L
325.488 166.642 L
325.488 166.531 L
325.488 166.419 L
325.488 166.308 L
325.488 166.197 L
325.488 166.085 L
325.488 165.974 L
325.488 165.862 L
325.488 165.751 L
325.488 165.639 L
325.488 165.528 L
325.488 165.416 L
325.488 165.305 L
325.488 165.193 L
325.488 165.082 L
325.488 164.97 L
325.488 164.859 L
325.488 164.748 L
325.488 164.636 L
325.488 164.525 L
325.488 164.413 L
325.488 164.302 L
325.488 164.19 L
325.488 164.079 L
325.488 163.967 L
325.488 163.856 L
325.488 163.744 L
325.488 163.633 L
325.488 163.522 L
325.488 163.41 L
325.488 163.299 L
325.488 163.187 L
325.488 163.076 L
325.488 162.964 L
325.488 162.853 L
325.488 162.741 L
325.488 162.63 L
325.488 162.518 L
325.488 162.407 L
325.488 162.296 L
325.488 162.184 L
325.488 162.073 L
325.488 161.961 L
325.488 161.85 L
325.488 161.738 L
325.488 161.627 L
325.488 161.515 L
325.488 161.404 L
325.488 161.292 L
325.488 161.181 L
325.488 161.07 L
325.488 160.958 L
325.488 160.847 L
325.488 160.735 L
325.488 160.624 L
325.488 160.512 L
325.488 160.401 L
325.488 160.289 L
325.488 160.178 L
325.488 160.066 L
325.488 159.955 L
325.488 159.844 L
325.488 159.732 L
325.488 159.621 L
325.488 159.509 L
325.488 159.398 L
325.488 159.286 L
325.488 159.175 L
325.488 159.063 L
325.488 158.952 L
325.488 158.84 L
325.488 158.729 L
325.488 158.617 L
325.488 158.506 L
325.488 158.395 L
325.488 158.283 L
325.488 158.172 L
325.488 158.06 L
325.488 157.949 L
325.488 157.837 L
325.488 157.726 L
325.488 157.614 L
325.488 157.503 L
325.488 157.391 L
325.488 157.28 L
325.488 157.169 L
325.488 157.057 L
325.488 156.946 L
325.488 156.834 L
325.488 156.723 L
325.488 156.611 L
325.488 156.5 L
325.488 156.388 L
325.488 156.277 L
325.488 156.165 L
325.488 156.054 L
325.488 155.943 L
325.488 155.831 L
325.488 155.72 L
325.488 155.608 L
325.488 155.497 L
325.488 155.385 L
325.488 155.274 L
325.488 155.162 L
325.488 155.051 L
325.488 154.939 L
325.488 154.828 L
325.488 154.717 L
325.488 154.605 L
325.488 154.494 L
325.488 154.382 L
325.488 154.271 L
325.488 154.159 L
325.488 154.048 L
325.488 153.936 L
325.488 153.825 L
325.488 153.713 L
325.488 153.602 L
325.488 153.49 L
325.488 153.379 L
325.488 153.268 L
325.488 153.156 L
325.488 153.045 L
325.488 152.933 L
325.488 152.822 L
325.488 152.71 L
325.488 152.599 L
325.488 152.487 L
325.488 152.376 L
325.488 152.264 L
325.488 152.153 L
325.488 152.042 L
325.488 151.93 L
325.488 151.819 L
325.488 151.707 L
325.488 151.596 L
325.488 151.484 L
325.488 151.373 L
325.488 151.261 L
325.488 151.15 L
325.488 151.038 L
325.488 150.927 L
325.488 150.816 L
325.488 150.704 L
325.488 150.593 L
325.488 150.481 L
325.488 150.37 L
325.488 150.258 L
325.488 150.147 L
325.488 150.035 L
325.488 149.924 L
325.488 149.812 L
325.488 149.701 L
325.488 149.59 L
325.488 149.478 L
325.488 149.367 L
325.488 149.255 L
325.488 149.144 L
325.488 149.032 L
325.488 148.921 L
325.488 148.809 L
325.488 148.698 L
325.488 148.586 L
325.488 148.475 L
325.488 148.363 L
325.488 148.252 L
325.488 148.141 L
325.488 148.029 L
325.488 147.918 L
325.488 147.806 L
325.488 147.695 L
325.488 147.583 L
325.488 147.472 L
325.488 147.36 L
325.488 147.249 L
325.488 147.137 L
325.488 147.026 L
325.488 146.915 L
325.488 146.803 L
325.488 146.692 L
325.488 146.58 L
325.488 146.469 L
325.488 146.357 L
325.488 146.246 L
325.488 146.134 L
325.488 146.023 L
325.488 145.911 L
325.488 145.8 L
325.488 145.689 L
325.488 145.577 L
325.488 145.466 L
325.488 145.354 L
325.488 145.243 L
325.488 145.131 L
325.488 145.02 L
325.488 144.908 L
325.488 144.797 L
325.488 144.685 L
325.488 144.574 L
325.488 144.463 L
325.488 144.351 L
325.488 144.24 L
325.488 144.128 L
325.488 144.017 L
325.488 143.905 L
325.488 143.794 L
325.488 143.682 L
325.488 143.571 L
325.488 143.459 L
325.488 143.348 L
325.488 143.237 L
325.488 143.125 L
325.488 143.014 L
325.488 142.902 L
325.488 142.791 L
325.488 142.679 L
325.488 142.568 L
325.488 142.456 L
325.488 142.345 L
325.488 142.233 L
325.488 142.122 L
325.488 142.01 L
325.488 141.899 L
325.488 141.788 L
325.488 141.676 L
325.488 141.565 L
325.488 141.453 L
325.488 141.342 L
325.488 141.23 L
325.488 141.119 L
325.488 141.007 L
325.488 140.896 L
325.488 140.784 L
325.488 140.673 L
325.488 140.562 L
325.488 140.45 L
325.488 140.339 L
325.488 140.227 L
325.488 140.116 L
325.488 140.004 L
325.488 139.893 L
325.488 139.781 L
325.488 139.67 L
325.488 139.558 L
325.488 139.447 L
325.488 139.336 L
325.488 139.224 L
325.488 139.113 L
325.488 139.001 L
325.488 138.89 L
325.488 138.778 L
325.488 138.667 L
325.488 138.555 L
325.488 138.444 L
325.488 138.332 L
325.488 138.221 L
325.488 138.11 L
325.488 137.998 L
325.488 137.887 L
325.488 137.775 L
325.488 137.664 L
325.488 137.552 L
325.488 137.441 L
325.488 137.329 L
325.488 137.218 L
325.488 137.106 L
325.488 136.995 L
325.488 136.883 L
325.488 136.772 L
325.488 136.661 L
325.488 136.549 L
325.488 136.438 L
325.488 136.326 L
325.488 136.215 L
325.488 136.103 L
325.488 135.992 L
325.488 135.88 L
325.488 135.769 L
325.488 135.657 L
325.488 135.546 L
325.488 135.435 L
325.488 135.323 L
325.488 135.212 L
325.488 135.1 L
325.488 134.989 L
325.488 134.877 L
325.488 134.766 L
325.488 134.654 L
325.488 134.543 L
325.488 134.431 L
325.488 134.32 L
325.488 134.209 L
325.488 134.097 L
325.488 133.986 L
325.488 133.874 L
325.488 133.763 L
325.488 133.651 L
325.488 133.54 L
325.488 133.428 L
325.488 133.317 L
325.488 133.205 L
325.488 133.094 L
325.488 132.983 L
325.488 132.871 L
325.488 132.76 L
325.488 132.648 L
325.488 132.537 L
325.488 132.425 L
325.488 132.314 L
325.488 132.202 L
325.488 132.091 L
325.488 131.979 L
325.488 131.868 L
325.488 131.757 L
325.488 131.645 L
325.488 131.534 L
325.488 131.422 L
325.488 131.311 L
325.488 131.199 L
325.488 131.088 L
325.488 130.976 L
325.488 130.865 L
325.488 130.753 L
325.488 130.642 L
325.488 130.53 L
325.488 130.419 L
325.488 130.308 L
325.488 130.196 L
325.488 130.085 L
325.488 129.973 L
325.488 129.862 L
325.488 129.75 L
325.488 129.639 L
325.488 129.527 L
325.488 129.416 L
325.488 129.304 L
325.488 129.193 L
325.488 129.082 L
325.488 128.97 L
325.488 128.859 L
325.488 128.747 L
325.488 128.636 L
325.488 128.524 L
325.488 128.413 L
325.488 128.301 L
325.488 128.19 L
325.488 128.078 L
325.488 127.967 L
325.488 127.856 L
325.488 127.744 L
325.488 127.633 L
325.488 127.521 L
325.488 127.41 L
325.488 127.298 L
325.488 127.187 L
325.488 127.075 L
325.488 126.964 L
325.488 126.852 L
325.488 126.741 L
325.488 126.63 L
325.488 126.518 L
325.488 126.407 L
325.488 126.295 L
325.488 126.184 L
325.488 126.072 L
325.488 125.961 L
325.488 125.849 L
325.488 125.738 L
325.488 125.626 L
325.488 125.515 L
325.488 125.403 L
325.488 125.292 L
325.488 125.181 L
325.488 125.069 L
325.488 124.958 L
325.488 124.846 L
325.488 124.735 L
325.488 124.623 L
325.488 124.512 L
325.488 124.4 L
325.488 124.289 L
325.488 124.177 L
325.488 124.066 L
325.488 123.955 L
325.488 123.843 L
325.488 123.732 L
325.488 123.62 L
325.488 123.509 L
325.488 123.397 L
325.488 123.286 L
325.488 123.174 L
325.488 123.063 L
325.488 122.951 L
325.488 122.84 L
325.488 122.729 L
325.488 122.617 L
325.488 122.506 L
325.488 122.394 L
325.488 122.283 L
325.488 122.171 L
325.488 122.06 L
325.488 121.948 L
325.488 121.837 L
325.488 121.725 L
325.488 121.614 L
325.488 121.503 L
325.488 121.391 L
325.488 121.28 L
325.488 121.168 L
325.488 121.057 L
325.488 120.945 L
325.488 120.834 L
325.488 120.722 L
325.488 120.611 L
325.488 120.499 L
325.488 120.388 L
325.488 120.276 L
325.488 120.165 L
325.488 120.054 L
325.488 119.942 L
325.488 119.831 L
325.488 119.719 L
325.488 119.608 L
325.488 119.496 L
325.488 119.385 L
325.488 119.273 L
325.488 119.162 L
325.488 119.05 L
325.488 118.939 L
325.488 118.828 L
325.488 118.716 L
325.488 118.605 L
325.488 118.493 L
325.488 118.382 L
325.488 118.27 L
325.488 118.159 L
325.488 118.047 L
325.488 117.936 L
325.488 117.824 L
325.488 117.713 L
325.488 117.602 L
325.488 117.49 L
325.488 117.379 L
325.488 117.267 L
325.488 117.156 L
325.488 117.044 L
325.488 116.933 L
325.488 116.821 L
325.488 116.71 L
325.488 116.598 L
325.488 116.487 L
325.488 116.376 L
325.488 116.264 L
325.488 116.153 L
325.488 116.041 L
325.488 115.93 L
325.488 115.818 L
325.488 115.707 L
325.488 115.595 L
325.488 115.484 L
325.488 115.372 L
325.488 115.261 L
325.488 115.15 L
325.488 115.038 L
325.488 114.927 L
325.488 114.815 L
325.488 114.704 L
325.488 114.592 L
325.488 114.481 L
325.488 114.369 L
325.488 114.258 L
325.488 114.146 L
325.488 114.035 L
325.488 113.923 L
325.488 113.812 L
325.488 113.701 L
325.488 113.589 L
325.488 113.478 L
325.488 113.366 L
325.488 113.255 L
325.488 113.143 L
325.488 113.032 L
325.488 112.92 L
325.488 112.809 L
325.488 112.697 L
325.488 112.586 L
325.488 112.475 L
325.488 112.363 L
325.488 112.252 L
325.488 112.14 L
325.488 112.029 L
325.488 111.917 L
325.488 111.806 L
325.488 111.694 L
325.488 111.583 L
325.488 111.471 L
325.488 111.36 L
325.488 111.249 L
325.488 111.137 L
325.488 111.026 L
325.488 110.914 L
325.488 110.803 L
325.488 110.691 L
325.488 110.58 L
325.488 110.468 L
325.488 110.357 L
336.051 110.245 L
336.051 110.134 L
336.051 110.023 L
336.051 109.911 L
336.051 109.8 L
336.051 109.688 L
336.051 109.577 L
336.051 109.465 L
336.051 109.354 L
336.051 109.242 L
336.051 109.131 L
336.051 109.019 L
336.051 108.908 L
336.051 108.797 L
336.051 108.685 L
336.051 108.574 L
336.051 108.462 L
336.051 108.351 L
336.051 108.239 L
336.051 108.128 L
336.051 108.016 L
336.051 107.905 L
336.051 107.793 L
336.051 107.682 L
336.051 107.57 L
336.051 107.459 L
336.051 107.348 L
336.051 107.236 L
336.051 107.125 L
336.051 107.013 L
336.051 106.902 L
336.051 106.79 L
336.051 106.679 L
336.051 106.567 L
336.051 106.456 L
336.051 106.344 L
336.051 106.233 L
336.051 106.122 L
336.051 106.01 L
336.051 105.899 L
336.051 105.787 L
336.051 105.676 L
336.051 105.564 L
336.051 105.453 L
336.051 105.341 L
336.051 105.23 L
336.051 105.118 L
336.051 105.007 L
336.051 104.896 L
336.051 104.784 L
336.051 104.673 L
336.051 104.561 L
336.051 104.45 L
336.051 104.338 L
336.051 104.227 L
336.051 104.115 L
336.051 104.004 L
336.051 103.892 L
336.051 103.781 L
336.051 103.67 L
336.051 103.558 L
336.051 103.447 L
336.051 103.335 L
336.051 103.224 L
336.051 103.112 L
336.051 103.001 L
336.051 102.889 L
336.051 102.778 L
336.051 102.666 L
336.051 102.555 L
336.051 102.444 L
336.051 102.332 L
336.051 102.221 L
336.051 102.109 L
336.051 101.998 L
336.051 101.886 L
336.051 101.775 L
336.051 101.663 L
336.051 101.552 L
336.051 101.44 L
336.051 101.329 L
336.051 101.217 L
336.051 101.106 L
336.051 100.995 L
336.051 100.883 L
336.051 100.772 L
336.051 100.66 L
336.051 100.549 L
336.051 100.437 L
336.051 100.326 L
336.051 100.214 L
336.051 100.103 L
336.051 99.991 L
336.051 99.88 L
336.051 99.769 L
336.051 99.657 L
336.051 99.546 L
336.051 99.434 L
336.051 99.323 L
336.051 99.211 L
336.051 99.1 L
336.051 98.988 L
336.051 98.877 L
336.051 98.765 L
336.051 98.654 L
336.051 98.543 L
336.051 98.431 L
336.051 98.32 L
336.051 98.208 L
336.051 98.097 L
336.051 97.985 L
336.051 97.874 L
336.051 97.762 L
336.051 97.651 L
336.051 97.539 L
336.051 97.428 L
336.051 97.317 L
336.051 97.205 L
336.051 97.094 L
336.051 96.982 L
336.051 96.871 L
336.051 96.759 L
336.051 96.648 L
336.051 96.536 L
336.051 96.425 L
336.051 96.313 L
336.051 96.202 L
336.051 96.09 L
336.051 95.979 L
336.051 95.868 L
336.051 95.756 L
336.051 95.645 L
336.051 95.533 L
336.051 95.422 L
336.051 95.31 L
336.051 95.199 L
336.051 95.087 L
336.051 94.976 L
336.051 94.864 L
336.051 94.753 L
336.051 94.642 L
336.051 94.53 L
336.051 94.419 L
336.051 94.307 L
336.051 94.196 L
336.051 94.084 L
336.051 93.973 L
336.051 93.861 L
336.051 93.75 L
336.051 93.638 L
336.051 93.527 L
345.5 93.416 L
345.5 93.304 L
345.5 93.193 L
345.5 93.081 L
345.5 92.97 L
345.5 92.858 L
345.5 92.747 L
345.5 92.635 L
345.5 92.524 L
345.5 92.412 L
345.5 92.301 L
345.5 92.19 L
345.5 92.078 L
345.5 91.967 L
345.5 91.855 L
345.5 91.744 L
345.5 91.632 L
345.5 91.521 L
345.5 91.409 L
345.5 91.298 L
345.5 91.186 L
345.5 91.075 L
345.5 90.963 L
345.5 90.852 L
345.5 90.741 L
345.5 90.629 L
345.5 90.518 L
345.5 90.406 L
345.5 90.295 L
345.5 90.183 L
345.5 90.072 L
345.5 89.96 L
345.5 89.849 L
345.5 89.737 L
345.5 89.626 L
345.5 89.515 L
345.5 89.403 L
345.5 89.292 L
345.5 89.18 L
345.5 89.069 L
345.5 88.957 L
345.5 88.846 L
345.5 88.734 L
345.5 88.623 L
345.5 88.511 L
345.5 88.4 L
345.5 88.289 L
345.5 88.177 L
345.5 88.066 L
345.5 87.954 L
345.5 87.843 L
345.5 87.731 L
345.5 87.62 L
345.5 87.508 L
345.5 87.397 L
345.5 87.285 L
345.5 87.174 L
345.5 87.063 L
345.5 86.951 L
345.5 86.84 L
345.5 86.728 L
345.5 86.617 L
345.5 86.505 L
345.5 86.394 L
345.5 86.282 L
345.5 86.171 L
345.5 86.059 L
345.5 85.948 L
345.5 85.836 L
345.5 85.725 L
345.5 85.614 L
345.5 85.502 L
345.5 85.391 L
345.5 85.279 L
345.5 85.168 L
345.5 85.056 L
345.5 84.945 L
345.5 84.833 L
345.5 84.722 L
345.5 84.61 L
345.5 84.499 L
345.5 84.388 L
345.5 84.276 L
345.5 84.165 L
345.5 84.053 L
345.5 83.942 L
345.5 83.83 L
345.5 83.719 L
345.5 83.607 L
345.5 83.496 L
345.5 83.384 L
345.5 83.273 L
345.5 83.162 L
345.5 83.05 L
345.5 82.939 L
345.5 82.827 L
345.5 82.716 L
345.5 82.604 L
345.5 82.493 L
345.5 82.381 L
345.5 82.27 L
345.5 82.158 L
345.5 82.047 L
345.5 81.936 L
345.5 81.824 L
345.5 81.713 L
345.5 81.601 L
345.5 81.49 L
345.5 81.378 L
345.5 81.267 L
345.5 81.155 L
345.5 81.044 L
345.5 80.932 L
345.5 80.821 L
345.5 80.71 L
345.5 80.598 L
345.5 80.487 L
345.5 80.375 L
345.5 80.264 L
345.5 80.152 L
345.5 80.041 L
345.5 79.929 L
345.5 79.818 L
345.5 79.706 L
354.048 79.595 L
354.048 79.483 L
354.048 79.372 L
354.048 79.261 L
354.048 79.149 L
354.048 79.038 L
354.048 78.926 L
354.048 78.815 L
354.048 78.703 L
354.048 78.592 L
354.048 78.48 L
354.048 78.369 L
354.048 78.257 L
354.048 78.146 L
354.048 78.035 L
354.048 77.923 L
354.048 77.812 L
354.048 77.7 L
354.048 77.589 L
354.048 77.477 L
354.048 77.366 L
354.048 77.254 L
354.048 77.143 L
354.048 77.031 L
354.048 76.92 L
354.048 76.809 L
354.048 76.697 L
354.048 76.586 L
354.048 76.474 L
354.048 76.363 L
354.048 76.251 L
354.048 76.14 L
354.048 76.028 L
354.048 75.917 L
354.048 75.805 L
354.048 75.694 L
354.048 75.583 L
354.048 75.471 L
354.048 75.36 L
354.048 75.248 L
354.048 75.137 L
354.048 75.025 L
354.048 74.914 L
354.048 74.802 L
354.048 74.691 L
354.048 74.579 L
354.048 74.468 L
361.851 74.357 L
361.851 74.245 L
361.851 74.134 L
361.851 74.022 L
361.851 73.911 L
361.851 73.799 L
361.851 73.688 L
361.851 73.576 L
361.851 73.465 L
361.851 73.353 L
361.851 73.242 L
361.851 73.13 L
369.029 73.019 L
369.029 72.908 L
369.029 72.796 L
369.029 72.685 L
369.029 72.573 L
369.029 72.462 L
369.029 72.35 L
369.029 72.239 L
369.029 72.127 L
369.029 72.016 L
369.029 71.904 L
369.029 71.793 L
369.029 71.682 L
369.029 71.57 L
369.029 71.459 L
369.029 71.347 L
369.029 71.236 L
369.029 71.124 L
369.029 71.013 L
369.029 70.901 L
369.029 70.79 L
369.029 70.678 L
369.029 70.567 L
369.029 70.456 L
369.029 70.344 L
369.029 70.233 L
369.029 70.121 L
369.029 70.01 L
369.029 69.898 L
369.029 69.787 L
369.029 69.675 L
369.029 69.564 L
369.029 69.452 L
369.029 69.341 L
369.029 69.23 L
369.029 69.118 L
369.029 69.007 L
369.029 68.895 L
369.029 68.784 L
369.029 68.672 L
369.029 68.561 L
369.029 68.449 L
369.029 68.338 L
369.029 68.226 L
369.029 68.115 L
369.029 68.004 L
369.029 67.892 L
369.029 67.781 L
375.675 67.669 L
375.675 67.558 L
375.675 67.446 L
375.675 67.335 L
375.675 67.223 L
375.675 67.112 L
375.675 67 L
375.675 66.889 L
375.675 66.777 L
375.675 66.666 L
375.675 66.555 L
375.675 66.443 L
375.675 66.332 L
375.675 66.22 L
375.675 66.109 L
375.675 65.997 L
375.675 65.886 L
375.675 65.774 L
375.675 65.663 L
375.675 65.551 L
375.675 65.44 L
375.675 65.329 L
375.675 65.217 L
375.675 65.106 L
375.675 64.994 L
375.675 64.883 L
375.675 64.771 L
375.675 64.66 L
375.675 64.548 L
375.675 64.437 L
375.675 64.325 L
375.675 64.214 L
375.675 64.103 L
375.675 63.991 L
375.675 63.88 L
375.675 63.768 L
375.675 63.657 L
375.675 63.545 L
375.675 63.434 L
375.675 63.322 L
375.675 63.211 L
375.675 63.099 L
375.675 62.988 L
375.675 62.877 L
375.675 62.765 L
375.675 62.654 L
375.675 62.542 L
375.675 62.431 L
375.675 62.319 L
375.675 62.208 L
375.675 62.096 L
375.675 61.985 L
375.675 61.873 L
375.675 61.762 L
375.675 61.65 L
375.675 61.539 L
375.675 61.428 L
375.675 61.316 L
375.675 61.205 L
375.675 61.093 L
375.675 60.982 L
375.675 60.87 L
375.675 60.759 L
375.675 60.647 L
375.675 60.536 L
375.675 60.424 L
375.675 60.313 L
375.675 60.202 L
375.675 60.09 L
375.675 59.979 L
375.675 59.867 L
375.675 59.756 L
375.675 59.644 L
375.675 59.533 L
375.675 59.421 L
375.675 59.31 L
375.675 59.198 L
375.675 59.087 L
375.675 58.976 L
375.675 58.864 L
375.675 58.753 L
375.675 58.641 L
375.675 58.53 L
375.675 58.418 L
375.675 58.307 L
375.675 58.195 L
375.675 58.084 L
375.675 57.972 L
375.675 57.861 L
375.675 57.75 L
375.675 57.638 L
375.675 57.527 L
375.675 57.415 L
375.675 57.304 L
375.675 57.192 L
375.675 57.081 L
375.675 56.969 L
375.675 56.858 L
375.675 56.746 L
375.675 56.635 L
375.675 56.523 L
375.675 56.412 L
375.675 56.301 L
375.675 56.189 L
375.675 56.078 L
375.675 55.966 L
375.675 55.855 L
375.675 55.743 L
375.675 55.632 L
375.675 55.52 L
375.675 55.409 L
375.675 55.297 L
375.675 55.186 L
375.675 55.075 L
375.675 54.963 L
375.675 54.852 L
375.675 54.74 L
375.675 54.629 L
375.675 54.517 L
375.675 54.406 L
375.675 54.294 L
375.675 54.183 L
375.675 54.071 L
375.675 53.96 L
375.675 53.849 L
375.675 53.737 L
375.675 53.626 L
381.863 53.514 L
381.863 53.403 L
381.863 53.291 L
381.863 53.18 L
381.863 53.068 L
381.863 52.957 L
381.863 52.845 L
381.863 52.734 L
381.863 52.623 L
381.863 52.511 L
381.863 52.4 L
381.863 52.288 L
381.863 52.177 L
381.863 52.065 L
381.863 51.954 L
381.863 51.842 L
381.863 51.731 L
381.863 51.619 L
381.863 51.508 L
381.863 51.397 L
381.863 51.285 L
381.863 51.174 L
381.863 51.062 L
381.863 50.951 L
381.863 50.839 L
381.863 50.728 L
381.863 50.616 L
381.863 50.505 L
381.863 50.393 L
381.863 50.282 L
381.863 50.17 L
381.863 50.059 L
381.863 49.948 L
381.863 49.836 L
381.863 49.725 L
381.863 49.613 L
381.863 49.502 L
381.863 49.39 L
381.863 49.279 L
381.863 49.167 L
387.651 49.056 L
387.651 48.944 L
387.651 48.833 L
387.651 48.722 L
387.651 48.61 L
387.651 48.499 L
387.651 48.387 L
387.651 48.276 L
387.651 48.164 L
387.651 48.053 L
387.651 47.941 L
387.651 47.83 L
387.651 47.718 L
387.651 47.607 L
387.651 47.496 L
387.651 47.384 L
387.651 47.273 L
387.651 47.161 L
387.651 47.05 L
387.651 46.938 L
387.651 46.827 L
387.651 46.715 L
387.651 46.604 L
393.088 46.492 L
393.088 46.381 L
393.088 46.27 L
393.088 46.158 L
393.088 46.047 L
393.088 45.935 L
393.088 45.824 L
393.088 45.712 L
393.088 45.601 L
398.214 45.489 L
398.214 45.378 L
398.214 45.266 L
398.214 45.155 L
398.214 45.043 L
398.214 44.932 L
398.214 44.821 L
398.214 44.709 L
398.214 44.598 L
403.063 44.486 L
403.063 44.375 L
403.063 44.263 L
403.063 44.152 L
407.663 44.04 L
407.663 43.929 L
407.663 43.817 L
407.663 43.706 L
407.663 43.595 L
407.663 43.483 L
407.663 43.372 L
407.663 43.26 L
407.663 43.149 L
407.663 43.037 L
407.663 42.926 L
407.663 42.814 L
407.663 42.703 L
407.663 42.591 L
407.663 42.48 L
407.663 42.369 L
407.663 42.257 L
407.663 42.146 L
407.663 42.034 L
407.663 41.923 L
407.663 41.811 L
407.663 41.7 L
407.663 41.588 L
407.663 41.477 L
407.663 41.365 L
407.663 41.254 L
407.663 41.143 L
407.663 41.031 L
412.038 40.92 L
412.038 40.808 L
412.038 40.697 L
412.038 40.585 L
412.038 40.474 L
412.038 40.362 L
412.038 40.251 L
412.038 40.139 L
412.038 40.028 L
412.038 39.917 L
412.038 39.805 L
412.038 39.694 L
412.038 39.582 L
412.038 39.471 L
412.038 39.359 L
412.038 39.248 L
412.038 39.136 L
412.038 39.025 L
412.038 38.913 L
412.038 38.802 L
412.038 38.69 L
416.21 38.579 L
416.21 38.468 L
416.21 38.356 L
416.21 38.245 L
416.21 38.133 L
416.21 38.022 L
420.197 37.91 L
424.014 37.799 L
427.675 37.687 L
427.675 37.576 L
431.192 37.464 L
431.192 37.353 L
431.192 37.242 L
431.192 37.13 L
434.577 37.019 L
434.577 36.907 L
434.577 36.796 L
434.577 36.684 L
437.838 36.573 L
437.838 36.461 L
440.985 36.35 L
440.985 36.238 L
444.026 36.127 L
452.573 36.016 L
455.25 35.904 L
462.834 35.793 L
486.176 35.681 L
486.176 35.57 L
493.355 35.458 L
496.739 35.347 L
521.285 35.235 L
537.425 35.124 L
540.536 35.012 L
541.549 34.901 L
543.542 34.79 L
571.292 34.678 L
572.012 34.567 L
572.727 34.455 L
573.435 34.344 L
573.435 34.232 L
574.837 34.121 L
574.837 34.009 L
574.837 33.898 L
575.529 33.786 L
575.529 33.675 L
576.216 33.563 L
576.216 33.452 L
697.23 33.341 L
699.336 33.229 L
703.405 33.118 L
703.736 33.006 L
703.736 32.895 L
703.901 32.783 L
704.066 32.672 L
704.066 32.56 L
704.558 32.449 L
704.722 32.337 L
704.722 32.226 L
704.885 32.115 L
709.183 32.003 L
709.648 31.892 L
709.802 31.78 L
709.957 31.669 L
709.957 31.557 L
710.111 31.446 L
710.111 31.334 L
710.418 31.223 L
710.418 31.111 L
710.876 31 L
S
GR
GS
[0.75 0 0 0.75 0 0] CT
0 1 0 RC
2 LJ
4 LW
N
733.296 318 M
739.158 314.701 L
744.346 311.402 L
748.951 308.103 L
749.051 304.805 L
749.051 301.506 L
749.051 298.207 L
749.051 294.908 L
749.051 291.609 L
749.051 288.31 L
749.051 285.012 L
749.051 281.713 L
749.051 278.414 L
749.051 275.115 L
749.051 271.816 L
749.051 268.517 L
749.051 265.218 L
749.051 261.92 L
749.051 258.621 L
749.051 255.322 L
749.051 252.023 L
749.051 248.724 L
749.051 245.425 L
749.051 242.126 L
749.051 238.828 L
749.051 235.529 L
749.051 232.23 L
749.051 228.931 L
749.051 225.632 L
749.051 222.333 L
749.051 219.034 L
749.051 215.736 L
749.051 212.437 L
749.051 209.138 L
749.051 205.839 L
749.051 202.54 L
749.051 199.241 L
749.051 195.943 L
749.051 192.644 L
749.051 189.345 L
749.051 186.046 L
749.051 182.747 L
749.051 179.448 L
749.051 176.149 L
749.051 172.851 L
749.051 169.552 L
749.051 166.253 L
749.051 162.954 L
749.051 159.655 L
749.051 156.356 L
S
GR
GS
[0.75 0 0 0.75 0 0] CT
0 1 0 RC
2 LJ
4 LW
N
749.051 156.356 M
749.051 153.057 L
749.051 149.759 L
749.051 146.46 L
749.051 143.161 L
749.051 139.862 L
749.051 136.563 L
749.051 133.264 L
749.051 129.966 L
749.051 126.667 L
749.051 123.368 L
749.051 120.069 L
749.051 116.77 L
774.851 113.471 L
774.851 110.172 L
774.851 106.874 L
774.851 103.575 L
774.851 100.276 L
774.851 96.977 L
774.851 93.678 L
774.851 90.379 L
774.851 87.08 L
774.851 83.782 L
774.851 80.483 L
774.851 77.184 L
774.851 73.885 L
774.851 70.586 L
774.851 67.287 L
774.851 63.989 L
774.851 60.69 L
774.851 57.391 L
774.851 54.092 L
774.851 50.793 L
774.851 47.494 L
774.851 44.195 L
774.851 40.897 L
794.863 37.598 L
825.038 34.299 L
825.038 31 L
S
GR
GS
[0.75 0 0 0.75 0 0] CT
1 GC
N
793 293 M
793 137 L
995 137 L
995 293 L
cp
f
GR
GS
[0.75 0 0 0.75 633.75 118.69313] CT
/Helvetica 29 F
GS
[1 0 0 1 0 0] CT
0 11.5 moveto 
1 -1 scale
(Same LB) t 
GR
GR
GS
[0.75 0 0 0.75 0 0] CT
[16 4 8 4] 0 setdash
2 LJ
4 LW
N
801 158.258 M
841 158.258 L
S
GR
GS
[0.75 0 0 0.75 633.75 147.06438] CT
/Helvetica 29 F
GS
[1 0 0 1 0 0] CT
0 11.5 moveto 
1 -1 scale
(Same DC) t 
GR
GR
GS
[0.75 0 0 0.75 0 0] CT
0 0 1 RC
[4 4] 0 setdash
2 LJ
4 LW
N
801 196.086 M
841 196.086 L
S
GR
GS
[0.75 0 0 0.75 633.75 175.43563] CT
/Helvetica 29 F
GS
[1 0 0 1 0 0] CT
0 11.5 moveto 
1 -1 scale
(Other DC) t 
GR
GR
GS
[0.75 0 0 0.75 0 0] CT
1 0 0 RC
[16 16] 0 setdash
2 LJ
4 LW
N
801 233.914 M
841 233.914 L
S
GR
GS
[0.75 0 0 0.75 633.75 203.80687] CT
/Helvetica 29 F
GS
[1 0 0 1 0 0] CT
0 11.5 moveto 
1 -1 scale
(World-wide) t 
GR
GR
GS
[0.75 0 0 0.75 0 0] CT
0 1 0 RC
2 setlinecap
10.0 ML
4 LW
N
801 271.742 M
841 271.742 L
S
GR
GS
[0.75 0 0 0.75 0 0] CT
0.149 GC
2 setlinecap
10.0 ML
N
793 293 M
793 137 L
995 137 L
995 293 L
793 293 L
S
GR
%%Trailer
%%Pages: 1
%%EOF
